[
  {
    "id": 1696997,
    "title": "Вікіпедія:Вікізустрічі/143",
    "text": "Час: 10:00—13:00.",
    "timestamp": "2014-05-12T16:15:06Z"
  },
  {
    "id": 1697000,
    "title": "Прапор Токмацького району",
    "text": "Пра́пор Токма́цького райо́ну — офіційний символ Токмацького району Запорізької області, затверджений 6 листопада 2002 року рішенням сесії Токмацької районної ради.",
    "timestamp": "2014-05-18T22:15:36Z"
  },
  {
    "id": 1697016,
    "title": "Сумбава (округ)",
    "text": "Сумба́ва (Template:lang-id) — один з 8 округів у складі провінції Західна Південно-Східна Нуса у складі Індонезії. Розташована у центральній частині острова Сумбава. Адміністративний центр — селище Секетенг у районі Сумбава.",
    "timestamp": "2014-06-04T12:40:56Z"
  },
  {
    "id": 1697024,
    "title": "AMule",
    "text": "aMule - клієнт файлообмінної мережі eDonkey2000. Розроблено на основі xMule, що є відгалуженням lMule, який, у свою чергу, був результатом перенесення eMule на Linux в січні 2003.",
    "timestamp": "2018-09-02T20:54:02Z"
  },
  {
    "id": 1697032,
    "title": "Крута Джорджія",
    "text": "«Крута Джорджія» (Template:lang-en) — американський художній фільм Гаррі Маршалла, що вийшов у 2007 року. Головна тема фільму — взаємини між поколіннями, абсолютно різними і несхожими один на одного: дочка, мати і бабуся, у кожної з яких свої погляди і життєві позиції.",
    "timestamp": "2018-01-10T19:50:14Z"
  },
  {
    "id": 1697038,
    "title": "Тростянецька селищна рада",
    "text": "Тростяне́цька се́лищна ра́да — адміністративно-територіальна одиниця та орган місцевого самоврядування у Тростянецькому районі Вінницької області. Адміністративний центр — селище міського типу Тростянець.",
    "timestamp": "2015-10-14T16:33:02Z"
  },
  {
    "id": 1697039,
    "title": "Генгело",
    "text": "Генгело (Template:lang-nl) — місто і громада в Нідерландах в провінції Оверейсел, розташоване у східній частині країни на кордоні з Німеччиною, біля Енсхеде.",
    "timestamp": "2018-03-31T03:39:41Z"
  },
  {
    "id": 1697041,
    "title": "Рамакрішна",
    "text": "Рамакрішна Парамахамса (ім'я при народженні — Гададхар Чаттопадх'яй, Template:lang-bn; Template:н 18 лютого 1836, Камарпукур, Бенгалія — Template:† 16 серпня 1886, Калькутта) — індійський гуру, реформатор індуїзму, містик, проповідник.",
    "timestamp": "2018-10-11T19:39:57Z"
  },
  {
    "id": 1697059,
    "title": "Андріївський ліс",
    "text": "Андрі́ївський ліс (також відомий як Макаренський сад) — лісовий заказник місцевого значення. До заказника належать залишки панського парку у вигині річки Гайчур, біля північної околиці села Андріївка. Назва Макаренський сад — в честь його засновника Андрія Макаренка, чия садиба колись тут розташовувалася.",
    "timestamp": "2017-12-09T11:11:50Z"
  },
  {
    "id": 1697065,
    "title": "Спокусник (фільм, 2011)",
    "text": "«Спокусник» (Template:lang-de, от Template:lang-fr — Півень у вині) — німецька комедія режисера Тіля Швайґера. Прем'єра в Україні пройшла 8 вересня 2011 року.",
    "timestamp": "2018-06-23T07:03:21Z"
  },
  {
    "id": 1697071,
    "title": "Delta Air Lines",
    "text": "Delta Air Lines, Inc. (Template:lang-ru), (Template:NYSE) — авіакомпанія Сполучених Штатів АмерикиTemplate:cite web зі штаб-квартирою в Атланті, штат Джорджія.«Zoning Ordinance of Atlanta, Georgia Sheet No. 14-128.» Atlanta. Одна з чотирьох компаній-засновників авіаційного альянсу пасажирських перевезень SkyTeam. Одна з найбільших авіакомпаній США і світу.",
    "timestamp": "2018-04-26T20:47:05Z"
  },
  {
    "id": 1697076,
    "title": "Луньюк",
    "text": "Лунью́к (Template:lang-id) — один з 24 районів округу Сумбава провінції Західна Південно-Східна Нуса у складі Індонезії. Розташований у південно-західній частині. Адміністративний центр — село Секотонг-Тенгах.",
    "timestamp": "2014-05-22T17:57:29Z"
  },
  {
    "id": 1697081,
    "title": "Усі",
    "text": "Усі (Template:Lang-zh) — міський округ в китайській провінції Цзянсу, що у низов'ях річки Янцзи. Назва міста перекладається на українську мову як «немає олова», а до того як олов'яні рудники були вироблені, він називався Юсі, що означає «є олово».",
    "timestamp": "2018-10-09T00:46:05Z"
  },
  {
    "id": 1697085,
    "title": "Катюша (пісня)",
    "text": "Катю́ша — популярна радянська пісня. Автор музики — Матвій Блантер, автор слів — Михайло Ісаковський. Російською мовою вперше виконана 27 листопада 1938 року Валентиною Батищевою в Колонному залі Template:нп під акомпанемент оркестру Template:нпГазета «Городок» № 46.",
    "timestamp": "2018-08-30T21:48:56Z"
  },
  {
    "id": 1697086,
    "title": "Сума Чакрабарті",
    "text": "Сума Чакрабарті (Template:lang-en; Template:н 1959, Західна Бенгалія, Індія) — 6-й Президент Європейського банку реконструкції та розвитку (ЄБРР). Рада керуючих Банку обрала С. Чакрабарті на посаду Президента ЄБРР на чотирирічний термін (з 3 липня 2012), а в травні 2016 року переобрала на другий чотирирічний термін. На цій посаді він змінив Томаса Мірова, який займав її з 2008 року.",
    "timestamp": "2018-01-12T04:15:51Z"
  },
  {
    "id": 1697090,
    "title": "Тульчинська міська рада",
    "text": "Тульчи́нська міська́ ра́да — адміністративно-територіальна одиниця та орган місцевого самоврядування в Тульчинському районі Вінницької області. Адміністративний центр — місто Тульчин.",
    "timestamp": "2017-04-11T20:08:41Z"
  },
  {
    "id": 1697091,
    "title": "Вибухи в Лондоні 7 липня 2005 року",
    "text": "Вибухи у Лондоні 7 липня 2005 року — серія терористичних атак у громадському транспорті Лондона, скоєна 4 терористами-смертниками вранці 7 липня 2005 року. Внаслідок дій терористів загинули 52 особи, понад 700 людей дістали поранення різного ступеня важкостіTemplate:cite web.",
    "timestamp": "2017-07-19T18:18:17Z"
  },
  {
    "id": 1697094,
    "title": "Оронг-Телу",
    "text": "Оро́нг-Телу́ (Template:lang-id) — один з 24 районів округу Сумбава провінції Західна Південно-Східна Нуса у складі Індонезії. Розташований у центрально-західній частині. Адміністративний центр — село Себеок.",
    "timestamp": "2014-05-22T17:57:31Z"
  },
  {
    "id": 1697095,
    "title": "Кирнасівська селищна рада",
    "text": "Кирна́сівська се́лищна ра́да — адміністративно-територіальна одиниця та орган місцевого самоврядування в Тульчинському районі Вінницької області. Адміністративний центр — селище міського типу Кирнасівка.",
    "timestamp": "2015-10-14T16:57:48Z"
  },
  {
    "id": 1697096,
    "title": "Гелен Гейс",
    "text": "Гелен Гейс (Template:lang-en; *10 жовтня 1900, Вашингтон — †17 березня 1993, Найак, Нью-Йорк) — американська акторка, разом з подругою Кетрін Корнел носила звання «Перша леді американського театру». Володіє рекордом тривалості строку між присудженням премії «Оскар» — 38 років.",
    "timestamp": "2018-09-04T04:47:58Z"
  },
  {
    "id": 1697097,
    "title": "Алас",
    "text": "Ала́с (Template:lang-id) — один з 24 районів округу Сумбава провінції Західна Південно-Східна Нуса у складі Індонезії. Розташований у західній частині. Адміністративний центр — селище Лабухан-Алас.",
    "timestamp": "2014-05-22T17:57:35Z"
  },
  {
    "id": 1697099,
    "title": "Бернард (галицький єпископ РКЦ)",
    "text": "Бернард (? — наприкінці 1390 / початок 1391) — релігійний діяч, галицький архієпископ РКЦ.",
    "timestamp": "2018-05-20T09:45:30Z"
  },
  {
    "id": 1697118,
    "title": "Шпиківська селищна рада",
    "text": "Шпи́ківська се́лищна ра́да — адміністративно-територіальна одиниця та орган місцевого самоврядування в Тульчинському районі Вінницької області. Адміністративний центр — селище міського типу Шпиків.",
    "timestamp": "2015-10-14T17:01:22Z"
  },
  {
    "id": 1697128,
    "title": "Універсальні рекурсивні функції",
    "text": "Теорема 1. Для всіх n=1,2,\\dots системи всіх n-місних примітивно-рекурсивних функцій не містить примітивно-рекурсивної універсальної функції.",
    "timestamp": "2016-06-17T03:03:58Z"
  },
  {
    "id": 1697130,
    "title": "Марджанішвілі (станція метро)",
    "text": "Марджанішвілі(Template:lang-ka) — станція Ахметелі-Варкетільської лінії Тбіліського метрополітену, розташовується між станціями Садгуріс моедані-1 і Руставелі.",
    "timestamp": "2018-01-01T08:59:24Z"
  },
  {
    "id": 1697131,
    "title": "Західний Алас",
    "text": "Західний Ала́с (Template:lang-id) — один з 24 районів округу Сумбава провінції Західна Південно-Східна Нуса у складі Індонезії. Розташований у західній частині. Адміністративний центр — село Лабухан-Алас.",
    "timestamp": "2014-05-22T17:57:37Z"
  },
  {
    "id": 1697133,
    "title": "Як розбудити Сплячу красуню",
    "text": "«Як розбудити Сплячу красуню» — кінофільм режисера Дона Хана, що вийшов на екрани в 2009 році.",
    "timestamp": "2016-05-13T14:15:37Z"
  },
  {
    "id": 1697135,
    "title": "Poupée de cire, poupée de son",
    "text": "Poupée de cire, poupée de son (Template:lang-uk) — переможна пісня конкурсу Євробачення-1965, виконана французькою співачкою Франс Галль, що представляла Люксембург.",
    "timestamp": "2018-06-27T20:52:36Z"
  },
  {
    "id": 1697136,
    "title": "Satellite",
    "text": "«Satellite» (Template:lang-uk) — пісня у виконанні німецької співачки Лєни Майєр-Ландрут, з якою вона здобула перемогу на конкурсі пісні «Євробачення 2010»«Lena siegt in Oslo»«Germany's Eurovision 2010 Song: 'Satellite' by Lena Meyer-Landrut», який пройшов 29 травня 2010 в Осло, Норвегія. Авторами пісні є Джулі Фрост і Джон Гордон.",
    "timestamp": "2015-04-30T07:32:06Z"
  },
  {
    "id": 1697138,
    "title": "Інститут права",
    "text": "Інститу́т пра́ва — система відносно відокремлених від інших і пов'язаних між собою правових норм, які регулюють певну групу (вид) однорідних суспільних відносин. Інститути права — необхідна ланка в цілісній системі права. Як правило, кожна галузь права має інститути права як свій самостійний структурний підрозділ.",
    "timestamp": "2017-01-12T10:27:57Z"
  },
  {
    "id": 1697140,
    "title": "Ганнопільська сільська рада (Тульчинський район)",
    "text": "Ганнопільська сільська рада — колишній орган місцевого самоврядування у Тульчинському районі Вінницької області з адміністративним центром у с. Ганнопіль.",
    "timestamp": "2018-04-13T12:11:53Z"
  },
  {
    "id": 1697143,
    "title": "Дранська сільська рада",
    "text": "Дранська сільська рада — колишній орган місцевого самоврядування у Тульчинському районі Вінницької області з адміністративним центром у с. Дранка.",
    "timestamp": "2018-04-11T12:49:17Z"
  },
  {
    "id": 1697150,
    "title": "Кинашівська сільська рада",
    "text": "Кинашівська сільська рада — орган місцевого самоврядування у Тульчинському районі Вінницької області з адміністративним центром у с. Кинашів.",
    "timestamp": "2014-12-17T01:42:44Z"
  },
  {
    "id": 1697156,
    "title": "Евансвіл",
    "text": "Евансвіл (Template:lang-en) — місто у США, штат Індіана. Населення (на 2012 рік) становить 120 235 осіб. Місто розташоване вздовж річки Огайо. Третє за числом мешканців місто штату. Важливий комерційний та культурний центр. Центр округу Вандерберг.",
    "timestamp": "2016-09-06T01:07:42Z"
  },
  {
    "id": 1697159,
    "title": "Буєр (район)",
    "text": "Бує́р (Template:lang-id) — один з 24 районів округу Сумбава провінції Західна Південно-Східна Нуса у складі Індонезії. Розташований у західній частині. Адміністративний центр — селище Пулау-Каунг.",
    "timestamp": "2014-05-22T17:57:39Z"
  },
  {
    "id": 1697164,
    "title": "Березово-Вишневський заказник",
    "text": "Березово-Вишневський — ландшафтний заказник місцевого значення басейно-річкового типу.",
    "timestamp": "2018-04-16T10:44:48Z"
  },
  {
    "id": 1697167,
    "title": "Утан",
    "text": "Ута́н (Template:lang-id) — один з 24 районів округу Сумбава провінції Західна Південно-Східна Нуса у складі Індонезії. Розташований у північно-західній частині. Адміністративний центр — селище Мотонг.",
    "timestamp": "2014-05-22T17:57:41Z"
  },
  {
    "id": 1697169,
    "title": "Марн-ла-Валле",
    "text": "Марн-ла-Валле́ — «нове місто» у Франції, розташоване у регіоні Іль-де-Франс на схід від Парижа. Створення «нового міста» розпочалося в 1965 році, і нині Марн-ла-Валле охоплює 15 000 гектарів і включає до себе 26 муніципалітетів у 3 департаментах: Сена і Марна Сена-Сен-Дені, Валь-де-Марн.",
    "timestamp": "2014-06-22T15:53:56Z"
  },
  {
    "id": 1697176,
    "title": "Вибори в Європейський парламент 2014 (Греція)",
    "text": "Вибори до Європейського парламенту в Греції відбудуться 25 травня 2014 одночасно з місцевими виборамиTemplate:cite web. Буде обрано грецьку делегацію в Європарламенті із 21 депутата.",
    "timestamp": "2017-04-11T13:15:48Z"
  },
  {
    "id": 1697184,
    "title": "Brosix",
    "text": "Brosix (попередня назва - Brosix Corporate Instant Messenger) - це безпечна програма миттєвого обміну повідомленнями, призначена для того, щоб допомогти користувачам зв'язуватися один з однимBrosix Corporate Instant Messenger 1.9.2 Build 080305 (Windows) | TechRepublicowninstantmessenger.com. У ній використовується 256-розрядне шифрування AES для шифрування повідомлень, що забезпечує їх безпекуSearch on : brosix | ZDNetBrosix Instant Messenger: An Overview | BigBlueBall.",
    "timestamp": "2016-05-15T18:09:16Z"
  },
  {
    "id": 1697190,
    "title": "Наяда (супутник)",
    "text": "Наяда (Template:lang-grc) — внутрішній супутник планети Нептун.",
    "timestamp": "2018-04-09T12:03:57Z"
  },
  {
    "id": 1697196,
    "title": "Under Armour",
    "text": "Under Armour, Inc. – американська компанія з виробництва спортивного одягу та аксесуарів. Окрім товарів спортивного призначення компанія випускає одяг в стилі кежуeл. У 2006 році також було налагоджено виробництво взуття. Головний офіс підприємства знаходиться в місті Балтимор, штат Мериленд. Європейський офіс знаходиться в Олімпійському стадіоні Амстердама. Також є відділення у Денвері, Гонконгу, Гуанчжоу (Китай), Джакарті та Торонто.",
    "timestamp": "2018-02-07T18:41:20Z"
  },
  {
    "id": 1697214,
    "title": "Грір Гарсон",
    "text": "Ейлін Евелін Грір Гарсон (Template:lang-en; 29 вересня 1904 — 6 квітня 1996) — британська актриса, одна з зірок «MGM» 1940-х років.",
    "timestamp": "2017-09-19T17:27:26Z"
  },
  {
    "id": 1697218,
    "title": "Чоловічий сезон: Оксамитова революція",
    "text": "«Чоловічий сезон: Оксамитова революція» — кінофільм режисера Олега Степченко, що вийшов на екрани в 2005 році.",
    "timestamp": "2016-05-11T21:25:48Z"
  },
  {
    "id": 1697220,
    "title": "Кризаліс",
    "text": "«Кризаліс» (Template:lang-fr) — французький фантастичний фільм режисера Жульєна Леклерка. Фільм вийшов в прокат у Франції 31 жовтня 2007 року.",
    "timestamp": "2018-03-01T15:42:05Z"
  },
  {
    "id": 1697230,
    "title": "Роберт Боун Мінтерн",
    "text": "Роберт Боун Мінтерн (Template:lang-en) (16 листопада 1805 року, Нью-Йорк  — 9 січня 1866 року, Нью-Йорк ) - американський підприємець і судновласник. В наші часи більш відомий, як один із колишніх власників славетного вітрильного кліперу Flying Cloud.",
    "timestamp": "2018-04-16T10:20:18Z"
  },
  {
    "id": 1697235,
    "title": "Visicom Maps",
    "text": "Візіком Карти (Template:lang-en) - онлайновий картографічний сервіс. Проект розробляється компанією Візіком. Сервіс надає докладну карту України і більше 1200 міст з адресною частиною. Доступний за адресою maps.visicom.ua.",
    "timestamp": "2017-10-09T08:43:19Z"
  },
  {
    "id": 1697236,
    "title": "Потапенко Володимир Дмитрович",
    "text": "Володи́мир Дми́трович Пота́пенко (* 29 лютого 1968 року, Кіровоград) — відомий український колекціонер-ніковіліст.",
    "timestamp": "2018-10-02T19:27:30Z"
  },
  {
    "id": 1697237,
    "title": "Лабораторія Zillya!",
    "text": "«Лабораторія Zillya!» — українська антивірусна лабораторія з центральним офісом в Києві, що спеціалізується на розробці антивірусного програмного забезпечення для ПК на базі операційних систем Microsoft Windows та мобільних пристроїв на базі ОС AndroidTemplate:Cite web.",
    "timestamp": "2017-05-25T08:01:21Z"
  },
  {
    "id": 1697238,
    "title": "Бекасі",
    "text": "Бекасі (Template:lang-id) — місто у Індонезії, провінція Західна Ява. Населення (на 2010 рік) становить 2 378 211 осіб. Місто-супутник Джакарти.",
    "timestamp": "2017-09-23T13:43:48Z"
  },
  {
    "id": 1697241,
    "title": "Історія дивного підлітка",
    "text": "«Історія дивного підлітка» (Template:lang-en) — американський драматичний фільм 2009 року.",
    "timestamp": "2017-11-16T07:48:23Z"
  },
  {
    "id": 1697242,
    "title": "Державна інспекція сільського господарства України",
    "text": "Державна інспекція сільського господарства України (Держсільгоспінспекція України) — центральний орган виконавчої влади, діяльність якого спрямовується і координується Кабінетом Міністрів України через Міністра аграрної політики та продовольства України, входить до системи органів виконавчої влади і забезпечує реалізацію державної політики у сфері нагляду (контролю) в агропромисловому комплексі.",
    "timestamp": "2015-08-02T15:34:07Z"
  },
  {
    "id": 1697243,
    "title": "Яків (Яцько) Скидан",
    "text": "Скидан Яків (Яцько) Пилипович (? — 1664) — козак Іркліївської сотні Кропивненського полку (1649), полковник сосницький (1663–1664).",
    "timestamp": "2016-05-13T14:16:00Z"
  },
  {
    "id": 1697244,
    "title": "Овчинников Андрій Олександрович",
    "text": "Андрій Олександрович Овчинников (1 травня 1961, Ангарськ) — український і радянський хокеїст, а згодом тренер.",
    "timestamp": "2017-01-01T08:00:13Z"
  },
  {
    "id": 1697245,
    "title": "Живиця Георгій Володимирович",
    "text": "Георгій Володимирович Живиця (1 липня 1937, Тбілісі — 26 грудня 2015) — український військовик. Генерал-лейтенант. В.о. Начальника Головного штабу Збройних Сил України (23.12.1991 — 04.06.1992). Перший заступник Міністра оборони України (23.12.1991 — 01.08.1993).",
    "timestamp": "2017-01-08T22:38:28Z"
  },
  {
    "id": 1697248,
    "title": "Шикотан",
    "text": "Шикотан　(Template:lang-ja Сікотан-то:) — один з великих островів у складі Курильських островів. Це один з чотирьох південних островів, стосовно яких Японія тримає позов. Це один з островів, які Радянський Союз готовий був передати Японії в 1956 році у разі укладання мирного договору між двома країнами (договір так і не був укладений).",
    "timestamp": "2018-08-21T05:08:29Z"
  },
  {
    "id": 1697251,
    "title": "Джейн Вайман",
    "text": "Джейн Вайман (Template:lang-en, 5 січня 1917 — 10 вересня 2007) — американська актриса, співачка та танцівниця, лауреат премії «Оскар» за найкращу жіночу роль у фільмі «Джонні Белінда» (1948). Її кар'єра почалась у 1930-х роках та успішно продовжувалась протягом двох десятиліть. Згодом почала зніматися на телебаченні.",
    "timestamp": "2018-05-24T14:54:46Z"
  },
  {
    "id": 1697255,
    "title": "Порицька сільська рада",
    "text": "Порицька сільська рада — орган місцевого самоврядування у Хмільницькому районі Вінницької області з адміністративним центром у с. Порик.",
    "timestamp": "2014-12-17T02:30:52Z"
  },
  {
    "id": 1697259,
    "title": "П'єзокераміка",
    "text": "П'єзокераміка (Template:lang-en, Template:lang-ru) — група штучних матеріалів, що має п'єзоелектричні та сегнетоелектричні властивості.",
    "timestamp": "2018-03-18T13:13:46Z"
  },
  {
    "id": 1697260,
    "title": "Центральна дитяча бібліотека Нікополя",
    "text": "'Центральна дитяча бібліотека Нікополя (Нікопольська ЦДБ) — найбільша дитяча бібліотека в місті Нікополь Дніпропетровської області України. Знаходиться в історичному центрі міста.",
    "timestamp": "2014-11-16T15:20:21Z"
  },
  {
    "id": 1697261,
    "title": "Список членів Шведської королівської академії наук",
    "text": "Спи́сок чле́нів Шве́дської королі́вської акаде́мії нау́к складено за роками обрання і за порядковим номером членів академії. Імена, прізвища та порядкові номери іноземних членів подано курсивом. Імена, прізвища та порядкові номери членів-кореспондентів подано курсивом, а перед номером проставлено K. У почесних членів немає членських номерів.",
    "timestamp": "2018-09-16T21:02:18Z"
  },
  {
    "id": 1697262,
    "title": "Танкова дивізія «Ютербог»",
    "text": "Танкова дивізія «Ютербог» (Template:lang-de) — танкова дивізія вермахту, створена з частин, які навчалися на танкової базі під Ютербогом. Командиром був призначений генерал-лейтенант Дітріх фон Мюллер. Через кілька днів після формування дивізія «Ютербог» була включена до складу 16-ї танкової дивізії.",
    "timestamp": "2018-05-09T07:37:16Z"
  },
  {
    "id": 1697263,
    "title": "Пальчук Микола Миколайович",
    "text": "Микола Миколайович Пальчук (27 травня 1945, Дніпропетровська область) — український військовик. Генерал-лейтенантУКАЗ ПРЕЗИДЕНТА УКРАЇНИ 21 серпня 1997 року N 880/97 Про присвоєння військових звань. Т.в.о. Начальника Генерального штабу Збройних Сил України (13.11.2001-27.11.2001) та (27.07.2002-13.08.2002). Перший заступник начальника Генерального штабу Збройних Сил України (2000–2003). Кандидат військових наук. Доцент.",
    "timestamp": "2017-10-05T10:15:41Z"
  },
  {
    "id": 1697264,
    "title": "Йохай Бін-Нун",
    "text": "Йохай Бін-Нун (Фішман) (Template:Lang-he; Template:ДН — Template:ДС) — ізраїльський військовик, один із засновників ізраїльського спецназу й командувач Військово-морськими силами Ізраїлю у званні «алуф». Герой Ізраїлю.",
    "timestamp": "2017-11-18T22:39:15Z"
  },
  {
    "id": 1697281,
    "title": "Тавісуплебіс моедані (станція метро)",
    "text": "Тавісуплебіс моедані (Template:lang-ka \"Площа Свободи\"), колишня «Ленініс моедані» (Template:lang-ka, «Площа Ленsна»)) — станція Ахметелі-Варкетільської лінії Тбіліського метрополітену, розташовується між станціями «Руставелі» і «Авлабарі».",
    "timestamp": "2016-02-28T13:45:20Z"
  },
  {
    "id": 1697286,
    "title": "Bryceomys",
    "text": "Bryceomys — рід викопних ссавців ряду Багатогорбкозубі (Multituberculata), що існував у крейдяному періоді у Північній Америці. Описано три види, скам'янілості яких знайдені на території штату Юта у США. Голотип знаходиться у Оклахомському музеї природничої історії Сем Ноубла (Sam Noble Oklahoma Museum of Natural History). Тварина була розміром з хатню мишу і важила до 90 г.",
    "timestamp": "2015-12-11T16:25:25Z"
  },
  {
    "id": 1697297,
    "title": "Гедеон Балабан (архимандрит)",
    "text": "Гедеон (Григорій) Балабан  гербу Корчак (Template:† 1617/1618) — руський (український) православний релігійний діяч. Архімандрит Жидичинського монастиря.",
    "timestamp": "2017-08-01T11:59:09Z"
  },
  {
    "id": 1697299,
    "title": "Змотуй вудки",
    "text": "«Змотуй вудки» — кінофільм режисера Олега Степченко, що вийшов на екрани в 2004 році.",
    "timestamp": "2016-05-11T21:25:49Z"
  },
  {
    "id": 1697307,
    "title": "Авлабарі (станція метро)",
    "text": "«Авлабарі» ( (Template:lang-ka)) колишня \"26 Комісарі» (Template:lang-ka — 26 Комісарів) — станція Ахметелі-Варкетільської лінії Тбіліського метрополітену, розташовується між станціями Тавісуплебіс моедані і 300 Арагвелі.",
    "timestamp": "2016-02-28T13:46:55Z"
  },
  {
    "id": 1697314,
    "title": "Воронівський заказник",
    "text": "Вороні́вський — ландшафтний заказник місцевого значення. До заказника належить долина річки Вороної (ліва притока Вовчої) та декілька її балок-приток. Заказник зі сходу межує з Донецькою областю.",
    "timestamp": "2016-06-19T19:51:47Z"
  },
  {
    "id": 1697319,
    "title": "Царик Йосиф Володимирович",
    "text": "Йосиф Володимирович Царик (4 вересня 1946, село Руда-Колтівська Золочівського району Львівської області)  — академік Лісівничої академії наук УкраїниРеєстр дійсних членів (академіків) ЛАНУ., дійсний член Української екологічної академії наук, завідувач кафедри зоології Львівського національного університету імені Івана Франка, завідувач відділу популяційної екології Інституту екології Карпат НАН України, доктор біологічних наук, професор.",
    "timestamp": "2018-03-25T04:25:50Z"
  },
  {
    "id": 1697322,
    "title": "Моївська сільська рада",
    "text": "Моївська сільська рада — орган місцевого самоврядування у Чернівецькому районі Вінницької області з адміністративним центром у с. Моївка.",
    "timestamp": "2016-02-19T06:40:43Z"
  },
  {
    "id": 1697324,
    "title": "Рідкий азот",
    "text": "Рідкий азот (Template:lang-en) — рідина прозорого кольору, є азотом у рідкому стані при надзвичайно низькій температурі. Рідкий азот має питому густину 0,808 г/см³, точна точка кипіння складає 77,4 K (-195,75 °C). Не вибухонебезпечний і не отруйний. Вперше був отриманий швейцарським фізиком Раулем Пікте.",
    "timestamp": "2016-12-18T06:08:31Z"
  },
  {
    "id": 1697329,
    "title": "Рхеє (район)",
    "text": "Рхе́є (Template:lang-id) — один з 24 районів округу Сумбава провінції Західна Південно-Східна Нуса у складі Індонезії. Розташований у північно-західній частині. Адміністративний центр — село Рхеє.",
    "timestamp": "2014-05-22T17:57:43Z"
  },
  {
    "id": 1697331,
    "title": "Полтергей (фільм)",
    "text": "«Полтергей» (Template:lang-en) — французька фентезійна кінокомедія режисера і сценариста Еріка Лавена, що вийшла на екрани у 2006 році.",
    "timestamp": "2017-10-16T12:22:12Z"
  },
  {
    "id": 1697336,
    "title": "Шендерівська сільська рада (Чернівецький район)",
    "text": "Шендерівська сільська рада — орган місцевого самоврядування у Чернівецькому районі Вінницької області з центром у с. Шендерівка.",
    "timestamp": "2018-03-04T14:07:00Z"
  },
  {
    "id": 1697338,
    "title": "Наджиб Разак",
    "text": "Мохд Наджіб бін Тун Хаджі Абдул Разак (Template:lang-ms; Template:н Template:ДН, Куала-Лумпур) — малайзійський політик, прем'єр-міністр Малайзії 3 квітня 2009 — 10 травня 2018, голова партії Об'єднана малайська національна організація з 26 березня 2009.",
    "timestamp": "2018-05-11T03:28:19Z"
  },
  {
    "id": 1697340,
    "title": "Чернівецька селищна рада",
    "text": "Черніве́цька се́лищна ра́да — адміністративно-територіальна одиниця та орган місцевого самоврядування в Чернівецькому районі Вінницької області. Адміністративний центр — селище міського типу Чернівці.",
    "timestamp": "2016-04-09T14:37:57Z"
  },
  {
    "id": 1697349,
    "title": "Раян Філліпп",
    "text": "Меттью Раян Філліпп (Template:lang-en, Template:н 10 вересня 1974, Ньюкасл, Делавер, США) — американський актор.",
    "timestamp": "2018-08-15T11:35:29Z"
  },
  {
    "id": 1697351,
    "title": "Crampie",
    "text": "Пиріжок/Тістечко (Template:lang-en) — бара-манґа, написана манґака під псевдоніном «Ментайко», де дії відбуваються у сучасній Японії.",
    "timestamp": "2016-06-28T13:20:24Z"
  },
  {
    "id": 1697352,
    "title": "Родеріх Бенедікс",
    "text": "Юліус Родеріх Бенедікс (Template:lang-de) ; 21 січня 1811, Тале (Thale), Лейпціг — 26 вересня 1873, Айзенах — німецький драматург, актор, режисер 19-го століття.",
    "timestamp": "2018-06-27T05:47:39Z"
  },
  {
    "id": 1697353,
    "title": "Бондурівська сільська рада (Чечельницький район)",
    "text": "Бондурівська сільська рада — орган місцевого самоврядування у Чечельницькому районі Вінницької області з центром у с. Бондурівка.",
    "timestamp": "2014-12-17T01:01:06Z"
  },
  {
    "id": 1697355,
    "title": "Людвіґ Байсснер",
    "text": "Людвіґ Байсснер (Template:lang-deDNB, Katalog der Deutschen Nationalbibliothek: Ludwig BeissnerEin Garten mit Geschichte: Die Wegenamen im Botanischen Garten Bonn, 6 липня 1843 — 21 грудня 1927) — німецький ботанік та дендролог.",
    "timestamp": "2015-09-12T08:51:09Z"
  },
  {
    "id": 1697357,
    "title": "Батулантех",
    "text": "Батуланте́х (Template:lang-id) — один з 24 районів округу Сумбава провінції Західна Південно-Східна Нуса у складі Індонезії. Розташований у центрально-західній частині. Адміністративний центр — село Батуроток.",
    "timestamp": "2014-05-22T17:57:45Z"
  },
  {
    "id": 1697359,
    "title": "Slove. Прямо в серце",
    "text": "«Slove. Прямо в серце» — кінофільм режисера Юрія Стааля, що вийшов на екрани в 2011 році.",
    "timestamp": "2017-06-23T21:32:58Z"
  },
  {
    "id": 1697366,
    "title": "Царик",
    "text": "Царик — українське прізвище.",
    "timestamp": "2018-08-02T12:00:13Z"
  },
  {
    "id": 1697368,
    "title": "Смерть та життя Боббі Зі",
    "text": "«Життя і смерть Боббі Зі» (Template:lang-en, в російському прокаті також йшов під назвою «Підстава») — голлівудський фільм 2007 року в жанрі стрілялки. Знятий за однойменним романом американського письменника Template:Не перекладено. Рейтинг MPAA — R.",
    "timestamp": "2017-05-27T14:07:02Z"
  },
  {
    "id": 1697370,
    "title": "Каташинська сільська рада",
    "text": "Каташинська сільська рада — орган місцевого самоврядування у Чечельницькому районі Вінницької області з центром у с. Каташин.",
    "timestamp": "2014-12-17T01:41:46Z"
  },
  {
    "id": 1697375,
    "title": "Вальтер Шимана",
    "text": "Вальтер Шимана (нім. Walter Schimana — 12 березня 1898, Опава, Австро-Угорщина — 12 вересня 1948 Зальцбург, Австрія) — один з військових лідерів Третього рейху, группенфюрер СС, генерал-лейтенант військ СС і поліції (20 квітня 1944).",
    "timestamp": "2018-09-29T18:58:15Z"
  },
  {
    "id": 1697376,
    "title": "Рада представників Іраку",
    "text": "Рада представників Іраку — однопалатний законодавчий орган Іраку. В даний час складається з 325 місць і засідає в Багдаді всередині Міжнародної зони (Зеленої зони). Вона регулюється законами, які можна знайти тут.",
    "timestamp": "2018-09-16T05:39:57Z"
  },
  {
    "id": 1697385,
    "title": "Тімченко Віктор Миколайович",
    "text": "Віктор Миколайович Тімченко (26 жовтня 1947, Горлівка) — український військовик. Начальник Донецького вищого військового училища інженерних військ і військ зв'язку. Голова Товариства сприяння обороні України. Отець Максима Тимченко, топ-менеджера енергетичної компанії ДТЕК.",
    "timestamp": "2018-10-09T20:23:22Z"
  },
  {
    "id": 1697393,
    "title": "Степаніщев Михайло Тихонович",
    "text": "Миха́йло Ти́хонович Степані́щев (Template:lang-ru; Template:ДН — Template:ДС) — радянський військовий льотчик-штурмовик, учасник Другої світової війни, гвардії майор. Двічі Герой Радянського Союзу (1944, 1945).",
    "timestamp": "2016-12-26T08:58:59Z"
  },
  {
    "id": 1697404,
    "title": "Чечельницька селищна рада",
    "text": "Чечельницька се́лищна ра́да — адміністративно-територіальна одиниця та орган місцевого самоврядування в Чечельницькому районі Вінницької області. Адміністративний центр — селище міського типу Чечельник.",
    "timestamp": "2017-02-27T16:13:40Z"
  },
  {
    "id": 1697405,
    "title": "Віртуальний роман",
    "text": "«Віртуальний роман» — кінофільм режисера Романа Нестеренко, що вийшов на екрани в 2006 році.",
    "timestamp": "2016-12-26T17:44:16Z"
  },
  {
    "id": 1697408,
    "title": "Дире-Дауа",
    "text": "Дире-Дауа (Template:lang-am) — місто у Ефіопії, одне з двох міст-регіонів країни. Населення (на 2008 рік) становить 607 321 особа. Є важливим індустріальним центром.",
    "timestamp": "2016-10-03T13:25:08Z"
  },
  {
    "id": 1697409,
    "title": "Янг",
    "text": "Янг або Юнг (Template:lang-en) — прізвище англійського походження.",
    "timestamp": "2018-08-05T05:48:54Z"
  },
  {
    "id": 1697412,
    "title": "Леон Мба",
    "text": "Габріель Леон Мба (Template:lang-fr; 9 лютого 1902 — 27 листопада 1967) — габонський державний діяч, перший прем'єр-міністр (1959–1961) і президент Габону (1961–1967).",
    "timestamp": "2018-04-10T20:26:25Z"
  },
  {
    "id": 1697414,
    "title": "Три години на втечу",
    "text": "«Три години на втечу» — фільм 2010 року.",
    "timestamp": "2017-10-09T08:05:41Z"
  },
  {
    "id": 1697416,
    "title": "Journey (гра, 2012)",
    "text": "Journey (Template:lang-uk) — відеогра, розроблена компанією Thatgamecompany, відомих такими іграми як flOw та Flower. Реліз відбувся 7 березня 2012 року і як був так і залишається ексклюзивом для PlayStation 3. До повноцінного виходу в мережу PlayStation Network, який відбувся 13 березня, гра була доступна лише користувачам з підпискою PlayStation Plus. Гравцю, у ролі таємничої пустельної істоти в накидці і шарфі, належить здійснити мандрівку до віддаленої гори. Під час мандрівки він може зустріти і інших гравців, але ніяких засобів спілкування з ними (за винятком коротких звукових сигналів) не передбачено, а дізнатись хто це — можна буде лише по завершенню гри. Journey здобула безліч позитивних відгуків від критиків і ігрової аудиторії за хорошу атмосферу і музику.",
    "timestamp": "2016-11-06T10:50:44Z"
  },
  {
    "id": 1697423,
    "title": "Dire Straits (альбом)",
    "text": "Dire Straits — перший студійний альбом англійської групи Dire Straits, який був випущений 7 жовтня 1978 року.",
    "timestamp": "2016-12-19T11:41:48Z"
  },
  {
    "id": 1697424,
    "title": "Джон Джозеф Беннетт",
    "text": "Джон Джозеф Беннетт (Template:lang-en, 8 січня 1801 — 29 лютого 1876) — британський ботанік.",
    "timestamp": "2015-11-06T21:01:47Z"
  },
  {
    "id": 1697425,
    "title": "Communiqué",
    "text": "Communiqué — другий студійний альбом англійської групи Dire Straits, який був випущений 15 червня 1979 року.",
    "timestamp": "2016-12-19T11:47:16Z"
  },
  {
    "id": 1697426,
    "title": "Чезаре Арцела",
    "text": "Чезаре Арцела (Template:lang-it, Template:н 6 вересня 1847, Санто-Стефано-ді-Магра, Італія — † 15 березня 1912, там само) — італійський математик. Відомий своїм вкладом в математичний та функціональний аналіз, зокрема встановив критерій компатності послідовності неперервних функцій відомий тепер як теорема Асколі — Арцела. Член Національної академії деї Линчеї та деяких інших академій.",
    "timestamp": "2017-03-08T10:31:49Z"
  },
  {
    "id": 1697431,
    "title": "Making Movies",
    "text": "Making Movies — третій студійний альбом британського рок-гурту Dire Straits, випущений 17 жовтня 1980 року.",
    "timestamp": "2016-12-19T15:05:18Z"
  },
  {
    "id": 1697433,
    "title": "Державний переворот у Габоні (1964)",
    "text": "Державний переворот у Габоні — невдала спроба військового путчу, здійснена частиною габонських збройних сил та поліції 17-18 лютого 1964 року з метою повалення влади тодішнього президента Леона Габрієля Мба. Безпосередньою причиною збройного виступу послугувало рішення президента про розпуск парламенту, що викликало невдоволення серед опозиції та габонської армії. Зранку 18 лютого група зі 150 військових та поліцейських під керівництвом 4 молодших лейтенантів заарештувала главу держави та законний уряд. На столичному радіо Лібревіля учасники путчу закликали мешканців зберігати спокій та запевнили, що профранцузька політика країни залишиться незмінною. Габонці відреагували на збройний виступ спокійно, жодних заворушень і виступів не відбулось, що повстанці сприйняли як знак схвалення та підтримки їхніх дій.",
    "timestamp": "2018-10-21T07:45:56Z"
  },
  {
    "id": 1697436,
    "title": "Love over Gold",
    "text": "Love over Gold — четвертий студійний альбом англійської групи Dire Straits, який був випущений 20 вересня 1982 року.",
    "timestamp": "2016-12-13T14:16:45Z"
  },
  {
    "id": 1697437,
    "title": "Скалолазка і останній з сьомої колиски",
    "text": "«Скалолазка і Останній з Сьомий колиски» (2007) - російський пригодницький художній фільм за мотивами роману Олега Синіцина «Скалолазка». Прем'єра в Росії 1 листопада 2007 року.",
    "timestamp": "2018-07-19T10:00:52Z"
  },
  {
    "id": 1697441,
    "title": "Історичні пам'ятки української Стародубщини і Брянщини",
    "text": "Стародубщина — історична українська земля. В добу Київської Русі знаходилася у складі Чернігівського та Новгород-Сіверського князівства. В добу Гетьманщини територія Стародубського полку. У ХІХ ст. частина Чернігівської губернії. З 1919-го року в складі Росії, зараз Брянської області. Чільне місто краю — Стародуб.",
    "timestamp": "2018-07-19T09:09:32Z"
  },
  {
    "id": 1697442,
    "title": "300 Арагвелі (станція метро)",
    "text": "300 Арагвелі (вимовляється \"Самас Арагвелі\",  Template:lang-ka) — станція Ахметелі-Варкетільської лінії Тбіліського метрополітену, розташовується між станціями Авлабарі та Ісані.",
    "timestamp": "2016-02-28T13:48:03Z"
  },
  {
    "id": 1697446,
    "title": "Brothers in Arms",
    "text": "Brothers in Arms — п'ятий студійний альбом англійського гурту Dire Straits, який був випущений 13 травня 1985 року.",
    "timestamp": "2017-05-09T07:08:47Z"
  },
  {
    "id": 1697448,
    "title": "Проблема зупинки та її алгоритмічна нерозв'язність",
    "text": "Маши́на Тю́рінга — математичне поняття, введене для формального уточнення інтуїтивного поняття алгоритму. Названа на честь англійського математика Алана Тюрінга, який запропонував це поняття у 1936. Аналогічну конструкцію машини згодом і незалежно від Тюрінга ввів американський математик Еміль Пост.",
    "timestamp": "2017-11-16T02:10:53Z"
  },
  {
    "id": 1697449,
    "title": "Співак (фільм)",
    "text": "«Співак» — фільм 2006 року.",
    "timestamp": "2016-11-05T18:30:51Z"
  },
  {
    "id": 1697451,
    "title": "Півпростір",
    "text": "Півпростір (Template:lang-en) є однією з двох частин, на які площина ділить тривимірний Евклідів простір. У більш загальному, багатовимірному випадку, півпростір є однією з двох частин, на які гіперплощина ділить афінний простір. Тобто точки, які не належать гіперплощині, розподіляються на дві опуклі множини (тобто півпростори), таким чином, що будь-який підпростір, що містить точки з різних півпросторів, повинен перетинати гіперплощину. Наприклад, відрізок, що з'єднує точки з різних півпросторів, повинен перетинати гіперплощину.",
    "timestamp": "2017-08-26T19:09:51Z"
  },
  {
    "id": 1697452,
    "title": "Зведенівська сільська рада",
    "text": "Зведе́нівська сільська́ ра́да — адміністративно-територіальна одиниця та орган місцевого самоврядування в Шаргородському районі Вінницької області. Адміністративний центр — село Зведенівка.",
    "timestamp": "2015-11-08T20:27:56Z"
  },
  {
    "id": 1697454,
    "title": "Івашковецька сільська рада (Шаргородський район)",
    "text": "Івашкове́цька сільська́ ра́да — адміністративно-територіальна одиниця та орган місцевого самоврядування в Шаргородському районі Вінницької області. Адміністративний центр — село Івашківці.",
    "timestamp": "2017-05-26T00:08:35Z"
  },
  {
    "id": 1697464,
    "title": "Телелим Василь Максимович",
    "text": "Василь Максимович Телелим (19 квітня 1950) — український військовик та науковець. Заслужений діяч науки і техніки України. Доктор військових наук. Професор. Генерал-лейтенант. Лауреат Державної премії України в галузі науки і техніки. Колишній начальник Національний університет оборони України імені Івана Черняховського.",
    "timestamp": "2017-02-21T17:25:13Z"
  },
  {
    "id": 1697466,
    "title": "Kashinia magnus",
    "text": "Kashinia magnus — вид викопних птахів ряду Фламінгоподібні (Phoenicopteriformes), що існував в еоцені на території Європи близько 45 млн років тому. Знайдені скам'янілості спочатку були віднесені до роду Фламінго (Phoenicopterus), проте пізніше дослідники дійшли висновку, що це ранній примітивніший рід фламінгоподібних або навіть належить до групи птахів від якої пішли фламінго та пірникози.",
    "timestamp": "2016-06-01T21:47:40Z"
  },
  {
    "id": 1697477,
    "title": "Квасниця Юліан Григорович",
    "text": "Кавасниця Юліан Григорович (Template:нар 31 березня 1960, Львів) — художник, скульптор. Член Спілки дизайнерів України від 2001. Член Національної спілки художників України від 2002 року.",
    "timestamp": "2018-08-25T14:45:40Z"
  },
  {
    "id": 1697483,
    "title": "Громадський друг",
    "text": "Громадський друг — загальноукраїнський прогресивний літературний і політичний журнал, заснований з ініціативи Михайла Драгоманова, як продовжувач традицій журналу «Друг» і женевських збірників «Громада». У журналі та його неперіодичних продовженнях опубліковано твори Івана Франка (повість «Boa constrictor», оповідання «Моя стріча з Оксаною», «Патріотичні пориви», поезії «Товаришам із тюрми», «Каменяри», «Невольники», «Дума про Наума Безумовича»; літературно-критичні та публіцистичні статті «Критичні письма о галицькій інтелігенції», «Література, її завдання і найважливіші ціхи» та ін.), Михайла Павлика (повість «Робенщукова Тетяна», оповідання «Пропащий чоловік», «Юрко Куликів»), Остапа Терлецького (стаття-рецензія «Лихва на Буковині»), Михайла Старицького (поезії «До молодежі, до Шевченка»), а також статті Михайла Драгоманова, Олени Пчілки, Болеслава Лімановського та інших, переклади з романів Еміля Золя.",
    "timestamp": "2018-05-21T19:15:41Z"
  },
  {
    "id": 1697485,
    "title": "Джордж Бентам",
    "text": "Джордж Бентам (Template:lang-en; 22 вересня 1800 — 10 вересня 1884) — англійський ботанік.",
    "timestamp": "2016-06-01T13:37:25Z"
  },
  {
    "id": 1697488,
    "title": "Какітані Йоїтіро",
    "text": "Йоїтіро Какітані (Template:lang-ja, Template:н 3 січня 1990, Осака) — японський футболіст, нападник клубу «Сересо Осака» та національної збірної Японії.",
    "timestamp": "2018-04-24T09:04:32Z"
  },
  {
    "id": 1697490,
    "title": "Ермін Бичакчич",
    "text": "Ермін Бичакчич (Template:lang-bs, Template:н 24 січня 1990, Зворник) — боснійський футболіст, захисник клубу «Гоффенгайм 1899» та національної збірної Боснії і Герцеговини.",
    "timestamp": "2017-10-21T21:11:14Z"
  },
  {
    "id": 1697493,
    "title": "Джон Брукс",
    "text": "Джон Ентоні Брукс (Template:lang-en, Template:н 28 січня 1993, Берлін) — німецький і американський футболіст, захисник «Вольфсбурга» та національної збірної США.",
    "timestamp": "2018-06-06T11:02:14Z"
  },
  {
    "id": 1697495,
    "title": "Даніель Вільямс",
    "text": "Даніель Вільямс (Template:lang-en, Template:н 8 березня 1989, Карлсруе) — німецький і американський футболіст, півзахисник англійського клубу «Редінг» та національної збірної США.",
    "timestamp": "2018-07-04T09:40:54Z"
  },
  {
    "id": 1697497,
    "title": "Ноель Вальядарес",
    "text": "Ноель Вальядарес (Template:lang-es, Template:н 3 травня 1977, Комаягуа) — гондураський футболіст, воротар клубу «Олімпія» та національної збірної Гондурасу.",
    "timestamp": "2017-03-24T05:01:24Z"
  },
  {
    "id": 1697500,
    "title": "Доніс Ескобер",
    "text": "Доніс Ескобер (Template:lang-es, Template:н 3 лютого 1980, Сан-Ігнасіо) — гондураський футболіст, воротар клубу «Олімпія» та національної збірної Гондурасу.",
    "timestamp": "2018-07-30T13:08:10Z"
  },
  {
    "id": 1697502,
    "title": "Theli",
    "text": "Theli — п'ятий студійний альбом шведського метал-гурту Therion, випущений 9 серпня 1996 року на лейблі Nuclear Blast.",
    "timestamp": "2018-05-12T10:01:27Z"
  },
  {
    "id": 1697503,
    "title": "Арнольд Перальта",
    "text": "Арнольд Перальта (Template:lang-es, Template:н 29 березня 1989, Ла-Сейба—10 грудня 2015) — гондураський футболіст, що грав на позиції півзахисника, зокрема й за національну збірну Гондурасу.",
    "timestamp": "2018-05-28T10:24:49Z"
  },
  {
    "id": 1697505,
    "title": "Майнор Фігероа",
    "text": "Майнор Фігероа (Template:lang-es, Template:н 2 травня 1983, Хутіапа) — гондураський футболіст, захисник англійського «Галл Сіті» та національної збірної Гондурасу.",
    "timestamp": "2017-12-12T19:36:20Z"
  },
  {
    "id": 1697507,
    "title": "Віктор Бернардес",
    "text": "Віктор Бернардес (Template:lang-es, Template:н 24 травня 1982, Ла-Сейба) — гондураський футболіст, захисник американського клубу «Сан-Хосе Ерзквейкс» та національної збірної Гондурасу.",
    "timestamp": "2018-07-30T10:25:23Z"
  },
  {
    "id": 1697513,
    "title": "Пеньківська сільська рада (Шаргородський район)",
    "text": "Пеньківська сільська́ ра́да — адміністративно-територіальна одиниця та орган місцевого самоврядування в Шаргородському районі Вінницької області. Адміністративний центр — село Пеньківка.",
    "timestamp": "2018-03-31T20:56:06Z"
  },
  {
    "id": 1697518,
    "title": "Плебанівська сільська рада (Шаргородський район)",
    "text": "Плебанівська сільська́ ра́да — адміністративно-територіальна одиниця та орган місцевого самоврядування в Шаргородському районі Вінницької області. Адміністративний центр — село Плебанівка.",
    "timestamp": "2015-11-02T07:13:28Z"
  },
  {
    "id": 1697519,
    "title": "Нейпір",
    "text": "Нейпір (Template:lang-en, маорі: Ahuriri) — місто у Новій Зеландії, розташоване на західному узбережжі Північного острову, центр району Хокс-Бей.",
    "timestamp": "2018-05-09T21:06:41Z"
  },
  {
    "id": 1697523,
    "title": "Рахнівсько-Лісова сільська рада",
    "text": "Рахнівсько-Лісова́ сільська́ ра́да — адміністративно-територіальна одиниця та орган місцевого самоврядування в Шаргородському районі Вінницької області. Адміністративний центр — село Рахни-Лісові.",
    "timestamp": "2015-11-28T11:59:29Z"
  },
  {
    "id": 1697527,
    "title": "Етнографічний збірник",
    "text": "«Етнографічний збірник» (Етноґрафічний збірник) — серійне видання Наукового товариства ім. Шевченка у Львові.",
    "timestamp": "2017-12-11T07:29:49Z"
  },
  {
    "id": 1697544,
    "title": "Шаргородська міська рада",
    "text": "Ша́ргородська міська́ ра́да — адміністративно-територіальна одиниця та орган місцевого самоврядування в Шаргородському районі Вінницької області. Адміністративний центр — місто Шаргород.",
    "timestamp": "2015-10-14T17:11:37Z"
  },
  {
    "id": 1697553,
    "title": "Ларрі Волл",
    "text": "Ларрі Волл (Template:lang-en; 27 вересня 1954, Лос-Анджелес, Каліфорнія, США) — програміст і письменник, створив мову програмування Perl.",
    "timestamp": "2018-04-07T17:32:19Z"
  },
  {
    "id": 1697555,
    "title": "Бушанська сільська рада",
    "text": "Буша́нська сільська́ ра́да — орган місцевого самоврядування у Ямпільському районі Вінницької області з адміністративним центром у с. Буша.",
    "timestamp": "2015-05-22T22:30:08Z"
  },
  {
    "id": 1697577,
    "title": "Ямпільська міська рада",
    "text": "Я́мпільська міська́ ра́да — адміністративно-територіальна одиниця та орган місцевого самоврядування в Ямпільському районі Вінницької області. Адміністративний центр — місто Ямпіль.",
    "timestamp": "2018-04-21T18:45:06Z"
  },
  {
    "id": 1697581,
    "title": "Марк Лайл Ґрант",
    "text": "Марк Джастін Лайл Ґрант (Template:lang-en; Template:н Template:дн, Велика Британія) — британський дипломат, постійний представник Великої Британії при ООНООН закликала країни світу відмовитися від виплати викупу терористам.",
    "timestamp": "2017-05-06T13:48:19Z"
  },
  {
    "id": 1697590,
    "title": "Охотніков Сергій Борисович",
    "text": "Сергій Борисович Охотніков (Template:н Template:ДН, Уральськ, Казахська РСР, СРСР) — археолог, кандидат історичних  наук.",
    "timestamp": "2016-08-05T23:34:35Z"
  },
  {
    "id": 1697602,
    "title": "Чишківська сільська рада",
    "text": "Чишківська сільська рада — орган місцевого самоврядування у Пустомитівському районі Львівської області з адміністративним центром у с. Чишки.",
    "timestamp": "2015-04-06T11:17:35Z"
  },
  {
    "id": 1697611,
    "title": "Техас Стедіум",
    "text": "Техас Стедіум (Template:lang-en) — американський футбольний стадіон, який був розташований у місті Ірвінг, штат Техас, у передмісті Далласа. Стадіон відкрито 17 вересня 1971 р. Він слугував домашньою ареною для команди НФЛ Даллас Ковбойс з 1971 по 2008 рр, і налічував 65 675 місць.",
    "timestamp": "2018-08-02T19:50:25Z"
  },
  {
    "id": 1697615,
    "title": "Ісані (станція метро)",
    "text": "Ісані (Template:lang-ka) — станція Ахметелі-Варкетільської лінії Тбіліського метрополітену, розташовується між станціями 300 Арагвелі і Самгорі. Відкрита 5 травня 1971.",
    "timestamp": "2017-01-29T12:41:35Z"
  },
  {
    "id": 1697616,
    "title": "Книга царів",
    "text": "Книга Царів — книга Старого Завіту Біблії та Танаху.",
    "timestamp": "2017-10-19T05:16:21Z"
  },
  {
    "id": 1697617,
    "title": "Чорнушовицька сільська рада",
    "text": "Чорнушовицька сільська рада — орган місцевого самоврядування у Пустомитівському районі Львівської області з адміністративним центром у с. Чорнушовичі.",
    "timestamp": "2015-04-06T11:19:26Z"
  },
  {
    "id": 1697634,
    "title": "Ямпільська сільська рада (Пустомитівський район)",
    "text": "Я́мпільська сільська́ ра́да — адміністративно-територіальна одиниця та орган місцевого самоврядування в Пустомитівському районі Львівської області. Адміністративний центр — село Ямпіль.",
    "timestamp": "2015-12-09T15:47:10Z"
  },
  {
    "id": 1697641,
    "title": "Церква святого Миколая Чудотворця (Колодне)",
    "text": "Церква святого Миколая Чудотворця — одна з найвидатніших та найдавніших пам'яток українського церковного будівництва, являє собою цікавий приклад синтезу архітектури, монументального настінного живопису і прикладного декоративного мистецтва XV-XVIII століть. Первісно збудована 1470 року. Пам'ятка архітектури всеукраїнського значення (охоронний № 205)Про впорядкування справи обліку та охорони пам'ятників архітектури на території Української РСР. Найдавніший дерев'яний храм України. XVI ст.",
    "timestamp": "2017-11-27T18:01:27Z"
  },
  {
    "id": 1697660,
    "title": "Ернст фон Берг",
    "text": "Ернст фон Берг (Template:lang-de; 1782 — 1855) — німецький ботанік та землевласник.",
    "timestamp": "2015-12-20T15:15:29Z"
  },
  {
    "id": 1697663,
    "title": "Свен Берггрен",
    "text": "Свен Берггрен (Template:lang-sv, 12 серпня 1837 — 28 червня 1917)Arnell, H.W. (1922) Sven Berggren (12/8-1837 — 28/6-1917). Svenskt biografiskt Lexikon vol. III — шведський ботанік.",
    "timestamp": "2015-10-23T19:31:35Z"
  },
  {
    "id": 1697674,
    "title": "Амвросіївська міська рада",
    "text": "Амвро́сіївська міська́ ра́да — адміністративно-територіальна одиниця та орган місцевого самоврядування в Амвросіївському районі Донецької області. Адміністративний центр — місто Амвросіївка.",
    "timestamp": "2015-10-19T07:16:18Z"
  }
]