[
  {
    "id": 2092016,
    "title": "Кастель (Баварія)",
    "text": "Кастель (Template:lang-de) — громада в Німеччині, розташована в землі Баварія. Підпорядковується адміністративному округу Нижня Франконія. Входить до складу району Кітцинген. Складова частина об'єднання громад Візентайд.",
    "timestamp": "2016-12-31T08:28:20Z"
  },
  {
    "id": 2092018,
    "title": "Кляйнланггайм",
    "text": "Кляйнланггайм (Template:lang-de) — громада в Німеччині, розташована в землі Баварія. Підпорядковується адміністративному округу Нижня Франконія. Входить до складу району Кітцинген. Складова частина об'єднання громад Гросланггайм.",
    "timestamp": "2017-01-04T19:28:11Z"
  },
  {
    "id": 2092021,
    "title": "Майнбернгайм",
    "text": "Майнбернгайм (Template:lang-de) — місто в Німеччині, розташоване в землі Баварія. Підпорядковується адміністративному округу Нижня Франконія. Входить до складу району Кітцинген. Складова частина об'єднання громад .",
    "timestamp": "2016-12-31T08:21:35Z"
  },
  {
    "id": 2092025,
    "title": "Майнштокгайм",
    "text": "Майнштокгайм (Template:lang-de) — громада в Німеччині, розташована в землі Баварія. Підпорядковується адміністративному округу Нижня Франконія. Входить до складу району Кітцинген. Складова частина об'єднання громад Кітцинген.",
    "timestamp": "2016-12-31T08:28:33Z"
  },
  {
    "id": 2092027,
    "title": "Маркт-Айнерсгайм",
    "text": "Маркт-Айнерсгайм (Template:lang-de) — громада в Німеччині, розташована в землі Баварія. Підпорядковується адміністративному округу Нижня Франконія. Входить до складу району Кітцинген. Складова частина об'єднання громад Іпгофен.",
    "timestamp": "2016-12-31T09:23:24Z"
  },
  {
    "id": 2092029,
    "title": "Марктбрайт",
    "text": "Марктбрайт (Template:lang-de) — місто в Німеччині, розташоване в землі Баварія. Підпорядковується адміністративному округу Нижня Франконія. Входить до складу району Кітцинген. Центр об'єднання громад Марктбрайт.",
    "timestamp": "2016-12-31T08:21:50Z"
  },
  {
    "id": 2092031,
    "title": "Марктштефт",
    "text": "Марктстефт (Template:lang-de) — місто в Німеччині, розташоване в землі Баварія. Підпорядковується адміністративному округу Нижня Франконія. Входить до складу району Кітцинген. Складова частина об'єднання громад Марктбрайт.",
    "timestamp": "2016-12-31T08:22:07Z"
  },
  {
    "id": 2092033,
    "title": "Мартінсгайм",
    "text": "Мартінсгайм (Template:lang-de) — громада в Німеччині, розташована в землі Баварія. Підпорядковується адміністративному округу Нижня Франконія. Входить до складу району Кітцинген. Складова частина об'єднання громад Марктбрайт.",
    "timestamp": "2016-12-31T08:28:51Z"
  },
  {
    "id": 2092035,
    "title": "Нордгайм-ам-Майн",
    "text": "Нордгайм-ам-Майн (Template:lang-de) — громада в Німеччині, розташована в землі Баварія. Підпорядковується адміністративному округу Нижня Франконія. Входить до складу району Кітцинген. Складова частина об'єднання громад Фольках.",
    "timestamp": "2016-12-31T08:29:09Z"
  },
  {
    "id": 2092037,
    "title": "Писемність волоф",
    "text": "Писемність волоф — писемність мови волоф. Мова волоф використовує як арабську, так і латинську абетки.",
    "timestamp": "2017-05-24T12:31:00Z"
  },
  {
    "id": 2092038,
    "title": "Обернбрайт",
    "text": "Обернбрайт (Template:lang-de) — громада в Німеччині, розташована в землі Баварія. Підпорядковується адміністративному округу Нижня Франконія. Входить до складу району Кітцинген. Складова частина об'єднання громад Марктбрайт.",
    "timestamp": "2016-12-31T09:23:41Z"
  },
  {
    "id": 2092040,
    "title": "Пріксенштадт",
    "text": "Пріксенштадт (Template:lang-de) — місто в Німеччині, розташоване в землі Баварія. Підпорядковується адміністративному округу Нижня Франконія. Входить до складу району Кітцинген.",
    "timestamp": "2016-12-31T08:22:20Z"
  },
  {
    "id": 2092043,
    "title": "Редельзеє",
    "text": "Редельзеє або Редельзе (Template:lang-de) — громада в Німеччині, розташована в землі Баварія. Підпорядковується адміністративному округу Нижня Франконія. Входить до складу району Кітцинген. Складова частина об'єднання громад Іпгофен.",
    "timestamp": "2016-12-31T08:29:23Z"
  },
  {
    "id": 2092045,
    "title": "Рюденгаузен",
    "text": "Рюденгаузен (Template:lang-de) — громада в Німеччині, розташована в землі Баварія. Підпорядковується адміністративному округу Нижня Франконія. Входить до складу району Кітцинген. Складова частина об'єднання громад Візентайд.",
    "timestamp": "2018-06-15T15:06:28Z"
  },
  {
    "id": 2092047,
    "title": "Фольках",
    "text": "Фольках (Template:lang-de) — місто в Німеччині, розташоване в землі Баварія. Підпорядковується адміністративному округу Нижня Франконія. Входить до складу району Кітцинген. Центр об'єднання громад Фольках.",
    "timestamp": "2017-06-23T06:26:49Z"
  },
  {
    "id": 2092049,
    "title": "Шварцах-ам-Майн",
    "text": "Шварцах-ам-Майн (Template:lang-de) — громада в Німеччині, розташована в землі Баварія. Підпорядковується адміністративному округу Нижня Франконія. Входить до складу району Кітцинген.",
    "timestamp": "2016-12-31T09:25:01Z"
  },
  {
    "id": 2092052,
    "title": "Каменоломня (зупинний пункт)",
    "text": "Каменоло́мня — пасажирська зупинна залізнична платформа Донецької дирекції Донецької залізниці. Розташована в с. Путепровід, Єнакієвська міська рада, Донецької області на лінії Ясинувата-Пасажирська — Вуглегірськ між станціями Кринична (4 км) та Монахове (5 км).",
    "timestamp": "2018-03-30T17:14:05Z"
  },
  {
    "id": 2092060,
    "title": "Мурака",
    "text": "Му́рака (Template:lang-et) — село в Естонії, у волості Торі повіту Пярнумаа.",
    "timestamp": "2016-01-10T23:47:21Z"
  },
  {
    "id": 2092075,
    "title": "Мільтенберг (район)",
    "text": "Мільтенберг (Template:lang-de) — район у Німеччині, у складі округу Нижня Франконія федеральної землі Баварія. Адміністративний центр — місто Мільтенберг.",
    "timestamp": "2016-01-01T22:35:08Z"
  },
  {
    "id": 2092080,
    "title": "1100 км (зупинний пункт, Донецька залізниця)",
    "text": "1100 кіломе́тр — пасажирська зупинна залізнична платформа Донецької дирекції Донецької залізниці. Розташована біля садово-дачних ділянок та неподалік від с-ща Новий Світ, Совєтський район Макіївки, Донецької області на лінії Ясинувата-Пасажирська — Вуглегірськ між станціями Кринична (7 км) та Монахове (2 км).",
    "timestamp": "2018-03-30T17:15:14Z"
  },
  {
    "id": 2092081,
    "title": "Лончки Ягеллонські",
    "text": "Лончки Ягеллонські або Лончки (Template:lang-pl) — село у гміні Вояшівка у Кросненському повіті Підкарпатського воєводства Польщі.",
    "timestamp": "2017-04-14T11:04:32Z"
  },
  {
    "id": 2092082,
    "title": "Гаузен (Мільтенберг)",
    "text": "Гаузен (Template:lang-de) — громада в Німеччині, розташована в землі Баварія. Підпорядковується адміністративному округу Нижня Франконія. Входить до складу району Мільтенберг. Складова частина об'єднання громад Кляйнвальштадт.",
    "timestamp": "2016-01-01T22:41:24Z"
  },
  {
    "id": 2092086,
    "title": "Сунцов Ігор Геннадійович",
    "text": "Ігор Геннадійович Сунцов (Template:н. Template:ДН, тепер Російська Федерація) — український радянський діяч, електрослюсар шахти імені Ленінського комсомолу виробничого об'єднання «Олександріявугілля» Кіровоградської області. Депутат Верховної Ради УРСР 11-го скликання у 1988 — 1990 роках.",
    "timestamp": "2016-01-01T22:44:01Z"
  },
  {
    "id": 2092089,
    "title": "Монахове (станція)",
    "text": "Мона́хове — вантажно-пасажирська залізнична станція Донецької дирекції Донецької залізниці. Розташована у с-щі. Монахове, Совєтський район Макіївки, Донецької області на лінії Ясинувата-Пасажирська — Вуглегірськ між станціями Кринична (9 км) та Щебенка (7 км).",
    "timestamp": "2018-09-23T09:29:54Z"
  },
  {
    "id": 2092090,
    "title": "Платоненко Галина Павлівна",
    "text": "Галина Павлівна Платоненко (Template:н. Template:ДН, село Чернеччина, тепер Краснопільського району Сумської області) — українська радянська діячка, начальник відділу освіти Дергачівського району Харківської області. Депутат Верховної Ради УРСР 11-го скликання у 1988 — 1990 роках.",
    "timestamp": "2017-07-10T16:34:48Z"
  },
  {
    "id": 2092091,
    "title": "Леві (Естонія)",
    "text": "Ле́ві (Template:lang-et) — село в Естонії, у волості Торі повіту Пярнумаа.",
    "timestamp": "2016-01-04T22:26:16Z"
  },
  {
    "id": 2092092,
    "title": "Аесоо",
    "text": "А́есоо (Template:lang-et) — село в Естонії, у волості Торі повіту Пярнумаа.",
    "timestamp": "2016-01-04T22:15:41Z"
  },
  {
    "id": 2092095,
    "title": "1094 км (зупинний пункт)",
    "text": "1094 кіломе́тр — пасажирська зупинна залізнична платформа Донецької дирекції Донецької залізниці. Розташована неподалік від с. Новоселівка, Совєтський район Макіївки, Донецької області на лінії Ясинувата-Пасажирська — Вуглегірськ між станціями Монахове (4 км) та Щебенка (3 км).",
    "timestamp": "2018-03-30T17:18:02Z"
  },
  {
    "id": 2092096,
    "title": "Елбі",
    "text": "Е́лбі (Template:lang-et) — село в Естонії, у волості Торі повіту Пярнумаа.",
    "timestamp": "2016-01-04T22:19:37Z"
  },
  {
    "id": 2092098,
    "title": "1092 км (зупинний пункт)",
    "text": "1092 кіломе́тр — пасажирська зупинна залізнична платформа Донецької дирекції Донецької залізниці. Розташована в с. Верхня Кринка, Совєтський район Макіївки, Донецької області на лінії Ясинувата-Пасажирська — Вуглегірськ між станціями Монахове (6 км) та Щебенка (1 км).",
    "timestamp": "2018-03-30T17:18:52Z"
  },
  {
    "id": 2092100,
    "title": "Крайниченко Петро Тимофійович",
    "text": "Петро Тимофійович Крайниченко (Template:н. Template:ДН, тепер Російська Федерація) — український радянський діяч, вальцетокар Лутугинського заводу прокатних валків Луганської області. Депутат Верховної Ради УРСР 11-го скликання (з 1987 року).",
    "timestamp": "2018-07-10T17:30:44Z"
  },
  {
    "id": 2092102,
    "title": "Селья (Торі)",
    "text": "Се́лья (Template:lang-et) — село в Естонії, у волості Торі повіту Пярнумаа.",
    "timestamp": "2016-01-05T13:17:42Z"
  },
  {
    "id": 2092104,
    "title": "Муті (Естонія)",
    "text": "Му́ті (Template:lang-et) — село в Естонії, у волості Торі повіту Пярнумаа.",
    "timestamp": "2016-01-04T22:29:43Z"
  },
  {
    "id": 2092106,
    "title": "Щебенка (станція)",
    "text": "Щебе́нка — вантажно-пасажирська залізнична станція Донецької дирекції Донецької залізниці. Розташована у с-щі Щебенка, Єнакієвська міська рада, Донецької області на лінії Ясинувата-Пасажирська — Вуглегірськ між станціями Монахове (7 км) та Єнакієве (6 км). На Щебенці є відгалуження на Нижньокринку (14 км).",
    "timestamp": "2018-03-30T17:20:33Z"
  },
  {
    "id": 2092107,
    "title": "Івківка",
    "text": "Íвківка — лінійна станція Запорізької дирекції Придніпровської залізниці на магістральній лінії Синельникове I — Запоріжжя I між станцією Синельникове I (9 км) та зупинним пунктом Платформа 1045 км (4 км).",
    "timestamp": "2018-06-15T19:20:28Z"
  },
  {
    "id": 2092110,
    "title": "Виноградники (зупинний пункт)",
    "text": "Виногра́дники (також — 1088 км) — пасажирська зупинна залізнична платформа Донецької дирекції Донецької залізниці. Розташована поблизу садово-дачних ділянок, найближчий населений пункт с-ще. Старопетрівське, Єнакієвська міська рада, Донецької області на лінії Ясинувата-Пасажирська — Вуглегірськ між станціями Щебенка (1 км) та Єнакієве (5 км).",
    "timestamp": "2018-03-30T17:30:19Z"
  },
  {
    "id": 2092113,
    "title": "Гальшанська мікромова",
    "text": "Гальшанська мова (самоназва - halšanski jazyk) — проект мови створений на основі білоруських говорів Литви. Намагання становлення цієї мікромови вібудвалось у 80-х роках 20 століття. Створена так званим \"Товариством слов'яномовних литовців\". Разом з гальшанською розроблялись проекти вічської та дзукійської мов.",
    "timestamp": "2018-10-07T16:17:27Z"
  },
  {
    "id": 2092114,
    "title": "Хенкін Ігор Борисович",
    "text": "Ігор Борисович Хенкін, (Template:lang-ru; 12 березня 1968, Владимир) – російський шахіст, у 1993—1997 роках представляв Ізраїль, у 1998-му – Росію, від 1999-го – НімеччинуFIDE rating history :: Khenkin, Igor, гросмейстер від 1992 року.",
    "timestamp": "2016-01-01T23:53:19Z"
  },
  {
    "id": 2092115,
    "title": "Єнакієве (станція)",
    "text": "Єна́кієве — вантажно-пасажирська залізнична станція Донецької дирекції Донецької залізниці. Розташована у місті Єнакієве, Єнакієвська міська рада, Донецької області на лінії Ясинувата-Пасажирська — Вуглегірськ між станціями Щебенка (6 км) та Волинцеве (5 км).",
    "timestamp": "2018-03-30T17:31:16Z"
  },
  {
    "id": 2092117,
    "title": "Сонячна воскотопка",
    "text": "Сонячна воскотопка використовується для перетоплення високоякісної воскової сировини (зрізані воскові крищечки, обрізки з різних частин вуликів, вибракувані стільники, в яких не вирощувався розплод) за допомогою енергії сонячного проміння. Складається із корпуса, накривається заскленою рамою, яка відкривається. Корпус виготовляють таким чином, щоб рама була перпендикулярно до сонячного проміння опівдні. Всередині встановлюється деко для сировини та коритце, в яке стікатиме розплавлений чистий віск.",
    "timestamp": "2016-04-15T13:15:00Z"
  },
  {
    "id": 2092120,
    "title": "Прапор Праги",
    "text": "Прапор Праги — нарівні з гербом є одним зофіційних символів Праги, столиці Чехії.",
    "timestamp": "2018-08-19T16:57:21Z"
  },
  {
    "id": 2092123,
    "title": "Волинцеве (станція)",
    "text": "Воли́нцеве — вантажно-пасажирська залізнична станція Донецької дирекції Донецької залізниці. Розташована на півночі Єнакієвого, Єнакієвська міська рада, Донецької області на лінії Ясинувата-Пасажирська — Вуглегірськ між станціями Єнакієве (5 км) та Вуглегірськ (9 км).",
    "timestamp": "2018-03-30T17:32:44Z"
  },
  {
    "id": 2092124,
    "title": "Нікітенко Григорій Григорович",
    "text": "Григорій Григорович Нікітенко (Template:н. Template:ДН, село Козіївка, тепер Краснокутського району Харківської області) — український радянський державний діяч, міністр легкої промисловості УРСР. Депутат Верховної Ради УРСР 11-го скликання (з 1988 року). Академік Академії інженерних наук України.",
    "timestamp": "2016-01-03T13:00:02Z"
  },
  {
    "id": 2092125,
    "title": "Запоріжжя-Вантажне",
    "text": "Запорíжжя-Вантáжне — вантажно-пасажирська залізнична станція Запорізької дирекції Придніпровської залізниці на електрифікованій лінії Синельникове I — Запоріжжя ITemplate:АЗУ-2008.",
    "timestamp": "2018-10-07T09:40:22Z"
  },
  {
    "id": 2092127,
    "title": "1073 км (зупинний пункт)",
    "text": "1073 кіломе́тр — пасажирська зупинна залізнична платформа Донецької дирекції Донецької залізниці. Розташована в с. Каютине, Бахмутський район, Донецької області на лінії Ясинувата-Пасажирська — Вуглегірськ між станціями Волинцеве (6 км) та Вуглегірськ (3 км).",
    "timestamp": "2018-03-30T17:33:57Z"
  },
  {
    "id": 2092141,
    "title": "Завірюхін Ігор Анатолійович",
    "text": "І́гор Анато́лійович Завірю́хін, позивний «Дід» (Template:ДН — Template:ДС, Рідкодуб, Донецька область) — радянський й український військовик, розвідник, інструктор Збройних сил України, майор у відставці, доброволець 25-го окремого мотопіхотного батальйону «Київська Русь» (до жовтня 2014 — 25-й батальйон територіальної оборони «Київська Русь»), загинув у бою у війні на сході України.",
    "timestamp": "2017-04-20T15:58:36Z"
  },
  {
    "id": 2092155,
    "title": "Франко Андрій Іванович",
    "text": "Андрі́й Іва́нович Франко́ (16 липня 1887, Львів — 22 квітня 1913, Львів) — український філолог, фольклорист, етнограф, перекладач. Син Івана Франка, його помічник і секретар.",
    "timestamp": "2018-07-28T23:10:09Z"
  },
  {
    "id": 2092156,
    "title": "Інститут Фізметодів Лікування ім. Воровського",
    "text": "Інститут Фізметодів Лікування імені тов. Воровського — медичний заклад, що існував у Чернігові до 1941 року. З 1931 року — Всеукраїнський курорт.",
    "timestamp": "2018-08-21T17:41:40Z"
  },
  {
    "id": 2092164,
    "title": "Вулиця Кирпоноса (Чернігів)",
    "text": "Вулиця Кирпоно́са — вулиця в центрі Чернігова, що простягається від вул. Єлецької до вул. Ринкової. Названа у 1978 році на честь радянського військового діяча Михайла Кирпоноса. Складаєтьтся з колишніх вулиць Олександрівської (північна частина) і Всеволодської (південна частина), з 1919 по 1978 рр. носила назву 25-го жовтня.",
    "timestamp": "2018-10-17T09:22:46Z"
  },
  {
    "id": 2092171,
    "title": "Наталі Коул",
    "text": "Наталі́ Марі́я Ко́ул (Template:lang-en; 6 лютого 1950 року, Лос-Анджелес — 31 грудня 2015 року, там само) — американська співачка, автор пісень та актриса, дочка популярного джазового піаніста й співака Нета «Кінга» Коула. Добилась великого успіху на самому початку своєї кар'єри, завдяки своїм R&B композиціям, а до початку 1990-х плавно змінила свій репертуар у бік поп-музики й джазу. За роки своєї кар'єри Коул 19 разів номінувалась на престижну музичну премію «Греммі» і дев'ять разів ставала її володаркою. Крім музичної кар'єри Наталі Коул виконала низку ролей на телебаченні та у великому кіно.",
    "timestamp": "2018-06-25T22:53:39Z"
  },
  {
    "id": 2092185,
    "title": "Сех Роман Миколайович",
    "text": "Рома́н Микола́йович Се́х — молодший сержант Збройних сил України.",
    "timestamp": "2018-09-22T18:41:11Z"
  },
  {
    "id": 2092190,
    "title": "Аукшткеляй",
    "text": "Аукшткеляй (Aukštkeliai) — село у Литві, Каунаський повіт, Расейняйський район, Немакщяйське староство. Розташоване за 4 км від села Немакщяй. Селом протікає річка Шешувіс. 2001 року в Аукшткеляї проживало 150 осіб.",
    "timestamp": "2018-02-21T07:11:24Z"
  },
  {
    "id": 2092192,
    "title": "Ікімба",
    "text": "Ікімба — озеро в Танзанії, розташоване у регіоні Кагера неподалік від озера Вікторія, південніше — озеро Бурігі, найближче місто — Букоба, північно-західніше — село Каторо.",
    "timestamp": "2016-05-12T11:03:13Z"
  },
  {
    "id": 2092193,
    "title": "Зінкевич Андрій Іванович",
    "text": "Андрі́й Іва́нович Зінке́вич — старший прапорщик Збройних сил України.",
    "timestamp": "2018-02-06T18:53:55Z"
  },
  {
    "id": 2092195,
    "title": "Катмаков Гліб Борисович",
    "text": "Глі́б Бори́сович Катмаков — лейтенант Збройних сил України.",
    "timestamp": "2018-02-06T18:55:36Z"
  },
  {
    "id": 2092198,
    "title": "Будинок міської ради (Чернігів)",
    "text": "Будинок міської ради — будівля у Чернігові за адресою вулиця Магістратська, 7.",
    "timestamp": "2018-02-27T17:15:35Z"
  },
  {
    "id": 2092214,
    "title": "90-річчя утворення першого Уряду України (монета)",
    "text": "90-рі́ччя утво́рення пе́ршого У́ряду Украї́ни — ювілейна монета номіналом 2 гривні, випущена Національним банком України, присвячена першому Уряду України — Генеральному секретаріату, який діяв з 15 червня 1917 року до 9 січня 1918 року. Першим документом, який певною мірою визначив програму діяльності уряду, стала Декларація Генерального секретаріату, розроблена за участю і під керівництвом Володимира Винниченка.",
    "timestamp": "2018-04-02T15:14:57Z"
  },
  {
    "id": 2092216,
    "title": "Мірко Вальдіфьйорі",
    "text": "Мірко Вальдіфьйорі (Template:lang-it, Template:н 21 квітня 1986, Луго) — італійський футболіст, півзахисник клубу «Наполі».",
    "timestamp": "2018-10-17T19:05:30Z"
  },
  {
    "id": 2092219,
    "title": "90 років утворення Західно-Української Народної Республіки (монета)",
    "text": "90 ро́ків утво́рення За́хідно-Украї́нської Наро́дної Респу́бліки — ювілейна монета номіналом 2 гривні, випущена Національним банком України, присвячена українській державі, створеній на західноукраїнських землях після розпаду Австро-Угорської імперії, у складі якої перебувала значна частина українських земель — Галичина, Буковина і Закарпаття. 9 листопада 1918 року було сформовано уряд — Державний Секретаріат ЗУНР.",
    "timestamp": "2018-04-02T15:15:22Z"
  },
  {
    "id": 2092222,
    "title": "3 км (зупинний пункт, Єнакієве)",
    "text": "3 кіломе́тр — пасажирська зупинна залізнична платформа Донецької дирекції Донецької залізниці на лінії Ясинувата-Пасажирська — Вуглегірськ.",
    "timestamp": "2018-03-30T17:21:25Z"
  },
  {
    "id": 2092229,
    "title": "Житіє протопопа Аввакума, моновистава, 1989",
    "text": "Житіє протопопа Аввакума, моновистава, 1989  — моновистава, котру створив актор Матвєєв Михайло Михайлович 1984 року, що стала легендарним явищем театрального мистецтва. Прототипом головного героя став протопоп Аввакум Петрович.",
    "timestamp": "2016-11-24T20:17:33Z"
  },
  {
    "id": 2092232,
    "title": "Монте-Леоне",
    "text": "Монте-Леоне (Template:lang-it) — гора висотою 3552 м, розташовується на кордоні Швейцарії (Вале) та Італії (П'ємонт). Найвища точка Лепонтинських Альп. Знаходиться у декількох кілометрах від перевала Семпіоне.",
    "timestamp": "2018-10-19T15:18:17Z"
  },
  {
    "id": 2092237,
    "title": "Диліжанс (фільм, 1939)",
    "text": "«Диліжанс» (Template:lang-en) — американський фільм 1939 року, поставлений режисером Джоном Фордом, який заклав основи естетики фордівського вестерна46399 Stagecoach — Trailers, Reviews, Synopsis, Showtimes and Cast — AllMovie. Це перший вестерн, знятий Фордом в Долині монументів і перший з його фільмів з Джоном Вейном у головній ролі. «Диліжанс» створено за оповіданням «Карета в Лордсбург» Ернеста Гейкокса. Прем'єра стрічки відбулася 15 лютого 1939 року в Лос-Анджелесі. Фільм отримав сім номінацій на премію «Оскар», але переміг лише в двох категоріях Template:перехід.",
    "timestamp": "2018-02-09T07:27:24Z"
  },
  {
    "id": 2092244,
    "title": "Воля (зупинний пункт)",
    "text": "Во́ля — пасажирська зупинна залізнична платформа Донецької дирекції Донецької залізниці. Розташована в с. Новоселівка, Єнакієвська міська рада, Донецької області на лінії Ясинувата-Пасажирська — Вуглегірськ між станціями Щебенка (6 км) та Нижньокринка (6 км).",
    "timestamp": "2018-03-30T17:23:34Z"
  },
  {
    "id": 2092250,
    "title": "9 км (зупинний пункт, Єнакієве)",
    "text": "9 кіломе́тр — пасажирська зупинна залізнична платформа Донецької дирекції Донецької залізниці на лінії Ясинувата-Пасажирська — Вуглегірськ між станціями Щебенка (8 км) та Нижньокринка (4 км).",
    "timestamp": "2018-03-30T17:24:42Z"
  },
  {
    "id": 2092256,
    "title": "Бурштин (станція)",
    "text": "Бурштин — залізнична станція Івано-Франківської дирекції залізничних перевезень Львівської залізниці. Розташована на лінії Ходорів - Івано-Франківськ між станціями Галич та Букачівці в с. Дем'янів Галицького району. На станції зупиняються пасажирські та приміські поїзди.",
    "timestamp": "2017-03-05T02:39:54Z"
  },
  {
    "id": 2092260,
    "title": "Акоп Акопян (лідер АСАЛА)",
    "text": "Акопян Акоп, також Мигранян Мігран, Акопян Арутюн (Template:lang-hy, 1951 — 28 квітня 1988, Афіни, Греція) — вірменський засновник організації АСАЛА.",
    "timestamp": "2017-02-09T17:01:05Z"
  },
  {
    "id": 2092262,
    "title": "Безодня (фільм, 1977)",
    "text": "«Безодня» (Template:lang-en) — американський пригодницький фільм 1977 року, режисера Пітера Єтса на основі роману Пітера Бенчлі з такою ж назвою. Фільм був випущений через вісімнадцять місяців після того, як був опублікований оригінальний роман.",
    "timestamp": "2018-02-15T16:30:05Z"
  },
  {
    "id": 2092268,
    "title": "Нижньокринка",
    "text": "Нижньокри́нка — вантажно-пасажирська залізнична станція Донецької дирекції Донецької залізниці. Розташована в селищі Комунар смт Нижня Кринка, Совєтського району Макіївки, Донецької області на лінії Ясинувата-Пасажирська — Вуглегірськ. Станція тупикова, найближча станція Щебенка (6 км).",
    "timestamp": "2018-03-30T17:26:20Z"
  },
  {
    "id": 2092269,
    "title": "Mansyu Ki-98",
    "text": "Mansyu Ki-98 — проект винищувача Імперської армії Японії періоду Другої світової війни.",
    "timestamp": "2016-01-02T16:33:16Z"
  },
  {
    "id": 2092272,
    "title": "Ланцюг (алгебрична топологія)",
    "text": "Ланцюг в алгебричній топології і диференціальній геометрії — конструкція, що узагальнює поняття багатокутника, використовується для визначення гомологій простору і інтегрування диференціальних форм на ньому.",
    "timestamp": "2016-05-12T14:37:08Z"
  },
  {
    "id": 2092280,
    "title": "Урчукін Віктор Григорович",
    "text": "Віктор Григорович Урчукін (Template:н. Template:ДН, станиця Старогладківська (Старогладівська), тепер Шелковського району Чеченської Республіки Російської Федерації) — український радянський діяч, заступник Голови Ради Міністрів Української РСР. Депутат Верховної Ради УРСР 11-го скликання (з 1987 року). Кандидат економічних наук.",
    "timestamp": "2018-03-03T14:30:42Z"
  },
  {
    "id": 2092308,
    "title": "Альбер Д'єдонне",
    "text": "Альбе́р Альфре́д Д'єдонне́ (Template:lang-fr; Template:нар21 листопада 1889, Париж, Франція — Template:†19 березня 1976, Париж, Франція) — французький актор, кінорежисер, сценарист та письменник.",
    "timestamp": "2016-06-22T06:22:41Z"
  },
  {
    "id": 2092310,
    "title": "Д'єдонне",
    "text": "Д'єдонне́ — французьке прізвище.",
    "timestamp": "2016-01-02T12:30:43Z"
  },
  {
    "id": 2092313,
    "title": "Чемпіонат Азербайджану з футболу 2014—2015",
    "text": "Прем'єр-ліга Азербайджану 2014–2015 — 23-й сезон Прем'єр-ліги Азербайджану з футболу.",
    "timestamp": "2017-08-10T05:48:47Z"
  },
  {
    "id": 2092316,
    "title": "20-річчя ухвалення Декларації про державний суверенітет України (монета)",
    "text": "20-рі́ччя ухва́лення Деклара́ції про держа́вний сувереніте́т Украї́ни  — ювілейна монета номіналом 2 гривні, випущена Національним банком України, присвячена 20-річчю ухвалення Верховною Радою УРСР політико-правового документа, у якому проголошувався державний суверенітет України, як верховенство, самостійність, повнота і неподільність влади держави в межах її території та незалежність і рівноправність у зовнішніх відносинах.",
    "timestamp": "2018-04-02T15:16:08Z"
  },
  {
    "id": 2092324,
    "title": "Костинський Сергій Анатолійович",
    "text": "Сергі́й Анато́лійович Костинський (нар. Template:ДН, смт Первомайське,  Первомайський район, АР Крим) — член Національної ради України з питань телебачення і радіомовлення.",
    "timestamp": "2017-05-13T17:06:19Z"
  },
  {
    "id": 2092327,
    "title": "Букачівці (станція)",
    "text": "Букачівці — залізнична станція Івано-Франківської дирекції залізничних перевезень Львівської залізниці. Розташована на лінії Ходорів - Івано-Франківськ між станціями Бурштин та Журавно в смт Букачівці Рогатинського району. На станції зупиняються пасажирські та приміські поїзди.",
    "timestamp": "2017-02-25T13:25:37Z"
  },
  {
    "id": 2092342,
    "title": "Фрідріх Гемпп",
    "text": "Фрідріх Гемпп (Friedrich Gempp; 1873—1947) — німецький воєнний діяч, письменник, генерал-майор (1941).",
    "timestamp": "2017-09-24T06:57:12Z"
  },
  {
    "id": 2092352,
    "title": "Комірка Бунзена",
    "text": "Комі́рка Бу́нзена — цинк-вуглецева первинна електрохімічна комірка, що складається з цинкового анода у сірчаній кислоті, відділеного пористою перегородкою від вуглецевого катоду в азотній або хромовій кислоті.",
    "timestamp": "2016-01-09T10:13:20Z"
  },
  {
    "id": 2092358,
    "title": "Фомін Микола Васильович",
    "text": "Микола Васильович Фомін (Template:нар 1905 або 1909, Харків, Російська імперія — Template:пом 1975, Харків, Українська РСР, СРСР) — український радянський футболіст, правий півзахисник.",
    "timestamp": "2016-01-04T09:42:33Z"
  },
  {
    "id": 2092364,
    "title": "Черниш Олег Миколайович",
    "text": "Оле́г Микола́йович Черниш (Template:н 9 лютого 1963, Березне, Рівненська область, УРСР, СРСР) — член Національної ради України з питань телебачення і радіомовлення (з 07.2014).",
    "timestamp": "2018-06-21T13:24:41Z"
  },
  {
    "id": 2092376,
    "title": "Юньєскі Кесада Перес",
    "text": "Юньєскі Кесада Перес (31 липня 1984, провінція Вілья-Клара) – кубинський шахіст, гросмейстер від 2005 року.",
    "timestamp": "2018-04-23T07:28:14Z"
  },
  {
    "id": 2092377,
    "title": "Гром Лаврентій Борисович",
    "text": "Гром Лаврентій Борисович (24 грудня 1914, Ковель  — 6 серпня 1975, Львів) — український скульптор.",
    "timestamp": "2016-10-30T09:17:42Z"
  },
  {
    "id": 2092389,
    "title": "Кертіс Лестер Мендельсон",
    "text": "Кертіс Лестер Мендельсон (Template:lang-en, Template:ДН, Нью-Йорк, США — Template:ДС, Вест-Палм-Біч, штат Флорида, США) — американський акушер-гінеколог, відомий найдокладнішим на той час описанням у 1946 році Template:Не перекладено, що тепер знаний під його іменем.",
    "timestamp": "2018-10-21T16:57:49Z"
  },
  {
    "id": 2092401,
    "title": "Забродін Іван Олександрович",
    "text": "Іван Олександрович Забродін (Template:ДН, село Червона Балка, тепер Барвінківського району Харківської області — Template:ДС, Київ) — український радянський державний діяч, міністр фінансів УРСР. Депутат Верховної Ради УРСР 11-го скликання (з 1987 року). Народний депутат СРСР у 1989—1991 роках.",
    "timestamp": "2018-03-03T23:28:51Z"
  },
  {
    "id": 2092404,
    "title": "Корабельна катастрофа",
    "text": "Корабе́льна катастро́фаРоберт Льюїс Стівенсон. Корабельна катастрофа. Переклад з англійськоїН: В. Бойченко; післямова: М. Слабошпицький. Київ: Веселка, 1984. 359 стор. (Бібліотечна) також корабе́льна ава́рія,Template:СУМ-11 кораблеги́н,Глосарій перекладача // Мішель Монтень. Проби: вибране. Пер. з фр.: Анатолій Перепадя. Київ: Ін-т л-ри ім. Т. Г. Шевченка Нац. акад. наук України; Харків: Фоліо, 2012. 443 стор.: стор. 436-437. ISBN 978-966-03-5105-9. (Бібліотека світової літератури) також іноді кораблетро́щаБлог проф. Пономарева: Уімблдон чи Вімблдон? - BBC Україна, 3 квітня 2017Анна-Марія Волосацька. Дисципліни мовної підготовки Мова медій Магістерська програма з журналістики. Навчальні дисципліни.  І семестр, Школа журналістики УКУАнатолій Нелюба, Євген Редько. Лексико-словотвірні інновації. 2012-2013 : словник. Харків: Харківське історико-філологічне товариство, 2014. 169 стор. ISBN 978-966-1630-17-7 суднотро́ща, Смертельний рейс: суднотроща з нелегалами - СТБ: Вікна-Новини, 20.04.2015Лідія Рибенко. \"Суднотроща\": роман. Дубно: Наше дзеркало, 2004. 194 стор. кораблекра́хТуристична політика зарубіжних країн: підручник. За редакцією: А. Ю. Парфіненка. Харків: ХНУ імені В. Н. Каразіна. 2015. 220 стор.: стор. 169 (Template:lang-en) — катастрофа, що відбулася з судном на морі, і яка призвела до його значного пошкодження чи повного знищення.",
    "timestamp": "2018-04-26T13:08:57Z"
  },
  {
    "id": 2092409,
    "title": "Хто в домі тато",
    "text": "«Хто в домі тато» (Template:lang-en, дослівно «Тато вдома») — американська кінокомедія режисера і сценариста Шона Андерса, що вийшла 2015 року. У головних ролях Вілл Ферелл, Марк Волберг, Лінда Карделліні.",
    "timestamp": "2017-11-29T21:42:55Z"
  },
  {
    "id": 2092413,
    "title": "Клан Колдер",
    "text": "Клан Колдер (шотл. - Clan Calder) - клан Калдер, клан Кавдор - один з кланів Шотландії. Володів землями як в рівнинній (Лоуленді), так і в гірській (Гайленд) частинах Шотландії. На сьогодні клан не має визнаного герольдами Шотландії та Лордом Лева вождя, тому називається «кланом зброєносців».",
    "timestamp": "2018-07-17T12:01:29Z"
  },
  {
    "id": 2092420,
    "title": "Писемність беджа",
    "text": "Писемність беджа — писемність мови беджа. Ця мова може записуватись і арабською (в Судані), і латинською (в Еритреї та Судані) абетками.",
    "timestamp": "2017-04-17T09:41:34Z"
  },
  {
    "id": 2092426,
    "title": "Королівство Фінляндія",
    "text": "Королівство Фінляндія (Template:Lang-fi) — форма державного ладу, що формально існувала у Фінляндії з 9 жовтня 1918 до 17 липня 1919. Але король так і не прибув в країну і не підписав жодного державного документу. Роль голови держави виконував регент.",
    "timestamp": "2018-07-27T10:33:11Z"
  },
  {
    "id": 2092430,
    "title": "Lvkv m/43",
    "text": "Luftvärnsvärnskanonvagn fm/43; (Template:lang-ua, luftvärnsvärnskanonvagn försöks modell — протиповітряна гарматна машина тестова модель) — шведська зенітна самохідна установка. Розроблена компанією Landsverk AB (Template:lang-ua) в 1943 році на подовженому шасі легкого танка Landsverk L-60, в 1947 році принятa на озброєння шведської армії, під назвою Lvkv m/43.",
    "timestamp": "2018-08-01T12:03:45Z"
  },
  {
    "id": 2092445,
    "title": "Румунська інтервенція в Угорщину",
    "text": "Румунська інтервенція в Угорщину, відома також як Румунсько-угорська війна — румунське збройне втручання в Угорщину в 1919.",
    "timestamp": "2018-07-29T14:25:31Z"
  },
  {
    "id": 2092446,
    "title": "Киллесте (волость)",
    "text": "Киллесте (Template:lang-et) — волость в Естонії, у складі повіту Пилвамаа.",
    "timestamp": "2018-02-27T10:25:03Z"
  },
  {
    "id": 2092455,
    "title": "Зініна Олена Андріївна",
    "text": "Оле́на Андрі́ївна Зі́ніна (дівоче прізвище — Максимович, Template:н Template:ДН, Лубни — Template:† 24 жовтня 1943, Київ) — українська акторка і співачка (сопрано), відома за виступами в низці відомих українських театрів першої половини 20 століття. Герой Соціалістичної Праці (1924). Дружина М. Ярошенка.",
    "timestamp": "2018-09-05T23:46:06Z"
  },
  {
    "id": 2092458,
    "title": "Теренс Кроуфорд",
    "text": "Теренс Кроуфорд (Template:lang-en; нар. 28 вересня 1987, Омаха, Небраска, США) — американський боксер-професіонал, що виступає в напівсередній вазі. Чемпіон світу за версією WBO (2018 — н.ч.) в напівсередній вазі. Колишній абсолютний чемпіон світу в першій напівсередній вазі (титули WBO (2015 — 2017), WBC (2016 — 2017), WBA (Super) (2017), IBF (2017) та The Ring (2016 — 2017)), а також колишній чемпіон світу в легкій вазі за версіями WBO (2014 — 2015) та The Ring (2014 — 2015).",
    "timestamp": "2018-10-21T05:19:47Z"
  },
  {
    "id": 2092480,
    "title": "Рафаель Персонас",
    "text": "Рафаель Персонас (Template:lang-fr; Template:нар 28 липня 1981, Париж, Франція) — французький актор.",
    "timestamp": "2017-09-08T23:34:46Z"
  },
  {
    "id": 2092481,
    "title": "Українське кіно доби Незалежності",
    "text": "Українське кіно доби Незалежності характеризується розпадом кіноіндустрії в 1990-х роках та спробами відбудувати її в 2000–2010-х роках. Разом з занепадом централізованої кіноіндустрії розпочинається розвиток незалежних кіностудій, фірм-дистриб'юторів та мережі кінотеатрів. В 2010-х роках з розвитком цифрових технологій та можливістю створювати фільм більш дешево, в Україні стрімко зростає кількість короткометражних фільмів. Попри збитковість кіногалузі в цей час, ряд українських фільмів мав успіх на міжнародних кінофестивалях.",
    "timestamp": "2018-09-25T18:29:15Z"
  },
  {
    "id": 2092485,
    "title": "Жуков Володимир Романович",
    "text": "Володимир Романович Жуков (Template:н. 17 серпня 1946, місто Макіївка, тепер Донецької області) — український радянський державний діяч, 1-й секретар Макіївського міського комітету КПУ Донецької області, голова Макіївської міської ради. Депутат Верховної Ради УРСР 11-го скликання (з 1988 року). Депутат Верховної Ради України 1-го скликання. Кандидат економічних наук (2003).",
    "timestamp": "2016-12-21T18:28:44Z"
  },
  {
    "id": 2092508,
    "title": "Журавно (станція)",
    "text": "Журавно — залізнична станція Івано-Франківської дирекції залізничних перевезень Львівської залізниці. Розташована на лінії Ходорів — Івано-Франківськ між станціями Букачівці та Ходорів в с. Луковець-Вишнівський Рогатинського району. На станції зупиняються тільки приміські поїзди.",
    "timestamp": "2017-02-26T18:28:06Z"
  },
  {
    "id": 2092511,
    "title": "Юрі (співачка)",
    "text": "Юрі (Template:lang-es; Template:н 6 січня 1964 року, Веракрус, Мексика) — мексиканська співачка.",
    "timestamp": "2017-02-23T17:52:30Z"
  },
  {
    "id": 2092517,
    "title": "Кхумбу (льодопад)",
    "text": "Льодопад Кхумбу — льодопад, який знаходиться в непальському регіоні Кхумбу, у верхній частині льодовика Кхумбу, що стікає з південних схилів Евереста. Льодопад розташований на висоті 5486 м на схилах гори Еверест, обернених до Непалу.",
    "timestamp": "2017-09-04T19:10:32Z"
  },
  {
    "id": 2092518,
    "title": "15 років Конституції України (монета)",
    "text": "15 ро́ків Конститу́ції Украї́ни — ювілейна монета номіналом 5 гривень, випущена Національним банком України, присвячена 15-річчю прийняття Верховною Радою України Основного Закону України, який закріплює суспільно-політичний і державний устрій, права, свободи та обов'язки громадян України.",
    "timestamp": "2018-04-02T15:16:31Z"
  },
  {
    "id": 2092529,
    "title": "Чародії (фільм)",
    "text": "«Чародії» (Template:lang-ru) — український радянський художній фільм, новорічна музична комедійна кіноказка режисера Костянтина Бромберга за сценарієм братів Стругацьких. Фільм знятий у Радянському Союзі в 1982 році, прем'єра його на ЦТ відбулася ввечері 31 грудня. Повторний показ фільму відбувся вже в січні 1983 року  на Другій програмі ЦТ.",
    "timestamp": "2018-10-11T18:55:18Z"
  },
  {
    "id": 2092532,
    "title": "Nakajima Ki-62",
    "text": "Nakajima Ki-62 — проект винищувача Імперської армії Японії  періоду Другої світової війни.",
    "timestamp": "2016-01-02T18:19:50Z"
  },
  {
    "id": 2092533,
    "title": "Алі Махір",
    "text": "Алі Махір (Template:lang-ar; 1882 — 25 серпня 1960) — єгипетський політичний діяч, прем'єр-міністр Єгипту у 1936, 1939–1940 та двічі 1952 року. Став першим главою уряду після революції 23 липня 1952 року. Також неодноразово обіймав посади міністра закордонних справ, військового міністра, міністра внутрішніх справ і міністра фінансів Єгипту.",
    "timestamp": "2016-11-20T22:13:11Z"
  },
  {
    "id": 2092542,
    "title": "Скупчення Персея",
    "text": "Скупчення Персея — скупчення галактик у сузір'ї Персея,  є частиною надскупчення Персея—Риб. Template:Джерело?. Його середня радіальна швидкість становить близько 5 400 кілометрів на секунду. Маса скупчення становить понад 2×1015 мас Сонця.",
    "timestamp": "2018-07-02T17:17:52Z"
  },
  {
    "id": 2092552,
    "title": "Сестри (фільм, 2015)",
    "text": "«Сестри» (Template:lang-en) — американська кінокомедія режисера Джейсона Мура, що вийшла 2015 року. У головних ролях Тіна Фей, Емі Полер, Майя Рудольф.",
    "timestamp": "2018-10-07T19:34:56Z"
  },
  {
    "id": 2092553,
    "title": "Мотор (платформа)",
    "text": "Платфóрма Мотóр — пасажирський зупинний пункт Запорізької дирекції Придніпровської залізниці на лінії Синельникове I — Запоріжжя I, розташований між станцією Запоріжжя I (3 км) та зупинним пунктом Іскра (2 км) в Шевченківському районі міста Запоріжжя.",
    "timestamp": "2018-06-15T18:11:37Z"
  },
  {
    "id": 2092562,
    "title": "Дмитро Тимашов",
    "text": "Дмитро Тимашов (Template:lang-sv; 1 жовтня 1996, Кіровоград (нині Кропивницький), Україна) — професійний шведський хокеїст українського походження Template:cite web, лівий нападник.",
    "timestamp": "2017-07-18T08:35:58Z"
  },
  {
    "id": 2092563,
    "title": "Куйару",
    "text": "Ку́йару (Template:lang-et) — село в Естонії, у волості Торі повіту Пярнумаа.",
    "timestamp": "2016-01-04T22:24:52Z"
  },
  {
    "id": 2092566,
    "title": "Іскра (платформа)",
    "text": "Íскра (Платфóрма 1101 км) — зупинний пункт Запорізької дирекції Придніпровської залізниці на лінії Синельникове I — Запоріжжя I між станцією Запоріжжя-Вантажне (4 км) та зупинним пунктом Мотор. Розташований в Шевченківському районі міста Запоріжжя.",
    "timestamp": "2018-06-15T18:24:42Z"
  },
  {
    "id": 2092567,
    "title": "Байрак (станція)",
    "text": "Байра́к — вантажно-пасажирська залізнична станція Донецької дирекції Донецької залізниці. Розташована на сході м. Горлівка, Калінінський район, Донецької області на лінії Микитівка — Дебальцеве між станціями Микитівка (9 км) та Вуглегірськ (11 км).",
    "timestamp": "2018-03-30T17:51:44Z"
  },
  {
    "id": 2092570,
    "title": "Ельський Олександр Карлович",
    "text": "Олекса́ндр Ка́рлович Е́льский (Template:lang-be; Template:lang-pl, Template:lang-ru;16 червня 1834 маєток Дудзичі, Ігуменський повіт, Мінської губернії, Російської імперії — 10 вересня 1916, маєток Замостя, Ігуменський повіт, Мінська губернія, Російська імперія) — білоруський історик, літературознавець, краєзнавець, публіцист.",
    "timestamp": "2018-07-17T19:23:04Z"
  },
  {
    "id": 2092583,
    "title": "Сілаков Віктор Олексійович",
    "text": "Віктор Олексійович Сілаков (Template:н. Template:ДН, тепер Російська Федерація — Template:† ?) — радянський військовий діяч, генерал-полковник, начальник Політуправління Прикарпатського військового округу. Депутат Верховної Ради УРСР 10-го скликання (з 1981 року). Кандидат у члени ЦК КПУ в 1981 — 1986 р.",
    "timestamp": "2017-10-14T18:09:40Z"
  },
  {
    "id": 2092584,
    "title": "COROT-7b",
    "text": "COROT-7b (раніше називався COROT-Exo-7b) — екзопланета, що обертається навколо зірки COROT-7, в сузір'ї Єдинорога, на відстані 489 світлових років від Землі. Ця екзопланета була виявлена ​​на початку 2009 року в сузір'ї Єдинорога. COROT-7b знаходиться в припливному захопленні зірки COROT-7, тобто планета завжди повернена до світила однією стороною, тому умови на освітленій і не освітленій сторонах дуже сильно різняться. Темна сторона COROT-7b швидше за все покрита товстим шаром льоду, але інша сторона являє собою величезний океан розплавленої лави, температура якого +2600 °C. Атмосфера, в основному, складається з породи, що випарувалася, у верхніх шарах вона знову застигає і випадає на поверхню екзопланети у вигляді кам'яного дощу.",
    "timestamp": "2018-04-21T19:08:11Z"
  },
  {
    "id": 2092586,
    "title": "15 км (зупинний пункт, Горлівка)",
    "text": "15 кіломе́тр — пасажирська зупинна залізнична платформа Донецької дирекції Донецької залізниці.",
    "timestamp": "2018-03-30T17:52:41Z"
  },
  {
    "id": 2092589,
    "title": "Кім Леонід Олександрович",
    "text": "Леонід Олександрович Кім (Template:lang-sah, Template:lang-ru, 31 грудня 1916, Хабаровськ — 2 січня 1994, Якутськ) — якутський художник. Народний художник Якутської АРСР, Заслужений художник Росії.",
    "timestamp": "2016-05-12T14:34:53Z"
  },
  {
    "id": 2092595,
    "title": "166 км (платформа)",
    "text": "Платформа 166 км — залізнична платформа Запорізької дирекції Придніпровської залізниці на лінії Апостолове — ЗапоріжжяTemplate:АЗУ-2008.",
    "timestamp": "2017-03-22T20:29:52Z"
  },
  {
    "id": 2092602,
    "title": "Афанасьєва Любов Миколаївна",
    "text": "Любов Миколаївна Афанасьєва (Template:н. Template:ДН, місто Рудки, тепер Самбірського району Львівської області) — українська радянська діячка, паяльниця Дрогобицького заводу автомобільних кранів. Депутат Верховної Ради УРСР 10-го скликання.",
    "timestamp": "2018-07-01T22:10:18Z"
  },
  {
    "id": 2092603,
    "title": "Вільнюський район",
    "text": "Вільнюський район (Вільнюське районне самоуправління, лит. Vilniaus rajono savivaldybė) — район у Вільнюському повіті. Центр — місто Вільнюс.",
    "timestamp": "2018-04-01T10:53:59Z"
  },
  {
    "id": 2092604,
    "title": "Куйару (природний заповідник)",
    "text": "Приро́дний запові́дник Ку́йару (Template:lang-et) — природоохоронна територія в Естонії, у повіті Пярнумаа.",
    "timestamp": "2016-01-02T22:38:27Z"
  },
  {
    "id": 2092605,
    "title": "Гартман фон Ауе",
    "text": "Га́ртман фон А́уе (Template:lang-de) — один із провідних німецьких поетів Високого Середньовіччя у часи династії Гогенштауфенів. Мінезингер (збереглося 18 пісень). Старший сучасник Вольфрама фон Ешенбаха та Готфріда Страсбурзького.",
    "timestamp": "2018-02-06T14:55:28Z"
  },
  {
    "id": 2092607,
    "title": "168 км (платформа, Запоріжжя)",
    "text": "Платформа 168 км — залізнична платформа Запорізької дирекції Придніпровської залізниці на електрифікованій лінії Апостолове — ЗапоріжжяTemplate:АЗУ-2008.",
    "timestamp": "2017-03-22T20:30:34Z"
  },
  {
    "id": 2092624,
    "title": "TrES-2b",
    "text": "TrES-2b — чорний газовий гігант, що обертається навколо зірки спектрального класу G0V GSC 03549-02811. Відкрито транзитним методом в рамках проекту «Трансатлантичний екзопланетний огляд» у 2006 році.",
    "timestamp": "2018-08-18T22:18:39Z"
  },
  {
    "id": 2092626,
    "title": "Куйару (природна територія)",
    "text": "Приро́дна терито́рія Ку́йару (Template:lang-et) — природоохоронна територія в Естонії, у повіті Пярнумаа. Входить до Європейської екологічної мережі Natura 2000.",
    "timestamp": "2016-01-03T12:15:03Z"
  },
  {
    "id": 2092681,
    "title": "Щерба Наталія Василівна",
    "text": "Наталія Василівна Щ́ерба — сучасна російськомовна письменниця родом з Білорусі. Свої твори пише російською в жанрі підліткової фантастики та фентезі. Проживає в прикарпатському місті Івано-Франківську. Найвідоміші твори - цикл підліткових романів «Часодії», «Чароділ» та «Лунастри».",
    "timestamp": "2018-05-22T00:18:57Z"
  },
  {
    "id": 2092685,
    "title": "Александер Ват",
    "text": "Александер Ват, правильно Александер Хват (1 травня 1900, Варшава — 29 липня 1967, Антоні) — польський письменник і поет з кола футуристів, єврейського походження. Був також перекладачем англосакської, французької, німецької, російської та радянської літератур. Один із засновників польського футуризму — у 1919 році організував «перший польський футуристичний виступ».",
    "timestamp": "2017-02-21T10:38:48Z"
  },
  {
    "id": 2092716,
    "title": "Ооре",
    "text": "О́оре (Template:lang-et) — село в Естонії, у волості Торі повіту Пярнумаа.",
    "timestamp": "2016-01-05T12:50:08Z"
  },
  {
    "id": 2092725,
    "title": "Рандівялья",
    "text": "Ра́ндівялья (Template:lang-et) — село в Естонії, у волості Торі повіту Пярнумаа.",
    "timestamp": "2016-01-05T12:52:46Z"
  },
  {
    "id": 2092726,
    "title": "Урумар'я",
    "text": "У́румар'я (Template:lang-et) — село в Естонії, у волості Торі повіту Пярнумаа.",
    "timestamp": "2016-01-05T13:21:17Z"
  },
  {
    "id": 2092727,
    "title": "Кирса",
    "text": "Ки́рса (Template:lang-et) — село в Естонії, у волості Торі повіту Пярнумаа.",
    "timestamp": "2016-01-04T22:22:27Z"
  },
  {
    "id": 2092728,
    "title": "Таалі",
    "text": "Та́алі (Template:lang-et) — село в Естонії, у волості Торі повіту Пярнумаа.",
    "timestamp": "2016-01-05T13:19:01Z"
  },
  {
    "id": 2092748,
    "title": "Паломницька церква в Вісе",
    "text": "Паломницька церква у селі Віс (Template:lang-de) — одне з головних споруджень баварського рококо та центральний витвір архітектора Домініка Ціммерманна, що провів у селі Віс останній десяток років свого життя.",
    "timestamp": "2016-03-06T23:04:29Z"
  },
  {
    "id": 2092751,
    "title": "Тракайський район",
    "text": "Тракайський район (Тракайське районне самоуправління, лит. Trakų rajono savivaldybė) — район у Вільнюському повіті. Центр — місто Тракай.",
    "timestamp": "2016-01-21T14:17:12Z"
  },
  {
    "id": 2092752,
    "title": "Хяятару",
    "text": "Хяятару (Template:lang-et), також Хяятари (Template:lang-et) — село в Естонії, входить до складу волості Киллесте, повіту Пилвамаа.",
    "timestamp": "2018-02-21T07:11:26Z"
  },
  {
    "id": 2092755,
    "title": "Іхамару",
    "text": "Іхамару (Template:lang-et) — село в Естонії, входить до складу волості Киллесте, повіту Пилвамаа.",
    "timestamp": "2018-02-21T07:11:28Z"
  },
  {
    "id": 2092762,
    "title": "Запорізький автобус",
    "text": "Запорíзький автóбус — мережа міських автобусних маршрутів Запоріжжя.",
    "timestamp": "2018-04-09T10:12:31Z"
  },
  {
    "id": 2092764,
    "title": "Шмагін Володимир Михайлович",
    "text": "Володи́мир Миха́йлович Шмагін (Template:н. Template:ДН, місто Новоросійськ, тепер Краснодарського краю, Російська Федерація — Template:† Template:ДС) — радянський військовий діяч, генерал-лейтенант авіації, командувач 36-ю повітряною армією Південної групи військ СРСР. Депутат Верховної Ради УРСР 9-го скликання.",
    "timestamp": "2016-11-04T23:51:41Z"
  },
  {
    "id": 2092766,
    "title": "Караскі (Киллесте)",
    "text": "Караскі (Template:lang-et) — село в Естонії, входить до складу волості Киллесте, повіту Пилвамаа.",
    "timestamp": "2018-05-07T12:54:22Z"
  },
  {
    "id": 2092774,
    "title": "Мірко Саблич",
    "text": "Мірко Саблич (Mirko Sablic) — музичний проект, за самовизначенням у соцмережах — «іронічно-сатиричне рефлектування у пісенні формі подій Окупаційної війни»Мірко Саблич — самі собі Мінстець // facebook, 3.01.2016.",
    "timestamp": "2018-09-18T23:44:59Z"
  },
  {
    "id": 2092784,
    "title": "Андреєв Олександр Петрович (генерал-полковник авіації)",
    "text": "Олександр Петрович Андреєв (Template:н. Template:ДН, село Березово, тепер Пронського району Рязанської області, Російська Федерація) — радянський військовий діяч, генерал-полковник авіації, командуючий 17-ю повітряною армією Київського військового округу. Депутат Верховної Ради УРСР 9-го скликання. Кандидат військових наук. Герой Російської Федерації.",
    "timestamp": "2018-06-23T10:12:35Z"
  },
  {
    "id": 2092790,
    "title": "Арві",
    "text": "Арві (அரபு-தமிழ் arabu-tamil) — арабське письмо, пристосоване для запису тамільської мови. Арві використовувалось тамільськими мусульманами в штаті Таміл Наду (Індія) та в Шрі-Ланці.",
    "timestamp": "2017-01-27T16:23:09Z"
  },
  {
    "id": 2092792,
    "title": "Ізотопи ейнштейнію",
    "text": "Ейнштейній (Es) є синтезованим елементом, отож стандартні атомні маси не можуть бути подані. Як і будь-який штучний елемент, він не має жодного стабільного ізотопа. Першим відкритим ізотопом (в радіоактивному попелі після випробування термоядерної бомби) був 253Es у 1952 році. Відомі 19 радіонуклідів від 240Es до 258Es, і 3 ізомери ядер (250mEs, 254mEs, і 256mEs). Найбільш довгоживучим ізотопом є 252Es, який має період напіврозпаду 471.7 днів, або близько 1.293 року.",
    "timestamp": "2016-12-25T08:55:21Z"
  },
  {
    "id": 2092802,
    "title": "Головацький Іван Федорович",
    "text": "Іва́н Фе́дорович Голова́цький (1816, Чепелі, нині Бродівський район Львівської області — 9 лютого 1899, Відень) — український громадський діяч, журналіст, видавець, поет, перекладач. Брат Якова Головацького.",
    "timestamp": "2018-08-20T05:59:27Z"
  },
  {
    "id": 2092811,
    "title": "Будніков Анатолій Миколайович",
    "text": "Анато́лій Микола́йович Бу́дніков (Template:ДН, Київ, СРСР — Template:ДС, Дебальцеве, Україна) — сержант Збройних сил України.",
    "timestamp": "2018-08-21T20:16:08Z"
  },
  {
    "id": 2092816,
    "title": "Климбовський Олег Федорович",
    "text": "Оле́г Фе́дорович Климбо́вський — підполковник Збройних сил України.",
    "timestamp": "2018-02-06T18:56:36Z"
  },
  {
    "id": 2092817,
    "title": "Коваленко Ігор Олександрович",
    "text": "І́гор Олекса́ндрович Ковале́нко — майор Збройних сил України.",
    "timestamp": "2018-08-23T09:44:28Z"
  },
  {
    "id": 2092818,
    "title": "Кулька Руслан Миколайович",
    "text": "Русла́н Микола́йович Ку́лька — полковник Збройних сил України.",
    "timestamp": "2018-07-30T05:20:33Z"
  },
  {
    "id": 2092819,
    "title": "Логвиненко Олександр Володимирович",
    "text": "Олекса́ндр Володи́мирович Логвине́нко — капітан Збройних сил України.",
    "timestamp": "2017-08-27T09:38:07Z"
  },
  {
    "id": 2092821,
    "title": "Аукштлаукіс",
    "text": "Аукштлаукіс (Aukštlaukys) — село у Литві, Каунаський повіт, Расейняйський район, Аріогальське староство, розташоване за 7 км від Ілґіжяя III. 2001 року в Аукштлайкісі проживало 7 осіб, 2011-го — також 7.",
    "timestamp": "2018-02-21T07:11:32Z"
  }
]