[
  {
    "id": 1340787,
    "title": "Подорож 2: Таємничий острів",
    "text": "Подорож 2: Таємничий острів (Template:lang-en) — американський пригодницький бойовик режисера Бреда Пейтона, другий фільм серії Подорож, що вийшов у 19 січня 2012 року в Австралії та 9 лютого 2012 року в Україні.",
    "timestamp": "2018-03-10T15:51:40Z"
  },
  {
    "id": 1340789,
    "title": "Вулиця Самчука (Львів)",
    "text": "Ву́лиця Самчука́ — вулиця у Галицькому районі Львова, в місцевості Софіївка. Починається від парної сторони вулиці Франка, між № 108 і 110, та завершується між № 148 і 150 тієї ж вулиці. Парною стороною примикає до Стрийського парку.",
    "timestamp": "2018-07-31T18:05:39Z"
  },
  {
    "id": 1340790,
    "title": "Юліан Макаревич",
    "text": "Юліа́н Макаре́вич (Template:lang-pl, 1854–1936) — український художник та реставратор. Народився в с. Верхнє Синьовидне (тепер Сколівського р-ну Львівської обл. Вивчав архітектуру у Львівській політехніці. З 1878 року по 1879 рік навчався у Віденській академії мистецтв (майстерня С. Гріпенхерла), а потім у Мюнхені та Римі. Вивчав техніку настінного живопису і можливості її реставрації.",
    "timestamp": "2018-08-16T06:35:44Z"
  },
  {
    "id": 1340791,
    "title": "E=mc² (значення)",
    "text": "E=mc2 — формула, яку часто називають формулою Ейнштейна. Ця формула є основою для концепції еквівалентності маси та енергії.",
    "timestamp": "2013-03-20T23:05:36Z"
  },
  {
    "id": 1340798,
    "title": "За танкову атаку (нагрудний знак)",
    "text": "За танкову атаку — німецька медаль (нагрудний знак), нагородження якою проводилося протягом Другої світової війни. Засновано генерал-полковником фон Браухічем 20 грудня 1939 для нагородження танкістів. Ескіз знаку розроблений берлінською фірмою Ernst Peekhaus. 6 червня 1940 було затверджено «бронзовий» варіант нагороди.",
    "timestamp": "2016-01-08T20:56:46Z"
  },
  {
    "id": 1340800,
    "title": "ЄС (значення)",
    "text": "ЄС найчастіше означає Європейський Союз.",
    "timestamp": "2012-07-13T10:28:42Z"
  },
  {
    "id": 1340801,
    "title": "Герб Третього Рейху",
    "text": "Держа́вний оре́л (Template:lang-de) — герб, який був офіційним державним символом Німеччини (з 1943 р. — Великонімеччини).",
    "timestamp": "2017-04-11T15:53:58Z"
  },
  {
    "id": 1340802,
    "title": "Adam's Song",
    "text": "Adam's Song — сингл американського поп-панк гурту Blink-182 з альбому Enema of the State. Він був третім і останнім синглом з альбому після треків «What's My Age Again?» та «All the Small Things». Реліз відбувся 5 вересня 2000 року на MCA Records.Template:cite web Adam's Song — одна з п'яти пісень гурту, які досягли другого місця у чарті US Modern Rock Tracks.Template:cite web Вокальні партії в пісні виконує Марк Гоппус.",
    "timestamp": "2017-08-17T18:47:05Z"
  },
  {
    "id": 1340806,
    "title": "Іспанія на Олімпійських іграх",
    "text": "Іспанія вперше взяла участь в Олімпійських іграх 1900 року у Парижі. Наступні три Олімпіади вона пропустила, повернувшись у 1920 році. З тих пір Іспанія виступала на всіх літніх Олімпійських іграх, крім Ігор 1936 року, які вона бойкотувала. Також країна бойкотувала Олімпійські ігри 1956 року у Мельбурні через придушення СРСР Угорської революції, проте змагання із кінного спорту пройшли раніше у Стокгольмі.",
    "timestamp": "2016-10-15T08:53:50Z"
  },
  {
    "id": 1340811,
    "title": "Арістовул (апостол від 70)",
    "text": "Арістовул (Template:lang-el, Template:lang-la І століття після Р. Х. — собор святих сімдесяти апостолів Христових, єпископ Врітанійскій (Британський), народився на Кіпрі. Разом зі своїм братом, апостолом від сімдесяти Варнавою, він супроводжував апостола Павла в його подорожах. Арістовул згадується в Посланні апостола Павла до Римлян (Template:Біблія). Апостол Павло поставив Арістовула єпископом та послав його на проповідь Євангелія до Британії, де за переказами він багатьох навернув до Христа, за що зазнав гоніння з боку язичників. Помер Арістовул в Британії як видно мученицькою смертю, хоча це не підтверджується джерелами.",
    "timestamp": "2018-03-14T12:27:10Z"
  },
  {
    "id": 1340822,
    "title": "Фльоров Георгій Миколайович",
    "text": "Гео́ргій Микола́йович Фльо́ров (*Template:ДН, Ростов-на-Дону — †19 листопада 1990, Москва) — радянський фізик-ядерник, засновник Об'єднаного інституту ядерних досліджень (ОІЯД) в Дубні́, академік АН СРСР (1968).",
    "timestamp": "2016-07-03T18:58:51Z"
  },
  {
    "id": 1340827,
    "title": "Сан-Марино на Олімпійських іграх",
    "text": "Сан-Марино брало участь у 12-ти літніх та в 7-ми зимових Олімпійських іграх. Дебютували на літніх Олімпійських іграх в Римі 1960 року і з того часу пропустили тільки Ігри 1964 року в Токіо та дві зимові олімпіади 1980 року та 1998 року. Спортсмени цієї країни ніколи не завойовували олімпійських нагород.",
    "timestamp": "2016-09-04T09:48:02Z"
  },
  {
    "id": 1340830,
    "title": "Теобальд I (король Наварри)",
    "text": "Теобальд I Трубадур (*30 травня 1201 — †8 липня 1253) — король Наварри у 1234–1253 роках, граф Шампані у 1201–1253 роках (як Тібо IV), поет, учасник Шостого хрестового походу.",
    "timestamp": "2017-05-31T18:49:20Z"
  },
  {
    "id": 1340835,
    "title": "Ferrari 308 GTB",
    "text": "Ferrari 308 GTB/GTS (і аналогічних 208, а пізніше 328) — спортивна машина з центральним розташуванням двигуна, що вироблялась італійською компанією Ferrari в 1975–1985 рр. Вона була найдешевшою в лінійці компанії. Модель 308 замінила Dino 246 в 1975 році та була замінена на 328 в 1985 році.",
    "timestamp": "2017-01-21T13:52:09Z"
  },
  {
    "id": 1340836,
    "title": "Роже Брюне",
    "text": "Роже́ Брюне́ (Template:lang-fr; Template:н 30 березня 1931Template:ref-fr « Brunet, Roger » ) — французький географ, професор, один з провідних вчених CNRS в галузі географії.",
    "timestamp": "2016-11-20T09:43:23Z"
  },
  {
    "id": 1340842,
    "title": "Русанівська сільська рада",
    "text": "Русанівська сільська рада — адміністративно-територіальна одиниця в Україні.",
    "timestamp": "2014-10-10T00:37:55Z"
  },
  {
    "id": 1340843,
    "title": "Бахрейн на Олімпійських іграх",
    "text": "Бахрейн бере участь в Олімпійських іграх з 1984 року. Всього на Іграх країну представляли 45 чоловіків і 6 жінок, які виступали в змаганнях з велоспорту, легкої атлетики, вітрильного спорту, плавання, сучасного п'ятиборства, стрільби та фехтування. Найбільша делегація (14 спортсменів) представляла Бахрейн на Олімпійських іграх у Пекіні. У зимових Олімпійських іграх Бахрейн ніколи не брав участі.",
    "timestamp": "2016-09-17T14:53:48Z"
  },
  {
    "id": 1340844,
    "title": "The Day That Never Comes",
    "text": "The Day That Never Comes — пісня гурту Metallica.",
    "timestamp": "2016-11-17T13:33:11Z"
  },
  {
    "id": 1340858,
    "title": "Ferrari 328",
    "text": "Ferrari 328 GTB і GTS — наступник Ferrari 308 GTB і GTS, значною мірою оновлена 308 GTB і GTS відповідно, невеликі зміни були внесені в стиль кузова та двигун, у тому числі збільшився об'ємом двигуна до 3,2 л (3185 см3). 7400 шт. Ferrari 328s були випущені, на той час модель була замінена на нову Ferrari 348 в 1989 році, в результаті чого всього за 308/328 покоління розійшлося тиражем майже 20000 автомобілів. Ferrari 328 GTB і GTS на думку деяких любителів Ferrari є одним із найнадійніших Феррарі, на відміну від деяких моделей, в більшості двигунів обслуговування може бути виконана без зняття двигуна з автомобіля.",
    "timestamp": "2017-05-13T19:48:31Z"
  },
  {
    "id": 1340861,
    "title": "Апостольське Передання",
    "text": "Апо́стольське Передання́ Template:lang-el — в широкому сенсі — частина священного Передання, в церковно-науковій літературі і патрології — передбачуване ядро цілого ряду літургіко-канонічних пам'яток, яке дає докладну картину устрою церковного життя III ст., Будучи важливим джерелом з історії ранньохристиянського богослужіння.",
    "timestamp": "2018-10-02T21:53:33Z"
  },
  {
    "id": 1340863,
    "title": "Ferrari 348",
    "text": "Ferrari 348 — спортивний автомобіль з центральним розташуванням двигуна та задньопривідна, 2-місний спортивний автомобіль від Ferrari SpA, який змінив 328 в 1989 році і виготовлявся аж до 1995 року, коли був замінений на F355.",
    "timestamp": "2018-07-05T21:41:29Z"
  },
  {
    "id": 1340872,
    "title": "Су Ши",
    "text": "Су Ши (*8 січня 1037 — †24 серпня 1101) — китайський поет й письменник часів династії Сун.",
    "timestamp": "2016-12-11T18:30:01Z"
  },
  {
    "id": 1340890,
    "title": "Ухил",
    "text": "Ухил — елемент поздовжнього профілю залізничної колії, що має нахил до горизонтальної лінії. Ухил для поїзда, що рухається від нижчої точки до вищої, називається підйомом, а назад — спуском.",
    "timestamp": "2018-02-14T11:19:10Z"
  },
  {
    "id": 1340891,
    "title": "Перша Поперечна вулиця",
    "text": "Пе́рша Попере́чна ву́лиця — вулиця у Московському районі міста Харкова. Розташована між Салтівським шосе та вулицею Івана Камишева. Нумерація будинків ведеться від Салтівського шосе.",
    "timestamp": "2018-06-14T19:17:41Z"
  },
  {
    "id": 1340892,
    "title": "Італія на Олімпійських іграх",
    "text": "Італія брала участь у всіх Олімпійських іграх, крім Ігор 1904 року. Вона приймала в себе літні Олімпійські ігри 1960, зимові Олімпійські ігри 1956 та зимові Олімпійські ігри 2006.",
    "timestamp": "2016-10-15T14:47:34Z"
  },
  {
    "id": 1340899,
    "title": "ICarly",
    "text": "«АйКарлі» (Template:lang-en) — телевізійний американський ситком, що розповідає про дівчинку Карлі, яка створила в інтернеті розважальне веб-шоу «iCarly» зі своїми друзями Сем і Фредді. Трансляція серіалу проходить на телеканалі Nickelodeon з вересня 2007 року. Створений та спродюсований Деном Шнайдером, творцем таких культових телесеріалів як «Кенан і Кел», «Дрейк і Джош», «Вікторія-переможниця» та ін. Був 2 рази номінований на основну премію «Еммі» (Primetime Emmy Award) в 2009 і 2010 роках.",
    "timestamp": "2017-11-29T15:26:39Z"
  },
  {
    "id": 1340902,
    "title": "Мала Пельпахта (Бабаєвський район)",
    "text": "Мала Пельпахта — село в Бабаєвському районі Вологодської області Росії.",
    "timestamp": "2015-03-25T16:00:08Z"
  },
  {
    "id": 1340906,
    "title": "Автошлях Т 0224",
    "text": "Автошля́х Т 0224 — автомобільний шлях територіального значення у Вінницькій області. Пролягає територією Тростянецького та Теплицького районів через Тростянчик—Теплик. Загальна довжина — 40,1 км.",
    "timestamp": "2018-02-23T19:22:59Z"
  },
  {
    "id": 1340907,
    "title": "Kane & Lynch: Dead Men",
    "text": "Kane & Lynch: Dead Men — кооперативний шутер від третьої особи в жанрі екшн, розроблений IO Interactive і виданий Eidos Interactive у Північній Америці та для PAL регіонів, та компанією Spike у Японії для платформ Microsoft Windows, PlayStation 3 і Xbox 360. Мобільну версію розробила данська Kiloo і видала Eidos Mobile. Гра отримала середні відгуки, і мала продовження Kane & Lynch 2: Dog Days. В основі геймплею лежить ідея про спільні дії двох абсолютно різних за характером героїв Кейна та Лінча.",
    "timestamp": "2018-03-16T17:55:57Z"
  },
  {
    "id": 1340910,
    "title": "Чепура Катерина Петрівна",
    "text": "Катери́на Петрі́вна Чепу́ра (Template:н. Template:ДН, Київ) — українська театральна режисерка і громадська діячка.",
    "timestamp": "2018-05-24T11:11:04Z"
  },
  {
    "id": 1340911,
    "title": "Мале Борилово (Бабаєвський район)",
    "text": "Мале Борилово — село в Бабаєвському районі Вологодської області Росії.",
    "timestamp": "2015-03-25T16:00:21Z"
  },
  {
    "id": 1340913,
    "title": "Автошлях Т 0225",
    "text": "Автошля́х Т 0225 — автомобільний шлях територіального значення у Вінницькій області. Пролягає територією Піщанського району через Болган (пункт контролю) — Піщанку. Загальна довжина — 13,1 км.",
    "timestamp": "2018-08-29T16:39:59Z"
  },
  {
    "id": 1340919,
    "title": "Pinus tabuliformis",
    "text": "Pinus tabuliformisConifer Specialist Group 1998. Pinus tabuliformis. In: IUCN 2012. IUCN Red List of Threatened Species. Version 2012.1.(Сосна червона китайська, або Сосна олійна) — вид дерев роду сосна родини соснових.",
    "timestamp": "2016-09-27T18:54:29Z"
  },
  {
    "id": 1340922,
    "title": "Viva",
    "text": "Viva — популярний німецький музичний телеканал.",
    "timestamp": "2017-04-23T21:27:41Z"
  },
  {
    "id": 1340925,
    "title": "Автошлях Т 0226",
    "text": "Автошля́х Т 0226 — автомобільний шлях територіального значення у Вінницькій області. Пролягає територією Гайсинського та Теплицького районів через Гайсин — Теплик. Загальна довжина — 29,6 км.",
    "timestamp": "2018-02-23T19:23:03Z"
  },
  {
    "id": 1340935,
    "title": "Вулиця Фісановича (Харків)",
    "text": "Ву́лиця Фіса́новича — вулиця у Московському районі міста Харкова. Розташована між Салтівським шосе та Спортивною вулицею. Нумерація будинків ведеться від Салтівського шосе.",
    "timestamp": "2018-06-14T19:14:13Z"
  },
  {
    "id": 1340937,
    "title": "Автошлях Т 0227",
    "text": "Автошля́х Т 0227 — автомобільний шлях територіального значення у Вінницькій області. Пролягає територією Козятинського району через Білопілля — Козятин — Вівсяники. Загальна довжина — 54,6 км.",
    "timestamp": "2018-08-24T18:59:58Z"
  },
  {
    "id": 1340941,
    "title": "Козаченко Юрій Васильович",
    "text": "Ю́рій Васи́льович Козаче́нко (1 грудня 1940, Київ) — український математик, доктор фізико-математичних наук, професор. З 1998 року по 2003 рік завідував кафедрою теорії ймовірностей та математичної статистики Київського університету імені Тараса Шевченка.",
    "timestamp": "2018-07-14T19:12:38Z"
  },
  {
    "id": 1340947,
    "title": "Сочка Олександр Олександрович",
    "text": "Олекса́ндр Олекса́ндрович Со́чка (Template:н 19 лютого 1971, Білки, Іршавський район, Закарпатська область) — український політик, народний депутат України 6., 8. скликань.",
    "timestamp": "2016-07-08T08:37:59Z"
  },
  {
    "id": 1340951,
    "title": "Автошлях Т 0228",
    "text": "Автошля́х Т 0228 — автомобільний шлях територіального значення у Вінницькій області. Пролягає територією Іллінецького та Оратівського районів через Паріївку — Дашів — Оратів — Лопатинку. Загальна довжина — 16,6 км.",
    "timestamp": "2018-06-14T20:09:35Z"
  },
  {
    "id": 1340974,
    "title": "Японія на Олімпійських іграх",
    "text": "Японія бере участь в Олімпійських іграх з 1912 року. Вона тричі приймала Олімпіади у себе: літні Олімпійські ігри 1964 в Токіо, зимові Олімпійські ігри 1972 року в Саппоро та зимові Олімпійські ігри 1998 в Нагано.",
    "timestamp": "2018-01-08T18:24:14Z"
  },
  {
    "id": 1340977,
    "title": "Tombe la neige",
    "text": "«Tombe la neige» (фр. «Падає сніг») — пісня бельгійсько-італійського автора і виконавця Сальваторе Адамо (1963), яка увійшла до його дебютного альбому «63/64».",
    "timestamp": "2018-06-27T11:28:04Z"
  },
  {
    "id": 1340980,
    "title": "Малонімецький шлях об'єднання Німеччини",
    "text": "Малоніме́цький шлях об'є́днання Німе́ччини (Template:lang-de) — одна з двох основних моделей вирішення німецького питання, вироблених представниками німецької політичної думки в період після завершення Наполеонівських воєн.",
    "timestamp": "2018-07-28T07:24:21Z"
  },
  {
    "id": 1340981,
    "title": "Стешенко Олександр Миколайович",
    "text": "Олекса́ндр Микола́йович Стеше́нко (Template:н 3 травня 1952, місто Сватове, Луганська область) — український політик. Народний депутат України. Член партії ВО «Батьківщина».",
    "timestamp": "2018-06-12T19:08:09Z"
  },
  {
    "id": 1340989,
    "title": "Фінляндія на Олімпійських іграх",
    "text": "Фінляндія бере участь в Олімпійських іграх з 1908 року і відтоді не пропускала жодної Олімпіади. Вона приймала в себе літні Олімпійські ігри 1952 року в Гельсінкі.",
    "timestamp": "2016-09-04T09:55:57Z"
  },
  {
    "id": 1340990,
    "title": "Арфема",
    "text": "Арфема — (Артема, Артем; Template:lang-grc), єпископ Лістрійський — апостол з числа сімдесяти (I століття). У Діонісія Фурноаграфіота про Артема сказано: «молодий, з загостреною бородою» Ерминия или наставление в живописном искусстве, составленное иеромонахом и живописцем Дионисием Фурноаграфиотом. Часть 3, § VII, № 51. С. 158..",
    "timestamp": "2018-03-14T12:27:29Z"
  },
  {
    "id": 1340991,
    "title": "Бейкер (озеро)",
    "text": "Бейкер (Template:lang-en, інуктитут Qamani'tuaq ᖃᒪᓂᑦᑐᐊᖅ) — озеро у регіоні Ківаллік теріторії Нунавут (Канада). Живиться переважно водами річок Телон і Казан. Стік у затоку Честерфілд Гудзонової затоки.",
    "timestamp": "2015-10-07T14:59:25Z"
  },
  {
    "id": 1340993,
    "title": "Кагарлицька волость",
    "text": "Кагарлицька волость — історична адміністративно-територіальна одиниця Київського повіту Київської губернії.",
    "timestamp": "2013-11-17T15:56:16Z"
  },
  {
    "id": 1341001,
    "title": "Троїцька церква (Опішня)",
    "text": "Трої́цька це́рква — парафіяльний православний храм у смт. Опішня Полтавської області. Належить до Зіньківського благочиння Полтавської єпархії УПЦ МП.",
    "timestamp": "2018-02-24T13:02:57Z"
  },
  {
    "id": 1341004,
    "title": "Пелексі-Рівер",
    "text": "Пелексі-Рівер (Template:lang-en) - річка в Північній Америці, штаті Техас, США.Handbook of Texas, Paluxy River Це притока річки Бразос (Brazos). Вона утворюється після злиття Північної та Південної Пелексі (North Paluxy River і South Paluxy River) в місті Блеф Дейл, а потім протікає близько 47 км і впадає в річку Бразос недалеко від міста Глен Роуз в області Сомервелл того ж штату Техас.",
    "timestamp": "2017-05-20T11:08:25Z"
  },
  {
    "id": 1341005,
    "title": "HTC Desire C",
    "text": "HTC Desire C (модельний номер — a320e, кодова назва Golf) — смартфон, що розроблений компанією HTC Corporation та випущений 2012 року. Компанія позиціонує його як бюджетний смартфон.",
    "timestamp": "2016-10-18T11:22:12Z"
  },
  {
    "id": 1341006,
    "title": "Сербія на Олімпійських іграх",
    "text": "Сербія брала участь в літніх Олімпійських іграх 1912 року. В наступних Олімпіадах сербські спортсмени виступали за команди Югославії та Сербії й Чорногорії. Самостійною командою Сербія відновила виступи з Пекінської олімпіади.",
    "timestamp": "2016-09-30T14:45:03Z"
  },
  {
    "id": 1341011,
    "title": "Димитрій (Самбікін)",
    "text": "Архієпископ Димитрій (в миру Димитрій Іванович Самбікін; Template:ДН, Караяшіно, Острогозький повіт, Воронізька губернія — Template:ДС, Казань) — єпископ Російської православної церкви, архієпископ Казанський і Свіяжскій.",
    "timestamp": "2016-06-04T18:14:49Z"
  },
  {
    "id": 1341015,
    "title": "Науковий інструментарій українознавця",
    "text": "Науко́вий інструмента́рій українозна́вця — понятійно-термінологічний довідник з теоретичних та інших питань українознавства, вперше опублікований 2012 р. у Києві.",
    "timestamp": "2017-11-14T14:05:56Z"
  },
  {
    "id": 1341017,
    "title": "Ізраїль на Олімпійських іграх",
    "text": "Ізраїль бере участь в Олімпійських іграх з 1952 року і відтоді пропустив лише одну літню Олімпіаду — Московську. У зимових Олімпійських іграх Ізраїль бере участь з 1994 року.",
    "timestamp": "2016-09-04T09:31:57Z"
  },
  {
    "id": 1341018,
    "title": "Ртищевський район",
    "text": "Рти́щевський райо́н Template:lang-ru — муніципальне утворення в Саратовській області. Адміністративний центр району — місто Ртищево.",
    "timestamp": "2017-10-02T21:38:20Z"
  },
  {
    "id": 1341024,
    "title": "Dragon Capital",
    "text": "Dragon Capital New Ukraine Fund був створений у листопаді 2015 р. Його якірними інвесторами стали Dragon Capital та приватний інвестиційний фонд, що керується Soros Fund Management LLC. Фонд створений, щоб інвестувати в різноманітні сектори української економіки та забезпечувати компанії фінансовою та управлінською підтримкою для підвищення ефективності, модернізації технологій та забезпечення довготривалого росту.",
    "timestamp": "2018-03-01T21:21:40Z"
  },
  {
    "id": 1341032,
    "title": "Долина Динозаврів",
    "text": "Долина Динозаврів - це державний парк в штаті Техас, США. Розташований на північний захід від міста Глен Роуз в окрузі Сомервелл.",
    "timestamp": "2017-09-19T18:24:25Z"
  },
  {
    "id": 1341035,
    "title": "Строцень Богдан Степанович",
    "text": "Богда́н Степа́нович Стро́цень (Template:Нар 9 вересня 1959, с. Чернелів-Руський) — український історик, археолог. Член Наукового товариства імені Шевченка, Національної спілки краєзнавців України (1991).",
    "timestamp": "2018-07-22T14:00:28Z"
  },
  {
    "id": 1341044,
    "title": "Вікіпедія:Проект:Миколаївщина",
    "text": "Тут Ви можете додати свій запит на статті з Миколаївської тематики або обрати серед них тему для написання.",
    "timestamp": "2018-02-15T12:41:36Z"
  },
  {
    "id": 1341045,
    "title": "Алтинтоп",
    "text": "Алтинто́п (Template:lang-tr) — турецьке прізвище.",
    "timestamp": "2016-11-30T09:13:20Z"
  },
  {
    "id": 1341051,
    "title": "Мура 05",
    "text": "«Му́ра 05» (Template:lang-sl) — словенський футбольний клуб з Морска-Соботи. Заснований 2005 року.",
    "timestamp": "2015-08-18T12:25:33Z"
  },
  {
    "id": 1341054,
    "title": "Будапешт Гонвед",
    "text": "«Будапешт Го́нвед» (Template:lang-hu) — угорський футбольний клуб з Будапешта. Заснований 1909 року. Базовий клуб для Золотої команди збірної Угорщини 1950-х років.",
    "timestamp": "2018-07-29T02:12:12Z"
  },
  {
    "id": 1341058,
    "title": "Троцьке воєводство",
    "text": "Трокське воєводство (Template:lang-pl, Template:lang-lt) — адміністративно-територіальна одиниця Великого князівства Литовського, утворена 1413 року. Центр — місто Троки. Площа воєводства становила близько 31 200 км². Ліквідовано в 1795 році.",
    "timestamp": "2018-04-12T12:09:43Z"
  },
  {
    "id": 1341060,
    "title": "Ювяскюля (футбольний клуб)",
    "text": "«Ювяскю́ля» (Template:lang-fi) — фінський футбольний клуб з однойменного міста. Заснований 1992 року. Домашні матчі проводить на стадіоні «Гар'юн» місткістю 5 000 глядачів.",
    "timestamp": "2017-07-22T16:27:20Z"
  },
  {
    "id": 1341063,
    "title": "Автошлях Т 0229",
    "text": "Автошля́х Т 0229 — автомобільний шлях територіального значення у Вінницькій області. Пролягає територією Барського та Шаргородського районів через Бар—Копайгород—Шаргород—Нові Хоменки. Загальна довжина — 60,6 км.",
    "timestamp": "2018-02-23T19:23:09Z"
  },
  {
    "id": 1341069,
    "title": "Лесь Гринюк",
    "text": "Лесь Гринюк повне ім'я Гринюк Олекса Якимович псевдонім Ст. Віль (Template:н 25 березня 1883, с. Воскресинці — Template:† 7 липня 1911, с. Воскресинці) — український письменник, перекладач, громадський діяч. Редактор літературних та періодичних видань.",
    "timestamp": "2018-07-08T08:19:26Z"
  },
  {
    "id": 1341077,
    "title": "Лісоматеріали",
    "text": "Лісоматеріали — матеріали з деревини, що зберегли природну фізичну структуру і хімічний склад, та отримані з повалених дерев, хлистів (або з їх частин) шляхом поперечного та (або) поздовжнього поділу для подальшого використання чи перероблення і технологічна тріскаДСТУ 3071-95 Продукція лісозаготівельної промисловості. Терміни та визначення..",
    "timestamp": "2018-09-08T09:45:38Z"
  },
  {
    "id": 1341085,
    "title": "Сарпсборг",
    "text": "Сарпсборг (Template:lang-no) — місто та комуна в губернії (адміністративний поділ Норвегії) Естфол на південному сході Норвегії. Місто Сарпсборг є адміністративним центром однойменної комуни та одночасно адміністративним центром фюльке Естфолл. Розташований на річці Гломма.",
    "timestamp": "2018-02-20T08:26:35Z"
  },
  {
    "id": 1341088,
    "title": "Леонтіївський провулок (Москва)",
    "text": "Лео́нтіївський провулок (до середини XVIII століття Шереметіївський, з 1938 по 1993 — вулиця Станіславського) — провулок в Центральному адміністративному окрузі міста Москви. Починається від Большої Никитської вулиці до Тверської, лежить між Тверським бульваром та Вознесенським провулком.",
    "timestamp": "2018-03-12T08:29:03Z"
  },
  {
    "id": 1341096,
    "title": "Янь Лібень",
    "text": "Янь Лібень (Template:lang-zh; піньїнь Yán Lìběn; Template:н бл. 600 — Template:† 673) — китайський художник, який належить до найбільших художників раннього періоду династії Тан. Стародавні історики мистецтва Чжу Цзінсюань (IX ст.) І Чжан Яньюань (IX ст.) залишили його короткі життєписи. Відомості про нього збереглися також в танських хроніках, однак не всі факти з цих джерел збігаються.",
    "timestamp": "2016-09-27T18:55:59Z"
  },
  {
    "id": 1341097,
    "title": "Намисто королеви",
    "text": "Намисто королеви (Template:lang-fr) — справа про шахрайство з метою заволодіння намистом, яке нібито призначалося для французької королеви Марії-Антуанетти, що стало підставою для гучного і скандального кримінального процесу в 1785–1786 роках, незадовго до Великої французької революції. Не всі подробиці цієї справи встановлені з достатньою певністю.",
    "timestamp": "2017-10-19T18:03:48Z"
  },
  {
    "id": 1341110,
    "title": "Трушніков Петро Іванович",
    "text": "Трушніков Петро́ Іва́нович (Template:lang-ru; 1 травня 1925, Єлдово — 19 вересня 1988) — Герой Радянського Союзу.",
    "timestamp": "2017-07-07T12:32:06Z"
  },
  {
    "id": 1341115,
    "title": "Бетонобійно-фугасний підкаліберний снаряд",
    "text": "Бетонобі́йно-фуга́сний підкалі́берний снаря́д — різновид бетонобійного артилерійського снаряда спеціального призначення, призначеного для руйнування довготривалих фортифікаційних споруд із залізобетону, міцних кам'яних і цегляних будинків та руйнування фугасною дією снаряда з одночасним ураженням особового складу усередині оборонних споруд. На відміну від звичайних бетонобійних та бетонобійно-фугасних снарядів має діаметр уражаючої частини менше за калібр гармати, для стрільби з якої він призначений. Правильний рух по каналу ствола підкаліберного снаряда забезпечується провідним пристроєм, який відповідає калібру зброї. Зменшення калібру підкаліберного снаряда призводить до зменшення його маси порівняно з каліберним снарядом, що дозволяє отримати при цьому калібрі гармати значно більшу початкову швидкість.",
    "timestamp": "2017-11-19T12:37:47Z"
  },
  {
    "id": 1341117,
    "title": "Тишкевич Василь Антонович",
    "text": "Тишке́вич Васи́ль Анто́нович (Template:ДН, Нераж — Template:ДС) — радянський офіцер, Герой Радянського Союзу.",
    "timestamp": "2018-02-16T19:19:57Z"
  },
  {
    "id": 1341122,
    "title": "Ліхтенштейн на Олімпійських іграх",
    "text": "Ліхтенштейн бере участь в Олімпійських іграх з 1936 року. Його Національний олімпійський комітет було засновано 1935 року.",
    "timestamp": "2018-02-25T05:44:54Z"
  },
  {
    "id": 1341123,
    "title": "Кам'янець (літописне місто, Волинь)",
    "text": "Кам'янець — порубіжне місто Волинського князівства з Київською землею.",
    "timestamp": "2017-10-15T13:12:41Z"
  },
  {
    "id": 1341126,
    "title": "Віллі Фроммельт",
    "text": "Віллі Фроммельт  (Template:lang-de, 18 листопада 1952) — ліхтенштейнський гірськолижник, олімпійський медаліст.",
    "timestamp": "2018-06-09T13:06:47Z"
  },
  {
    "id": 1341128,
    "title": "Пауль Фроммельт",
    "text": "Пауль Фроммельт  (Template:lang-de, 9 серпня 1957) — ліхтенштейнський гірськолижник, олімпійський медаліст.",
    "timestamp": "2018-06-09T13:06:48Z"
  },
  {
    "id": 1341129,
    "title": "Зінченко Валентин Миколайович",
    "text": "Зі́нченко Валенти́н Микола́йович  (Template:ДН, Первомайськ — Template:ДС) — радянський військовий льотчик, Герой Радянського Союзу (1945).",
    "timestamp": "2017-07-07T11:16:00Z"
  },
  {
    "id": 1341130,
    "title": "Ганні Венцель",
    "text": "Ганні Венцель  (Template:lang-de, 14 грудня 1956) — ліхтенштейнська гірськолижниця, олімпійська чемпіонка.",
    "timestamp": "2018-06-09T13:06:49Z"
  },
  {
    "id": 1341131,
    "title": "Анді Венцель",
    "text": "Анді Венцель  (Template:lang-de, 18 березня 1958) — ліхтенштейнський гірськолижник, олімпійський медаліст.",
    "timestamp": "2018-06-09T13:06:51Z"
  },
  {
    "id": 1341132,
    "title": "Урсула Концетт",
    "text": "Урсула Концетт  (Template:lang-de, 15 листопада 1959) — ліхтенштейнська гірськолижниця, олімпійська медалістка.",
    "timestamp": "2018-06-09T13:06:53Z"
  },
  {
    "id": 1341148,
    "title": "Фурманов Олександр Мефодійович",
    "text": "Фу́рманов Олекса́ндр Мефо́дійович (Template:ДН, Київ — Template:ДС) — радянський офіцер, Герой Радянського Союзу.",
    "timestamp": "2017-07-07T11:37:41Z"
  },
  {
    "id": 1341152,
    "title": "Долини Марінера",
    "text": "Valles Marineris (Template:lang-ukДолини Маринер або Долини Маринера) — велетенська система каньйонів на Марсі. Названа на честь американської космічної програми «Маринер» після того, як апарат Марінер-9 виявив каньйони у 1971 — 1972. Долини Маринер розташовані на північний схід від провінції Фарсида і тягнуться вздовж екватора.",
    "timestamp": "2018-06-29T07:46:20Z"
  },
  {
    "id": 1341153,
    "title": "Республіка Македонія на Олімпійських іграх",
    "text": "Республіка Македонія бере участь в Олімпійських іграх з 1996 року. Раніше її спортсмени виступали під прапором Югославії. У зв'язку з диспутом щодо назви МОК офіційно визнає державу виключно під назвою Колишня Югославська Республіка Македонія.",
    "timestamp": "2018-01-06T17:32:36Z"
  },
  {
    "id": 1341155,
    "title": "Автошлях Т 0230",
    "text": "Автошля́х Т 0230 — автомобільний шлях територіального значення у Вінницькій області. Пролягає територією Вінницького, Тиврівського та Шаргородського районів через Вороновицю—Тиврів—Шаргород. Загальна довжина — 70 км.",
    "timestamp": "2018-02-23T19:23:11Z"
  },
  {
    "id": 1341159,
    "title": "Шаблон:Вибрана стаття/14 липня 2012",
    "text": "Ве́рнер Карл Ге́йзенберг (Template:lang-de; 1901—1976) — німецький фізик-теоретик, один із творців квантової механіки, лауреат Нобелівської премії з фізики (1932), член кількох академій та наукових товариств світу.",
    "timestamp": "2017-03-09T19:29:11Z"
  },
  {
    "id": 1341170,
    "title": "Острогозький повіт",
    "text": "Острогозький повіт — адміністративно-територіальна одиниця в складі Воронезької губернії, що існувала в 1727–1928 роках. Повітове місто — Острогозьк.",
    "timestamp": "2016-02-01T22:20:42Z"
  },
  {
    "id": 1341171,
    "title": "Арциховський Артемій Володимирович",
    "text": "Арциховський Артемій Володимирович (Template:ДН — 17 лютого, 1978) — радянський науковець, історик і археолог. Засновник і керівник Новгородської Археологічної експедиції (1932–1962 рр.). Доктор історичних наук (1940). Першовідкривач та коментатор берестяних грамот.",
    "timestamp": "2017-07-05T21:41:17Z"
  },
  {
    "id": 1341172,
    "title": "Ісландія на Олімпійських іграх",
    "text": "Ісландія вперше взяла участь в Олімпійських іграх у 1912, але потім пропустила 4 Олімпіади. З 1936 року країна посилає свою делегацію на кожні літні Олімпійські ігри. Починаючи з 1948 Ісландія пропустила тільки одні зимові Олімпіади: у 1972.",
    "timestamp": "2016-09-04T09:33:45Z"
  },
  {
    "id": 1341180,
    "title": "Крестовський Андрій Васильович",
    "text": "Андрій Васильович Крестовський (Template:lang-ru; 9 вересня 1906 — 17 січня 1944) — радянський офіцер-підводник.",
    "timestamp": "2017-03-04T07:02:43Z"
  },
  {
    "id": 1341191,
    "title": "Автошлях Т 0231",
    "text": "Автошля́х Т 0231 — автомобільний шлях територіального значення у Вінницькій області. Пролягає територією Вінницького району від об'їзної дороги довкола Вінниці до аеропорту «Вінниця». Загальна довжина — 1,2 км.",
    "timestamp": "2018-08-29T16:49:57Z"
  },
  {
    "id": 1341206,
    "title": "Лабіринт Версаля",
    "text": "Лабіринт Версаля — колишній лабіринт у Версальському парку, оформлений групами фонтанів і скульптур, що зображали байки Езопа. Спершу, у 1665 році, архітектор парку Андре Ленотр спроектував Лабіринт з простих алей, але у 1669 році Шарль Перро порадив королю Людовику XIV додати до нього тридцять дев'ять фонтанів, кожен з яких представлятиме одну з байок Езопа. Роботи по створенню Лабіринту тривали з 1672 по 1977 рік. Струмені води, що вилітали з ротів тварин-персонажів ніби зображали розмову між цими створіннями. Поруч із фонтанами були розміщені таблички з підписами і строфами поета Ісаака Бенсерада.Information on Perrault's Labyrinte de Versailles at architectura.cesr.univ-tours.fr by Alexandre Maral 2010 Детальні описи Лабіринту, його байок і скульптур подані у виданні «Лабіринт Версаля» Шарля Перро, ілюстрованому гравюрами Себастьяна Леклерка.",
    "timestamp": "2017-05-17T10:36:27Z"
  },
  {
    "id": 1341208,
    "title": "Мальта на Олімпійських іграх",
    "text": "Мальта дебютувала на літніх Олімпійських іграх 1928 року і з того часу брала участь на літніх Олімпіадах 14 разів. Мальтійські спортсмени жодного разу не завоювали олімпійських медалей.",
    "timestamp": "2013-03-31T16:59:57Z"
  },
  {
    "id": 1341213,
    "title": "Ескішехірспор",
    "text": "«Ескішехірспо́р» (Template:lang-tr) — турецький футбольний клуб з Ескішехіра. Заснований 1965 року.",
    "timestamp": "2017-06-26T08:56:28Z"
  },
  {
    "id": 1341221,
    "title": "Революція 1848—1849 років у Німеччині",
    "text": "Революція 1848—1849 років у Німеччині (Template:lang-de) або Березнева революція (Template:lang-de) — революційні події, які тривали з березня 1848 до пізнього літа 1849 в Німецькому союзі, відома також під назвою «Баденська війна».",
    "timestamp": "2018-09-29T14:33:14Z"
  },
  {
    "id": 1341226,
    "title": "Ескішехір",
    "text": "Ескішехі́р (Template:lang-tr) — місто в Північно-західній Туреччині. Населення — 764 584 (2010). Місто розташоване на річці Порсук, за 250 км на захід від Анкари, за 350 км на південний схід від Стамбула, за 90 км на південь від Кютах'ї. Назва Ескішехір в перекладі з турецької означає «старе місто» (Template:lang-tr — старий, Template:lang-tr — місто). Ескішехір був столицею молодої Османської держави на початку XIV століття, аж до завоювання Едірне.",
    "timestamp": "2015-03-09T11:03:53Z"
  },
  {
    "id": 1341231,
    "title": "Джон Джеймс Одюбон",
    "text": "Джон Джеймс Одюбон (Template:lang-en, 26 квітня 1785 — 27 січня 1851) — американський натураліст, орнітолог і художник-анімаліст, автор праці «Птахи Америки» (1827—1838).",
    "timestamp": "2017-02-17T06:06:06Z"
  },
  {
    "id": 1341232,
    "title": "Сент-Джонстон (футбольний клуб)",
    "text": "«Сент-Джо́нстон» (Template:lang-en) — шотландський футбольний клуб з Перта. Заснований 1884 року.",
    "timestamp": "2018-06-15T12:46:00Z"
  },
  {
    "id": 1341244,
    "title": "Нафтан",
    "text": "«Нафта́н» — білоруський футбольний клуб з Новополоцька. Заснований 1963 року.",
    "timestamp": "2017-08-09T20:13:38Z"
  },
  {
    "id": 1341249,
    "title": "Вітессе",
    "text": "«Віте́сс» (Template:lang-nl, [viˈtɛsə]) — нідерландський футбольний клуб з Арнема. Заснований 1892 року.",
    "timestamp": "2018-05-24T13:04:16Z"
  },
  {
    "id": 1341253,
    "title": "Пам'ятки Авдіївки",
    "text": "У місті Авдіївка Донецької області на обліку перебуває 12 пам'яток історії та  монументального мистецтва.",
    "timestamp": "2017-02-08T19:39:44Z"
  },
  {
    "id": 1341254,
    "title": "Пам'ятки Бахмута",
    "text": "У місті Бахмут Донецької області на обліку перебуває 43 пам'ятки історії та 9 пам'яток монументального мистецтва.",
    "timestamp": "2018-04-17T09:21:18Z"
  },
  {
    "id": 1341255,
    "title": "Владиков Вадим Дмитрович",
    "text": "Вадим Дмитрійович Владиков (Template:ДН — Template:ДС) — засновник наукової іхтіології на Закарпатті. Він вважається основоположником сучасної іхтіології колишньої Чехословаччини та Канади.",
    "timestamp": "2018-02-19T17:23:13Z"
  },
  {
    "id": 1341261,
    "title": "Пам'ятки Дебальцевого",
    "text": "У місті Дебальцеве Донецької області на обліку перебуває 23 пам'ятки історії.",
    "timestamp": "2013-09-15T09:50:02Z"
  },
  {
    "id": 1341264,
    "title": "Пам'ятки Мирнограда",
    "text": "У місті Мирнограді (до 2016 — Димитров) Донецької області на обліку перебуває 22 пам'ятки історії.",
    "timestamp": "2017-09-16T16:02:55Z"
  },
  {
    "id": 1341265,
    "title": "Пам'ятки Добропілля",
    "text": "У місті Добропілля Донецької області на обліку перебуває 12 пам'яток історії та монументального мистецтва місцевого значення.",
    "timestamp": "2017-12-14T13:47:04Z"
  },
  {
    "id": 1341266,
    "title": "Маккабі (Тель-Авів)",
    "text": "«Маккабі» (Template:lang-he) — ізраїльський спортивний клуб із Тель-Авіва, заснований 1906 року. У клубі є команди з різних видів спорту, найсильнішими з яких є футбол, баскетбол, дзюдо, плавання, гандбол і інші.",
    "timestamp": "2013-11-08T19:08:21Z"
  },
  {
    "id": 1341268,
    "title": "Пам'ятки Докучаєвська",
    "text": "У місті Докучаєвськ Донецької області на обліку перебуває 8 пам'яток історії та монументального мистецтва.",
    "timestamp": "2013-03-22T21:06:47Z"
  },
  {
    "id": 1341271,
    "title": "Пам'ятки Дружківки",
    "text": "У місті Дружківка Донецької області на обліку перебуває 21 пам'ятка історії та монументального мистецтва.",
    "timestamp": "2017-12-14T15:11:55Z"
  },
  {
    "id": 1341272,
    "title": "Смілянський коледж харчової промисловості",
    "text": "Смілянський коледж харчових технологій — вищий навчальний заклад І-го рівня акредитації, структурний підрозділ Національного університету харчових технологій.",
    "timestamp": "2017-11-13T06:04:35Z"
  },
  {
    "id": 1341273,
    "title": "Пам'ятки Єнакієвого",
    "text": "На батьківщині третього Президента України — місті Єнакієве Донецької області на обліку перебуває 50 пам'яток історії. З них 5 — пам'ятники В.І.Леніну , 15 — братські могили радянських воїнів, 5 — могили воїнів-афганців і жодного — українським діячам.",
    "timestamp": "2016-03-08T11:50:43Z"
  },
  {
    "id": 1341279,
    "title": "Бишівська волость",
    "text": "Бишівська волость — адміністративно-територіальна одиниця Київського повіту Київської губернії.",
    "timestamp": "2014-10-05T09:53:45Z"
  },
  {
    "id": 1341280,
    "title": "Пам'ятки Костянтинівки",
    "text": "У місті Костянтинівка Донецької області на обліку перебуває 35 пам'яток історії та монументального мистецтва.",
    "timestamp": "2017-03-16T18:17:55Z"
  },
  {
    "id": 1341282,
    "title": "Пам'ятки Краматорська",
    "text": "У місті Краматорськ Донецької області на обліку перебуває 59 пам'яток історії та одна пам'ятка монументального мистецтва.",
    "timestamp": "2017-09-15T18:54:32Z"
  },
  {
    "id": 1341284,
    "title": "Пам'ятки Покровська",
    "text": "У місті Покровську Донецької області на обліку перебуває 23 пам'ятки історії та 7 пам'яток монументального мистецтва.",
    "timestamp": "2018-01-30T19:47:47Z"
  },
  {
    "id": 1341289,
    "title": "Йоганн Якоб Бальмер",
    "text": "Йоганн Якоб Бальмер (Template:lang-de, 1 травня 1825, Лаузен — 12 березня 1898, Базель) — швейцарський математик і фізик.",
    "timestamp": "2017-08-04T11:11:02Z"
  },
  {
    "id": 1341290,
    "title": "Пам'ятки Макіївки",
    "text": "У місті Макіївка Донецької області на обліку перебуває 93 пам'ятки історії та 1 пам'ятка монументального мистецтва. З них — 3 пам'ятники В.І.Леніну , 35 братських могил радянських воїнів, 32 могили воїнів-афганців і жодної — українському діячеві.",
    "timestamp": "2013-08-26T08:23:14Z"
  },
  {
    "id": 1341294,
    "title": "Пам'ятки історії та мистецтва Маріуполя",
    "text": "У місті Маріуполі Донецької області на обліку перебуває 113 пам'яток історії та 4 пам'ятки монументального мистецтва.",
    "timestamp": "2017-12-04T20:06:54Z"
  },
  {
    "id": 1341300,
    "title": "Адміра Ваккер Медлінг",
    "text": "«Адмі́ра Ва́ккер Медлінг» (Template:lang-de) — австрійський футбольний клуб з Марія-Енцерсдорфа.",
    "timestamp": "2018-06-26T16:21:55Z"
  },
  {
    "id": 1341303,
    "title": "Титульна нація",
    "text": "Ти́тульна на́ція — частина населення держави, національність якої визначає офіційне найменування цієї державиФедеральний закон від 24.05.1999 N 99-ФЗ (ред. від 25.07.2009) «Про державну політику Російської Федерації відносно співвітчизників за кордоном» (прийнятий ГД ФС РФ 05.03.1999)..",
    "timestamp": "2018-05-14T09:02:42Z"
  },
  {
    "id": 1341306,
    "title": "Пам'ятки Селидового",
    "text": "У місті Селидове Донецької області на обліку перебуває 19 пам'яток історії та 1 пам'ятка монументального мистецтва. Загалом з них 3 пам'ятники В.І.Леніну  і 4 братські могили радянським воїнам.",
    "timestamp": "2017-05-01T16:26:16Z"
  },
  {
    "id": 1341318,
    "title": "Пам'ятки Слов'янська",
    "text": "На території Слов'янської міськради Донецької області на обліку перебуває 61 пам'ятка історії (з них 15 — могили воїнів-афганців) та 2 пам'ятки монументального мистецтва.",
    "timestamp": "2017-06-07T09:44:41Z"
  },
  {
    "id": 1341320,
    "title": "Діла (футбольний клуб)",
    "text": "«Ді́ла» (Template:lang-ka) — грузинський футбольний клуб з Горі. Заснований 1949 року.",
    "timestamp": "2017-12-23T10:53:30Z"
  },
  {
    "id": 1341324,
    "title": "Пам'ятки Сніжного",
    "text": "У місті Сніжне Донецької області на обліку перебуває 43 пам'ятки історії. Серед осіб, яким присвячено найбільшу кількість пам'яток району першу позицію традиційно для Донбасу займає В. І. Ленін — йому в цьому місті встановлено 4 пам'ятники (за цим показником Сніжне займає третю позицію серед міст Донеччини після Донецька та Єнакієвого). 14 пам'яток — братські могили радянських воїнів та партизан.",
    "timestamp": "2012-08-05T14:59:55Z"
  },
  {
    "id": 1341327,
    "title": "АЕЛ (футбольний клуб)",
    "text": "«Атлі́тікі Ено́сі Лемесо́у» або «АЕЛ» (Template:lang-el) — кіпріотський футбольний клуб з Лімасола. Заснований 1930 року.",
    "timestamp": "2018-08-18T14:13:06Z"
  },
  {
    "id": 1341333,
    "title": "Лудогорець",
    "text": "Професійний футбо́льний клуб «Лудого́рець» Ра́зград (Template:lang-bg) — болгарський футбольний клуб з Разграда. Заснований 2001 року. Чемпіон Болгарії. Головний тренер — Георгі Дерменджиєв, президент клубу — Александр Александров. Нині виступає у Групі А чемпіонату Болгарії.",
    "timestamp": "2018-08-10T02:05:56Z"
  },
  {
    "id": 1341335,
    "title": "Пам'ятки Чистякового",
    "text": "У місті Чистяковому Донецької області на обліку перебуває 32 пам'ятки історії та монументального мистецтва.",
    "timestamp": "2016-07-07T12:55:18Z"
  },
  {
    "id": 1341336,
    "title": "Андрейс Павловс",
    "text": "Андрейс Павловс (Template:lang-lv, Template:н 22 лютого 1979, Рига) — латвійський футболіст, воротар клубу «Сконто». П'ятиразовий чемпіон Латвії та дворазовий володар національного кубку.",
    "timestamp": "2018-06-05T07:24:15Z"
  },
  {
    "id": 1341337,
    "title": "Пам'ятки Харцизька",
    "text": "На території Харцизької міськради Донецької області на обліку перебуває 29 пам'яток історії та монументального мистецтва.",
    "timestamp": "2012-08-20T08:34:26Z"
  },
  {
    "id": 1341338,
    "title": "Тати",
    "text": "Тати (варіанти назв: кавказькі перси, закавказькі перси) — іранський етнос, проживає в Азербайджані та Росії (переважно на півдні Дагестану). варіанти самоназв (залежно від регіону) — тат, тати, парси, дагли, лохіджіхон. Розмовляють татською мовою, що відносять поряд з перською мовою, дарі та таджицькою мовою до південно-західної групи іранських мов. Серед ратів також поширені азербайджанський та російська мови. Віруючі — мусульмани-шиїти, незначна кількість сунітів (населяють села на захід від міста ДербентІсторія освіти села Джалган).",
    "timestamp": "2017-05-13T14:11:22Z"
  },
  {
    "id": 1341339,
    "title": "Пам'ятки Шахтарська",
    "text": "У місті Шахтарськ Донецької області на обліку перебуває 17 пам'яток історії та монументального мистецтва, з яких 9 — братські могила радянських воїнів.",
    "timestamp": "2013-12-23T18:55:53Z"
  },
  {
    "id": 1341342,
    "title": "Пам'ятки Ясинуватої",
    "text": "У місті Ясинувата Донецької області на обліку перебуває 13 пам'яток історії та монументального мистецтва, серед яких 3 - пам'ятники В. І. Леніну.",
    "timestamp": "2013-09-22T09:36:22Z"
  },
  {
    "id": 1341344,
    "title": "Мале Борисово (Бабаєвський район)",
    "text": "Мале Борисово — село в Бабаєвському районі Вологодської області Росії.",
    "timestamp": "2015-03-25T16:00:34Z"
  },
  {
    "id": 1341349,
    "title": "Кумарагупта I",
    "text": "Кумарагу́пта I (Mahendraditya) — один із правителів імперії Гуптів в 415–455 роках. Як і його батько та попередник, Чандрагупта ІІ, Кумарагупта I був гідним правителем. Він зберіг територіальну цілісність великої імперії, яка простягалася від Бенгалії до Катхіавари та від Гімалаїв до Нармади. Він правив ефективно протягом майже сорока років. Тим не менш, в останні дні його царювання не було успішним. Імперії Гуптів загрожувало повстання в центральній Індії і вторгнення білих гунів. Тим не менш, Кумарагупті I вдалося відвернути ці загрози, які, щоб відсвяткувати свою перемогу, закінчились жертвопринесенням коня, що зображено на одній із монет.",
    "timestamp": "2018-05-07T20:45:36Z"
  },
  {
    "id": 1341354,
    "title": "Андрейс Штолцерс",
    "text": "Андрейс Штолцерс (Template:lang-lv, Template:н 8 липня 1974, Рига) — колишній латвійський футболіст, півзахисник.",
    "timestamp": "2017-09-12T16:29:34Z"
  },
  {
    "id": 1341361,
    "title": "Пам'ятки історії Бахмутського району",
    "text": "У Бахмутському районі Донецької області на обліку перебуває 76 пам'яток історії.",
    "timestamp": "2017-06-21T08:55:41Z"
  },
  {
    "id": 1341362,
    "title": "Пам'ятки історії Амвросіївського району",
    "text": "У Амвросіївському районі Донецької області на обліку перебуває 45 пам'яток історії.",
    "timestamp": "2012-12-18T18:37:53Z"
  },
  {
    "id": 1341365,
    "title": "Пам'ятки історії Великоновосілківського району",
    "text": "У Великоновосілківському районі Донецької області на обліку перебуває 54 пам'ятки історії. Це єдиний район Донеччини, що має пам'ятку історії національного значення, якою є Садиба Немировича-Данченка у селі с. Нескучне.",
    "timestamp": "2017-06-30T16:01:51Z"
  },
  {
    "id": 1341366,
    "title": "Пам'ятки історії Волноваського району",
    "text": "У Волноваському районі Донецької області на обліку перебуває 77 пам'яток історії.",
    "timestamp": "2017-05-20T22:59:36Z"
  },
  {
    "id": 1341367,
    "title": "Полоцьке воєводство",
    "text": "Полоцьке воєводство (Template:lang-be, Template:lang-la, Template:lang-pl) — одне з воєводств Великого князівства Литовського провінції Речі Посполитої. Центром воєводства було місто Полоцьк. Найбільші міста — Полоцьк, Бешенковичі, Дісна, Друя, Лепель, Освея, Ушачі, Чашники. Площа воєводства була 18 800 — 21 800 km².",
    "timestamp": "2018-06-08T11:20:37Z"
  },
  {
    "id": 1341368,
    "title": "Пам'ятки історії Нікольського району",
    "text": "У Нікольському районі Донецької області на обліку перебуває 35 пам'яток історії.",
    "timestamp": "2017-06-11T08:08:01Z"
  },
  {
    "id": 1341370,
    "title": "Пам'ятки історії Добропільського району",
    "text": "У Добропільському районі Донецької області на обліку перебуває 54 пам'ятки історії.",
    "timestamp": "2017-05-20T22:59:41Z"
  },
  {
    "id": 1341372,
    "title": "Пам'ятки історії Костянтинівського району",
    "text": "У Костянтинівському районі Донецької області на обліку перебуває 23 пам'ятки історії.",
    "timestamp": "2017-05-20T22:59:47Z"
  },
  {
    "id": 1341373,
    "title": "Пам'ятки історії Лиманського району",
    "text": "У Лиманському районі Донецької області на обліку перебуває 54 пам'ятки історії.",
    "timestamp": "2017-06-11T12:00:09Z"
  },
  {
    "id": 1341374,
    "title": "Пам'ятки історії та монументального мистецтва Покровського району (Донецька область)",
    "text": "У Покровському районі Донецької області на обліку перебуває 53 пам'ятки історії і 2 пам'ятки монументального мистецтва.",
    "timestamp": "2017-12-14T15:11:34Z"
  },
  {
    "id": 1341375,
    "title": "Горовой Борис Олегович",
    "text": "Бори́с Оле́гович Горово́й (Template:lang-be, Template:lang-ru, Template:н 8 квітня 1974, Ленінград) — білоруський футболіст російського походження, півзахисник. По завершенні ігрової кар'єри — футбольний тренер. Наразі входить до тренерського штабу клубу «Таганрог».",
    "timestamp": "2016-05-15T18:29:39Z"
  },
  {
    "id": 1341378,
    "title": "Пам'ятки історії Мар'їнського району",
    "text": "У Мар'їнському районі Донецької області на обліку перебуває 51 пам'ятка історії.",
    "timestamp": "2017-05-20T22:59:51Z"
  },
  {
    "id": 1341380,
    "title": "Пам'ятки історії Новоазовського району",
    "text": "У Новоазовському районі Донецької області на обліку перебуває 49 пам'яток історії.",
    "timestamp": "2017-05-20T22:59:54Z"
  },
  {
    "id": 1341382,
    "title": "Пам'ятки історії Олександрівського району Донецької області",
    "text": "У Олександрівському районі Донецької області на обліку перебуває 51 пам'ятка історії.",
    "timestamp": "2017-05-20T22:59:58Z"
  }
]