[
  {
    "id": 1158117,
    "title": "2228 Союз-Аполло",
    "text": "2228 Союз-Аполло (2228 Soyuz-Apollo) — астероїд головного поясу, відкритий 19 липня 1977 року.",
    "timestamp": "2014-05-14T09:10:59Z"
  },
  {
    "id": 1158119,
    "title": "15381 Спадоліні",
    "text": "15381 Спадоліні (15381 Spadolini) — астероїд головного поясу, відкритий 1 вересня 1997 року.",
    "timestamp": "2014-05-14T09:11:14Z"
  },
  {
    "id": 1158121,
    "title": "10350 Спалланцані",
    "text": "10350 Спалланцані (10350 Spallanzani) — астероїд головного поясу, відкритий 26 липня 1992 року.",
    "timestamp": "2014-05-14T09:11:35Z"
  },
  {
    "id": 1158123,
    "title": "2579 Спартак",
    "text": "2579 Спартак (2579 Spartacus) — астероїд головного поясу, відкритий 14 серпня 1977 року.",
    "timestamp": "2014-05-14T09:19:55Z"
  },
  {
    "id": 1158125,
    "title": "11268 Спаський",
    "text": "11268 Спаський (11268 Spassky) — астероїд головного поясу, відкритий 22 жовтня 1985 року.",
    "timestamp": "2016-10-23T07:58:21Z"
  },
  {
    "id": 1158127,
    "title": "117329 Спенсер",
    "text": "117329 Спенсер (117329 Spencer) — астероїд головного поясу, відкритий 9 грудня 2004 року.",
    "timestamp": "2014-05-14T09:21:27Z"
  },
  {
    "id": 1158129,
    "title": "2921 Софокл",
    "text": "2921 Софокл (2921 Sophocles) — астероїд головного поясу, відкритий 24 вересня 1960 року.",
    "timestamp": "2014-05-14T09:10:30Z"
  },
  {
    "id": 1158131,
    "title": "5989 Сорін",
    "text": "5989 Сорін (5989 Sorin) — астероїд головного поясу, відкритий 26 серпня 1976 року.",
    "timestamp": "2017-01-29T12:02:43Z"
  },
  {
    "id": 1158133,
    "title": "3993 Шорм",
    "text": "3993 Шорм (3993 Šorm) — астероїд головного поясу, відкритий 4 листопада 1988 року.",
    "timestamp": "2014-05-16T09:51:29Z"
  },
  {
    "id": 1158135,
    "title": "6882 Сормано",
    "text": "6882 Сормано (6882 Sormano) — астероїд головного поясу, відкритий 5 лютого 1995 року.",
    "timestamp": "2015-09-16T11:18:09Z"
  },
  {
    "id": 1158137,
    "title": "3652 Сорос",
    "text": "3652 Сорос (3652 Soros) — астероїд головного поясу, відкритий 6 жовтня 1981 року.",
    "timestamp": "2014-05-14T09:03:39Z"
  },
  {
    "id": 1158139,
    "title": "9878 Состеро",
    "text": "9878 Состеро (9878 Sostero) — астероїд головного поясу, відкритий 17 березня 1994 року.",
    "timestamp": "2014-05-14T09:03:56Z"
  },
  {
    "id": 1158141,
    "title": "7924 Симбірськ",
    "text": "7924 Симбірськ (7924 Simbirsk) — астероїд головного поясу, відкритий 6 серпня 1986 року.",
    "timestamp": "2014-05-14T07:59:01Z"
  },
  {
    "id": 1158143,
    "title": "748 Сімеїза",
    "text": "748 Сімеї́за (748 Simeïsa) — астероїд головного поясу, відкритий 14 березня 1913 року.",
    "timestamp": "2015-02-23T20:37:34Z"
  },
  {
    "id": 1158145,
    "title": "14098 Шімек",
    "text": "14098 Шімек (14098 Šimek) — астероїд головного поясу, відкритий 24 серпня 1997 року.",
    "timestamp": "2016-05-11T16:48:14Z"
  },
  {
    "id": 1158147,
    "title": "2141 Сімферополь",
    "text": "2141 Сімферополь (2141 Simferopol) — астероїд головного поясу, відкритий 30 серпня 1970 року.",
    "timestamp": "2014-05-14T08:30:05Z"
  },
  {
    "id": 1158149,
    "title": "1033 Сімона",
    "text": "1033 Сімона (1033 Simona) — астероїд головного поясу, відкритий 4 вересня 1924 року.",
    "timestamp": "2014-05-14T08:28:28Z"
  },
  {
    "id": 1158151,
    "title": "8071 Сімонеллі",
    "text": "8071 Сімонеллі (8071 Simonelli) — астероїд головного поясу, відкритий 5 квітня 1981 року.",
    "timestamp": "2014-05-14T08:28:42Z"
  },
  {
    "id": 1158153,
    "title": "72543 Сімонемарчі",
    "text": "72543 Сімонемарчі (72543 Simonemarchi) — астероїд головного поясу, відкритий 26 лютого 2001 року.",
    "timestamp": "2014-05-14T08:28:48Z"
  },
  {
    "id": 1158155,
    "title": "4280 Симоненко",
    "text": "4280 Симоненко (4280 Simonenko) — астероїд головного поясу, відкритий 13 серпня 1985 року.",
    "timestamp": "2014-05-14T07:59:18Z"
  },
  {
    "id": 1158157,
    "title": "29706 Сімонетта",
    "text": "29706 Сімонетта (29706 Simonetta) — астероїд головного поясу, відкритий 25 грудня 1998 року.",
    "timestamp": "2016-05-11T16:48:14Z"
  },
  {
    "id": 1158159,
    "title": "2426 Симонов",
    "text": "2426 Симонов (2426 Simonov) — астероїд головного поясу, відкритий 26 травня 1976 року.",
    "timestamp": "2014-05-14T07:59:31Z"
  },
  {
    "id": 1158161,
    "title": "4788 Сімпсон",
    "text": "4788 Сімпсон (4788 Simpson) — астероїд головного поясу, відкритий 4 жовтня 1986 року.",
    "timestamp": "2016-10-22T14:38:18Z"
  },
  {
    "id": 1158163,
    "title": "9005 Сидорова",
    "text": "9005 Сидорова (9005 Sidorova) — астероїд головного поясу, відкритий 20 жовтня 1982 року.",
    "timestamp": "2014-05-14T07:57:54Z"
  },
  {
    "id": 1158165,
    "title": "11792 Сидоровський",
    "text": "11792 Сидоровський (11792 Sidorovsky) — астероїд головного поясу, відкритий 26 вересня 1978 року.",
    "timestamp": "2016-10-23T07:49:53Z"
  },
  {
    "id": 1158167,
    "title": "15147 Зіґфрід",
    "text": "15147 Зіґфрід (15147 Siegfried) — астероїд головного поясу, відкритий 11 березня 2000 року.",
    "timestamp": "2016-05-11T16:48:15Z"
  },
  {
    "id": 1158169,
    "title": "2560 Сіґма",
    "text": "2560 Сіґма (2560 Siegma) — астероїд головного поясу, відкритий 14 лютого 1932 року.",
    "timestamp": "2014-05-14T08:19:28Z"
  },
  {
    "id": 1158172,
    "title": "6571 Зіґмунд",
    "text": "6571 Зіґмунд (6571 Sigmund) — астероїд головного поясу, відкритий 24 вересня 1960 року.",
    "timestamp": "2014-05-08T08:46:31Z"
  },
  {
    "id": 1158174,
    "title": "10014 Шайм",
    "text": "10014 Шайм (10014 Shaim) — астероїд головного поясу, відкритий 26 вересня 1978 року.",
    "timestamp": "2014-05-16T09:11:18Z"
  },
  {
    "id": 1158176,
    "title": "1648 Шайна",
    "text": "1648 Шайна (1648 Shajna) — астероїд головного поясу, відкритий 5 вересня 1935 року.",
    "timestamp": "2014-05-16T09:11:25Z"
  },
  {
    "id": 1158178,
    "title": "4618 Шаховськой",
    "text": "4618 Шаховськой (4618 Shakhovskoj) — астероїд головного поясу, відкритий 12 вересня 1977 року.",
    "timestamp": "2014-05-16T09:23:19Z"
  },
  {
    "id": 1158180,
    "title": "14322 Шакура",
    "text": "14322 Шакура (14322 Shakura) — астероїд головного поясу, відкритий 22 грудня 1978 року.",
    "timestamp": "2014-05-16T09:11:58Z"
  },
  {
    "id": 1158182,
    "title": "3408 Шаламов",
    "text": "3408 Шаламов (3408 Shalamov) — астероїд головного поясу, відкритий 18 серпня 1977 року.",
    "timestamp": "2017-06-19T04:33:54Z"
  },
  {
    "id": 1158185,
    "title": "115891 Скоттмайкл",
    "text": "115891 Скоттмайкл (115891 Scottmichael) — астероїд головного поясу, відкритий 14 листопада 2003 року.",
    "timestamp": "2016-05-11T16:48:16Z"
  },
  {
    "id": 1158187,
    "title": "15779 Скоттробертс",
    "text": "15779 Скоттробертс (15779 Scottroberts) — астероїд головного поясу, відкритий 26 липня 1993 року.",
    "timestamp": "2016-05-11T16:48:16Z"
  },
  {
    "id": 1158189,
    "title": "17898 Скоттшеппард",
    "text": "17898 Скоттшеппард (17898 Scottsheppard) — астероїд головного поясу, відкритий 22 березня 1999 року.",
    "timestamp": "2014-05-14T08:42:23Z"
  },
  {
    "id": 1158191,
    "title": "17216 Скоттстюарт",
    "text": "17216 Скоттстюарт (17216 Scottstuart) — астероїд головного поясу, відкритий 7 січня 2000 року.",
    "timestamp": "2016-05-11T16:48:17Z"
  },
  {
    "id": 1158193,
    "title": "14698 Скоттюнг",
    "text": "14698 Скоттюнг (14698 Scottyoung) — астероїд головного поясу, відкритий 3 січня 2000 року.",
    "timestamp": "2014-05-14T08:42:30Z"
  },
  {
    "id": 1158195,
    "title": "4856 Сіборг",
    "text": "4856 Сіборг (4856 Seaborg) — астероїд головного поясу, відкритий 11 червня 1983 року.",
    "timestamp": "2016-10-22T14:54:26Z"
  },
  {
    "id": 1158197,
    "title": "7051 Шон",
    "text": "7051 Шон (7051 Sean) — астероїд головного поясу, відкритий 13 травня 1985 року.",
    "timestamp": "2014-05-16T09:49:51Z"
  },
  {
    "id": 1158199,
    "title": "13070 Шонконнері",
    "text": "13070 Шонконнері (13070 Seanconnery) — астероїд головного поясу, відкритий 8 вересня 1991 року.",
    "timestamp": "2014-05-16T09:50:17Z"
  },
  {
    "id": 1158201,
    "title": "4473 Сірс",
    "text": "4473 Сірс (4473 Sears) — астероїд головного поясу, відкритий 28 лютого 1981 року.",
    "timestamp": "2014-12-07T10:44:59Z"
  },
  {
    "id": 1158203,
    "title": "Мапай",
    "text": "МАПАЙ (Робітнича партія Землі Ізраїлю, Template:lang-he) — ізраїльська політична партія, що відносилася до робітничого сіоністського руху. Сформувалась у 1930-і роки в підмандатній Палестині, після заснування держави складала основу правлячих коаліцій в Ізраїлі з 1-го по 6-е скликання кнесету, відтак перестала існувати, об'єднавшись із партіями «Ахдут ха-Авода» й РАФІ в партію Праці («Авода»).",
    "timestamp": "2018-10-09T20:33:45Z"
  },
  {
    "id": 1158205,
    "title": "Дієго Веласкес де Куельяр",
    "text": "Дієго Веласкес Консуело де Куельяр (Template:lang-es; 1456 — 12 червня 1524), — іспанський конкістадор, завойовник Куби.",
    "timestamp": "2018-09-14T08:25:04Z"
  },
  {
    "id": 1158206,
    "title": "Avro Lancaster",
    "text": "Авро 683 Ланкастер (Template:lang-en) — британський важкий чотиримоторний бомбардувальник, який перебував на озброєнні Королівських ВПС. Разом з попередником, «Галіфаксом», був основним важким бомбардувальником Королівських ВПС під час Другої світової війни.",
    "timestamp": "2018-08-11T17:38:24Z"
  },
  {
    "id": 1158208,
    "title": "Бронебійний підкаліберний снаряд",
    "text": "Бронебійний підкаліберний снаряд — різновид бронебійного снаряда для ствольної зброї, призначений для ураження важкоброньованих об'єктів, зокрема, танків. Бронебійний підкаліберний снаряд, як правило, не має ні підривника, ні заряду вибухової речовини; його бронебійна дія цілком зумовлена кінетичною енергією снаряда.",
    "timestamp": "2018-09-07T21:22:41Z"
  },
  {
    "id": 1158212,
    "title": "9-й танковий корпус (СРСР)",
    "text": "9-й танковий Бобруйсько-Берлінський Червонопрапорний ордена Суворова корпус — танковий корпус, радянське військове з'єднання за часів Другої Світової війни.",
    "timestamp": "2017-11-15T10:46:00Z"
  },
  {
    "id": 1158216,
    "title": "Хуан де Гріхальва",
    "text": "Хуан де Гріхальва (Template:lang-es; близько 1489, Куельяр — 21 січня 1527) — один з перших іспанських конкістадорів. Експедиція Гріхальви, під час якої він відкрив Мексику, описана в книзі Берналя Діаса «Справжня історія завоювання Нової Іспанії».",
    "timestamp": "2018-02-23T23:47:08Z"
  },
  {
    "id": 1158218,
    "title": "Адальберт Шульц",
    "text": "Адальберт Шульц (Template:lang-de; Template:н 20 грудня 1903, Берлін — Template:† 28 січня 1944, Шепетівка) — німецький воєначальник часів Третього Рейху, генерал-майор танкових військ Вермахту (1944). Кавалер Лицарського хреста з Дубовим листям і Мечами та діамантами (1943).",
    "timestamp": "2017-08-24T19:45:01Z"
  },
  {
    "id": 1158221,
    "title": "19290 Шредер",
    "text": "19290 Шредер (19290 Schroeder) — астероїд головного поясу, відкритий 15 травня 1996 року.",
    "timestamp": "2016-05-11T16:48:18Z"
  },
  {
    "id": 1158223,
    "title": "15761 Шумі",
    "text": "15761 Шумі (15761 Schumi) — астероїд головного поясу, відкритий 24 вересня 1992 року.",
    "timestamp": "2016-05-11T16:48:19Z"
  },
  {
    "id": 1158225,
    "title": "13006 Шваар",
    "text": "13006 Шваар (13006 Schwaar) — астероїд головного поясу, відкритий 12 січня 1983 року.",
    "timestamp": "2014-05-16T09:23:49Z"
  },
  {
    "id": 1158227,
    "title": "2149 Швамбранія",
    "text": "2149 Швамбранія (2149 Schwambraniya) — астероїд головного поясу, відкритий 22 березня 1977 року.",
    "timestamp": "2014-05-16T09:24:36Z"
  },
  {
    "id": 1158229,
    "title": "21738 Шванк",
    "text": "21738 Шванк (21738 Schwank) — астероїд головного поясу, відкритий 9 вересня 1999 року.",
    "timestamp": "2014-05-16T09:24:43Z"
  },
  {
    "id": 1158231,
    "title": "Орден Сантьяго да Еспада",
    "text": "Орден Сантьяго да Еспада (Ordem Militar de Sant'Iago da Espada) — португальська гілка ордену мечоносців св. Якова, первинним завданням яких був захист від розбійницьких нападів паломників, що прямували шляхом святого Якова до святині цього апостола у Компостелі. У 1290 році португальська гілка відокремилась від кастильської; офіційно це було підтверджено папою Іоанном XXII у 1320 році.",
    "timestamp": "2018-03-05T21:19:46Z"
  },
  {
    "id": 1158232,
    "title": "13820 Шварц",
    "text": "13820 Шварц (13820 Schwartz) — астероїд головного поясу, відкритий 1 листопада 1999 року Чарльзом Джуелсом.",
    "timestamp": "2016-10-07T21:44:28Z"
  },
  {
    "id": 1158234,
    "title": "Орден Вежі й Меча",
    "text": "Військовий Орден Вежі й Меча, Доблесті, Вірності й Заслуг (Template:lang-pt) — португальський лицарський орден, заснований у 1459 році королем Афонсу V.",
    "timestamp": "2018-03-07T06:30:10Z"
  },
  {
    "id": 1158235,
    "title": "13724 Швем",
    "text": "13724 Швем (13724 Schwehm) — астероїд головного поясу, відкритий 27 серпня 1998 року.",
    "timestamp": "2016-05-11T16:48:20Z"
  },
  {
    "id": 1158237,
    "title": "24699 Швекендік",
    "text": "24699 Швекендік (24699 Schwekendiek) — астероїд головного поясу, відкритий 13 жовтня 1990 року.",
    "timestamp": "2016-05-11T16:48:21Z"
  },
  {
    "id": 1158239,
    "title": "7756 Сайєнтіа",
    "text": "7756 Сайєнтіа (7756 Scientia) — астероїд головного поясу, відкритий 27 березня 1990 року.",
    "timestamp": "2014-05-13T13:47:45Z"
  },
  {
    "id": 1158241,
    "title": "876 Скотт",
    "text": "876 Скотт (876 Scott) — астероїд головного поясу, відкритий 20 червня 1917 року.",
    "timestamp": "2014-05-14T08:41:26Z"
  },
  {
    "id": 1158243,
    "title": "Орден Південного Хреста",
    "text": "Національний орден Південного Хреста — найвища державна нагорода Бразилії.",
    "timestamp": "2018-07-30T22:08:54Z"
  },
  {
    "id": 1158244,
    "title": "9544 Скоттбірні",
    "text": "9544 Скоттбірні (9544 Scottbirney) — астероїд головного поясу, відкритий 1 березня 1984 року.",
    "timestamp": "2014-05-14T08:41:40Z"
  },
  {
    "id": 1158246,
    "title": "3594 Скотті",
    "text": "3594 Скотті (3594 Scotti) — астероїд головного поясу, відкритий 11 лютого 1983 року.",
    "timestamp": "2014-05-14T08:41:46Z"
  },
  {
    "id": 1158250,
    "title": "Хрест Дона Педро I",
    "text": "Імперський орден Дона Педро I (Template:lang-pt) — бразильський орден, започаткований імператором Педро I 16 квітня 1826 року.",
    "timestamp": "2016-01-15T09:09:28Z"
  },
  {
    "id": 1158255,
    "title": "Іконоскоп",
    "text": "Іконоскоп (від грецького: εἰκών \"зображення\" і \"σκοπεῖν\", щоб подивитися, щоб побачити \") була першою розповсюдженою телекамерною трубкою для перетворення зображення в електричний сигнал, яка використовувалась в ранніх телевізійних камерах. Іконоскоп видавав сильніший сигнал, ніж попередні механічні конструкції, і мав змогу використовуватися в будь-яких добре освітлених умовах. Це була перша повністю електронна система, яка замінила раніші камери, в яких використовувались спеціальні прожектори або обертальні диски для зйомки світла з одного дуже яскраво освітленого місця.",
    "timestamp": "2018-03-28T19:00:08Z"
  },
  {
    "id": 1158256,
    "title": "СДЮШОР Атлет",
    "text": "СДЮШОР «Атлет» — аматорський футбольний клуб з міста Києва.",
    "timestamp": "2017-05-20T16:11:15Z"
  },
  {
    "id": 1158257,
    "title": "Комуністична партія Литви",
    "text": "Комуністична партія Литви — литовське відділення КПРС, з адміністративним центром у Москві.",
    "timestamp": "2018-02-18T00:14:20Z"
  },
  {
    "id": 1158261,
    "title": "Фоностилістика",
    "text": "Фоностилі́стика (фонетична стилістика) — це мовознавча наука, яка вивчає частоту вживання фонем у різних стилях, їхню сполучуваність і співвідношення, аналізує звукові ефекти, вмотивовані змістом і образністю тексту.",
    "timestamp": "2012-01-02T11:37:36Z"
  },
  {
    "id": 1158263,
    "title": "10 (альбом Linea 77)",
    "text": "«10» — сьомий студійний альбом італійського ню-метал гурту Linea 77. Виданий 30 листопада 2010 року.",
    "timestamp": "2016-12-23T10:58:37Z"
  },
  {
    "id": 1158265,
    "title": "Київ (футбольний клуб)",
    "text": "ФК «Київ» — аматорський футбольний клуб з міста Києва.",
    "timestamp": "2015-02-25T22:16:33Z"
  },
  {
    "id": 1158266,
    "title": "Педро де Альварадо і Контрерас",
    "text": "Педро де Альварадо і Контрерас (Template:lang-es; близько 1485, Бадахос, Естремадура, Іспанія  — 4 липня 1541, поблизу Гвадалахари, Нова Іспанія) — видатний іспанський конкістадор, який відповідав за підкорення Центральної Америки, перший губернатор Гватемали. Індіанці називали його «Тонатіу» (науатль Tonatiuh, «Сонце») за яскраво-рудий колір його волосся. Відрізнявся надзвичайною жорстокістю, через що став одним з ключових персонажів «Чорної легенди».",
    "timestamp": "2018-08-29T08:04:23Z"
  },
  {
    "id": 1158267,
    "title": "Ужанська Жупа",
    "text": "́Унг, ́Унґський коміт́ат, Уж́анський коміт́ат (Template:lang-hu, Template:lang-lat) — історичний комітат в північно-східній частині Угорського королівства, який межував з австрійською провінцією Галичина на півночі, з комітатом Земплін на заході, Березьким комітатом на сході та Саболцьким — на півдні. В наш час 2/3 території входять до складу Закарпатської області України, 1/3 — до Михайловецького та Собранецького районів Словаччини. Адміністративним центром був Ужгород. Комітат існував до 1919 року.",
    "timestamp": "2018-10-22T18:55:22Z"
  },
  {
    "id": 1158273,
    "title": "Ріккард Ракелль",
    "text": "Ріккард Ракелль (Template:lang-sv; 5 травня 1993, м. Стокгольм, Швеція) — шведський хокеїст, центральний/правий нападник. Виступає за «Анагайм Дакс» у Національній хокейній лізі.",
    "timestamp": "2018-06-04T08:00:39Z"
  },
  {
    "id": 1158274,
    "title": "Попик Володимир Іванович",
    "text": "По́пик Володи́мир Іва́нович (*24 червня 1952, Полтава, Україна) — історик та бібліограф, член-кореспондент НАН України (2015), доктор історичних наук, генеральний директор Національної бібліотеки України імені В. І. Вернадського (НБУВ) (з 2013), директор Інституту біографічних досліджень НБУВІнститут біографічних досліджень, член Української національної комісії у справах ЮНЕСКО, віце-президент Українського біографічного товариства, відповідальний секретар Українського комітету славістів, заступник відповідального редактора журналу «Бібліотечний вісник», збірників наукових праць «Наукові праці Національної бібліотеки України імені В. І. Вернадського» та «Українська біографістика».",
    "timestamp": "2018-10-23T06:50:52Z"
  },
  {
    "id": 1158279,
    "title": "Велика Писарівка (пункт контролю)",
    "text": "Вели́ка Пи́сарівка — пункт пропуску через державний кордон України на кордоні з Росією.",
    "timestamp": "2015-12-10T11:29:35Z"
  },
  {
    "id": 1158282,
    "title": "Стефан Николов Стамболов",
    "text": "Стефан Николов Стамболов (Template:lang-bg; *12 лютого 1854, Велико-Тирново — †18 червня 1895, Софія) — болгарський революціонер, політичний і громадський діяч, поет, письменник. Прем'єр-міністр Болгарії (1887—1894).",
    "timestamp": "2018-07-12T15:58:17Z"
  },
  {
    "id": 1158283,
    "title": "Юакім Нордстрем",
    "text": "Юакім Нордстрем (Template:lang-sv; 25 лютого 1992, м. Тюресе, Швеція) — шведський хокеїст, центральний нападник. Виступає за «Кароліна Гаррікейнс» у Національній хокейній лізі.",
    "timestamp": "2017-05-22T10:43:42Z"
  },
  {
    "id": 1158289,
    "title": "Юнас Бродін",
    "text": "Юнас Бродін (Template:lang-sv; 12 липня 1993, м. Карлстад, Швеція) — шведський хокеїст, захисник. Виступає за «Міннесота Вайлд» у Національній хокейній лізі.",
    "timestamp": "2017-05-22T10:40:32Z"
  },
  {
    "id": 1158300,
    "title": "Діназ",
    "text": "ФК «Діназ» — український аматорський футбольний клуб з міста Вишгорода. Бере участь у Чемпіонаті Києва з футболу та Чемпіонаті Київської області з футболу. Почесним президентом клубу є Москаленко Ярослав Миколайович. За рівнем майстерності та спортивних результатів команда «Діназ» претендує на вихід до другої ліги чемпіонату України і саме це є ціллю клубу на 2017 рік.",
    "timestamp": "2018-08-02T10:08:37Z"
  },
  {
    "id": 1158301,
    "title": "Битва кентаврів (Мікеланджело)",
    "text": "«Би́тва кента́врів» (Template:lang-it; також — «Бій Геркуле́са з кента́врами»Template:sfn) — мармуровий рельєф зі сценою кетавромахії, створений Мікеланджело Буонарроті близько 1492 року. Цей барельєф належить до перших його відомих незалежних творів (як і «Мадонна біля сходів»)Template:sfn, і у ньому він знайшов себе як скульптораTemplate:sfn. Вазарі описує його як роботу, зроблену «так чудово, що той, хто дивиться на неї тепер, не може повірити, що це робота юнака, а не поважного майстра, досконалого в науці і практиці мистецтва»Template:sfn.",
    "timestamp": "2017-09-18T04:59:19Z"
  },
  {
    "id": 1158306,
    "title": "Маріо Монічеллі",
    "text": "Маріо Монічеллі (Template:lang-it; *16 травня 1915, Віареджо — †29 листопада 2010, Рим) — видатний італійський актор, кінорежисер, сценарист та комедіограф.",
    "timestamp": "2018-04-05T05:25:20Z"
  },
  {
    "id": 1158320,
    "title": "Агнець Божий",
    "text": "А́гнець Бо́жий (Template:lang-el, Amnos tou Theou; Template:lang-la, «Боже ягня») — у християнстві один із титулів Ісуса Христа. Згадується в Євангелії від Івана: «Оце Агнець Божий, що бере на Себе гріх світу!» (Template:Біблія). Згідно з християнським вченням Христос обрав страждання на знак повної покори Богу-Отцю.  Подібно старозавітним агнцям, принесеним в жертву, він віддав себе на смерть заради позбавлення людського роду від влади гріха. Образ Агнця Божого широко використовується у християнській і європейській традиції: молитвах, літургії, мистецтві. Агнцем називають євхаристійний хліб, яким причащаються вірні.",
    "timestamp": "2018-10-23T04:38:24Z"
  },
  {
    "id": 1158331,
    "title": "Франсіско де Орельяна",
    "text": "Франсі́ско де Орелья́на (Template:lang-es; 1505 або 1511, Трухільйо — 1546) — іспанський мандрівник і конкістадор (аделантадо), першовідкривач Амазонки, першим з європейців проплив по всій її довжині.",
    "timestamp": "2018-05-11T12:23:53Z"
  },
  {
    "id": 1158336,
    "title": "Аркадіуш Гловацький",
    "text": "Аркадіуш Гловацький (Template:lang-pl; 13 березня 1979, Познань, Польща) — польський футболіст, захисник. Нині виступає за турецький футбольний клуб «Трабзонспор» та за збірну Польщі.",
    "timestamp": "2017-05-17T14:55:44Z"
  },
  {
    "id": 1158341,
    "title": "Теорема Барб'є",
    "text": "Теоре́ма Барб'є́ — теорема французького астронома і математика Еміля Барб'є, що описує довжину кривих постійної ширини. Сформульована і доведена Барб'є в 1860 році.",
    "timestamp": "2018-09-04T10:51:34Z"
  },
  {
    "id": 1158348,
    "title": "Демешкань",
    "text": "Демешкань (Template:lang-mo) — село в Ришканському районі Молдови. Входить до складу комуни, адміністративним центром якої є місто Костешти.",
    "timestamp": "2018-02-09T13:21:29Z"
  },
  {
    "id": 1158356,
    "title": "Донецька складчаста область",
    "text": "Донецька складчаста область розташована на південний схід від Дніпровсько-Донецької западини, виражена в сучасному рельєфі Донецькою височиною — кряжем. Там на поверхню виходять девонські і карбонові (кам'яновугільні) породи. Це структура герцинського горотворення. З товщею карбонових відкладів, потужність яких досягає 12 км, пов'язані поклади кам'яного вугілля.",
    "timestamp": "2016-11-14T20:50:49Z"
  },
  {
    "id": 1158358,
    "title": "Саган Іван Тимофійович",
    "text": "Іван Тимофійович Саган (15 серпня 1938, с. Арламівська Воля Мостиського повіту, Львівського воєводства — 21 травня 2010, м. Мостиська Львівської області) — український історик, краєзнавець перекладач, журналіст.",
    "timestamp": "2018-09-05T08:24:03Z"
  },
  {
    "id": 1158360,
    "title": "Тойокуні",
    "text": "Утагава Тойокуні (1769, Едо — 24 лютого, 1825, Едо) (японською: 歌川豐國), такаж часто називають Тойокуні I, аби відрізняти його від члена його школи.",
    "timestamp": "2018-09-30T12:18:25Z"
  },
  {
    "id": 1158361,
    "title": "Орден Святого Губерта",
    "text": "Орден святого Губерта (Template:lang-de), під назвою орден Горна, (відомий також як орден Мисливського Рогу або орден Вірності), був започаткований 1444 року Герхардом V, герцогом Юліх-Берзьким, на пам'ять про воєнну перемогу над Арнольдом Егмонтським під Равенсбургом у день Святого Губерта (3 листопада) під час суперечки за спадщину. Деякі джерела відносять заснування ордену до 1473—1475 років.",
    "timestamp": "2018-01-08T19:48:52Z"
  },
  {
    "id": 1158363,
    "title": "Жоломія",
    "text": "Жоломі́яTemplate:Грінченко (також жоломі́йкаTemplate:СУМ-20Template:Грінченко) або дводенці́вка ― західноукраїнський музичний інструмент, здвоєна сопілка зі своєю системою отворів. Нині жоломігу зустріти дуже нечасто: переважно її використовують у народній музиці Карпатського регіону.",
    "timestamp": "2018-05-01T18:16:32Z"
  },
  {
    "id": 1158364,
    "title": "Бенедикт Геведес",
    "text": "Бенеди́кт Геве́дес (Template:lang-de, * 29 лютого 1988, Гальтерн-ам-Зе) — німецький футболіст, захисник клубу «Локомотив» (Москва) та національної збірної Німеччини.",
    "timestamp": "2018-10-04T11:14:49Z"
  },
  {
    "id": 1158366,
    "title": "Джорджиніо Вейналдум",
    "text": "Джорджи́ніо Вейна́лдум (Template:lang-nl, Template:н 11 листопада 1990, Роттердам, Нідерланди) — нідерландський футболіст, півзахисник національну збірну Нідерландів та англійського клубу «Ліверпуль».",
    "timestamp": "2018-06-13T10:44:50Z"
  },
  {
    "id": 1158368,
    "title": "Люк де Йонг",
    "text": "Люк де Йонг (Template:lang-nl, Template:МФА2, * 27 серпня 1990, Егль, Швейцарія) — нідерландський футболіст, нападник голландського «ПСВ».",
    "timestamp": "2018-08-17T08:54:14Z"
  },
  {
    "id": 1158370,
    "title": "Рой Беренс",
    "text": "Рой Беренс (Template:lang-nl, Template:МФА2, Template:н 22 грудня 1987, Бладел) — нідерландський футболіст, півзахисник клубу АЗ (Алкмар).",
    "timestamp": "2017-05-18T15:35:15Z"
  },
  {
    "id": 1158374,
    "title": "Святий Петроній (Мікеланджело)",
    "text": "«Святи́й Петро́ній» (Template:lang-it; також — «Святи́й Петро́ній, яки́й трима́є моде́ль Боло́ньї»Template:sfn) — мармурова скульптура єпископа Петронія, католицького святого, покровителя міста Болонья, яку створив Мікеланджело Буонарроті 1495 року.",
    "timestamp": "2017-09-18T05:38:08Z"
  },
  {
    "id": 1158382,
    "title": "Колкатський кінофестиваль",
    "text": "Колкатський кінофестиваль (Template:lang-bn, Template:lang-en) — щорічний міжнародний кінофестиваль, який проводиться в столиці індійського штату Західний Бенгал, у місті Колката (колишня назва — Калькутта). Це другий найстаріший міжнародний кінофестиваль Індії (після фестивалю кіно в Гоа). Фестиваль було організовано у 1995 році Кіноцентром Західної Бенгалії http://kff.in/about-festival/.",
    "timestamp": "2017-06-14T07:21:57Z"
  },
  {
    "id": 1158384,
    "title": "Три королі (фільм)",
    "text": "«Три королі» (Template:lang-en) — художній драматичний фільм з елементами комедії 1999 року режисера Девіда О. Расселла.",
    "timestamp": "2017-04-11T17:02:02Z"
  },
  {
    "id": 1158386,
    "title": "Джон Девісон Рокфеллер (молодший)",
    "text": "Джон Девінсон Рокфеллер-молодший (Template:lang-en; Template:Дата народження, Клівленд, Огайо — Template:Дата смерті, Тусон, Аризона) — американський філантроп і одна із ключових фігур в родині Рокфеллерівhttp://stepandstep.ru/catalog/know/112805/dzhon-rokfeller-mladshiy-do-8-let-donashival-platya-sester.htmlhttp://www.megabook.ru/Article.asp?AID=668194. Єдиний син із п'яти дітей бізнесмена і власника Standard Oil Джона Д. Рокфеллера і батько п'яти братів Рокфеллер. Джона Рокфеллера зазвичай називають «молодшим», щоб відрізнити від його знаменитішого батька, відомого як Рокфеллер «старший».",
    "timestamp": "2018-03-06T01:36:43Z"
  },
  {
    "id": 1158395,
    "title": "Спілка українців Придністров'я",
    "text": "Спілка українців Придністров’я ім. О.М. Бута — найбільша організація українців Придністров'я — виникла у 1991 році. Її створили три національні товариства з Кам’янки, Тирасполя і Бендер. Нині ж вона нараховує понад 30 тисяч членів. Голова - Леонід Ткачук.",
    "timestamp": "2014-10-23T12:28:35Z"
  },
  {
    "id": 1158397,
    "title": "Амфотерні оксиди",
    "text": "Амфоте́рні окси́ди — це солетворні оксиди, які можуть проявляти як кислотні, так і осно́вні властивості.",
    "timestamp": "2017-02-21T16:47:32Z"
  },
  {
    "id": 1158403,
    "title": "Войнилівська селищна рада",
    "text": "Войни́лівська се́лищна ра́да — адміністративно-територіальна одиниця та орган місцевого самоврядування в Калуському районі Івано-Франківської області. Адміністративний центр — селище міського типу Войнилів.",
    "timestamp": "2015-10-22T11:28:53Z"
  },
  {
    "id": 1158404,
    "title": "Мирний договір між Українською СРР і Литовською Демократичною Республікою (1921)",
    "text": "Мирний договір між Українською СРР і Литовською Демократичною Республікою 1921 року — договір, підписаний 14 лютого 1921 року в Москві уповноваженими уряду УСРР Ф.Коном, Ю.Коцюбинським та уповноваженими уряду Литовської Демократичної Республіки (ЛДР) Ю. Балтрушайтісом, Й. Ванагасом-Сімонайтісом, Р. Йоделісом, К. Свіласом.",
    "timestamp": "2017-10-06T16:06:51Z"
  },
  {
    "id": 1158405,
    "title": "Суперстрат",
    "text": "Суперстрáт (Template:lang-la — верхній шар, настелене, покладене зверху) — залишкові сліди мови нового населення в мові місцевого населення. Наприклад: мова тюркського племені протоболгар — суперстрат болгарської (слов’янської мови). Термін запровадив В. Вартбург.",
    "timestamp": "2018-02-24T09:39:16Z"
  },
  {
    "id": 1158406,
    "title": "Вирівська сільська рада",
    "text": "Вирівська сільська рада — адміністративно-територіальна одиниця в Україні.",
    "timestamp": "2014-10-09T22:05:38Z"
  },
  {
    "id": 1158407,
    "title": "Святий Петроній",
    "text": "Святи́й Петро́ній (Template:lang-it) — католицький святий, покровителя міста Болонья.",
    "timestamp": "2018-10-09T09:00:49Z"
  },
  {
    "id": 1158410,
    "title": "Жовтнева селищна рада",
    "text": "Жовтнева селищна рада — адміністративно-територіальна одиниця в Україні.",
    "timestamp": "2015-06-15T08:22:26Z"
  },
  {
    "id": 1158412,
    "title": "Дебогорій-Мокрієвич Іван Карпович",
    "text": "Іва́н Ка́рпович Дебого́рій-Мокріє́вич (Template:lang-ru; Template:н близько 1846 — Template:† 1880, Курськ) — учасник революційного руху в Російській імперії та Герцоговині. Дворянин, син відставного підполковника. Старший брат Володимира Дебогорія-Мокрієвича.",
    "timestamp": "2013-03-22T00:53:25Z"
  },
  {
    "id": 1158414,
    "title": "Гуринівська сільська рада",
    "text": "Гурині́вська сільська́ ра́да — орган місцевого самоврядування в Білопільському районі Сумської області. Адміністративний центр — село Гуринівка.",
    "timestamp": "2015-05-19T09:22:55Z"
  },
  {
    "id": 1158415,
    "title": "Костюк Василь Іванович",
    "text": "Василь Іванович Костюк (*Template:ДН, с. Катеринівка, Бобровицький район, Чернігівська область) — український журналіст, письменник. Член Національної спілки письменників України, Національної спілки журналістів України.",
    "timestamp": "2015-12-12T20:05:30Z"
  },
  {
    "id": 1158416,
    "title": "Долинська районна рада (Івано-Франківська область)",
    "text": "Долинська райо́нна ра́да — районна рада Івано-Франківської області.",
    "timestamp": "2018-02-27T12:08:52Z"
  },
  {
    "id": 1158417,
    "title": "Великий збір ОУН",
    "text": "Великий Збір ОУН — найвищий керівний орган Організації Українських Націоналістів.",
    "timestamp": "2018-10-02T15:46:19Z"
  },
  {
    "id": 1158419,
    "title": "Перехрестівська сільська рада",
    "text": "Перехрестівська сільська рада — адміністративно-територіальна одиниця в Україні.",
    "timestamp": "2016-06-11T14:53:32Z"
  },
  {
    "id": 1158421,
    "title": "Басівська сільська рада",
    "text": "Басівська сільська рада — адміністративно-територіальна одиниця в Україні.",
    "timestamp": "2014-10-09T20:42:48Z"
  },
  {
    "id": 1158425,
    "title": "Три мішечки. Від Миколая до Різдва",
    "text": "Три мішечки. Від Миколая до Різдва — благодійний новорічно-різдвяний ярмарок, який відбувається щорічно на Майдані Незалежності. Головна мета заходу — зібрати гроші на лікування онкохворих дітей, популяризувати благочинність у суспільстві.",
    "timestamp": "2012-07-01T05:14:45Z"
  },
  {
    "id": 1158428,
    "title": "Олянчин Домет Герасимович",
    "text": "Домет Герасимович Олянчин (Template:ДН, Війтівка на Брацлавщині — † Template:ДС, Штутгарт) — український історик на еміграції в Німеччині. Мазепознавець, шевченкознавець, архівіст, нумізмат, генеалог, освітянин. Дослідник українсько-німецьких торгових зв'язків та історії Церкви. Учень В'ячеслава Липинського. Доктор філософії Берлінського університету.",
    "timestamp": "2017-11-05T09:00:44Z"
  },
  {
    "id": 1158431,
    "title": "Філіпп Отто Рунге",
    "text": "Філіпп Отто Рунге (Template:lang-de, 23 липня 1777, Вольгаст — 2 грудня 1810, Гамбург) — німецький художник і теоретик, один з лідерів романтизму в німецькому образотворчому мистецтві.",
    "timestamp": "2018-06-14T08:52:31Z"
  },
  {
    "id": 1158438,
    "title": "Кікоть Ярослав Григорович",
    "text": "Ярослав Григорович Кікоть (Template:н 8 червня 1949 року, Старий Самбір, Львівська область) — радянський футболіст. Півзахисник, виступав за команди: «Авангард» (Макіївка), «Азовець» (Жданов), «Шахтар» (Донецьк), «Карпати» (Львів), «Спартак» (Івано-Франківськ). Провів 1 гру за молодіжну збірну СРСР.",
    "timestamp": "2017-11-07T20:41:01Z"
  },
  {
    "id": 1158451,
    "title": "Даніел Пржибил",
    "text": "Даніел Пржибил (Template:lang-cs; 18 грудня 1992) — чеський хокеїст, центральний нападник. Виступає за «Спарта» (Прага) у Чеській Екстралізі.",
    "timestamp": "2015-06-11T13:32:17Z"
  },
  {
    "id": 1158454,
    "title": "Кройдон (боро)",
    "text": "Кро́йдон (Template:lang-en) — боро на півдні Лондона.",
    "timestamp": "2018-03-04T10:03:42Z"
  },
  {
    "id": 1158456,
    "title": "Варшавська фондова біржа",
    "text": "Варшавська фондова біржа (Template:lang-en, пол.Giełda Papierów Wartościowych w Warszawie) — найбільша фондова біржа Східної та Центральної Європи.",
    "timestamp": "2018-06-18T06:47:33Z"
  },
  {
    "id": 1158458,
    "title": "Карлос Веласко Карбальйо",
    "text": "Ка́рлос Вела́ско Карба́льйо (Template:lang-es; Template:н 16 березня 1971 року, Мадрид, Іспанія) — іспанський футбольний арбітр.",
    "timestamp": "2018-08-03T12:15:33Z"
  },
  {
    "id": 1158463,
    "title": "Кройдон (Новий Південний Уельс)",
    "text": "Кройдон є багатим передмістям на внутрішньому заході  Сіднею, у штаті Новий Південний Уельс,Австралія. Кройдон розташований за 11 кілометрів на захід від центрального ділового району Сіднею. Кройдон ділиться між двома районами місцевого самоврядування у Австралії: Ради Burwood  та муніципалітету Ешфілд.",
    "timestamp": "2018-02-07T20:48:44Z"
  },
  {
    "id": 1158467,
    "title": "Нікола Ріццолі",
    "text": "Ніко́ла Ріццо́лі (Template:lang-it; Template:н 5 жовтня 1971 року, Мірандола, Італія) — італійський футбольний арбітр. Поза футбольною діяльністю — архітектор.",
    "timestamp": "2018-08-03T14:31:01Z"
  },
  {
    "id": 1158472,
    "title": "Дуруйтоаря",
    "text": "Дуруйтоаря (Template:lang-mo) — село в Ришканському районі Молдови. Входить до складу комуни, адміністративним центром якої є місто Костешти.",
    "timestamp": "2018-02-09T13:39:56Z"
  },
  {
    "id": 1158474,
    "title": "Пескеуць",
    "text": "Пескеуць (Template:lang-mo) — село в Ришканському районі Молдови. Входить до складу комуни, адміністративним центром якої є місто Костешти.",
    "timestamp": "2018-02-12T08:23:13Z"
  },
  {
    "id": 1158475,
    "title": "Тед Тернер",
    "text": "Роберт Едвард Тернер III (відоміший як Тед Тернер) (Template:lang-en; Template:дата народження, Цинциннаті, Огайо) — американський бізнесмен, засновник щоденного каналу новин CNN.",
    "timestamp": "2017-10-23T16:00:48Z"
  },
  {
    "id": 1158479,
    "title": "Сорокушові",
    "text": "СорокушовіTemplate:cite journal (Thamnophilidae) — родина горобцеподібних птахів з підряду тиранових (Tyranni).",
    "timestamp": "2018-02-20T12:57:21Z"
  },
  {
    "id": 1158480,
    "title": "Вільгельм Дільтей",
    "text": "Вільгельм Дільтей (Template:lang-de; *19 листопада 1833, Бібріх-на-Рейні — †1 жовтня 1911, Зейс) — німецький історик культури та філософ-ідеаліст, представник філософії життя, літературознавець, що ввів вперше поняття так званих наук про дух (Template:lang-de), що мали значний вплив як на сучасні історичні науки в Німеччині (Ріккерт, Віндельбанд, Шпрангер та інші), так і на літературознавство (Унгер, Вальцель, Гундольф та інші).",
    "timestamp": "2018-05-23T09:08:08Z"
  },
  {
    "id": 1158481,
    "title": "Георг Зіммель",
    "text": "Георг Зіммель (Template:lang-de; *1 березня 1858, Берлін — †28 вересня 1918, Страсбур)  — німецький філософ і соціолог єврейського походження, один із головних представників пізньої «філософії життя». Розробляв переважно проблеми філософії, культури та соціології.",
    "timestamp": "2018-05-25T09:45:36Z"
  },
  {
    "id": 1158483,
    "title": "Ярмарок суєти",
    "text": "«Я́рмарок суєти́» («Ярмарок марнославства», Template:lang-en) — роман Вільяма Мейкпіса Теккерея про епоху Наполеонівських війн, який публікувався в сатиричному журналі «Punch» з січня 1847 по липень 1848 року.",
    "timestamp": "2018-10-05T07:37:56Z"
  },
  {
    "id": 1158485,
    "title": "Bigmir)net",
    "text": "bigmir)net — російськомовний інтернет-портал заснований в Україні. Почав свою роботу в листопаді 2000 року.",
    "timestamp": "2017-03-27T02:20:47Z"
  },
  {
    "id": 1158486,
    "title": "Жигайлівська волость",
    "text": "Жигайлівська волость — історична адміністративно-територіальна одиниця Охтирського повіту Харківської губернії із центром у селі Жигайлівка.",
    "timestamp": "2015-10-17T11:42:03Z"
  },
  {
    "id": 1158490,
    "title": "Дернівська волость",
    "text": "Дернівська волость — адміністративно-територіальна одиниця Охтирського повіту Харківської губернії.",
    "timestamp": "2015-10-16T10:40:18Z"
  },
  {
    "id": 1158496,
    "title": "Кириківська волость",
    "text": "Кириківська волость — адміністративно-територіальна одиниця Охтирського повіту Харківської губернії.",
    "timestamp": "2015-10-16T10:35:15Z"
  },
  {
    "id": 1158501,
    "title": "Трауготт Герр",
    "text": "Трауготт Герр (Template:lang-de; Template:н 16 вересня 1890, Веферлінген, Саксонія — Template:† 13 квітня 1976, Ахтервер) — німецький воєначальник часів Третього Рейху, генерал танкових військ (1943) Вермахту. Кавалер Лицарського хреста Залізного хреста з дубовим листям та мечами (1944).",
    "timestamp": "2018-02-11T12:15:28Z"
  },
  {
    "id": 1158505,
    "title": "Trachinus lineolatus",
    "text": "Trachinus lineolatus — є видом риб родини Trachinidae, ряду Perciformes. Поширені у східній Атлантиці вздовж берегів Африки від Гвінеї-Бісау до Сан-Томе і Габону. Морська тропічна демерсальна риба, сягає 15 см довжиною.",
    "timestamp": "2016-05-07T05:39:12Z"
  },
  {
    "id": 1158507,
    "title": "Trachinus pellegrini",
    "text": "Trachinus pellegrini — є видом риб родини Trachinidae, ряду Perciformes. Поширені у східній Атлантиці вздовж берегів Африки від Сенегалу до Нігерії, Канарські острови та Кабо-Верде включно, також біля берегів Мавританії. Морська тропічна демерсальна риба, сягає 20 см довжиною.",
    "timestamp": "2016-05-08T06:31:39Z"
  },
  {
    "id": 1158508,
    "title": "Trachinus cornutus",
    "text": "Trachinus cornutus — є видом риб родини Trachinidae, ряду Perciformes. Поширені у південно-східній частині Тихого океану вздовж берегів Чилі. Морська субтропічна демерсальна риба.",
    "timestamp": "2016-02-06T06:14:59Z"
  },
  {
    "id": 1158509,
    "title": "Trachinus collignoni",
    "text": "Trachinus collignoni — є видом риб родини Trachinidae, ряду Perciformes. Поширені у східній Атлантиці вздовж тропічних берегів західної Африки, біля Габону та Конго, можливо далі на південь. Морська тропічна демерсальна риба, сягає 15 см довжиною.",
    "timestamp": "2016-05-07T05:36:54Z"
  },
  {
    "id": 1158517,
    "title": "Кримський інженерно-педагогічний університет",
    "text": "Кримський інженерно-педагогічний університет (Template:lang-crh) — вищий навчальний заклад в Україні. Створений в 1993 році. Більше половини спеціальностей університету акредитовані за IV рівнем, виш у цілому — по IV рівню.",
    "timestamp": "2018-07-09T10:18:14Z"
  },
  {
    "id": 1158519,
    "title": "Самусь Микола Миколайович",
    "text": "Самусь Микола Миколайович — російський астроном, доктор фізико-математичних наук. Провідний науковий співробітник Інституту астрономії РАН. Керівник групи загального каталогу змінних зірок.",
    "timestamp": "2018-05-09T17:29:53Z"
  },
  {
    "id": 1158520,
    "title": "Лусконогові",
    "text": "Лусконоги (Pygopodidae) — родини плазунів з підряду Ящірки. Має 2 підродини, 7 родів та 37 видів.",
    "timestamp": "2017-10-22T17:35:18Z"
  },
  {
    "id": 1158521,
    "title": "Де Йонг",
    "text": "Де Йонг (Template:lang-nl) — нідерландське прізвище, станом на 2007 рік — найпоширеніше прізвище в країні100 найпоширеніших прізвищ в Нідерландах. Template:ref-nl.",
    "timestamp": "2017-08-31T09:30:49Z"
  },
  {
    "id": 1158522,
    "title": "21512 Сьюзіклері",
    "text": "21512 Сьюзіклері (21512 Susieclary) — астероїд головного поясу, відкритий 22 травня 1998 року.",
    "timestamp": "2014-05-14T12:55:40Z"
  },
  {
    "id": 1158524,
    "title": "12872 Сьюзістівенс",
    "text": "12872 Сьюзістівенс (12872 Susiestevens) — астероїд головного поясу, відкритий 21 липня 1998 року.",
    "timestamp": "2014-05-14T12:55:49Z"
  },
  {
    "id": 1158526,
    "title": "21229 Сушіл",
    "text": "21229 Сушіл (21229 Sušil) — астероїд головного поясу, відкритий 22 вересня 1995 року.",
    "timestamp": "2016-05-11T16:48:22Z"
  },
  {
    "id": 1158528,
    "title": "19450 Суссман",
    "text": "19450 Суссман (19450 Sussman) — астероїд головного поясу, відкритий 24 березня 1998 року.",
    "timestamp": "2016-05-11T16:48:23Z"
  },
  {
    "id": 1158530,
    "title": "1970 Шумерія",
    "text": "1970 Шуме́рія (1970 Sumeria) — астероїд головного поясу, відкритий 12 березня 1954 року.",
    "timestamp": "2014-05-16T10:01:41Z"
  },
  {
    "id": 1158532,
    "title": "1928 Сумма",
    "text": "1928 Сумма (1928 Summa) — астероїд головного поясу, відкритий 21 вересня 1938 року.",
    "timestamp": "2014-05-14T12:37:44Z"
  }
]