[
  {
    "id": 656012,
    "title": "Концепція Бобат",
    "text": "Нейророзвиваюча терапія, або Бобат-терапія — концепція ведення фізичної реабілітації пацієнтів з органічними ураженнями мозку (дитячим церебральним паралічем або інсультом).",
    "timestamp": "2018-08-27T10:53:51Z"
  },
  {
    "id": 656015,
    "title": "Девід Хан",
    "text": "Девід Хан  ( David Hahn ) (30 жовтня 1976 - 27 вересня 2016), також відомий як «Радіоактивний бойскаут », людина, яка прославилася тим, що намагалася в 17-річному віці створити саморобний ядерний реактор-розмножувач (брідер) у сараї поруч зі своїм будинком на околиці Детройту.",
    "timestamp": "2016-11-15T13:03:08Z"
  },
  {
    "id": 656018,
    "title": "Неврологія",
    "text": "Невроло́гія — наука, яка вивчає нервову систему, розробляє теорію і практику лікування неврологічних хворих. Слід відмітити, що невропатологи займаються консервативним лікуванням неврологічних хворих, в той час як нейрохірурги здійснюють оперативне лікування травматичних, пухлинних, судинних та ін. ушкодження головного та спинного мозку, нервових сплетінь і стовбурів, а також периферичних нервів.",
    "timestamp": "2018-08-24T12:18:40Z"
  },
  {
    "id": 656019,
    "title": "Архітектоніка (медицина)",
    "text": "Архітектоніка — розподіл кори головного мозку за зонами залежно від функціонального навантаження. Лобні частки контролюють психіку людини, лобно-тім'яна ділянка - рухи в кінцівках, скроневі частки - письмо, графіка, рахунок, потилична ділянка - корковий аналізатор зору, мозочок - координація рухів.",
    "timestamp": "2017-05-13T13:46:43Z"
  },
  {
    "id": 656020,
    "title": "Ла-Варенн",
    "text": "Ла-Варе́нн (Template:lang-fr) — муніципалітет у Франції, у регіоні Пеї-де-ла-Луар, департамент Мен і Луара. Населення — 1,745 осіб (2011)Template:cite webTemplate:ref-fr.",
    "timestamp": "2017-05-14T13:11:16Z"
  },
  {
    "id": 656022,
    "title": "Ландмон",
    "text": "Ландмо́н (Template:lang-fr) — муніципалітет у Франції, у регіоні Пеї-де-ла-Луар, департамент Мен і Луара. Населення — 1,650 осіб (2011)Template:cite webTemplate:ref-fr.",
    "timestamp": "2017-05-14T15:21:25Z"
  },
  {
    "id": 656024,
    "title": "Ласс (Мен і Луара)",
    "text": "Ласс (Template:lang-fr) — муніципалітет у Франції, у регіоні Пеї-де-ла-Луар, департамент Мен і Луара. Населення — 292 осіб (2011)Template:cite webTemplate:ref-fr.",
    "timestamp": "2017-05-14T15:47:23Z"
  },
  {
    "id": 656026,
    "title": "Ле-Бур-д'Іре",
    "text": "Ле-Бур-д'Іре́ (Template:lang-fr) — муніципалітет у Франції, у регіоні Пеї-де-ла-Луар, департамент Мен і Луара. Населення — 837 осіб (2011)Template:cite webTemplate:ref-fr.",
    "timestamp": "2017-05-14T16:06:39Z"
  },
  {
    "id": 656028,
    "title": "Ле-Кудре-Макуар",
    "text": "Ле-Кудре́-Макуа́р (Template:lang-fr) — муніципалітет у Франції, у регіоні Пеї-де-ла-Луар, департамент Мен і Луара. Населення — 909 осіб (2011)Template:cite webTemplate:ref-fr.",
    "timestamp": "2017-05-14T16:51:04Z"
  },
  {
    "id": 656030,
    "title": "Ле-Ф'єф-Совен",
    "text": "Ле-Ф'єф-Сове́н (Template:lang-fr) — муніципалітет у Франції, у регіоні Пеї-де-ла-Луар, департамент Мен і Луара. Населення — 1,671 осіб (2011)Template:cite webTemplate:ref-fr.",
    "timestamp": "2017-05-14T17:40:04Z"
  },
  {
    "id": 656033,
    "title": "Ле-Фюїє",
    "text": "Ле-Фюїє́ (Template:lang-fr) — муніципалітет у Франції, у регіоні Пеї-де-ла-Луар, департамент Мен і Луара. Населення — 1,898 осіб (2011)Template:cite webTemplate:ref-fr.",
    "timestamp": "2017-05-14T17:44:14Z"
  },
  {
    "id": 656035,
    "title": "Ле-Геденйо",
    "text": "Ле-Геденйо́, Ле-Ґеденйо (Template:lang-fr) — муніципалітет у Франції, у регіоні Пеї-де-ла-Луар, департамент Мен і Луара. Населення — 344 осіб (2011)Template:cite webTemplate:ref-fr.",
    "timestamp": "2017-05-14T16:38:53Z"
  },
  {
    "id": 656037,
    "title": "Ле-Ліон-д'Анже",
    "text": "Ле-Ліо́н-д'Анже́ (Template:lang-fr) — муніципалітет у Франції, у регіоні Пеї-де-ла-Луар, департамент Мен і Луара. Населення — 3,701 осіб (2011)Template:cite webTemplate:ref-fr.",
    "timestamp": "2017-05-14T16:52:53Z"
  },
  {
    "id": 656039,
    "title": "Ле-Лонжрон",
    "text": "Ле-Лонжро́н (Template:lang-fr) — муніципалітет у Франції, у регіоні Пеї-де-ла-Луар, департамент Мен і Луара. Населення — 2,072 осіб (2011)Template:cite webTemplate:ref-fr.",
    "timestamp": "2017-05-14T16:53:47Z"
  },
  {
    "id": 656053,
    "title": "Митрополит Київський і всієї України",
    "text": "Митрополит Київський і всієї України — титул першоієрархів у кількох православних юрисдикціях України: Українській православній церкві (Московського патріархату) (з 1990 року), Українській автокефальній православній церкві (з 2000 року), Українському екзархаті Російської православної церкви (у 1990 році).",
    "timestamp": "2010-04-24T20:54:40Z"
  },
  {
    "id": 656066,
    "title": "Ле-Луру-Беконне",
    "text": "Ле-Луру́-Беконне́ (Template:lang-fr) — муніципалітет у Франції, у регіоні Пеї-де-ла-Луар, департамент Мен і Луара. Населення — 2,901 осіб (2011)Template:cite webTemplate:ref-fr.",
    "timestamp": "2017-05-14T16:54:38Z"
  },
  {
    "id": 656068,
    "title": "Ле-Маріє",
    "text": "Ле-Маріє́ (Template:lang-fr) — муніципалітет у Франції, у регіоні Пеї-де-ла-Луар, департамент Мен і Луара. Населення — 1,097 осіб (2011)Template:cite webTemplate:ref-fr.",
    "timestamp": "2017-05-14T16:57:39Z"
  },
  {
    "id": 656070,
    "title": "Ле-Ме-сюр-Евр",
    "text": "Ле-Ме-сюр-Евр (Template:lang-fr) — муніципалітет у Франції, у регіоні Пеї-де-ла-Луар, департамент Мен і Луара. Населення — 3,992 осіб (2011)Template:cite webTemplate:ref-fr.",
    "timestamp": "2017-05-14T16:59:03Z"
  },
  {
    "id": 656071,
    "title": "Ле-Меній-ан-Валле",
    "text": "Ле-Мені́й-ан-Валле́ (Template:lang-fr) — муніципалітет у Франції, у регіоні Пеї-де-ла-Луар, департамент Мен і Луара. Населення — 1,469 осіб (2011)Template:cite webTemplate:ref-fr.",
    "timestamp": "2017-05-14T17:02:11Z"
  },
  {
    "id": 656073,
    "title": "Ле-Пен-ан-Мож",
    "text": "Ле-Пен-ан-Мож (Template:lang-fr) — муніципалітет у Франції, у регіоні Пеї-де-ла-Луар, департамент Мен і Луара. Населення — 1,348 осіб (2011)Template:cite webTemplate:ref-fr.",
    "timestamp": "2017-05-14T17:14:21Z"
  },
  {
    "id": 656075,
    "title": "Ле-Плессі-Граммуар",
    "text": "Ле-Плессі́-Граммуа́р, Ле-Плессі-Ґраммуар (Template:lang-fr) — муніципалітет у Франції, у регіоні Пеї-де-ла-Луар, департамент Мен і Луара. Населення — 2,293 осіб (2011)Template:cite webTemplate:ref-fr.",
    "timestamp": "2017-05-14T17:18:23Z"
  },
  {
    "id": 656076,
    "title": "Ле-Плессі-Масе",
    "text": "Ле-Плессі́-Масе́ (Template:lang-fr) — муніципалітет у Франції, у регіоні Пеї-де-ла-Луар, департамент Мен і Луара. Населення — 1,257 осіб (2011)Template:cite webTemplate:ref-fr.",
    "timestamp": "2017-05-14T17:19:06Z"
  },
  {
    "id": 656078,
    "title": "Ле-Пюїзе-Доре",
    "text": "Ле-Пюїзе́-Доре́ (Template:lang-fr) — муніципалітет у Франції, у регіоні Пеї-де-ла-Луар, департамент Мен і Луара. Населення — 1,166 осіб (2011)Template:cite webTemplate:ref-fr.",
    "timestamp": "2017-05-14T17:24:16Z"
  },
  {
    "id": 656080,
    "title": "Ле-Пюї-Нотр-Дам",
    "text": "Ле-Пюї́-Нотр-Дам (Template:lang-fr) — муніципалітет у Франції, у регіоні Пеї-де-ла-Луар, департамент Мен і Луара. Населення — 1,242 осіб (2011)Template:cite webTemplate:ref-fr.",
    "timestamp": "2017-05-14T17:24:02Z"
  },
  {
    "id": 656081,
    "title": "Ле-Турей",
    "text": "Ле-Туре́й (Template:lang-fr) — муніципалітет у Франції, у регіоні Пеї-де-ла-Луар, департамент Мен і Луара. Населення — 441 осіб (2011)Template:cite webTemplate:ref-fr.",
    "timestamp": "2017-05-14T17:38:18Z"
  },
  {
    "id": 656116,
    "title": "Ле-Трамбле (Мен і Луара)",
    "text": "Ле-Трамбле́ (Template:lang-fr) — муніципалітет у Франції, у регіоні Пеї-де-ла-Луар, департамент Мен і Луара. Населення — 349 осіб (2011)Template:cite webTemplate:ref-fr.",
    "timestamp": "2017-05-14T17:35:53Z"
  },
  {
    "id": 656118,
    "title": "Ле-В'єй-Боже",
    "text": "Ле-В'єй-Боже́ (Template:lang-fr) — колишній муніципалітет у Франції, у регіоні Пеї-де-ла-Луар, департамент Мен і Луара. Населення — 1,266 осіб (2010)Template:cite webTemplate:ref-fr.",
    "timestamp": "2017-05-20T10:19:24Z"
  },
  {
    "id": 656120,
    "title": "Лез-Алле (Мен і Луара)",
    "text": "Лез-Алле́ (Template:lang-fr) — муніципалітет у Франції, у регіоні Пеї-де-ла-Луар, департамент Мен і Луара. Населення — 887 осіб (2011)Template:cite webTemplate:ref-fr.",
    "timestamp": "2017-05-14T17:55:44Z"
  },
  {
    "id": 656122,
    "title": "Ле-Серке",
    "text": "Ле-Серке́ (Template:lang-fr) — муніципалітет у Франції, у регіоні Пеї-де-ла-Луар, департамент Мен і Луара. Населення — 842 осіб (2011)Template:cite webTemplate:ref-fr.",
    "timestamp": "2017-05-14T17:29:44Z"
  },
  {
    "id": 656124,
    "title": "Ле-Серке-су-Пассаван",
    "text": "Ле-Серке́-су-Пассава́н (Template:lang-fr) — муніципалітет у Франції, у регіоні Пеї-де-ла-Луар, департамент Мен і Луара. Населення — 504 осіб (2011)Template:cite webTemplate:ref-fr.",
    "timestamp": "2017-05-14T17:29:48Z"
  },
  {
    "id": 656126,
    "title": "Ле-Пон-де-Се",
    "text": "Ле-Пон-де-Се (Template:lang-fr) — муніципалітет у Франції, у регіоні Пеї-де-ла-Луар, департамент Мен і Луара. Населення — 11,780 осіб (2011)Template:cite webTemplate:ref-fr.",
    "timestamp": "2017-05-14T17:20:59Z"
  },
  {
    "id": 656128,
    "title": "Ле-Рері",
    "text": "Ле-Рері́ (Template:lang-fr) — муніципалітет у Франції, у регіоні Пеї-де-ла-Луар, департамент Мен і Луара. Населення — 973 осіб (2011)Template:cite webTemplate:ref-fr.",
    "timestamp": "2017-05-14T17:25:13Z"
  },
  {
    "id": 656130,
    "title": "Ле-Розьє-сюр-Луар",
    "text": "Ле-Розьє́-сюр-Луа́р (Template:lang-fr) — муніципалітет у Франції, у регіоні Пеї-де-ла-Луар, департамент Мен і Луара. Населення — 2,341 осіб (2011)Template:cite webTemplate:ref-fr.",
    "timestamp": "2017-05-14T17:26:16Z"
  },
  {
    "id": 656131,
    "title": "Лез-Юльм",
    "text": "Лез-Юльм (Template:lang-fr) — муніципалітет у Франції, у регіоні Пеї-де-ла-Луар, департамент Мен і Луара. Населення — 578 осіб (2011)Template:cite webTemplate:ref-fr.",
    "timestamp": "2017-05-14T18:02:18Z"
  },
  {
    "id": 656133,
    "title": "Ле-Верше-сюр-Лейон",
    "text": "Ле-Верше́-сюр-Лейо́н (Template:lang-fr) — муніципалітет у Франції, у регіоні Пеї-де-ла-Луар, департамент Мен і Луара. Населення — 916 осіб (2011)Template:cite webTemplate:ref-fr.",
    "timestamp": "2017-05-14T16:12:35Z"
  },
  {
    "id": 656158,
    "title": "Багікла",
    "text": "Багікла — село в Лакському районі Дагестану.",
    "timestamp": "2013-03-22T03:13:45Z"
  },
  {
    "id": 656169,
    "title": "Молодша Едда",
    "text": "«Молодша Е́дда», або «Сноррова Едда» — твір середньовічного ісландського письменника Сноррі Стурлусона, написаний у 1222–1225 роках. Твір був задуманий як підручник поетики скальдів. Містить багатий матеріал зі скандинавської міфології.",
    "timestamp": "2017-03-18T22:11:20Z"
  },
  {
    "id": 656174,
    "title": "Комсомолець (кінотеатр, Умань)",
    "text": "«Комсомолець» — кінотеатр у місті Умань Черкаської області, міський осередок культури.",
    "timestamp": "2018-07-15T05:41:11Z"
  },
  {
    "id": 656177,
    "title": "Сакидон Сидір Йосипович",
    "text": "Сидір Йосипович Сакидон (Template:ДН, Перевали — 8 липня 1974, Київ) — український перекладач.",
    "timestamp": "2018-06-23T15:49:08Z"
  },
  {
    "id": 656181,
    "title": "Будинок Лисенка",
    "text": "Буди́нок Ли́сенка — будинок в Черкасах, збудований за кошти грабаря Лисенка, в якому знаходилась Перша музична школа, трохи згодом – приватна чоловіча гімназія.",
    "timestamp": "2017-12-09T17:19:52Z"
  },
  {
    "id": 656185,
    "title": "Оцінка основних рухових функцій",
    "text": "Оцінка основних рухових функцій — методика обстеження неврологічного пацієнта фізичним реабілітологом.",
    "timestamp": "2014-06-30T14:34:21Z"
  },
  {
    "id": 656191,
    "title": "Бальбін",
    "text": "Децим Целій Кальвін Бальбін (Template:lang-la) (*бл. 178 — †238) — імператор Стародавнього Риму у квітні-липні 238 р. (Рік шістьох імператорів).",
    "timestamp": "2016-09-10T21:11:13Z"
  },
  {
    "id": 656197,
    "title": "Audi A8 D4",
    "text": "Audi A8 D4 — це третє покоління автомобіля класу «люкс» Audi A8Нова модель A8 на стор. концерну Audi була представлена 1 грудня 2009 року на дизайн-шоу в Маямі (Design Miami)Audi AG: Світова прем'єра нової Audi A8. Серійний випуск нової Audi A8 починається в 2010 році.",
    "timestamp": "2018-03-16T19:05:04Z"
  },
  {
    "id": 656199,
    "title": "Металургс (хокейний клуб, Лієпая)",
    "text": "Хокейний клуб «Металургс (Лієпая)» (Template:lang-lv) — хокейний клуб з м. Лієпаї, Латвія. Заснований 1997 року. Виступає в Білоруській Екстралізі.",
    "timestamp": "2018-10-16T07:34:27Z"
  },
  {
    "id": 656207,
    "title": "Модулярні нейронні мережі",
    "text": "Модулярна нейронна мережа (Template:lang-en) — група нейронних мереж (які в даному випадку називаються модулями), що керуються певним посередником. Кожна нейронна мережа слугує модулем і оперує окремими входами для вирішення певних підзавдань із групи завдань, які повинна виконати модулярна нейронна мережа. Azam, Farooq. Biologically Inspired Modular Neural Networks. PhD Dissertation, Virginia Tech. 2000 scholar.lib.vt.edu/theses/available/etd-06092000-12150028/unrestricted/etd.pdf Посередник приймає вихідні сигнали кожного модуля нейронної мережі, виконує певну їх обробку і створює вихідний сигнал усієї модулярної мережі. Посередник не отримує жодних інших сигналів, окрім сигналів з виходів модулів нейронної мережі. Модулі не взаємодіють між собою.",
    "timestamp": "2017-04-19T09:29:24Z"
  },
  {
    "id": 656213,
    "title": "Планети земної групи",
    "text": "Планети земної групи (також внутрішні планети) — чотири планети Сонячної системи: Меркурій, Венера, Земля та МарсЗагальна характеристика планет земної групи. По структурі та складу до них можуть бути віднесені і деякі астероїди, наприклад, Веста.",
    "timestamp": "2016-03-02T18:23:59Z"
  },
  {
    "id": 656245,
    "title": "Тусон (Аризона)",
    "text": "Тусон (Template:lang-en) — місто в американському штаті Аризона, адміністративний центр округу Піма, розташоване за 188 км на південний схід від столиці штату міста Фінікс та за 98 км від кордону з Мексикою. За оцінкою 2008 року, населення міста становило 542 тис. мешканцівTemplate:cite web, а населення агломерації — 1,02 млн мешканців. Це найбільше місто південної Аризони та друге за розміром у штаті. У місті розташований Аризонський університет.",
    "timestamp": "2018-05-25T23:16:12Z"
  },
  {
    "id": 656252,
    "title": "Саґське повстання",
    "text": "Саґське повстання (Template:lang-ja, саґа но ран; 1 лютого — 1 березня 1874) — антиурядове повстання нетитулованої шляхти в Японії, що відбулося 1874 року на півночі острова Кюсю, на території префектури Саґа, під проводом Ето Сімпея і Сіми Йосітаке. Закінчилося перемогою урядових сил і стратою лідерів повстанців.",
    "timestamp": "2018-04-22T19:55:20Z"
  },
  {
    "id": 656259,
    "title": "Функтор",
    "text": "Функтор — відображення однієї категорії в іншу, узгоджене із структурою категорій. Функтори були вперше введені в алгебраїчній топології, де алгебраїчні структури пов'язуються з топологічними просторами, а їхні гомоморфізми — з неперервними відображеннями. В наш часTemplate:коли функтори використовуються в багатьох розділах математики для встановлення зв'язків між різними категоріями. Термін «функтор» був взятий математиками з робіт філософа Р. Карнапа.",
    "timestamp": "2018-10-08T13:18:44Z"
  },
  {
    "id": 656261,
    "title": "Проспект Кашанга",
    "text": "Проспект Кашанга́ (Template:lang-pt) — проспект у місті Ресіфі, штат Пернамбуку, Бразилія, довжиною 6,2 км, найдовша абсолютно пряма вулиця у країні.",
    "timestamp": "2016-01-15T16:38:07Z"
  },
  {
    "id": 656264,
    "title": "Клондайкська золота лихоманка",
    "text": "Клонда́йкська золота́ лихома́нка (Template:lang-en) також: Юконська золота лихоманка або Аляскинська золота лихоманка — міграція шукачів золота на Клондайку в Юконі у 1896-1899-х роках. 16 серпня 1896 року були відкриті багаті родовища золота в руслах кількох приток річки Клондайк. Коли через рік новина дійшла до Сіетла та Сан-Франциско, вона спричинила небачену раніше «золоту лихоманку», що змусила понад 100 тис. людей піти на пошуки. Проте шлях до золота виявився занадто важким: лише 30-40 тисяч змогли дістатися до селища Доусон-Сіті на злитті річок Юкон і Клондайк. Більшість золотошукачів незабаром повернулися з порожніми руками. Лише близько 4 тисяч змогли знайти золото, із них лише сотня дійсно розбагатіли. Наплив старателів до Клондайку закінчився влітку 1899 року, коли золото відкрили поблизу селища Ном (Аляска) на березі Берингової протоки.",
    "timestamp": "2018-07-09T15:04:52Z"
  },
  {
    "id": 656265,
    "title": "Повстання Ліги камікадзе",
    "text": "Повстання Ліги камікадзе (Template:lang-ja, сімпу-рен но ран; 24—25 жовтня 1876) — антиурядове повстання нетитулованої шляхти в Японії, що відбулося 1876 року на заході острова Кюсю в Кумамото, під проводом Отаґуро Томоо. Закінчилося перемогою урядових сил.",
    "timestamp": "2018-04-22T19:52:42Z"
  },
  {
    "id": 656273,
    "title": "Нова (альбом)",
    "text": "Нова — студійний альбом української співачки Ірини Білик.",
    "timestamp": "2018-09-01T17:59:29Z"
  },
  {
    "id": 656274,
    "title": "Мадалена (район Ресіфі)",
    "text": "Мадалена (Template:lang-pt) — район міста Ресіфі, штат Пернамбуку, Бразилія. Межує з районами Дербі, Торрі, Праду, Грасас, Ілья-ду-Ретіру і Зумбі. На території району починається проспект Кашанга, одни з головних проспектів міста та найбільша виключно пряма вулиця у країні.",
    "timestamp": "2014-08-20T20:14:21Z"
  },
  {
    "id": 656275,
    "title": "Повстання в Хаґі",
    "text": "Повстання в Хаґі (Template:lang-ja, хаґі но ран; 28 жовтня — 8 грудня 1876) — антиурядове повстання нетитулованої шляхти в Японії, що відбулося 1876 року на заході острова Хонсю, в місті Хаґі, під проводом Маебари Іссея. Закінчилося перемогою урядових сил і стратою лідерів повстанців.",
    "timestamp": "2013-06-22T13:55:12Z"
  },
  {
    "id": 656276,
    "title": "Тканко Олександр Васильович",
    "text": "Олександр Васильович Тканко (23 грудня 1916, Макіївка — 18 квітня 2006, Черкаси) — Герой Радянського Союзу (1944), у роки німецько-радянської війни учасник партизанської боротьби в Україні, командир Закарпатського партизанського з'єднання.",
    "timestamp": "2018-06-01T19:02:29Z"
  },
  {
    "id": 656278,
    "title": "Кадрова палата Японії",
    "text": "Кадрова палата (Template:lang-ja, дзіндзі-ін; Template:lang-en) — центральний орган виконавчої влади Японії, складова Кабінету Міністрів. Заснована 1948 року згідно з законом про державних службовців.",
    "timestamp": "2018-02-20T18:24:41Z"
  },
  {
    "id": 656281,
    "title": "Субботін Серафим Павлович",
    "text": "Серафим Павлович Субботін (Template:lang-ru; 15 січня 1921, Красногор'є — 22 квітня 1996, Черкаси) — Герой Радянського Союзу (1951), штурман 176 гвардійського винищувального авіаційного полку (324-я винищувальна авіаційна дивізія, 64-й винищувальний авіаційний корпус) гвардії майор.",
    "timestamp": "2016-01-17T05:46:53Z"
  },
  {
    "id": 656291,
    "title": "Лезіньє (Мен і Луара)",
    "text": "Лезіньє́ (Template:lang-fr) — муніципалітет у Франції, у регіоні Пеї-де-ла-Луар, департамент Мен і Луара. Населення — 736 осіб (2011)Template:cite webTemplate:ref-fr.",
    "timestamp": "2017-05-14T18:03:32Z"
  },
  {
    "id": 656293,
    "title": "Л'Отельрі-де-Фле",
    "text": "Л'Отельрі́-де-Фле (Template:lang-fr) — муніципалітет у Франції, у регіоні Пеї-де-ла-Луар, департамент Мен і Луара. Населення — 495 осіб (2011)Template:cite webTemplate:ref-fr.",
    "timestamp": "2017-05-14T12:56:23Z"
  },
  {
    "id": 656295,
    "title": "Ліньєр-Бутон",
    "text": "Ліньє́р-Буто́н (Template:lang-fr) — муніципалітет у Франції, у регіоні Пеї-де-ла-Луар, департамент Мен і Луара. Населення — 80 осіб (2011)Template:cite webTemplate:ref-fr.",
    "timestamp": "2017-05-14T18:38:54Z"
  },
  {
    "id": 656297,
    "title": "Ліре (Мен і Луара)",
    "text": "Ліре́ (Template:lang-fr) — муніципалітет у Франції, у регіоні Пеї-де-ла-Луар, департамент Мен і Луара. Населення — 2,450 осіб (2011)Template:cite webTemplate:ref-fr.",
    "timestamp": "2017-05-14T18:42:51Z"
  },
  {
    "id": 656298,
    "title": "Луаре (Мен і Луара)",
    "text": "Луаре́ (Template:lang-fr) — муніципалітет у Франції, у регіоні Пеї-де-ла-Луар, департамент Мен і Луара. Населення — 897 осіб (2011)Template:cite webTemplate:ref-fr.",
    "timestamp": "2017-05-14T19:17:02Z"
  },
  {
    "id": 656300,
    "title": "Лонге-Жумель",
    "text": "Лонге́-Жуме́ль, Лонґе-Жумель (Template:lang-fr) — муніципалітет у Франції, у регіоні Пеї-де-ла-Луар, департамент Мен і Луара. Населення — 6,832 осіб (2011)Template:cite webTemplate:ref-fr.",
    "timestamp": "2017-05-14T18:58:10Z"
  },
  {
    "id": 656302,
    "title": "Луерр",
    "text": "Луе́рр (Template:lang-fr) — муніципалітет у Франції, у регіоні Пеї-де-ла-Луар, департамент Мен і Луара. Населення — 458 осіб (2011)Template:cite webTemplate:ref-fr.",
    "timestamp": "2017-05-14T19:23:33Z"
  },
  {
    "id": 656304,
    "title": "Луресс-Рошменьє",
    "text": "Луре́сс-Рошменьє́ (Template:lang-fr) — муніципалітет у Франції, у регіоні Пеї-де-ла-Луар, департамент Мен і Луара. Населення — 821 осіб (2011)Template:cite webTemplate:ref-fr.",
    "timestamp": "2017-05-14T19:29:00Z"
  },
  {
    "id": 656306,
    "title": "Лувен",
    "text": "Луве́н (Template:lang-fr) — муніципалітет у Франції, у регіоні Пеї-де-ла-Луар, департамент Мен і Луара. Населення — 532 осіб (2011)Template:cite webTemplate:ref-fr.",
    "timestamp": "2017-05-14T19:19:54Z"
  },
  {
    "id": 656308,
    "title": "Люе-ан-Божуа",
    "text": "Люе́-ан-Божуа́ (Template:lang-fr) — муніципалітет у Франції, у регіоні Пеї-де-ла-Луар, департамент Мен і Луара. Населення — 338 осіб (2011)Template:cite webTemplate:ref-fr.",
    "timestamp": "2017-05-14T19:38:29Z"
  },
  {
    "id": 656323,
    "title": "Люїньє",
    "text": "Люїньє́ (Template:lang-fr) — муніципалітет у Франції, у регіоні Пеї-де-ла-Луар, департамент Мен і Луара. Населення — 269 осіб (2011)Template:cite webTemplate:ref-fr.",
    "timestamp": "2017-05-14T19:40:51Z"
  },
  {
    "id": 656325,
    "title": "Маран (Мен і Луара)",
    "text": "Мара́н (Template:lang-fr) — муніципалітет у Франції, у регіоні Пеї-де-ла-Луар, департамент Мен і Луара. Населення — 548 осіб (2011)Template:cite webTemplate:ref-fr.",
    "timestamp": "2017-05-14T20:35:15Z"
  },
  {
    "id": 656327,
    "title": "Марсе (Мен і Луара)",
    "text": "Марсе́ (Template:lang-fr) — муніципалітет у Франції, у регіоні Пеї-де-ла-Луар, департамент Мен і Луара. Населення — 854 осіб (2011)Template:cite webTemplate:ref-fr.",
    "timestamp": "2017-05-14T21:03:01Z"
  },
  {
    "id": 656329,
    "title": "Мариньє (Мен і Луара)",
    "text": "Мариньє́, Маріньє (Template:lang-fr) — муніципалітет у Франції, у регіоні Пеї-де-ла-Луар, департамент Мен і Луара. Населення — 652 осіб (2011)Template:cite webTemplate:ref-fr.",
    "timestamp": "2017-05-14T20:45:23Z"
  },
  {
    "id": 656331,
    "title": "Мартіньє-Бріан",
    "text": "Мартіньє́-Бріа́н (Template:lang-fr) — муніципалітет у Франції, у регіоні Пеї-де-ла-Луар, департамент Мен і Луара. Населення — 1,867 осіб (2011)Template:cite webTemplate:ref-fr.",
    "timestamp": "2017-05-14T21:22:53Z"
  },
  {
    "id": 656333,
    "title": "Молевріє",
    "text": "Молевріє́ (Template:lang-fr) — муніципалітет у Франції, у регіоні Пеї-де-ла-Луар, департамент Мен і Луара. Населення — 3,242 осіб (2011)Template:cite webTemplate:ref-fr.",
    "timestamp": "2017-05-14T23:25:10Z"
  },
  {
    "id": 656335,
    "title": "Мазе (Мен і Луара)",
    "text": "Мазе́ (Template:lang-fr) — муніципалітет у Франції, у регіоні Пеї-де-ла-Луар, департамент Мен і Луара. Населення — 4,879 осіб (2011)Template:cite webTemplate:ref-fr.",
    "timestamp": "2017-05-14T19:58:16Z"
  },
  {
    "id": 656336,
    "title": "Мазьєр-ан-Мож",
    "text": "Мазьє́р-ан-Мож (Template:lang-fr) — муніципалітет у Франції, у регіоні Пеї-де-ла-Луар, департамент Мен і Луара. Населення — 1,018 осіб (2011)Template:cite webTemplate:ref-fr.",
    "timestamp": "2017-05-14T20:02:06Z"
  },
  {
    "id": 656338,
    "title": "Меньє (Мен і Луара)",
    "text": "Меньє́ (Template:lang-fr) — муніципалітет у Франції, у регіоні Пеї-де-ла-Луар, департамент Мен і Луара. Населення — 362 осіб (2011)Template:cite webTemplate:ref-fr.",
    "timestamp": "2017-05-14T22:23:30Z"
  },
  {
    "id": 656340,
    "title": "Меньє-ле-Віконт",
    "text": "Меньє́-ле-Віко́нт (Template:lang-fr) — муніципалітет у Франції, у регіоні Пеї-де-ла-Луар, департамент Мен і Луара. Населення — 300 осіб (2011)Template:cite webTemplate:ref-fr.",
    "timestamp": "2017-05-14T22:23:49Z"
  },
  {
    "id": 656348,
    "title": "Гомеопатія",
    "text": "Гомеопа́тія (з Template:lang-el — лікування подібним, від Template:lang-el — подібний і Template:lang-el — терміноелемент, який вказує на спосіб лікування)Template:Cite web — вид альтернативної медицини,Template:cite bookTemplate:cite journalTemplate:cite bookTemplate:cite book що пропонує використання сильно розведених препаратів, що, ймовірно, викликають у здорових людей симптоми, схожі на хворобу пацієнта. Гомеопати протиставляють концепцію лікування за псевдонауковим принципом «подібне подібним» (Template:lang-la) принципам раціональної фармакотерапії. Основоположник і автор терміну — німецький лікар Самюель Ганеман (1755—1843).",
    "timestamp": "2018-10-16T11:22:15Z"
  },
  {
    "id": 656354,
    "title": "Меле (Мен і Луара)",
    "text": "Меле́ (Template:lang-fr) — муніципалітет у Франції, у регіоні Пеї-де-ла-Луар, департамент Мен і Луара. Населення — 1,608 осіб (2010)Template:cite webTemplate:ref-fr.",
    "timestamp": "2017-05-14T22:00:25Z"
  },
  {
    "id": 656356,
    "title": "Меон",
    "text": "Мео́н (Template:lang-fr) — муніципалітет у Франції, у регіоні Пеї-де-ла-Луар, департамент Мен і Луара. Населення — 266 осіб (2011)Template:cite webTemplate:ref-fr.",
    "timestamp": "2017-05-14T22:24:41Z"
  },
  {
    "id": 656358,
    "title": "Міре",
    "text": "Міре́ (Template:lang-fr) — муніципалітет у Франції, у регіоні Пеї-де-ла-Луар, департамент Мен і Луара. Населення — 1,046 осіб (2011)Template:cite webTemplate:ref-fr.",
    "timestamp": "2017-05-14T23:12:55Z"
  },
  {
    "id": 656360,
    "title": "Монфокон-Монтіньє",
    "text": "Монфоко́н-Монтіньє́ (Template:lang-fr) — муніципалітет у Франції, у регіоні Пеї-де-ла-Луар, департамент Мен і Луара. Населення — 2,003 осіб (2011)Template:cite webTemplate:ref-fr.",
    "timestamp": "2017-05-15T01:27:36Z"
  },
  {
    "id": 656362,
    "title": "Монфор (Мен і Луара)",
    "text": "Монфо́р (Template:lang-fr) — муніципалітет у Франції, у регіоні Пеї-де-ла-Луар, департамент Мен і Луара. Населення — 111 осіб (2011)Template:cite webTemplate:ref-fr.",
    "timestamp": "2017-05-15T01:27:59Z"
  },
  {
    "id": 656364,
    "title": "Монгійон",
    "text": "Монгійо́н, Монґійон (Template:lang-fr) — муніципалітет у Франції, у регіоні Пеї-де-ла-Луар, департамент Мен і Луара. Населення — 206 осіб (2011)Template:cite webTemplate:ref-fr.",
    "timestamp": "2017-05-14T23:47:05Z"
  },
  {
    "id": 656366,
    "title": "Монтіньє-ле-Рері",
    "text": "Монтіньє́-ле-Рері́ (Template:lang-fr) — муніципалітет у Франції, у регіоні Пеї-де-ла-Луар, департамент Мен і Луара. Населення — 370 осіб (2011)Template:cite webTemplate:ref-fr.",
    "timestamp": "2017-05-15T01:07:26Z"
  },
  {
    "id": 656368,
    "title": "Монтійє",
    "text": "Монтійє́ (Template:lang-fr) — муніципалітет у Франції, у регіоні Пеї-де-ла-Луар, департамент Мен і Луара. Населення — 1,152 осіб (2011)Template:cite webTemplate:ref-fr.",
    "timestamp": "2017-05-15T01:06:59Z"
  },
  {
    "id": 656370,
    "title": "Монжан-сюр-Луар",
    "text": "Монжа́н-сюр-Луа́р (Template:lang-fr) — муніципалітет у Франції, у регіоні Пеї-де-ла-Луар, департамент Мен і Луара. Населення — 3,028 осіб (2011)Template:cite webTemplate:ref-fr.",
    "timestamp": "2017-05-14T23:52:58Z"
  },
  {
    "id": 656372,
    "title": "Монполлен",
    "text": "Монполле́н (Template:lang-fr) — колишній муніципалітет у Франції, у регіоні Пеї-де-ла-Луар, департамент Мен і Луара. Населення — 214 осіб (2010)Template:cite webTemplate:ref-fr.",
    "timestamp": "2017-05-20T10:38:48Z"
  },
  {
    "id": 656386,
    "title": "Монтрей-Белле",
    "text": "Монтре́й-Белле́ (Template:lang-fr) — муніципалітет у Франції, у регіоні Пеї-де-ла-Луар, департамент Мен і Луара. Населення — 4,034 осіб (2011)Template:cite webTemplate:ref-fr.",
    "timestamp": "2017-05-15T01:20:05Z"
  },
  {
    "id": 656388,
    "title": "Монтрей-Жуїньє",
    "text": "Монтре́й-Жуїньє́ (Template:lang-fr) — муніципалітет у Франції, у регіоні Пеї-де-ла-Луар, департамент Мен і Луара. Населення — 7,135 осіб (2011)Template:cite webTemplate:ref-fr.",
    "timestamp": "2017-05-15T01:20:19Z"
  },
  {
    "id": 656390,
    "title": "Монтрей-сюр-Луар",
    "text": "Монтре́й-сюр-Луа́р (Template:lang-fr) — муніципалітет у Франції, у регіоні Пеї-де-ла-Луар, департамент Мен і Луара. Населення — 502 осіб (2011)Template:cite webTemplate:ref-fr.",
    "timestamp": "2017-05-15T01:21:35Z"
  },
  {
    "id": 656392,
    "title": "Монтрей-сюр-Мен",
    "text": "Монтре́й-сюр-Мен (Template:lang-fr) — муніципалітет у Франції, у регіоні Пеї-де-ла-Луар, департамент Мен і Луара. Населення — 677 осіб (2011)Template:cite webTemplate:ref-fr.",
    "timestamp": "2017-05-15T01:21:40Z"
  },
  {
    "id": 656394,
    "title": "Монрево",
    "text": "Монрево́ (Template:lang-fr) — муніципалітет у Франції, у регіоні Пеї-де-ла-Луар, департамент Мен і Луара. Населення — 1,284 осіб (2011)Template:cite webTemplate:ref-fr.",
    "timestamp": "2017-05-15T00:10:21Z"
  },
  {
    "id": 656396,
    "title": "Монсоро",
    "text": "Монсоро́ (Template:lang-fr) — муніципалітет у Франції, у регіоні Пеї-де-ла-Луар, департамент Мен і Луара. Населення — 476 осіб (2011)Template:cite webTemplate:ref-fr.",
    "timestamp": "2018-04-24T07:32:42Z"
  },
  {
    "id": 656398,
    "title": "Моранн",
    "text": "Мора́нн (Template:lang-fr) — муніципалітет у Франції, у регіоні Пеї-де-ла-Луар, департамент Мен і Луара. Населення — 1,771 осіб (2011)Template:cite webTemplate:ref-fr.",
    "timestamp": "2017-05-15T01:35:32Z"
  },
  {
    "id": 656399,
    "title": "Муліерн",
    "text": "Муліе́рн (Template:lang-fr) — муніципалітет у Франції, у регіоні Пеї-де-ла-Луар, департамент Мен і Луара. Населення — 920 осіб (2011)Template:cite webTemplate:ref-fr.",
    "timestamp": "2017-05-15T02:04:02Z"
  },
  {
    "id": 656401,
    "title": "Мозе-сюр-Луе",
    "text": "Мозе́-сюр-Луе́ (Template:lang-fr) — муніципалітет у Франції, у регіоні Пеї-де-ла-Луар, департамент Мен і Луара. Населення — 2,052 осіб (2011)Template:cite webTemplate:ref-fr.",
    "timestamp": "2017-05-14T23:22:38Z"
  },
  {
    "id": 656403,
    "title": "Мюр-Ериньє",
    "text": "Мюр-Ериньє́, Мюр-Еріньє (Template:lang-fr) — муніципалітет у Франції, у регіоні Пеї-де-ла-Луар, департамент Мен і Луара. Населення — 5,348 осіб (2011)Template:cite webTemplate:ref-fr.",
    "timestamp": "2017-05-15T02:18:08Z"
  },
  {
    "id": 656422,
    "title": "Юдін Сергій Тимофійович",
    "text": "Сергій Тимофійович Юдін (Template:ДН, Новоромановка — 21 грудня 1983, Черкаси) — Герой Радянського Союзу, в роки радянсько-німецької війни командир роти 157-го стрілецького полку 79-ї стрілецької дивізії 16-ї армії 2-го Далекосхідного фронту, старший лейтенант.",
    "timestamp": "2013-03-27T09:31:53Z"
  },
  {
    "id": 656429,
    "title": "Карпиков Дмитро Леонідович",
    "text": "Дмитро Леонідович Карпиков (6 січня 1974, м. Кірово-Чепецьк, СРСР) — білоруський хокеїст, воротар. Майстер спорту.",
    "timestamp": "2016-01-16T13:34:06Z"
  },
  {
    "id": 656433,
    "title": "Неє",
    "text": "Неє́ (Template:lang-fr) — муніципалітет у Франції, у регіоні Пеї-де-ла-Луар, департамент Мен і Луара. Населення — 971 осіб (2011)Template:cite webTemplate:ref-fr.",
    "timestamp": "2017-05-15T02:43:27Z"
  },
  {
    "id": 656435,
    "title": "Неві-ан-Мож",
    "text": "Неві́-ан-Мож (Template:lang-fr) — муніципалітет у Франції, у регіоні Пеї-де-ла-Луар, департамент Мен і Луара. Населення — 816 осіб (2011)Template:cite webTemplate:ref-fr.",
    "timestamp": "2017-05-15T02:36:05Z"
  },
  {
    "id": 656437,
    "title": "Ноелле",
    "text": "Ноелле́ (Template:lang-fr) — муніципалітет у Франції, у регіоні Пеї-де-ла-Луар, департамент Мен і Луара. Населення — 449 осіб (2011)Template:cite webTemplate:ref-fr.",
    "timestamp": "2017-05-15T06:55:44Z"
  },
  {
    "id": 656439,
    "title": "СКІТ",
    "text": "СКІТ — суперкомп'ютерний обчислювальний комплекс Інституту кібернетики ім. В. М. Глушкова НАН України. Проект першого суперкомп'ютера СКІТ був розроблений в 2002 році спільно з компанією «Юстар».",
    "timestamp": "2017-07-23T02:46:02Z"
  },
  {
    "id": 656440,
    "title": "Нотр-Дам-д'Аллансон",
    "text": "Нотр-Дам-д'Аллансо́н (Template:lang-fr) — муніципалітет у Франції, у регіоні Пеї-де-ла-Луар, департамент Мен і Луара. Населення — 628 осіб (2011)Template:cite webTemplate:ref-fr.",
    "timestamp": "2017-05-15T07:05:18Z"
  },
  {
    "id": 656442,
    "title": "Нуаян",
    "text": "Нуая́н (Template:lang-fr) — муніципалітет у Франції, у регіоні Пеї-де-ла-Луар, департамент Мен і Луара. Населення — 1,907 осіб (2011)Template:cite webTemplate:ref-fr.",
    "timestamp": "2017-05-15T07:15:02Z"
  },
  {
    "id": 656444,
    "title": "Нуаян-ла-Гравуаєр",
    "text": "Нуая́н-ла-Гравуає́р, Нуаян-ла-Ґравуаєр (Template:lang-fr) — муніципалітет у Франції, у регіоні Пеї-де-ла-Луар, департамент Мен і Луара. Населення — 1,824 осіб (2011)Template:cite webTemplate:ref-fr.",
    "timestamp": "2017-05-15T07:15:27Z"
  },
  {
    "id": 656446,
    "title": "Нуаян-ла-Плен",
    "text": "Нуая́н-ла-Плен (Template:lang-fr) — муніципалітет у Франції, у регіоні Пеї-де-ла-Луар, департамент Мен і Луара. Населення — 330 осіб (2011)Template:cite webTemplate:ref-fr.",
    "timestamp": "2017-05-15T07:15:32Z"
  },
  {
    "id": 656448,
    "title": "Нюає",
    "text": "Нюає́ (Template:lang-fr) — муніципалітет у Франції, у регіоні Пеї-де-ла-Луар, департамент Мен і Луара. Населення — 1,418 осіб (2011)Template:cite webTemplate:ref-fr.",
    "timestamp": "2017-05-15T07:21:06Z"
  },
  {
    "id": 656450,
    "title": "Нюей-сюр-Лейон",
    "text": "Нюе́й-сюр-Лейо́н (Template:lang-fr) — муніципалітет у Франції, у регіоні Пеї-де-ла-Луар, департамент Мен і Луара. Населення — 1,341 осіб (2011)Template:cite webTemplate:ref-fr.",
    "timestamp": "2017-05-15T07:21:39Z"
  },
  {
    "id": 656452,
    "title": "Ніуазо",
    "text": "Ніуазо́ (Template:lang-fr) — муніципалітет у Франції, у регіоні Пеї-де-ла-Луар, департамент Мен і Луара. Населення — 1,265 осіб (2011)Template:cite webTemplate:ref-fr.",
    "timestamp": "2017-05-15T03:00:05Z"
  },
  {
    "id": 656467,
    "title": "Парсе-ле-Пен",
    "text": "Парсе́-ле-Пен (Template:lang-fr) — муніципалітет у Франції, у регіоні Пеї-де-ла-Луар, департамент Мен і Луара. Населення — 917 осіб (2011)Template:cite webTemplate:ref-fr.",
    "timestamp": "2017-05-15T09:38:44Z"
  },
  {
    "id": 656468,
    "title": "Парне (Мен і Луара)",
    "text": "Парне́ (Template:lang-fr) — муніципалітет у Франції, у регіоні Пеї-де-ла-Луар, департамент Мен і Луара. Населення — 487 осіб (2011)Template:cite webTemplate:ref-fr.",
    "timestamp": "2017-05-15T09:36:40Z"
  },
  {
    "id": 656470,
    "title": "Пассаван-сюр-Лейон",
    "text": "Пассава́н-сюр-Лейо́н (Template:lang-fr) — муніципалітет у Франції, у регіоні Пеї-де-ла-Луар, департамент Мен і Луара. Населення — 130 осіб (2011)Template:cite webTemplate:ref-fr.",
    "timestamp": "2017-05-15T09:41:29Z"
  },
  {
    "id": 656472,
    "title": "Пеллуай-ле-Вінь",
    "text": "Пеллуа́й-ле-Вінь (Template:lang-fr) — муніципалітет у Франції, у регіоні Пеї-де-ла-Луар, департамент Мен і Луара. Населення — 2,491 осіб (2011)Template:cite webTemplate:ref-fr.",
    "timestamp": "2017-05-15T09:54:33Z"
  },
  {
    "id": 656474,
    "title": "Понтіньє",
    "text": "Понтіньє́ (Template:lang-fr) — колишній муніципалітет у Франції, у регіоні Пеї-де-ла-Луар, департамент Мен і Луара. Населення — 257 осіб (2010)Template:cite webTemplate:ref-fr.",
    "timestamp": "2017-05-20T11:17:37Z"
  },
  {
    "id": 656476,
    "title": "Пуансе (Мен і Луара)",
    "text": "Пуансе́ (Template:lang-fr) — муніципалітет у Франції, у регіоні Пеї-де-ла-Луар, департамент Мен і Луара. Населення — 3,079 осіб (2011)Template:cite webTemplate:ref-fr.",
    "timestamp": "2017-05-15T12:01:14Z"
  },
  {
    "id": 656478,
    "title": "Прюїльє",
    "text": "Прюїльє́ (Template:lang-fr) — муніципалітет у Франції, у регіоні Пеї-де-ла-Луар, департамент Мен і Луара. Населення — 666 осіб (2011)Template:cite webTemplate:ref-fr.",
    "timestamp": "2017-05-15T11:57:01Z"
  },
  {
    "id": 656480,
    "title": "Керре",
    "text": "Керре́ (Template:lang-fr) — муніципалітет у Франції, у регіоні Пеї-де-ла-Луар, департамент Мен і Луара. Населення — 325 осіб (2011)Template:cite webTemplate:ref-fr.",
    "timestamp": "2017-05-14T05:43:01Z"
  },
  {
    "id": 656482,
    "title": "Рабле-сюр-Лейон",
    "text": "Рабле́-сюр-Лейо́н (Template:lang-fr) — муніципалітет у Франції, у регіоні Пеї-де-ла-Луар, департамент Мен і Луара. Населення — 734 осіб (2011)Template:cite webTemplate:ref-fr.",
    "timestamp": "2017-05-15T12:34:27Z"
  },
  {
    "id": 656484,
    "title": "Рошфор-сюр-Луар",
    "text": "Рошфо́р-сюр-Луа́р (Template:lang-fr) — муніципалітет у Франції, у регіоні Пеї-де-ла-Луар, департамент Мен і Луара. Населення — 2,243 осіб (2011)Template:cite webTemplate:ref-fr.",
    "timestamp": "2017-05-15T14:22:02Z"
  },
  {
    "id": 656499,
    "title": "Ру-Марсон",
    "text": "Ру-Марсо́н (Template:lang-fr) — муніципалітет у Франції, у регіоні Пеї-де-ла-Луар, департамент Мен і Луара. Населення — 685 осіб (2011)Template:cite webTemplate:ref-fr.",
    "timestamp": "2017-05-15T14:22:34Z"
  },
  {
    "id": 656501,
    "title": "Руссе (Мен і Луара)",
    "text": "Руссе́ (Template:lang-fr) — муніципалітет у Франції, у регіоні Пеї-де-ла-Луар, департамент Мен і Луара. Населення — 1,198 осіб (2011)Template:cite webTemplate:ref-fr.",
    "timestamp": "2017-05-15T14:35:38Z"
  },
  {
    "id": 656503,
    "title": "Сент-Андре-де-ла-Марш",
    "text": "Сент-Андре́-де-ла-Марш (Template:lang-fr) — муніципалітет у Франції, у регіоні Пеї-де-ла-Луар, департамент Мен і Луара. Населення — 2,843 осіб (2011)Template:cite webTemplate:ref-fr.",
    "timestamp": "2017-05-15T22:48:05Z"
  },
  {
    "id": 656505,
    "title": "Сент-Обен-де-Люїньє",
    "text": "Сент-Обе́н-де-Люїньє́ (Template:lang-fr) — муніципалітет у Франції, у регіоні Пеї-де-ла-Луар, департамент Мен і Луара. Населення — 1,213 осіб (2011)Template:cite webTemplate:ref-fr.",
    "timestamp": "2017-05-15T23:32:38Z"
  },
  {
    "id": 656507,
    "title": "Сент-Огюстен-де-Буа",
    "text": "Сент-Огюсте́н-де-Буа́, Сент-Оґюстен-де-Буа (Template:lang-fr) — муніципалітет у Франції, у регіоні Пеї-де-ла-Луар, департамент Мен і Луара. Населення — 1,070 осіб (2011)Template:cite webTemplate:ref-fr.",
    "timestamp": "2017-05-15T23:36:31Z"
  },
  {
    "id": 656509,
    "title": "Сен-Бартелемі-д'Анжу",
    "text": "Сен-Бартелемі́-д'Анжу́ (Template:lang-fr) — муніципалітет у Франції, у регіоні Пеї-де-ла-Луар, департамент Мен і Луара. Населення — 8,600 осіб (2011)Template:cite webTemplate:ref-fr.",
    "timestamp": "2017-05-15T16:59:07Z"
  },
  {
    "id": 656511,
    "title": "Сен-Кристоф-дю-Буа",
    "text": "Сен-Кристо́ф-дю-Буа́, Сен-Крістоф-дю-Буа (Template:lang-fr) — муніципалітет у Франції, у регіоні Пеї-де-ла-Луар, департамент Мен і Луара. Населення — 2,616 осіб (2011)Template:cite webTemplate:ref-fr.",
    "timestamp": "2017-05-15T18:50:49Z"
  },
  {
    "id": 656513,
    "title": "Сен-Кристоф-ла-Купері",
    "text": "Сен-Кристо́ф-ла-Купері́, Сен-Крістоф-ла-Купері (Template:lang-fr) — муніципалітет у Франції, у регіоні Пеї-де-ла-Луар, департамент Мен і Луара. Населення — 810 осіб (2011)Template:cite webTemplate:ref-fr.",
    "timestamp": "2017-05-15T18:51:18Z"
  },
  {
    "id": 656515,
    "title": "Сен-Клеман-де-ла-Плас",
    "text": "Сен-Клема́н-де-ла-Плас (Template:lang-fr) — муніципалітет у Франції, у регіоні Пеї-де-ла-Луар, департамент Мен і Луара. Населення — 1,980 осіб (2011)Template:cite webTemplate:ref-fr.",
    "timestamp": "2017-05-15T18:43:07Z"
  },
  {
    "id": 656517,
    "title": "Сен-Клеман-де-Леве",
    "text": "Сен-Клема́н-де-Леве́ (Template:lang-fr) — муніципалітет у Франції, у регіоні Пеї-де-ла-Луар, департамент Мен і Луара. Населення — 1,149 осіб (2011)Template:cite webTemplate:ref-fr.",
    "timestamp": "2017-05-15T18:43:12Z"
  },
  {
    "id": 656531,
    "title": "Сен-Креспен-сюр-Муан",
    "text": "Сен-Креспе́н-сюр-Муа́н (Template:lang-fr) — муніципалітет у Франції, у регіоні Пеї-де-ла-Луар, департамент Мен і Луара. Населення — 1,576 осіб (2011)Template:cite webTemplate:ref-fr.",
    "timestamp": "2017-05-15T18:47:35Z"
  },
  {
    "id": 656532,
    "title": "Сен-Сір-ан-Бур",
    "text": "Сен-Сір-ан-Бур (Template:lang-fr) — муніципалітет у Франції, у регіоні Пеї-де-ла-Луар, департамент Мен і Луара. Населення — 969 осіб (2011)Template:cite webTemplate:ref-fr.",
    "timestamp": "2017-05-15T22:01:48Z"
  },
  {
    "id": 656534,
    "title": "Сент-Кристін (Мен і Луара)",
    "text": "Сент-Кристі́н, Сент-Крістін (Template:lang-fr) — муніципалітет у Франції, у регіоні Пеї-де-ла-Луар, департамент Мен і Луара. Населення — 793 осіб (2011)Template:cite webTemplate:ref-fr.",
    "timestamp": "2017-05-15T23:21:36Z"
  },
  {
    "id": 656536,
    "title": "Сент-Жемм-д'Андіньє",
    "text": "Сент-Жемм-д'Андіньє́ (Template:lang-fr) — муніципалітет у Франції, у регіоні Пеї-де-ла-Луар, департамент Мен і Луара. Населення — 1,486 осіб (2011)Template:cite webTemplate:ref-fr.",
    "timestamp": "2017-05-15T23:14:28Z"
  },
  {
    "id": 656537,
    "title": "Сент-Жемм-сюр-Луар",
    "text": "Сент-Жемм-сюр-Луа́р (Template:lang-fr) — муніципалітет у Франції, у регіоні Пеї-де-ла-Луар, департамент Мен і Луара. Населення — 3,774 осіб (2011)Template:cite webTemplate:ref-fr.",
    "timestamp": "2017-05-15T23:14:53Z"
  },
  {
    "id": 656539,
    "title": "Сен-Флоран-ле-В'єй",
    "text": "Сен-Флора́н-ле-В'єй (Template:lang-fr) — муніципалітет у Франції, у регіоні Пеї-де-ла-Луар, департамент Мен і Луара. Населення — 2,721 осіб (2011)Template:cite webTemplate:ref-fr.",
    "timestamp": "2017-05-15T22:23:13Z"
  },
  {
    "id": 656540,
    "title": "Сен-Жорж-де-Гард",
    "text": "Сен-Жорж-де-Гард, Сен-Жорж-де-Ґард (Template:lang-fr) — муніципалітет у Франції, у регіоні Пеї-де-ла-Луар, департамент Мен і Луара. Населення — 1,601 осіб (2011)Template:cite webTemplate:ref-fr.",
    "timestamp": "2017-05-15T18:13:27Z"
  },
  {
    "id": 656541,
    "title": "Сен-Жорж-де-Сет-Вуа",
    "text": "Сен-Жорж-де-Сет-Вуа́ (Template:lang-fr) — муніципалітет у Франції, у регіоні Пеї-де-ла-Луар, департамент Мен і Луара. Населення — 694 осіб (2011)Template:cite webTemplate:ref-fr.",
    "timestamp": "2017-05-15T18:15:20Z"
  },
  {
    "id": 656543,
    "title": "Сен-Жорж-дю-Буа (Мен і Луара)",
    "text": "Сен-Жорж-дю-Буа́ (Template:lang-fr) — муніципалітет у Франції, у регіоні Пеї-де-ла-Луар, департамент Мен і Луара. Населення — 417 осіб (2011)Template:cite webTemplate:ref-fr.",
    "timestamp": "2017-05-15T18:15:39Z"
  },
  {
    "id": 656545,
    "title": "Сен-Жорж-сюр-Лейон",
    "text": "Сен-Жорж-сюр-Лейо́н (Template:lang-fr) — муніципалітет у Франції, у регіоні Пеї-де-ла-Луар, департамент Мен і Луара. Населення — 785 осіб (2011)Template:cite webTemplate:ref-fr.",
    "timestamp": "2017-05-15T18:17:36Z"
  },
  {
    "id": 656561,
    "title": "Сен-Жорж-сюр-Луар",
    "text": "Сен-Жорж-сюр-Луа́р (Template:lang-fr) — муніципалітет у Франції, у регіоні Пеї-де-ла-Луар, департамент Мен і Луара. Населення — 3,400 осіб (2011)Template:cite webTemplate:ref-fr.",
    "timestamp": "2017-05-15T18:17:41Z"
  },
  {
    "id": 656563,
    "title": "Сен-Жермен-де-Пре (Мен і Луара)",
    "text": "Сен-Жерме́н-де-Пре (Template:lang-fr) — муніципалітет у Франції, у регіоні Пеї-де-ла-Луар, департамент Мен і Луара. Населення — 1,373 осіб (2011)Template:cite webTemplate:ref-fr.",
    "timestamp": "2017-05-15T18:02:20Z"
  },
  {
    "id": 656565,
    "title": "Сен-Жермен-сюр-Муан",
    "text": "Сен-Жерме́н-сюр-Муа́н (Template:lang-fr) — муніципалітет у Франції, у регіоні Пеї-де-ла-Луар, департамент Мен і Луара. Населення — 2,806 осіб (2011)Template:cite webTemplate:ref-fr.",
    "timestamp": "2017-05-15T18:07:54Z"
  },
  {
    "id": 656567,
    "title": "Сен-Жан-де-ла-Круа",
    "text": "Сен-Жан-де-ла-Круа́ (Template:lang-fr) — муніципалітет у Франції, у регіоні Пеї-де-ла-Луар, департамент Мен і Луара. Населення — 238 осіб (2011)Template:cite webTemplate:ref-fr.",
    "timestamp": "2017-05-15T17:42:01Z"
  },
  {
    "id": 656569,
    "title": "Сен-Жан-де-Ліньєр",
    "text": "Сен-Жан-де-Ліньє́р (Template:lang-fr) — муніципалітет у Франції, у регіоні Пеї-де-ла-Луар, департамент Мен і Луара. Населення — 1,771 осіб (2011)Template:cite webTemplate:ref-fr.",
    "timestamp": "2017-05-15T17:42:49Z"
  },
  {
    "id": 656571,
    "title": "Сен-Жан-де-Мовре",
    "text": "Сен-Жан-де-Мовре́ (Template:lang-fr) — муніципалітет у Франції, у регіоні Пеї-де-ла-Луар, департамент Мен і Луара. Населення — 1,746 осіб (2011)Template:cite webTemplate:ref-fr.",
    "timestamp": "2017-05-15T17:43:27Z"
  },
  {
    "id": 656572,
    "title": "Сен-Жуст-сюр-Дів",
    "text": "Сен-Жуст-сюр-Дів (Template:lang-fr) — муніципалітет у Франції, у регіоні Пеї-де-ла-Луар, департамент Мен і Луара. Населення — 406 осіб (2011)Template:cite webTemplate:ref-fr.",
    "timestamp": "2017-05-15T18:30:00Z"
  },
  {
    "id": 656574,
    "title": "Сен-Ламбер-дю-Латте",
    "text": "Сен-Ламбе́р-дю-Латте́ (Template:lang-fr) — муніципалітет у Франції, у регіоні Пеї-де-ла-Луар, департамент Мен і Луара. Населення — 1,918 осіб (2011)Template:cite webTemplate:ref-fr.",
    "timestamp": "2017-05-15T18:53:03Z"
  },
  {
    "id": 656576,
    "title": "Сен-Ламбер-ла-Потрі",
    "text": "Сен-Ламбе́р-ла-Потрі́ (Template:lang-fr) — муніципалітет у Франції, у регіоні Пеї-де-ла-Луар, департамент Мен і Луара. Населення — 2,506 осіб (2011)Template:cite webTemplate:ref-fr.",
    "timestamp": "2017-05-15T18:53:10Z"
  }
]