[
  {
    "id": 1508080,
    "title": "Корошка (регіон)",
    "text": "Регіон Корошка (Template:lang-sl) — статистичний регіон в північній Словенії уздовж кордону з Австрією. В регіоні найвища частка зайнятості в промисловості у зв'язку з присутністю різних заводів, розвинутою гірничодобувною промисловістю. Найбільшим природним активом регіону є ліси. Найбільше місто Словень Градець.",
    "timestamp": "2015-12-06T15:42:15Z"
  },
  {
    "id": 1508081,
    "title": "Лю Цзуань",
    "text": "Лю Цзуань (*劉纘, 138 —146) — 10-й імператор династії Пізня Хань у 145–146 роках. Посмертне ім'я Чжі-ді.",
    "timestamp": "2015-12-07T13:28:18Z"
  },
  {
    "id": 1508086,
    "title": "Slaughter of the Soul",
    "text": "Slaughter of the Soul — четвертий повноформатний альбом шведського гурту At the Gates, виданий у 1995 році лейблом Earache Records. Запис матеріалу проходив з травня по липень того ж року на Studio Fredman, а продюсером релізу став Фредрік Нурдстрем. Як запрошений музикант участь у запису взяв гітарист Енді ЛаРок, що виконав соло у пісні Cold. Цей альбом став останнім повноформатним релізом гурту, який припинив своє існування аж до возз'єднання у 2007 році. «Slaughter of the Soul» вважається класикою жанру мелодійного дез-металу і на рівні з альбомам In Flames «The Jester Race» та Dark Tranquillity «The Gallery» є одним з релізів, що сформували цей стиль як такийTemplate:cite web.",
    "timestamp": "2016-12-22T12:03:16Z"
  },
  {
    "id": 1508090,
    "title": "Рувим",
    "text": "Рувим (Реувен, Template:lang-he) — згідно з біблійними книгами Буття та Числа, один з дванадцяти синів патріарха Якова. Старший син Якова від його першої дружини Лії (Template:Біблія). Родоначальник покоління Рувимового утворившого плем'я Рувимове народу Ізраїля.",
    "timestamp": "2018-03-09T13:44:41Z"
  },
  {
    "id": 1508091,
    "title": "Підводні човни типу «Черчілль»",
    "text": "Черчилль (Churchill) — тип ПЧА багатоцільового ВМС Великої Британії. Було побудовано і передано флоту 3 човни. Був продовженням розвитку типу «Веліант».",
    "timestamp": "2017-03-05T11:12:59Z"
  },
  {
    "id": 1508096,
    "title": "Harpiocephalus",
    "text": "Harpiocephalus — рід ссавців родини лиликових. Проживання: Південно-Східна Азія.",
    "timestamp": "2013-03-21T15:11:46Z"
  },
  {
    "id": 1508098,
    "title": "Лю Бянь (Хань)",
    "text": "Лю Бянь (*劉辯, 176 —190) — 13-й імператор династії Пізня Хань з 15 травня до 28 вересня 189 року. Посмертне ім'я Шао-ді.",
    "timestamp": "2018-03-11T23:10:46Z"
  },
  {
    "id": 1508103,
    "title": "Соснова (губа)",
    "text": "Сосно́ва (Template:lang-ru) — губа (затока) на північному заході острова Соловецький з Соловецького архіпелагу.",
    "timestamp": "2013-03-24T18:57:13Z"
  },
  {
    "id": 1508104,
    "title": "Контракти (журнал)",
    "text": "Контракти (Template:lang-ru) — в минулому український журнал, що друкувався з 1990 по 2014 рік.http://www.telekritika.ua/rinok/2014-03-14/91471  Telekrytyka.ua: Журнал «Контракты» припиняє вихід і переходить в онлайн, 14.03.2014 До 2000 року журнал друкувався українською мовою як Галицькі Контракти, а з починаючи з 2000 і по 2014 російською та українською мовами під назвою Контракти та Контракты. З 2014 існує лише російськомовний веб-сайт видання.",
    "timestamp": "2017-05-11T22:25:42Z"
  },
  {
    "id": 1508108,
    "title": "Лю Сє",
    "text": "Лю Сє (*劉協, 181 — 21 квітня 234) — останній імператор династії Хань у 189—220 роках. Посмертне ім'я Сянь-ді.",
    "timestamp": "2018-03-11T23:11:47Z"
  },
  {
    "id": 1508115,
    "title": "Епілл",
    "text": "Епілл (Epillus з кельт. «конячка» або «малий кінь») — атребатський король (7—15), король кантіїв (15—30).",
    "timestamp": "2016-10-01T20:20:30Z"
  },
  {
    "id": 1508120,
    "title": "Премія Гільдії сценаристів Америки",
    "text": "Премія Гільдії сценаристів Америки (Template:lang-en) — щорічна нагорода, що вручається за видатні досягнення у кінематографі, телебаченні та радіо Гільдією сценаристів Америки з 1949 року по теперішній час. Вручення нагород зазвичай проводиться на початку лютого, перед церемонією «Оскар»Template:cite web.",
    "timestamp": "2018-01-27T11:09:04Z"
  },
  {
    "id": 1508121,
    "title": "Довга (губа)",
    "text": "До́вга (Template:lang-ru) — губа (затока) на сході острова Соловецький з Соловецького архіпелагу.",
    "timestamp": "2013-03-26T06:25:01Z"
  },
  {
    "id": 1508122,
    "title": "Заславський ґебіт",
    "text": "За́славський ґебі́т, окру́га За́слав (Template:lang-de) — адміністративна одиниця Генеральної округи Волинь-Поділля Райхскомісаріату Україна під час німецької окупації Української РСР протягом Німецько-радянської війни. Адміністративним центром округи було місто Заслав.",
    "timestamp": "2017-01-13T11:35:45Z"
  },
  {
    "id": 1508124,
    "title": "Hesperoptenus",
    "text": "Hesperoptenus — рід ссавців родини лиликових. Проживання: Південно-Східна Азія.",
    "timestamp": "2013-03-21T15:27:45Z"
  },
  {
    "id": 1508129,
    "title": "Анаревітос",
    "text": "Анаревітос - співправитель свого батька Епілла - короля кантіїв до 20 року, про що стало відомо лише в 2010 році на основі знайдених монет із зображенням Анаревітоса.",
    "timestamp": "2016-06-23T23:23:15Z"
  },
  {
    "id": 1508134,
    "title": "Джан Джакомо Тривульціо",
    "text": "Джан Джакомо Тривульціо (*Gian Giacomo Trivulzio, 1441 — 5 грудня 1518) — італійський аристократ, маршал Франції.",
    "timestamp": "2018-01-08T18:46:06Z"
  },
  {
    "id": 1508140,
    "title": "100-та легка піхотна дивізія (Третій Рейх)",
    "text": "100-та легка піхотна дивізія (Третій Рейх) (Template:lang-de) — легка піхотна дивізія Вермахту за часів Другої світової війни. 6 липня 1942 переформована на 100-ту єгерську дивізію.",
    "timestamp": "2018-05-28T10:01:49Z"
  },
  {
    "id": 1508142,
    "title": "Множинна ендокринна неоплазія",
    "text": "Множинна ендокринна неоплазія  (МЕН) — це хвороба, що характеризуються одночасною наявністю новоутворень (як злоякісних так і доброякісних) в декількох ендокринних залозах.",
    "timestamp": "2017-05-18T14:09:15Z"
  },
  {
    "id": 1508143,
    "title": "Премія Гільдії кіноакторів США (2012)",
    "text": "18-а церемонія вручення нагород премії Гільдії кіноакторів США за заслуги у галузі кінематографу та телебаченні за 2011 рік відбулася 29 січня 2012 року у Лос-Анджелесі, Каліфорнія.",
    "timestamp": "2016-02-04T22:33:58Z"
  },
  {
    "id": 1508149,
    "title": "Адміній",
    "text": "Адміній (Adminius, Amminius або Amminus, з кельт. - \"бути коронованим\") - король  кантіївJohn Creighton (2000), Coins and power in Late Iron Age Britain, Cambridge University Press; Philip de Jersey (1996), Celtic Coinage in Britain, Shire Archaeology (30—40).",
    "timestamp": "2016-10-01T20:21:57Z"
  },
  {
    "id": 1508153,
    "title": "Премія Гільдії кіноакторів США (2013)",
    "text": "19-а церемонія вручення премії Гільдії кіноакторів США за заслуги у галузі кінематографу та телебачення за 2012 рік відбулася 27 січня 2013 року у виставковому центрі Shrine у Лос-Анджелесі, штат КаліфорніяTemplate:citeweb.",
    "timestamp": "2017-07-02T12:41:49Z"
  },
  {
    "id": 1508169,
    "title": "Залізні Ворота (протоки)",
    "text": "Залі́зні Воро́та — дві протоки в Білому морі, які відокремлюють острови Соловецького архіпелагу Соловецький на заході та Велика Муксалма на сході (Архангельська область Росії).",
    "timestamp": "2015-03-26T14:26:48Z"
  },
  {
    "id": 1508171,
    "title": "101-ша легка піхотна дивізія (Третій Рейх)",
    "text": "101-ша легка піхотна дивізія (Третій Рейх) (Template:lang-de) — легка піхотна дивізія Вермахту за часів Другої світової війни. 6 липня 1942 переформована на 101-шу єгерську дивізію.",
    "timestamp": "2018-05-28T10:02:02Z"
  },
  {
    "id": 1508177,
    "title": "Лізюков Олександр Ілліч",
    "text": "Лізюко́в Олекса́ндр Іллі́ч (Template:lang-ru; Template:н Template:ДН — Template:† 25 липня 1942) — радянський військовик, генерал-майор (10.01.1942). Герой Радянського Союзу (05.08.1941).",
    "timestamp": "2016-11-25T21:30:43Z"
  },
  {
    "id": 1508178,
    "title": "Парка і божок кохання Ерот",
    "text": "Парка і божок кохання Ерот (Template:lang-en або «Кохання в руках Долі»)— кабінетна скульптура, яку виконав в техніці теракоти французький художник і графік Гюстав Доре (1832–1883).",
    "timestamp": "2017-09-17T06:19:43Z"
  },
  {
    "id": 1508180,
    "title": "Регнії",
    "text": "Регнії (Regnenses, Regni або Regini) одне з племен британських кельтів, а пізніше провінція римської Британії. Їх столицею був Новімагус Регінорум (Noviomagus Reginorum), відомий сьогодні як Чичестер в сучасному Західному Суссексі.",
    "timestamp": "2017-11-20T04:06:46Z"
  },
  {
    "id": 1508188,
    "title": "Експлорер-6",
    "text": "Експло́рер-6 (Template:lang-en — дослідник), інші назви Ейбл-3 (Template:lang-en), S-2 — американський науковий космічний апарат, запущений за програмою Експлорер. Апарат зробив перший у світі фотознімок Землі з орбіти.",
    "timestamp": "2016-12-01T21:01:06Z"
  },
  {
    "id": 1508193,
    "title": "Обер-фельдфебель",
    "text": "Обер-фельдфебель (Template:lang-de, OFw або OF) — військове звання унтер-офіцерського складу з портупеєю в Збройних силах Німеччини (Рейхсвер, Вермахт, Бундесвер).",
    "timestamp": "2018-01-27T09:56:55Z"
  },
  {
    "id": 1508198,
    "title": "Тіберій Клавдій Когідубній",
    "text": "Тіберій Клавдій Когідубній (Tiberius Claudius Cogidubnus) - король регніїв у І-му ст. на початку існування Римської Британії з 43 року.",
    "timestamp": "2017-04-10T07:16:37Z"
  },
  {
    "id": 1508206,
    "title": "Histiotus",
    "text": "Histiotus — рід ссавців родини лиликових. Histiotus знаходяться в тропічних і помірних зонах в Південній Америці.",
    "timestamp": "2018-01-28T14:29:36Z"
  },
  {
    "id": 1508209,
    "title": "Пунтоне",
    "text": "Пунтоне — фортифікаційний елемент італійського походження доби Ренесансу та ранньомодерного часу, перехідна форма між артилерійською баштою та бастіоном. Пунтоне являє собою п'ятигранну башту, звернену гострим кутом у напільний бік, з товстими мурами, що були здатні протистояти гарматному вогню. Зазвичай, має кілька ярусів, на яких розташовувалися гармати. Пунтоне з'явились в Італії у другій половині XV ст. Переважну більшість пунтоне за межами Італії збудовано протягом першої половини XVI ст.",
    "timestamp": "2016-12-17T08:28:36Z"
  },
  {
    "id": 1508210,
    "title": "Бондаренко Віталій Михайлович",
    "text": "Віталій Михайлович Бондаренко — провідний науковий співробітник ІМ НАН України, відділ алгебри, 2000 — доктор фізико-математичних наук, 2003 — професор. Мешкає в Києві.",
    "timestamp": "2016-08-29T04:40:29Z"
  },
  {
    "id": 1508211,
    "title": "Виробничий план підприємства",
    "text": "Виробни́чий план — це система адресних завдань по випуску продукції певної номенклатури, асортименту, відповідної кількості й якості в певні терміни з оптимальним виробничим циклом, що забезпечує зростання виробництва.",
    "timestamp": "2018-08-23T09:33:41Z"
  },
  {
    "id": 1508230,
    "title": "Леончук Ганна Йосипівна",
    "text": "Леончук Ганна Йосипівна (30 листопада 1917, Каноничі, тепер Володимирецького району Рівненської області — † 18 грудня 1979, Володимирець) — українська народна майстриня художнього ткацтва, заслужений майстер народної творчості УРСР — 1966.",
    "timestamp": "2016-10-21T11:55:20Z"
  },
  {
    "id": 1508242,
    "title": "Осауленко Олександр Григорович",
    "text": "Олекса́ндр Григо́рович Осау́ленко (20 грудня 1951, Матвіївка, Черкаська область), 2000 — заслужений економіст України, 2002 — доктор наук з державного управління — 2002, член-кореспондент Національної академії наук України — 2009.",
    "timestamp": "2018-02-27T17:20:36Z"
  },
  {
    "id": 1508247,
    "title": "Гуревич Розалія Борисівна",
    "text": "Роза́лія Бори́сівна Гуре́вич (* Template:ДН, Слов'янськ, нині Донецької області — † 9 березня 1971, Харків) — український бібліограф та бібліотекознавець.",
    "timestamp": "2018-10-10T11:04:31Z"
  },
  {
    "id": 1508248,
    "title": "Кубок Шпенглера 1992",
    "text": "Кубок Шпенглера 1992 — 66-й традиційний турнір Кубок Шпенглера, що проходив у швейцарському місті Давос в період з 26 по 31 грудня 1992 року. Переможцем стала збірна Канади.",
    "timestamp": "2016-12-04T20:47:40Z"
  },
  {
    "id": 1508249,
    "title": "Дитячий пісенний конкурс Євробачення 2013",
    "text": "Дитя́чий пісенний ко́нкурс Євроба́чення 2013 — 11-й дитячий пісенний конкурс Євробачення, що пройшов в Україні, у Національному палаці мистецтв «Україна», після того як Анастасія Петрик з піснею «Небо» здобула перемогу в столиці Нідерландів — Амстердам, набравши 138 балів. Переможцем цього конкурсу стала Гайя Каукі з Мальти, отримавши 130 балів.",
    "timestamp": "2017-09-30T06:39:26Z"
  },
  {
    "id": 1508250,
    "title": "Синенко Максим Денисович",
    "text": "Синенко Максим Денисович (Template:н 27 квітня 1902 — Template:† 10 лютого 1991) — радянський військовик, генерал-лейтенант танкових військ (11.07.45).",
    "timestamp": "2016-10-01T20:33:45Z"
  },
  {
    "id": 1508254,
    "title": "Кубок Шпенглера 1993",
    "text": "Кубок Шпенглера 1993 — 67-й традиційний турнір Кубок Шпенглера, що проходив у швейцарському місті Давос в період з 26 по 31 грудня 1993 року. Переможцем став шведський клуб Фер'єстад. Матчі турніру відвідали 76020 глядачів.",
    "timestamp": "2017-05-18T13:22:35Z"
  },
  {
    "id": 1508255,
    "title": "Раян Долан",
    "text": "Ра́ян До́лан (Template:lang-en; Стребен, Північна Ірландія) — північноірландський співак. Представляв Ірландію на Євробаченні 2013 з піснею «Only Love Survives». У фіналі співак посів останнє (26-те) місце.",
    "timestamp": "2015-01-02T13:50:20Z"
  },
  {
    "id": 1508257,
    "title": "Шведський статут",
    "text": "Шведський статут — відомий як Шведський ритуал. Він використовується в ряді скандинавських масонських лож і у Великій земельній ложі вільних каменярів Німеччини (ВЗЛВКН)Alex Davidson, «The Masonic Concept of Liberty: Freemasonry and the Enlightenment», United Masters’ Transactions Vol. 34 N°. 5 (August 2002)..",
    "timestamp": "2018-06-03T07:35:10Z"
  },
  {
    "id": 1508260,
    "title": "Біличанський провулок",
    "text": "Білича́нський прову́лок — зниклий провулок, що існував у Києві, місцевості Академмістечко, Святошин. Пролягав від бульвару Академіка Вернадського до вулиці Академіка Кримського.",
    "timestamp": "2015-10-08T10:19:02Z"
  },
  {
    "id": 1508272,
    "title": "Червона зірка (символ)",
    "text": "Червона зірка (★) — ідеологічний та релігійний символ, який використовувався як державна емблема, геральдичний знак на прапорах,  гербах, нагородах, також як орнамент, логотип тощо.",
    "timestamp": "2018-06-11T18:14:17Z"
  },
  {
    "id": 1508273,
    "title": "20-та моторизована дивізія (Третій Рейх)",
    "text": "20-та моторизована дивізія (Третій Рейх) (Template:lang-de) — моторизована дивізія Вермахту за часів Другої світової війни. 23 липня 1943 дивізія була переформована на 20-ту панцергренадерську дивізію.",
    "timestamp": "2018-06-14T17:45:18Z"
  },
  {
    "id": 1508276,
    "title": "Бацура Федір Степанович",
    "text": "Бацура Федір Степанович (5 травня 1913, с. Вільховець, Новоушицький повіт, Подільська губернія, Російська імперія — 31 березня 1982) — український педагог, Заслужений вчитель Української РСР, ентузіаст юннатівського руху в Україні у 1950—1970-х роках.",
    "timestamp": "2018-08-19T22:43:22Z"
  },
  {
    "id": 1508277,
    "title": "Кубок Шпенглера 1994",
    "text": "Кубок Шпенглера 1994 — 68-й традиційний турнір Кубок Шпенглера, що проходив у швейцарському місті Давос в період з 26 по 31 грудня 1994 року. Переможцем став шведський клуб Фер'єстад.",
    "timestamp": "2016-09-24T14:33:01Z"
  },
  {
    "id": 1508285,
    "title": "Площа Імама",
    "text": "Мейдан-Імам (Template:lang-fa, «Площа Імама»), ще має назву Мейдан Нахш-е Джахан (Template:lang-fa, «Площа зображення Світу») — це знаменита і дуже красива площа, що розташована в історичному центрі Ісфагана, в районі під назвою Гольбахар. До 1979 року (Ісламської революції в Ірані) ​​площа мала назву Шахської.",
    "timestamp": "2017-01-30T15:31:25Z"
  },
  {
    "id": 1508290,
    "title": "ЛТЦ (Прага)",
    "text": "ЛТЦ (Template:lang-cs) — чехословацький хокейний клуб з Праги.",
    "timestamp": "2017-06-16T00:40:52Z"
  },
  {
    "id": 1508291,
    "title": "Кагарлицька вулиця (Київ)",
    "text": "Кагарли́цька ву́лиця — зникла вулиця, що існувала у Святошинському районі (на той час — Ленінградському) міста Києва, місцевість Новобіличі. Пролягала від Рубежівської до Олевської вулиці.",
    "timestamp": "2016-06-29T20:21:06Z"
  },
  {
    "id": 1508307,
    "title": "Толстой Лев Миколайович (генерал)",
    "text": "Лев Миколайович Толсто́й (Template:н Template:дн — Template:† Template:дс) — «почесний кримчанин», нащадок письменника Л. М. Толстого, генерал-майор.",
    "timestamp": "2013-11-29T18:48:53Z"
  },
  {
    "id": 1508309,
    "title": "MAKNAMARA",
    "text": "MAKNAMARA — український рок-гурт.",
    "timestamp": "2018-08-07T07:31:24Z"
  },
  {
    "id": 1508310,
    "title": "Чемпіонат Македонії з футболу 2005—2006",
    "text": "Перша ліга Македонії сезону 2005—2006 — 14 сезон вищого дивізіону Македонії з футболу. Чемпіоном вдруге поспіль стали столичні «Работнички».",
    "timestamp": "2018-06-01T05:51:44Z"
  },
  {
    "id": 1508340,
    "title": "Пабліситі",
    "text": "Пабліситі (Template:lang-en) — це продуманий спосіб керування громадським сприйняттям певного суб'єкта комунікацій шляхом спрямування інформації від медіа до широкої громадськості. Суб'єктами паблісити є: люди (наприклад політики, митці, артисти), товари і послуги, організації та інституції всіх видів, предмети мистецтва та ін.",
    "timestamp": "2018-09-19T15:28:05Z"
  },
  {
    "id": 1508343,
    "title": "Чемпіонат Македонії з футболу 2004—2005",
    "text": "Перша ліга Македонії сезону 2005—2006 — 13 сезон вищого дивізіону Македонії з футболу. Чемпіоном вперше стали столичні«Работнички».",
    "timestamp": "2018-06-01T05:53:57Z"
  },
  {
    "id": 1508347,
    "title": "Кнут Нордаль",
    "text": "Кнут Нордаль (Template:lang-sv, Template:н 13 січня 1920, Гернефорс, Умео — Template:† 28 жовтня 1984) — шведський футболіст, що грав на позиції півзахисника за «Норрчепінг», «Рому» та національну збірну Швеції.",
    "timestamp": "2015-02-16T10:37:52Z"
  },
  {
    "id": 1508349,
    "title": "Бертіль Нордаль",
    "text": "Бертіль Нордаль (Template:lang-sv, Template:н 26 лютого 1917, Гернефорс, Умео — Template:† 1 грудня 1998) — шведський футболіст, що грав на позиції захисника за «Дегерфорс», «Аталанту» та національну збірну Швеції. По завершенні ігрової кар'єри — футбольний тренер.",
    "timestamp": "2018-06-10T05:14:13Z"
  },
  {
    "id": 1508351,
    "title": "Генрі Карлссон",
    "text": "Нільс Густав Ге́нрі Ка́рлссон (Template:lang-sv, Template:н 27 жовтня 1917, Фальчепінг — Template:† 28 травня 1999) — шведський футболіст, що грав на позиції центрфорварда за АІК, мадридський «Атлетіко» та національну збірну Швеції. По завершенні ігрової кар'єри — футбольний тренер. Також відомий як Гарвіс Карлссон.",
    "timestamp": "2018-06-05T09:16:52Z"
  },
  {
    "id": 1508355,
    "title": "Атребати",
    "text": "Атребати (Template:lang-en) — кельтське плем'я в Британії, що мігрувало з Галлії. Назва племені зі староірландської мови означає «житель»MacBain, Alexander. (1982:§ 1) An Etymological Dictionary of the Gaelic Language Gairm Publications.. Існує припущення, що назва племені «атребати» могла бути призначена для позначення народу землі для контрасту із сусідніми прибережними морінами — «люди моря»Wightman, Edith Mary (1985), Gallia Belgica, University of California Press, с. 29..",
    "timestamp": "2018-09-26T09:34:50Z"
  },
  {
    "id": 1508357,
    "title": "Чемпіонат Македонії з футболу 2003—2004",
    "text": "Перша ліга Македонії сезону 2003—2004 — 12 сезон вищого дивізіону Македонії з футболу. Чемпіоном вперше стала Побєда з міста Прілеп.",
    "timestamp": "2018-06-01T05:54:51Z"
  },
  {
    "id": 1508363,
    "title": "Тревізо (аеропорт)",
    "text": "Аеропорт Тревізо, також відомий як аеропорт Сантанджело Тревізо імені Антоніо Канови або скорочено Венеція-Тревізо (Template:lang-it) Template:airport codes — комерційний аеропорт, розташований за три кілометри на захід від італійського міста Тревізо однойменної провінціїEAD Basic і за 20 кілометрів від Венеції.",
    "timestamp": "2018-07-04T14:29:53Z"
  },
  {
    "id": 1508365,
    "title": "Саша Чирич",
    "text": "Саша Чирич (Template:lang-mk, Template:н 11 січня 1968, Куманово) — македонський футболіст, що грав на позиції нападника.",
    "timestamp": "2018-08-04T22:05:16Z"
  },
  {
    "id": 1508368,
    "title": "Карабанов Олексій Олексійович",
    "text": "Карабанов Олексій Олексійович (Template:lang-ru; 15 травня 1961, Грозний, РРФСР) — військовий диригент, заслужений артист РФ.",
    "timestamp": "2017-10-26T21:44:51Z"
  },
  {
    "id": 1508375,
    "title": "Герб Юр'ївського району",
    "text": "Герб Ю́р'ївського райо́ну — офіційний символ Юр'ївського району Дніпропетровської області. Був затверджений 23 лютого 2013 року.",
    "timestamp": "2014-12-16T23:07:15Z"
  },
  {
    "id": 1508377,
    "title": "Єрусалимський хрест",
    "text": "Єрусалимський хрест — хрест з п'яти золотих хрестів на срібному фоні.",
    "timestamp": "2018-09-21T07:05:10Z"
  },
  {
    "id": 1508378,
    "title": "Сі Лочжома",
    "text": "Сі Лочжома (Template:lang-cn; Template:н Template:ДН) — китайська борчиня вільного стилю, чемпіонка та бронзова призерка чемпіонатів світу, чемпіонка Азії, срібна призерка Азійських ігор, бронзова призерка Кубку світу.",
    "timestamp": "2018-09-03T15:16:31Z"
  },
  {
    "id": 1508381,
    "title": "Renault Mascott",
    "text": "Renault Mascott — легка вантажівка, від Renault Trucks, що виготовлялась з 1999 до 2010 року. Він замінив Renault Messenger, який створений на основі Renault Master першого покоління.",
    "timestamp": "2014-03-23T11:56:26Z"
  },
  {
    "id": 1508384,
    "title": "Вілюй",
    "text": "Вілюй (Template:lang-ru, Template:lang-sah) — річка в азійській частині Російської федерації, 32-га за довжиною річка на Землі, ліва притока Лени, найбільша з її приток.",
    "timestamp": "2016-12-26T13:07:19Z"
  },
  {
    "id": 1508385,
    "title": "Успіх винаря (фільм)",
    "text": "«Успіх винаря» (Template:lang-en) — фільм новозеландського режисера Нікі Каро. Поставлений за однойменним романом новозеландської письменниці Елізабет Нокс. Картина була представлена на Міжнародному кінофестивалі в Торонто у вересні 2009 рокуTemplate:cite web.",
    "timestamp": "2017-12-24T07:52:33Z"
  },
  {
    "id": 1508392,
    "title": "Ель-Баяд (вілаєт)",
    "text": "Ель-Баяд (Template:lang-ar) — вілаєт Алжиру. Адміністративний центр — м. Ель-Баяд. Площа — 78 870 км². Населення — 262 187 осіб (2008).",
    "timestamp": "2018-02-24T16:58:42Z"
  },
  {
    "id": 1508393,
    "title": "Жох Олег Сергійович",
    "text": "Олег Сергійович Жох (Template:н 13 жовтня 1992, Оженин, Україна) — український рукоборець, семиразовий переможець чемпіонату світу, триразовий переможець і бронзовий призер чемпіонатів Європи у різних вагових категорях. Заслужений майстер спорту України (2012)Template:cite web.",
    "timestamp": "2018-06-09T21:49:28Z"
  },
  {
    "id": 1508397,
    "title": "Алексієвич Ілля Леонідович",
    "text": "Ілля Леонідович Алексієвич (Template:lang-be, Template:lang-ru, Template:н 10 лютого 1991, Жодино) — білоруський футболіст, півзахисник клубу «Торпедо-БелАЗ» і національної збірної Білорусі.",
    "timestamp": "2018-05-28T09:46:06Z"
  },
  {
    "id": 1508398,
    "title": "Майкл Б'єн",
    "text": "Майкл Коннелл Б'єнTemplate:Efn (Template:lang-en) — американський кіноактор і режисер. Відомий за фільмами Джеймза Кемерона «Термінатор» (1984) як Кайл Риз, «Чужі» (1986) як капрал Двейн Гікс і «Безодня»(1989) як лейтенант Коффі. Також він прославився участю у вестерні «Томстоун» (1993), бойовику «Скеля» і у треш-фільмі жахів / комедії «Планета жаху» (2007). На телебаченні Б'єн узяв участь у телесеріалі «Гіл-стрит блюз» (лауреаті 80-х премії «Еммі»), а також у шоу «Корпорація пригод» (2003).",
    "timestamp": "2016-08-31T04:52:53Z"
  },
  {
    "id": 1508399,
    "title": "Кузьменок Ігор Андрійович",
    "text": "Ігор Андрійович Кузьменок (Template:lang-be, Template:lang-ru, Template:н 6 липня 1990, Жлобин) — білоруський футболіст, захисник мінського «Динамо».",
    "timestamp": "2017-04-30T09:51:56Z"
  },
  {
    "id": 1508400,
    "title": "Соловйов Сергій Олександрович",
    "text": "Сергій Олександрович Соловйов (Template:lang-ru, Template:н Template:OldStyleDate, Сокіл — Template:† 11 лютого 1967, Москва) — радянський футболіст та хокеїст, що грав на позиції нападника. По завершенні ігрової кар'єри — футбольний тренер. Заслужений майстер спорту СРСР.",
    "timestamp": "2016-11-06T09:10:03Z"
  },
  {
    "id": 1508401,
    "title": "Густав Евертссон Горн",
    "text": "Густав Евертссон Горн (Template:lang-sv; 1614, Лему — 27 лютого 1666, Штаде) — шведський фельдмаршал, син Еверта Горна.",
    "timestamp": "2013-04-22T06:55:54Z"
  },
  {
    "id": 1508402,
    "title": "Ченакал Валентин Лукич",
    "text": "Валентин Лукич Ченакал (Template:ДН - Template:ДС) — радянський історик науки.",
    "timestamp": "2013-03-21T11:08:26Z"
  },
  {
    "id": 1508405,
    "title": "Лоренцо Ебесіліо",
    "text": "Лоре́нцо Ебесі́ліо (Template:lang-nl, Template:н 24 вересня 1991, Хорн) — нідерландський футболіст, фланговий півзахисник сербського клубу «Црвена Звезда».",
    "timestamp": "2018-09-20T23:08:06Z"
  },
  {
    "id": 1508406,
    "title": "Чикін Олександр Андрійович",
    "text": "Олександр Андрійович Чикін (Template:ДН, Харків – Template:ДС, Ленінград) — російський оптик, художник, мандрівник і громадський діяч.",
    "timestamp": "2013-03-22T01:37:30Z"
  },
  {
    "id": 1508412,
    "title": "Ян Коваржик",
    "text": "Ян Коваржик (Template:lang-cs, Template:н 19 червня 1988, Мост) — чеський футболіст, півзахисник клубу «Вікторія» (Пльзень).",
    "timestamp": "2016-12-18T10:34:34Z"
  },
  {
    "id": 1508414,
    "title": "Мілан Черни",
    "text": "Мілан Черни (Template:lang-cs, Template:н 16 березня 1988, Прага) — чеський футболіст, півзахисник клубу «Сівасспор».",
    "timestamp": "2014-12-03T17:26:09Z"
  },
  {
    "id": 1508415,
    "title": "Іоанн I (граф Дюнуа)",
    "text": "Жан де Дюнуа (*Jean de Dunois, 23 листопада 1402 —†24 листопада 1468) — французький аристократ, військовик, учасник Сторічної війни.",
    "timestamp": "2016-09-29T14:57:33Z"
  },
  {
    "id": 1508428,
    "title": "Обава (річка)",
    "text": "Оба́ва — річка в Українських Карпатах, у межах Мукачівського району Закарпатської області. Ліва притока Визниці (басейн Латориці).",
    "timestamp": "2018-09-22T10:35:34Z"
  },
  {
    "id": 1508434,
    "title": "Оскар (75-та церемонія вручення)",
    "text": "75-та церемонія вручення премії «Оскар» за заслуги в області кінематографа за 2002 рік відбулася 23 березня 2003 року в театрі «Кодак» (Голлівуд, Лос-Анджелес). Вів церемонію відомий актор-комік Стів Мартін. За п'ять днів до цього США офіційно оголосили війну Іраку і тому Академія пропонувала відкласти проведення церемонії. Зрештою вирішили не вносити змін у затверджений план, але відмовилися від традиційного урочистого проходження кінозірок червоною килимовою доріжкоюTemplate:cite web.",
    "timestamp": "2017-06-28T12:57:54Z"
  },
  {
    "id": 1508438,
    "title": "П'єр Базіль",
    "text": "П'єр Базіль (Template:lang-fr; † 6 квітня 1199 року), також відомий як Бертран де Гудрун і Джон Себроз — французький лицар, який смертельно поранив з арбалета англійського короля Річарда I Левове Серце під час облоги замку Шалю у Франції 26 березня 1199. Річард зняв частину обладунків, що послужило причиною поранення, і, хоча рана не була смертельною, вона стала причиною гангрени, від якої король помер 6 квітня того ж року.",
    "timestamp": "2017-07-16T21:36:38Z"
  },
  {
    "id": 1508444,
    "title": "Адам Казановський",
    "text": "Адам Казановський (Template:lang-pl, 1599 — Template:ДН, Варшава) — державний діяч Речі Посполитої, підкоморій надвірний коронний (1634), стольник великий коронний (з 1643), маршалок надвірний коронний (1643—1649), каштелян сандомирський, староста борисовський і барцицький (1633), козеніцький, варецький, солецький, більський (з 1638), новоторзький (1640), черкаський (отримав від чоловіка своєї сестри Миколая «Ведмежої лаби» ПотоцькогоMajewski W. Potocki Mikołaj h. Pilawa (ok. 1593—1651) // Polski Słownik Biograficzny. — Wrocław — Warszawa — Kraków — Gdańsk — Łódź : Zakład Narodowy Imienia Ossolińskich, Wydawnictwo Polskiej Akademii Nauk, 1983. — T. XXVIII/1. — Zeszyt 116. — S. 109. Template:ref-pl), тлумацькийKazanowscy (01) Template:ref-pl.",
    "timestamp": "2018-07-31T10:06:14Z"
  },
  {
    "id": 1508451,
    "title": "МР-30",
    "text": "МР-30 — російська двохступенева твердопаливна метеорологічна ракета з висотою підйома до 300 км. Висота підйому дозволяє віднести її також до класу геофізичних ракет.",
    "timestamp": "2013-05-21T00:06:25Z"
  },
  {
    "id": 1508452,
    "title": "Рудик Микола Мартинович",
    "text": "Мико́ла Марти́нович Ру́дик (19 грудня 1918 н. с. — 16 грудня 1943) — радянський військовик. Учасник звільнення Білорусі від нацистських загарбників. Герой Радянського Союзу (24.4.1944).",
    "timestamp": "2018-08-03T04:29:42Z"
  },
  {
    "id": 1508453,
    "title": "Робер Стюарт д'Обіньї",
    "text": "Робер Стюарт д'Обіньї (*Robert Stuart d'Aubigny, 1470 —†1544) — шотландський аристократ, маршал Франції, учасник Італійських воєн.",
    "timestamp": "2015-02-03T20:43:42Z"
  },
  {
    "id": 1508454,
    "title": "Ульяновське танкове училище",
    "text": "Улья́новське гварді́йське ви́ще та́нкове кома́ндне дві́чі Червонопра́порне, о́рдена Черво́ної Зі́рки учи́лище і́мені В. І. Ле́ніна — вищий військовий навчальний заклад СРСР, що готував командирів для танкових військ у 1932–1991 роках. Розташовувалось в місті Ульяновську.",
    "timestamp": "2018-02-27T10:44:53Z"
  },
  {
    "id": 1508455,
    "title": "Премія Гільдії кіноакторів США за найкращу жіночу роль",
    "text": "Премія Гільдії кіноакторів США за найкращу жіночу роль — нагорода Гільдії кіноакторів США, що присуджується щорічно з 1995 року.",
    "timestamp": "2018-04-04T12:05:21Z"
  },
  {
    "id": 1508456,
    "title": "Іноуе Йосіко",
    "text": "Йосіко Іноуе (Template:lang-ja; Template:н Template:ДН, Ямаґуті) — японська борчиня вільного стилю, дворазова бронзова призерка чемпіонатів світу, чемпіонка та дворазова бронзова призерка чемпіонатів Азії, бронзова призерка Кубку світу.",
    "timestamp": "2018-06-09T21:49:30Z"
  },
  {
    "id": 1508458,
    "title": "Закономовець",
    "text": "Закономовець, лагман (Template:lang-sv, Template:lang-no, Template:lang-is) — у ранньосередньовічній Скандинавії знавець звичаєвого права, суддя, голова Тінгу. В Ісландії X–XIII століть — голова альтінгу і фактичний глава держави (див. Ісландська Вільна держава).",
    "timestamp": "2018-07-27T10:19:38Z"
  },
  {
    "id": 1508462,
    "title": "Анн I де Монморансі",
    "text": "Анн I де Монморансі (Template:lang-fr; 15 березня 1493 — 12 листопада 1567) — французький військовий та державний діяч, маршал, пер Франції.",
    "timestamp": "2018-05-18T15:19:12Z"
  },
  {
    "id": 1508464,
    "title": "Драган Канатларовський",
    "text": "Драган Канатларовський (Template:lang-mk, Template:н 8 листопада 1960, Бітола) — македонський футболіст, що грав на позиції півзахисника. По завершенні ігрової кар'єри — футбольний тренер.",
    "timestamp": "2017-03-17T22:08:43Z"
  },
  {
    "id": 1508469,
    "title": "Вікіпедія:Оформлення/Включення списків",
    "text": "Включені списки — це списки посилань, даних чи інформації, які включені в текст статті або додані в кінці статті. Включені списки можуть бути в табличному форматі. Включені списки повинні використовуватись тільки тоді коли це доречно; іноді інформація подана списком краще виглядає ніж писаною прозою. Проте наведення надмірної кількості даних у вигляді списків може суперечити правилу.",
    "timestamp": "2015-06-23T11:34:57Z"
  },
  {
    "id": 1508470,
    "title": "Платформізм",
    "text": "Платформізм — напрям наукової думки, тенденція в анархістському русі. Він наголошує на необхідності міцного об'єднання анархістських організацій, які здатні впливати на робітничий клас і селянські рухи. Ідеї, які стали попередниками платформізму, можна знайти в роботах Михайла Бакуніна.",
    "timestamp": "2014-04-01T04:12:42Z"
  },
  {
    "id": 1508471,
    "title": "Мункедаль (комуна)",
    "text": "Комуна Мункедаль (Template:lang-sv) — адміністративно-територіальна одиниця місцевого самоврядування, що розташована в лені Вестра-Йоталанд у південно-західній Швеції.",
    "timestamp": "2018-03-31T10:01:42Z"
  },
  {
    "id": 1508477,
    "title": "Омоль (комуна)",
    "text": "Комуна Омоль (Template:lang-sv) — адміністративно-територіальна одиниця місцевого самоврядування, що розташована в лені Вестра-Йоталанд у південно-західній Швеції. Зі сходу омивається водами озера Венерн.",
    "timestamp": "2018-03-30T21:33:40Z"
  },
  {
    "id": 1508481,
    "title": "Клод Луї Гектор де Віллар",
    "text": "Клод Луї Гектор де Віллар (*Claude Louis Hector de Villars, 8 травня 1653 —†17 червня 1734) — французький військовий діяч, головний маршал Франції, дипломат.",
    "timestamp": "2016-10-01T20:35:18Z"
  },
  {
    "id": 1508488,
    "title": "Дальс-Ед (комуна)",
    "text": "Комуна Дальс-Ед (Template:lang-sv) — адміністративно-територіальна одиниця місцевого самоврядування, що розташована в лені Вестра-Йоталанд у південно-західній Швеції.",
    "timestamp": "2018-02-24T16:58:49Z"
  },
  {
    "id": 1508494,
    "title": "Премія Гільдії кіноакторів США за найкращу чоловічу роль",
    "text": "Премія Гільдії кіноакторів США за найкращу чоловічу роль — премія, що входить до нагороди Гільдії акторів США. Вручається з моменту створення премії, з 1994 року.",
    "timestamp": "2018-01-22T16:47:51Z"
  },
  {
    "id": 1508495,
    "title": "Драйв (фільм, 2011)",
    "text": "«Драйв» (Template:lang-en) — американський драматичний трилер режисера Ніколаса Віндінґа Рефна, що вийшов 2011 року. Картина створена на основі однойменного роману Джеймса СеллісаДрайв: повний склад команди на сайті Internet Movie Database. — Процитовано 26 лютого 2013 Template:ref-en.",
    "timestamp": "2018-03-25T18:31:30Z"
  },
  {
    "id": 1508499,
    "title": "Cyanide (сингл Metallica)",
    "text": "«Cyanide» (Template:lang-uk) — пісня американського хеві-метал гурту Metallica, третій сингл з їх дев'ятого студійного альбому Death Magnetic. 1 вересня 2008 пісня була доступна для прослуховування на офіційному сайті гурту Mission: Metallica, а також доступна для завантаження (тільки для Платинових користувачів). Пізніше стала доступною для покупки у вигляді цифрового синглу на iTunes Store. Наживо пісня вперше прозвучала 9 серпня 2008 року на фестивалі Ozzfest в Далласі, Техас і це перша пісня з альбому Death Magnetic, яка була зіграна наживо в повному обсязі. Аудіо запис виконання пісні розміщений на сторінці гурту в соціальній мережі MySpace. Також пісня була зіграна наживо в британському музичному телевізійному шоу Later… with Jools Holland в 2008 році.",
    "timestamp": "2017-11-18T17:27:24Z"
  },
  {
    "id": 1508500,
    "title": "Потаж",
    "text": "Потаж (від старофранцузького pottage; \"горщикова страва\") — вид густих супів, тушонок та каш, в деяких з них м'ясо і овочі варяться разом з водою, поки не утвориться густа ​​каша.",
    "timestamp": "2013-04-13T16:00:35Z"
  },
  {
    "id": 1508510,
    "title": "Луї II де Ла Тремуйль",
    "text": "Луї II де Ла Тремуйль (*Louis II de La Trémoille, 26 вересня 1460 —†24 лютого 1525) — французький військовий діяч часів Італійських війн.",
    "timestamp": "2015-12-23T10:09:47Z"
  },
  {
    "id": 1508515,
    "title": "Inglot Cosmetics",
    "text": "Inglot Cosmetics, або Inglot — польська косметична компанія з глобальним охопленням (вона займає панівне становище на внутрішньому ринку косметики в Малайзії, Азербайджану та Ірландії)Template:cite web, заснована в 1983 році в Перемишлі Войцехом Інгльотом. Перший іноземний салон був відкритий у 2006 році в Монреалі, Канада.",
    "timestamp": "2017-04-12T15:39:35Z"
  },
  {
    "id": 1508521,
    "title": "Премія Гільдії кіноакторів США за найкращу чоловічу роль другого плану",
    "text": "Премія Гільдії кіноакторів США за найкращу чоловічу роль другого плану — нагорода Гільдії кіноакторів США, що присуджується щорічно з 1995 року.",
    "timestamp": "2018-09-06T09:42:52Z"
  },
  {
    "id": 1508526,
    "title": "Свинячий сечовий міхур",
    "text": "Свинячий сечовий міхур — сечовий міхур домашньої свині, схожий на сечовий міхур людини. Сьогодні цей порожнистий орган має різні застосування у медицині, традиційній кулінарії та обрядах. Історично склалося, що свинячий сечовий міхур мав деякі додаткові призначення завдяки малій вазі і хорошому розтягуванні, він міг заповнюватися чимось і зав'язуватися.",
    "timestamp": "2016-10-01T20:36:27Z"
  },
  {
    "id": 1508528,
    "title": "Блез де Монлюк",
    "text": "Блез де Лассеран де Массенком де Монлюк де Ментескью (*Blaise de Monluc de Montesquiou de Lasseran de Massencome, 1500 —†26 червня 1577) — французький військовий діяч часів Італійських та Релігійних воєн, маршал Франції.",
    "timestamp": "2018-04-15T21:44:23Z"
  },
  {
    "id": 1508529,
    "title": "Scotophilus kuhlii",
    "text": "Scotophilus kuhlii — вид ссавців родини лиликових.",
    "timestamp": "2018-06-22T05:36:55Z"
  },
  {
    "id": 1508539,
    "title": "Міністерство закордонних справ Швеції",
    "text": "Міністерство закордонних справ Швеції — установа, що несе відповідальність за зовнішню політику Швеції.",
    "timestamp": "2018-03-07T09:38:14Z"
  },
  {
    "id": 1508548,
    "title": "Спілка кінокритиків Бостона",
    "text": "Спілка кінокритиків Бостона (Template:lang-en) — некомерційна організація кінокритиків, кінознавців та студентів, чиєю спеціалізацією є огляд поточного кінопроцесу та написання рецензій. Базується у Бостоні, штат Массачусетс, США.",
    "timestamp": "2017-02-09T10:42:50Z"
  },
  {
    "id": 1508572,
    "title": "Гійом Бюде",
    "text": "Гійом Бюде (*Guillaume Budé, 26 січня 1467 —†22 серпня 1540) — французький державний діяч, гуманіст, вчений, бібліофіл.",
    "timestamp": "2018-09-05T19:56:33Z"
  },
  {
    "id": 1508575,
    "title": "Scoteanax rueppellii",
    "text": "Scoteanax rueppellii — вид рукокрилих, родини Лиликові.",
    "timestamp": "2013-10-31T19:02:57Z"
  },
  {
    "id": 1508577,
    "title": "Міністерство оборони Швеції",
    "text": "Міністерство оборони Швеції — урядова установа, несе відповідальність за політику національної оборони Швеції.",
    "timestamp": "2018-02-27T11:09:26Z"
  },
  {
    "id": 1508580,
    "title": "Scotomanes ornatus",
    "text": "Scotomanes ornatus — вид рукокрилих, родини Лиликові.",
    "timestamp": "2013-03-22T12:19:04Z"
  },
  {
    "id": 1508582,
    "title": "Рейчел Блейклі",
    "text": "Рейчел Лей Блейклі (Template:lang-en, нар. 28 липня 1968) — австралійська актриса. Її роботи включають такі фільми, як Любов допоки, Молодий Геркулес і Counterstrike, а також поява в ролі гостя на телевізійних шоу Ксена: принцеса-воїн, Коронер держави і Фліппер. Найбільш відома ролями Маргарити Крукс і Гленди Фрай з т/с Загублений світ і Непокірна.",
    "timestamp": "2017-03-13T12:22:04Z"
  },
  {
    "id": 1508583,
    "title": "Премія Гільдії кіноакторів США за найкращу жіночу роль другого плану",
    "text": "Премія Гільдії кіноакторів США за найкращу жіночу роль другого плану — нагорода Гільдії кіноакторів США, що присуджується щорічно з 1995 року.",
    "timestamp": "2018-01-22T16:49:29Z"
  },
  {
    "id": 1508584,
    "title": "Scotozous dormeri",
    "text": "Scotozous dormeri — вид рукокрилих, родини Лиликові.",
    "timestamp": "2013-04-11T14:29:51Z"
  },
  {
    "id": 1508588,
    "title": "Жан де Косс де Бріссак",
    "text": "Жан Поль Тімолеон де Косс-Бріссак (*Jean Paul Timoléon de Cossé-Brissac, 12 жовтня 1698 —†17 грудня 1784) — французький військовий діяч, маршал.",
    "timestamp": "2017-12-25T16:38:11Z"
  },
  {
    "id": 1508589,
    "title": "Лідзбарський замок",
    "text": "Лідзбарський замок, або Замок єпископів вармінських у Лідзбарку-Вармінському — середньовічний замок, розташований у Лідзбарку-Вармінському, що належить до найбільш важливих пам'яток готичної архітектури в Польщі.",
    "timestamp": "2017-02-22T12:55:29Z"
  },
  {
    "id": 1508591,
    "title": "Шимон Тавік Франтішек",
    "text": "Шимон Тавік Франтішек ( Šimon Tavík František, 13 травня, 1877, Железніце — 19 грудня, 1942, Прага )— чеський художник, графік і скульптор.",
    "timestamp": "2018-10-13T22:22:06Z"
  },
  {
    "id": 1508592,
    "title": "The Unforgiven III",
    "text": "«The Unforgiven III» (укр. «Непрощений III») — сьома пісня американського хеві-метал гурту Metallica з їх дев'ятого студійного альбому Death Magnetic.",
    "timestamp": "2018-04-13T14:23:06Z"
  },
  {
    "id": 1508595,
    "title": "Scotorepens",
    "text": "Морфометрія. Довжина голови й тіла: 37—65 мм, хвіст довжиною 25—42 мм, довжина передпліччя: 27—40 мм, вага: 6—18 гр.",
    "timestamp": "2013-03-22T07:18:15Z"
  },
  {
    "id": 1508597,
    "title": "Луї Франсуа дю Плессі, герцог де Рішельє",
    "text": "Луї Франсуа Арман де Він'єро дю Плессі де Рішельє (*Louis François Armand de Vignerot du Plessis de Richelieu, 13 березня 1696 —†8 серпня 1788) — французький державний та військовий діяч, маршал, пер Франції.",
    "timestamp": "2017-12-13T19:42:17Z"
  },
  {
    "id": 1508608,
    "title": "Джордж Скотт (боксер)",
    "text": "Джордж Скотт (Template:lang-sv, раніше Джордж Крамне (George Cramne),  20 грудня 1966) — шведський боксер ліберійського походження, олімпійський медаліст.",
    "timestamp": "2018-06-13T10:44:10Z"
  },
  {
    "id": 1508609,
    "title": "Премія Гільдії кіноакторів США за найкращий акторський склад в ігровому кіно",
    "text": "Премія Гільдії кіноакторів США за найкращий акторський склад в ігровому кіно — нагорода Гільдії кіноакторів США, що присуджується щорічно з 1996 року.",
    "timestamp": "2018-01-22T16:51:14Z"
  },
  {
    "id": 1508611,
    "title": "Ларс Мюрберг",
    "text": "Ларс Мюрберг  (Template:lang-sv, 23 листопада 1964) — шведський боксер, олімпійський медаліст.",
    "timestamp": "2018-06-09T13:52:04Z"
  },
  {
    "id": 1508617,
    "title": "Ерік Лінд",
    "text": "Ерік Лінд  (Template:lang-sv, 24 травня 1964) — шведський настільний тенісист, олімпійський медаліст.",
    "timestamp": "2018-07-24T08:22:55Z"
  },
  {
    "id": 1508620,
    "title": "Scotoecus",
    "text": "Морфометрія. Довжина голови й тіла: 46—68 мм, хвіст довжиною 28—40 мм, довжина передпліччя: 28—38 мм.",
    "timestamp": "2013-03-22T00:06:35Z"
  },
  {
    "id": 1508623,
    "title": "Біргітта Бенгтссон",
    "text": "Біргітта Бенгтссон (Template:lang-sv, 16 травня 1965) — шведська яхтсменка, олімпійська медалістка.",
    "timestamp": "2018-06-09T13:52:07Z"
  },
  {
    "id": 1508625,
    "title": "Маріт Седерстрем",
    "text": "Маріт Седерстрем  (Template:lang-sv, 25 жовтня 1962) — шведська яхтсменка, олімпійська медалістка.",
    "timestamp": "2018-06-09T13:52:08Z"
  },
  {
    "id": 1508626,
    "title": "Міністерство сільського господарства Швеції",
    "text": "Міністерство сільського господарства Швеції (Template:lang-sv) — відповідає за сільське господарство і екологічні питання у Швеції, пов'язані з сільським господарством, рибальством, оленярством, садівництвом, тваринництвом, продуктами харчування, полюванням і мисливським господарством, а також вищою освітою і дослідженнями в галузі сільськогосподарських наук.",
    "timestamp": "2018-08-18T08:09:05Z"
  },
  {
    "id": 1508631,
    "title": "Франсуа де Бассомп'єр",
    "text": "Франсуа де Бассомп'єр (Template:lang-fr), 12 квітня 1579 —†12 жовтня 1646 — французький державний та військовий діяч, дипломат Франції, маршал.",
    "timestamp": "2017-04-04T17:39:56Z"
  },
  {
    "id": 1508636,
    "title": "Міністерство освіти і науки Швеції",
    "text": "Міністерство освіти і науки Швеції (Template:lang-sv) — установа, що відповідальна за питання пов'язані зі школами, університетами, коледжами та науковими дослідженнями.",
    "timestamp": "2018-02-27T11:09:30Z"
  },
  {
    "id": 1508641,
    "title": "Анна Ульссон (лижниця)",
    "text": "Анна Ульссон  (Template:lang-sv, 1 травня 1976) — шведська лижниця, олімпійська чемпіонка.",
    "timestamp": "2018-06-09T13:52:10Z"
  },
  {
    "id": 1508642,
    "title": "101-ша єгерська дивізія (Третій Рейх)",
    "text": "101-ша єгерська дивізія (Третій Рейх) (Template:lang-de) — єгерська піхотна дивізія Вермахту за часів Другої світової війни.",
    "timestamp": "2018-05-28T10:13:54Z"
  },
  {
    "id": 1508643,
    "title": "Міністерство фінансів Швеції",
    "text": "Міністерство фінансів Швеції (Template:lang-sv) — установа Швеції, що відповідальна за питання пов'язані з економічною політикою, бюджетом центрального уряду, за податки, банківські справи, безпеки і страхування, за міжнародну економічну працю центральних, регіональних та місцевих органів влади.",
    "timestamp": "2018-02-27T11:09:32Z"
  },
  {
    "id": 1508646,
    "title": "Міністерство зайнятості Швеції",
    "text": "Міністерство зайнятості Швеції (Template:lang-sv) — установа Швеції, що несе відповідальність за ринок праці та трудове життя держави.",
    "timestamp": "2018-02-27T11:09:34Z"
  },
  {
    "id": 1508649,
    "title": "Цейонія Фабія",
    "text": "Цейонія Фабія (*Ceionia Fabia, д/н —після 175) — давньоримська матрона часів Римської імперії, представниця династії Антонінів.",
    "timestamp": "2017-12-27T20:09:59Z"
  },
  {
    "id": 1508651,
    "title": "Премія Гільдії кіноакторів США за найкращий каскадерський ансамбль в ігровому кіно",
    "text": "Премія Гільдії кіноакторів США за найкращий каскадерський ансамбль у фільмах. Ця категорія введена з 2008 року.",
    "timestamp": "2018-02-23T14:11:00Z"
  },
  {
    "id": 1508653,
    "title": "Міністерство охорони здоров'я і соціальних справ Швеції",
    "text": "Міністерство охорони здоров'я і соціальних справ Швеції (Template:lang-sv) — державна установа Швеції, що несе відповідальність за політику, пов'язану з соціальним забезпеченням, куди входить: фінансова безпека, соціальні послуги, медико-санітарна допомога, зміцнення здоров'я та прав дітей й інвалідів.",
    "timestamp": "2018-03-08T20:24:49Z"
  },
  {
    "id": 1508656,
    "title": "Цейонія Плавтія",
    "text": "Цейонія Плавтія (*Ceionia Plautia, дати народження й смерті невідомі ) — давньоримська матрона часів Римської імперії, представниця династії Антонінів.",
    "timestamp": "2017-05-17T19:24:38Z"
  },
  {
    "id": 1508658,
    "title": "Міністерство підприємництва, енергетики та зв'язку Швеції",
    "text": "Міністерство підприємництва, енергетики та зв'язку Швеції (Template:lang-sv) — державна установа Швеції, що відповідає за розвиток підприємництва і конкуренції, за електронний зв'язок, енергетику, лісове господарство, інформаційні технології, поштовий зв'язок, добувну промисловість, дослідження і розробки, державні корпорації, туризм і транспорт. Загальна чисельність штатних працівників становить 300 осіб.",
    "timestamp": "2018-03-22T11:13:04Z"
  },
  {
    "id": 1508662,
    "title": "Ясногородський провулок",
    "text": "Ясногоро́дський прову́локЗа текстом рішення 1952 року про перейменування — Ясногірський провулок — зниклий провулок, що існував у Шевченківському районі міста Києва, місцевість Сирець. Пролягав від Ясногірської вулиці (за довідниками 1975 та 1979 років Ясногородської вулиці) до тупика.",
    "timestamp": "2015-04-18T23:05:21Z"
  },
  {
    "id": 1508663,
    "title": "Міністерство охорони навколишнього середовища Швеції",
    "text": "Міністерство охорони навколишнього середовища Швеції (Template:lang-sv) — установа Швеції, що відповідає за питання навколишнього середовища і будівництво в Швеції. Міністерство також несе загальну відповідальність за координацію роботи уряду щодо сталого розвитку.",
    "timestamp": "2018-02-27T11:09:41Z"
  },
  {
    "id": 1508665,
    "title": "Казановські",
    "text": "Казановські (Template:lang-pl) — польський шляхетський рід гербу Гримала. Рід відомий з середини XV століття. Рід Казановських, згаслий в Польщі в середині XVII століття, продовжував існувати в Смоленській губернії Російської імперії.",
    "timestamp": "2016-08-03T14:36:07Z"
  },
  {
    "id": 1508670,
    "title": "Освітній портал",
    "text": "«Освітній портал» (www.osvita.org.ua) — веб-сайт, присвячений освіті в Україні і за кордоном. Підтримується ТОВ «Освітній портал», який є власником торгової марки «Освітній портал». Заснований в 2003 р.",
    "timestamp": "2018-10-14T13:25:20Z"
  },
  {
    "id": 1508674,
    "title": "Міністерство культури Швеції",
    "text": "Міністерство культури Швеції (Template:lang-sv) — установа Швеції, що відповідає за культурну політику Швеції.",
    "timestamp": "2018-02-27T11:09:43Z"
  }
]