[
  {
    "id": 1713446,
    "title": "Міхал Станіславський",
    "text": "Міхал Станіславський гербу Гриф (Template:lang-pl; Template:† 1604) — польський шляхтич, військовий діяч, урядник Речі Посполитої. Ротмістр, полковник.",
    "timestamp": "2017-12-24T08:45:54Z"
  },
  {
    "id": 1713452,
    "title": "Слони пам'ятають усе",
    "text": "«Слони пам'ятають усе» — кінофільм режисера Детльова Бука, що вийшов на екрани в 2012 році.",
    "timestamp": "2016-05-13T12:37:07Z"
  },
  {
    "id": 1713459,
    "title": "Мандрівний моряк",
    "text": "Мандрівний моряк (Template:lang-en) — американська кінокомедія Джозефа Енабері 1921 року з Роско Арбаклом в головній ролі. Фільм вважається втраченим.",
    "timestamp": "2017-11-16T01:05:17Z"
  },
  {
    "id": 1713460,
    "title": "Поль Тортельє",
    "text": "Поль Тортельє (Template:lang-fr; 21 березня 1914, Париж — 18 грудня 1990, Віллакро, департамент Валь-д'Уаз) — французький віолончеліст, композитор та педагог. Батько диригента Яна Паскаля Тортельє.",
    "timestamp": "2017-10-28T11:01:43Z"
  },
  {
    "id": 1713461,
    "title": "Згори і знизу",
    "text": "«Згори і знизу» — кінофільм режисера Фридрика Тор Фрідрікссона, що вийшов на екрани в 2006 році.",
    "timestamp": "2016-05-12T13:10:08Z"
  },
  {
    "id": 1713465,
    "title": "Кривенко Олександр Васильович",
    "text": "Олекса́ндр Васи́льович Криве́нко (нар. 20 квітня 1958, Глинськ, СРСР) — український військовик, генерал-лейтенант, перший заступник командувача Національної гвардії України, екс-виконуючий обов'язки командувача Нацгвардії (2014–2015).",
    "timestamp": "2018-07-17T09:07:03Z"
  },
  {
    "id": 1713469,
    "title": "Балан Микола Іванович",
    "text": "Микола Іванович Балан (Template:н Template:Дата народження, с. Старий Лисець, Тисменицький район, Івано-Франківська область) — український військовик, генерал-лейтенант, заступник командувача Національної гвардії України.",
    "timestamp": "2018-08-07T16:25:55Z"
  },
  {
    "id": 1713472,
    "title": "Надприродні можливості",
    "text": "«Надприродні можливості» — кінофільм режисера Петра Зеленка, що вийшов на екрани в 2001 році.",
    "timestamp": "2016-12-14T22:36:13Z"
  },
  {
    "id": 1713474,
    "title": "Мясников Олег Віталійович",
    "text": "Олег Віталійович Мясников (Template:н Template:Дата народження, м. Красноярськ, Росія) — український військовик (полковник), заступник командувача Національної гвардії України.",
    "timestamp": "2016-05-12T14:46:38Z"
  },
  {
    "id": 1713478,
    "title": "Hydromantes shastae",
    "text": "Hydromantes shastae — вид хвостатих земноводних родини Безлегеневі саламандри (Plethodontidae).",
    "timestamp": "2016-05-12T10:42:17Z"
  },
  {
    "id": 1713480,
    "title": "Право на повстання",
    "text": "Право на повстання (право на опір гнобленню, право на революцію) — у політичній філософії, право громадян будь-якими засобами, аж до збройної боротьби, захищати свої права та свободи від узурпаторів. Відноситься до природних прав, тобто не вимагає підтвердження нормами позитивного права.",
    "timestamp": "2018-06-04T11:31:43Z"
  },
  {
    "id": 1713486,
    "title": "Альбер Руссель",
    "text": "Альбе́р Шарль Поль Марі Руссе́ль (Template:lang-fr; 5 квітня 1869 — 23 серпня 1937) — французький композитор першої третини XX століття.",
    "timestamp": "2018-02-11T21:23:43Z"
  },
  {
    "id": 1713489,
    "title": "Самболіко",
    "text": "«Самболіко» — кінофільм режисера Міка Каурісмякі, що вийшов на екрани в 1996 році.",
    "timestamp": "2016-05-13T12:26:10Z"
  },
  {
    "id": 1713492,
    "title": "Мови Нігерії",
    "text": "Нігерія є багатомовною країною з більше, ніж 500 мов.",
    "timestamp": "2017-02-10T04:15:05Z"
  },
  {
    "id": 1713496,
    "title": "Вільям Пліт",
    "text": "Вільям Пліт (Template:lang-en; Template:Дата, Лондон  — Template:Дата, там само)  — британський віолончеліст.",
    "timestamp": "2016-10-21T20:50:29Z"
  },
  {
    "id": 1713498,
    "title": "Нехай тобі насниться сон про мене",
    "text": "«Нехай тобі насниться сон про мене» — кінофільм режисера Антоніса Коккіноса, що вийшов на екрани в 1999 році.",
    "timestamp": "2017-11-16T19:09:48Z"
  },
  {
    "id": 1713501,
    "title": "Хвороба котячих подряпин",
    "text": "Хворо́ба котя́чих подря́пин (син. хвороба котячої подряпини, хвороба від котячих подряпин, феліно́з, доброякісний лімфоретикульо́з, підгострий регіонарний лімфаденіт, гарячка від котячої подряпини, Template:lang-en, Template:lang-fr) — зооноз, який спричинюють бартонели внаслідок контактної передачі від заражених котів. У типових випадках перебігає у вигляді доброякісного лімфаденіту, рідше з появою тривалої гарячки, ураження печінки, головного мозку, тяжких проявів у людей з імунодефіцитом.",
    "timestamp": "2018-07-07T20:16:18Z"
  },
  {
    "id": 1713505,
    "title": "Доторкнися до мене",
    "text": "«Доторкнися до мене» — кінофільм режисера Пол Кокс, що вийшов на екрани в 1993 році.",
    "timestamp": "2018-08-23T09:34:01Z"
  },
  {
    "id": 1713515,
    "title": "Ольшанська сільська рада (Романівський район)",
    "text": "Ольшанська сільська рада — орган місцевого самоврядування у Романівському районі Житомирської області з адміністративним центром у с. Ольшанка.",
    "timestamp": "2014-12-17T02:20:05Z"
  },
  {
    "id": 1713518,
    "title": "Печанівська сільська рада",
    "text": "Печанівська сільська рада — орган місцевого самоврядування у Романівському районі Житомирської області з адміністративним центром у с. Печанівка.",
    "timestamp": "2016-05-10T07:24:10Z"
  },
  {
    "id": 1713519,
    "title": "Прутівська сільська рада (Романівський район)",
    "text": "Прутівська сільська рада — орган місцевого самоврядування у Романівському районі Житомирської області з адміністративним центром у с. Прутівка.",
    "timestamp": "2014-12-17T02:33:03Z"
  },
  {
    "id": 1713520,
    "title": "Манфред Вебер",
    "text": "Манфред Вебер (Template:lang-de; Template:н Template:Дата народження, Роттенбург-на-Лабері, Баварія) — німецький політик і депутат Європейського парламенту від партії Християнсько-соціальний союз (Європейська народна партія), працює в Комітеті Європарламенту з громадянських свобод, юстиції та внутрішніх справ.",
    "timestamp": "2018-02-24T11:43:55Z"
  },
  {
    "id": 1713521,
    "title": "Романівська сільська рада (Романівський район)",
    "text": "Романівська сільська рада — орган місцевого самоврядування у Романівському районі Житомирської області з адміністративним центром у с. Романівка.",
    "timestamp": "2014-12-17T02:37:32Z"
  },
  {
    "id": 1713523,
    "title": "Садківська сільська рада (Романівський район)",
    "text": "Садківська сільська рада — орган місцевого самоврядування у Романівському районі Житомирської області з адміністративним центром у с. Садки.",
    "timestamp": "2014-12-17T02:39:27Z"
  },
  {
    "id": 1713530,
    "title": "Димитр Драгієв Колєв",
    "text": "Димитр Драгієв Колєв, Template:lang-bg (* Template:ДН, с. Радна-махле (Раднево) - † Template:ДС, Стара Загора) — болгарський політичний діяч Болгарського землеробського народного союзу (БЗНС), лідер її поміркованого крила на початку ХХ століття, прихильник ідеї толстистів про ненасилля у житті.",
    "timestamp": "2017-03-08T07:44:38Z"
  },
  {
    "id": 1713531,
    "title": "Хосе Феррер",
    "text": "Хосе Феррер (Template:lang-es, або José Vicente Ferrer de Otero y Cintrón; 8 січня 1912, округ Сан-Хуан, Пуерто-Рико — 26 січня 1992, Корал-Гейблз, США) — американський актор з Пуерто-Рико, режисер.",
    "timestamp": "2018-10-21T21:12:48Z"
  },
  {
    "id": 1713532,
    "title": "Гордана Янкулоська",
    "text": "Гордана Янкулоська (Template:lang-mk; Template:н Template:Дата народження, Охрид, Соціалістична Республіка Македонія, СФРЮ) — македонський державний діяч, міністр внутрішніх справ Республіки Македонія з 2006 року.",
    "timestamp": "2018-05-23T07:38:16Z"
  },
  {
    "id": 1713533,
    "title": "Хадаба",
    "text": "Хадаба (Template:lang-ar плоскогір'я) — житловий район у місті Шарм-еш-Шейх, Єгипет, практично сама крайня на південному заході міста (в бік Каїру) забудова, розташована на узвишші, трохи вище Старого міста, і виходить скельним берегом з кораловими пляжами на бухту Шарм-еш-Майя і на бухту Рас-Ум-Сід (Ras Um Sid).",
    "timestamp": "2016-02-09T18:12:15Z"
  },
  {
    "id": 1713538,
    "title": "Стево Пендаровскі",
    "text": "Стево Пендаровскі (Template:lang-mk; Template:н Template:Дата народження, Скоп'є) — македонський політик. Був кандидатом на президентських виборах 2014 від Соціал-демократичного союзу Македонії (зайняв друге місце).",
    "timestamp": "2018-02-11T07:37:56Z"
  },
  {
    "id": 1713540,
    "title": "Мокре (фільм)",
    "text": "«Мокре» — кінофільм режисера Боба Рейфелсона, що вийшов на екрани в 1995 році.",
    "timestamp": "2016-05-12T15:01:55Z"
  },
  {
    "id": 1713543,
    "title": "Чемпіонат Німеччини з хокею 1974—1975",
    "text": "Чемпіонат Німеччини з хокею 1975 — 58-ий чемпіонат Німеччини з хокею, чемпіоном став Дюссельдорф ЕГ.",
    "timestamp": "2016-07-03T10:03:46Z"
  },
  {
    "id": 1713554,
    "title": "Пара (водоспад)",
    "text": "Пара (Template:lang-esМісцева назва Kuyuwishodü.) — водоспад на річці Каура в Південній Америці, у штаті Болівар (Венесуела).",
    "timestamp": "2018-08-09T23:43:45Z"
  },
  {
    "id": 1713556,
    "title": "Чому ми не займаємося цим на дорозі?",
    "text": "«Чому ми не займаємося цим на дорозі?» — кінофільм режисера Ейн Мур, що вийшов на екрани в 2001 році.",
    "timestamp": "2016-05-13T14:07:26Z"
  },
  {
    "id": 1713565,
    "title": "Транс (фільм, 2002)",
    "text": "Транс (Template:lang-en) — американський трилер 2002 року.",
    "timestamp": "2017-07-11T10:30:31Z"
  },
  {
    "id": 1713569,
    "title": "Везикульозний рикетсіоз",
    "text": "Везикульо́зний рикетсіо́з (син.: рикетсійна віспа, віспоподібний рикетсіоз, гамазовий рикетсіоз, плямиста гарячка К'ю-Гарденс, Template:lang-en) — гостра інфекційна зоонозна хвороба, яку спричинює Rickettsia akari, характеризується гарячкою, помірною загальною інтоксикацією, доброякісним перебігом, наявністю первинного афекту та характерного висипу з переважання везикул.",
    "timestamp": "2018-10-08T21:54:26Z"
  },
  {
    "id": 1713577,
    "title": "Порт (фільм, 1998)",
    "text": "Порт (Template:lang-en) — американський бойовик 1998 року.",
    "timestamp": "2017-07-11T10:27:49Z"
  },
  {
    "id": 1713588,
    "title": "Чемпіонат Німеччини з хокею 1975—1976",
    "text": "Чемпіонат Німеччини з хокею 1976 — 59-ий чемпіонат Німеччини з хокею, чемпіоном став СК Берлін.",
    "timestamp": "2016-07-03T10:03:58Z"
  },
  {
    "id": 1713592,
    "title": "Острів фараонів",
    "text": "Фараонів острів (Template:lang-ar острів Фараонів) — невеликий скелястий острів в затоці Акаба.",
    "timestamp": "2017-12-22T11:57:26Z"
  },
  {
    "id": 1713595,
    "title": "Ерік Дурм",
    "text": "Ерік Дурм (Template:lang-de, Template:н 12 травня 1992, Пірмазенс) — німецький футболіст, захисник дортмундської «Боруссії» та національної збірної Німеччини.",
    "timestamp": "2017-06-01T16:18:49Z"
  },
  {
    "id": 1713597,
    "title": "Крістоф Крамер",
    "text": "Крістоф Крамер (Template:lang-de, Template:н 19 лютого 1991, Золінген) — німецький футболіст, півзахисник клубу «Боруссія» (Менхенгладбах).",
    "timestamp": "2018-07-04T23:54:50Z"
  },
  {
    "id": 1713599,
    "title": "Енсо Перес",
    "text": "Енсо Перес (Template:lang-es, Template:н 22 лютого 1986, Мендоса) — аргентинський футболіст, півзахисник «Рівер Плейта» та національної збірної Аргентини. Футболіст року в Португалії (2014).",
    "timestamp": "2018-06-16T23:18:23Z"
  },
  {
    "id": 1713601,
    "title": "Бахтіяр Рахмані",
    "text": "Бахтіяр Рахмані (Template:lang-fa, Template:н 23 вересня 1991, Сарполь-е Захаб) — іранський футболіст, півзахисник клубу «Фулад» та національної збірної Ірану.",
    "timestamp": "2014-06-09T15:32:41Z"
  },
  {
    "id": 1713603,
    "title": "Хоссейн Магіні",
    "text": "Хоссейн Магіні (Template:lang-fa, Template:н 16 вересня 1986, Бушер) — іранський футболіст, захисник клубу «Персеполіс» та національної збірної Ірану.",
    "timestamp": "2017-05-18T17:30:26Z"
  },
  {
    "id": 1713605,
    "title": "Рахман Ахмаді",
    "text": "Рахман Ахмаді (Template:lang-fa, Template:н 30 липня 1980, Ноушехр) — іранський футболіст, воротар клубу «Сепахан» та національної збірної Ірану.",
    "timestamp": "2014-06-09T15:28:08Z"
  },
  {
    "id": 1713607,
    "title": "Гашем Бейкзаде",
    "text": "Гашем Бейкзаде (Template:lang-fa, Template:н 22 січня 1984, Шираз) — іранський футболіст, лівий захисник клубу «Естеглал» та національної збірної Ірану.",
    "timestamp": "2017-05-17T15:57:06Z"
  },
  {
    "id": 1713611,
    "title": "Іжорський батальйон",
    "text": "«Іжорський батальйон» (Template:lang-ru) — російський радянський чорно-білий художній фільм, поставлений на Кіностудії «Ленфільм» в 1972 році режисером Геннадієм Казанським. Героїчна кіноповість.",
    "timestamp": "2018-01-16T08:19:01Z"
  },
  {
    "id": 1713613,
    "title": "Хесус Фернандес Колладо",
    "text": "Хесус Фернандес Колладо (Template:lang-es, Template:н 11 червня 1988, Мадрид) — іспанський футболіст, воротар клубу «Реал Мадрид».",
    "timestamp": "2016-05-13T13:57:49Z"
  },
  {
    "id": 1713620,
    "title": "Хакуна матата",
    "text": "Акуна матата (суахілі: Hakuna matata) — в буквальному перекладі означає «без турбот». Вираз став найбільш відомим після однойменної пісні з мультфільму «Король лев» (1994), яка була номінована на «Оскар» в категорії «Найкраща пісня». Музика — Елтон Джон, слова — Тім Райс. Вона зайняла 99-у позицію в рейтингу 100 найкращих пісень в історії кінематографа, складеному Американським інститутом кіномистецтва (Template:lang-en)AFI's 100 Years… 100 Songs // The American Film Institute Template:ref-en.",
    "timestamp": "2017-05-20T16:36:38Z"
  },
  {
    "id": 1713625,
    "title": "Piaggio P.180",
    "text": "Piaggio Р.180 Avanti — адміністративний літак з турбогвинтовими двигунами і тяговими гвинтами. Літак базується на концепції \"трьох площин\"Flugeigenschaften von Drei-Flächen-Flugzeugen. Avanti досягає відносно високих швидкостей, як для гвинтових літаків, водночас з меншою витратою палива (в порівнянні з реактивними літаками аналогічного розміру), що пояснюється оптимізованою аеродинамікою, а також більш економними турбогвинтовими двигунами.",
    "timestamp": "2017-11-17T13:11:54Z"
  },
  {
    "id": 1713635,
    "title": "Пабло Ернандес",
    "text": "Пабло Ернандес Домінгес (Template:lang-es, Template:н 11 квітня 1985, Кастельйон-де-ла-Плана) — іспанський футболіст, півзахисник клубу «Свонсі Сіті» та національної збірної Іспанії.",
    "timestamp": "2018-01-31T10:24:04Z"
  },
  {
    "id": 1713636,
    "title": "Біні (значення)",
    "text": "Біні — багатозначний термін.",
    "timestamp": "2014-06-04T19:54:19Z"
  },
  {
    "id": 1713638,
    "title": "Арочукву",
    "text": "Арочукву (Template:lang-en), іноді Арочуку (Template:lang-en) або Аро-Окігбо (Template:lang-en) — третє за величиною місто нігерійського штату Абія (після Аби та Умуахії).",
    "timestamp": "2017-12-11T21:04:04Z"
  },
  {
    "id": 1713640,
    "title": "Біні",
    "text": "Біні (самоназва — біні, jбінна, едо), народ на півдні Нігерії. Біні живуть на правобережжі нижньої течії річки Нігер (переважно — в штаті Едо). Чисельність — близько 1,3 млн осіб.",
    "timestamp": "2017-02-19T23:27:23Z"
  },
  {
    "id": 1713647,
    "title": "Людольф Кеніг фон Ватзау",
    "text": "Людольф Кеніг фон Ватзау (Template:lang-de) — 20-й великий магістр Тевтонського ордена з 1342 по 1345 рік.",
    "timestamp": "2018-09-17T21:45:17Z"
  },
  {
    "id": 1713648,
    "title": "Ізуіквато",
    "text": "Ізуіквато (Template:lang-en) — одна із 17 територій місцевого управління штату Абія, Нігерія.",
    "timestamp": "2017-12-11T21:05:42Z"
  },
  {
    "id": 1713651,
    "title": "Євреї Ігбо",
    "text": "Євреї Ігбо — невелика частина нігерійського етносу ігбо, що претендує на єврейське коріння та сповідує юдаїзм.",
    "timestamp": "2016-05-27T15:53:29Z"
  },
  {
    "id": 1713656,
    "title": "Аба (річка, Нігерія)",
    "text": "Аба — річка у південній Нігерії, притока Імо. Протікає через місто Аба.",
    "timestamp": "2016-02-13T16:01:43Z"
  },
  {
    "id": 1713657,
    "title": "І ось прийшов Бумбо...",
    "text": "«І ось прийшов Бумбо...» (Template:lang-ru) — російський радянський повнометражний кольоровий широкоформатний художній фільм-казка, поставлений на Кіностудії «Ленфільм» в 1984 році режисером Надією Кошеверової за мотивами оповідання Олександра Купріна \"Слон\" і його ранніх оповідань.",
    "timestamp": "2018-01-16T08:17:15Z"
  },
  {
    "id": 1713660,
    "title": "Міжнародний аеропорт імені Муртали Мухаммеда",
    "text": "Міжнародний аеропорт імені Муртали Мухаммеда — головний міжнародний аеропорт Нігерії, один з найбільших аеропортів в Африці. Міжнародний код ІАТА: LOS; код ІКАО: DNMM. офіційно відкритий 15 березня 1979.",
    "timestamp": "2017-03-31T22:04:40Z"
  },
  {
    "id": 1713661,
    "title": "Лойзе Петерле",
    "text": "Алоїз (Лойзе) Петерле (Template:lang-sl; Template:н Template:Дата народження, дер. Чужня Вас, Мокроног-Требельно, Нижня Крайна, СР Словенія, СФРЮ) — словенський політик, перший прем'єр-міністр незалежної Словенії (обіймав посаду в 1990–1992 роках), міністр закордонних справ в 1993–1994 і 2000 роках. Депутат Європейського парламенту з 2004 року від партії Нова Словенія, віце-голова міжпарламентської комісії ЄС — Росія.",
    "timestamp": "2018-05-25T20:03:10Z"
  },
  {
    "id": 1713673,
    "title": "Бабиновичі (Ліозненський район)",
    "text": "Бабиновичі (Template:lang-be, Template:lang-ru) — агромістечко у Ліозненському районі Вітебської області Білорусі.",
    "timestamp": "2018-04-25T09:42:48Z"
  },
  {
    "id": 1713680,
    "title": "Зимова вишня (фільм)",
    "text": "«Зимова вишня» (Template:lang-ru) — російський радянський художній фільм 1985 р. режисера Ігоря Масленникова.",
    "timestamp": "2018-01-16T08:12:03Z"
  },
  {
    "id": 1713689,
    "title": "Роберто Дзанетті",
    "text": "Роберто Дзанетті (Template:lang-it; Template:н Template:Дата народження, Масса, Тоскана) — італійський співак, композитор і автор текстів. Як музикант більш відомий під псевдонімом Саваж (Savage), як продюсер — Robyx. Характерний представник італо-диско 1980-х років.",
    "timestamp": "2018-06-03T13:36:34Z"
  },
  {
    "id": 1713702,
    "title": "Panzerballett",
    "text": "Panzerballett - німецький гурт, що виконує музику, що поєднує в собі елементи великого числа стилів, у тому числі джазу, метала і прогресивного року. Їх музику найчастіше називають джаз-металом. Для їх творчості характерні важкі «металеві» рифи, складні ритмічні структури, джазові партії саксофона та інших інструментів, а також своєрідні інтерпретації відомих хітів і мелодій.",
    "timestamp": "2016-05-12T10:52:23Z"
  },
  {
    "id": 1713706,
    "title": "Василенко Ніна Костянтинівна",
    "text": "Ніна Костянтинівна Василенко  (* 6 грудня 1906 — † 26 квітня 1999) — український аніматор, режисер і сценарист. Працювала в жанрі мальованої анімації, разом з Іполитом Лазарчуком та Іриною Гурвич стояла біля витоків української анімації на «Київнаукфільмі».",
    "timestamp": "2017-01-11T10:27:24Z"
  },
  {
    "id": 1713712,
    "title": "Соболівська сільська рада (Романівський район)",
    "text": "Соболівська сільська рада — орган місцевого самоврядування у Романівському районі Житомирської області з адміністративним центром у с. Соболівка.",
    "timestamp": "2014-12-17T02:45:20Z"
  },
  {
    "id": 1713714,
    "title": "Хижинецька сільська рада",
    "text": "Хижинецька сільська рада — орган місцевого самоврядування у Романівському районі Житомирської області з адміністративним центром у с. Хижинці.",
    "timestamp": "2014-12-17T21:24:52Z"
  },
  {
    "id": 1713715,
    "title": "Червонохатківська сільська рада",
    "text": "Червонохатківська сільська рада — орган місцевого самоврядування у Романівському районі Житомирської області з адміністративним центром у с. Червоні Хатки.",
    "timestamp": "2014-12-17T21:28:44Z"
  },
  {
    "id": 1713716,
    "title": "Український гуманітарний огляд",
    "text": "Український гуманітарний огляд - український піврічний журнал-альманах присвячений професійним реценціям та обговоренню гуманітарних наукових публікацій дотичних до України. Виходить з 1999 року у видавництві Критика. Головним редактором є Наталя Яковенко.",
    "timestamp": "2016-02-03T15:42:59Z"
  },
  {
    "id": 1713717,
    "title": "Ягодинська сільська рада (Романівський район)",
    "text": "Ягодинська сільська рада — орган місцевого самоврядування у Романівському районі Житомирської області з адміністративним центром у с. Ягодинка.",
    "timestamp": "2016-04-12T19:37:05Z"
  },
  {
    "id": 1713718,
    "title": "Ясногородська сільська рада (Романівський район)",
    "text": "Ясногородська сільська рада — орган місцевого самоврядування у Романівському районі Житомирської області з адміністративним центром у с. Ясногород.",
    "timestamp": "2014-12-17T21:37:00Z"
  },
  {
    "id": 1713720,
    "title": "Ружинська селищна рада",
    "text": "Ру́жинська се́лищна ра́да — адміністративно-територіальна одиниця та орган місцевого самоврядування в Ружинському районі Житомирської області. Адміністративний центр — селище міського типу Ружин.",
    "timestamp": "2016-11-10T11:01:53Z"
  },
  {
    "id": 1713736,
    "title": "Зорянська сільська рада (Ружинський район)",
    "text": "Зорянська сільська рада — орган місцевого самоврядування у Ружинському районі Житомирської області з адміністративним центром у с. Зоряне.",
    "timestamp": "2014-12-17T01:36:48Z"
  },
  {
    "id": 1713754,
    "title": "Пулинська селищна рада",
    "text": "Пулинська се́лищна ра́да — адміністративно-територіальна одиниця та орган місцевого самоврядування в Пулинському районі Житомирської області. Адміністративний центр — селище міського типу Пулини.",
    "timestamp": "2017-05-18T15:21:38Z"
  },
  {
    "id": 1713776,
    "title": "Головинська селищна рада",
    "text": "Головинська се́лищна ра́да — адміністративно-територіальна одиниця та орган місцевого самоврядування в Черняхівському районі Житомирської області. Адміністративний центр — селище міського типу Головине.",
    "timestamp": "2015-10-19T13:41:34Z"
  },
  {
    "id": 1713777,
    "title": "Черняхівська селищна рада",
    "text": "Черняхівська се́лищна ра́да — адміністративно-територіальна одиниця та орган місцевого самоврядування в Черняхівському районі Житомирської області. Адміністративний центр — селище міського типу Черняхів.",
    "timestamp": "2015-10-19T13:44:45Z"
  },
  {
    "id": 1713784,
    "title": "Горбулівська сільська рада",
    "text": "Горбулівська сільська́ ра́да — адміністративно-територіальна одиниця та орган місцевого самоврядування в Черняхівському районі Житомирської області. Адміністративний центр — село Горбулів.",
    "timestamp": "2015-08-24T20:50:53Z"
  },
  {
    "id": 1713806,
    "title": "Стюарт Страйкер",
    "text": "Стюарт Страйкер (Template:lang-en; Template:н30 жовтня 1924, Портленд, Орегон — Template:† 30 березня 1945, поблизу Везель, Рейнська провінція) — американський військовослужбовець, рядовий першого класу армії США, учасник Другої світової війни, кавалер Медалі Пошани (посмертно).",
    "timestamp": "2017-03-01T10:02:48Z"
  },
  {
    "id": 1713807,
    "title": "Ремберт Додунс",
    "text": "Ремберт Додунс (Template:lang-nlAllgemeine deutsche Biographie & Neue deutsche Biographie (Digitale Register): Rembert DodoensDNB, Katalog der Deutschen Nationalbibliothek: Rembert DodoensRembert Dodoens (Rembertus Dodonaeus): Cruijdeboeck uit 1554Rembert Dodoens (1517–1585)Digitalisierte Works of Rembert DodoensRembert Dodoens: iets over zijn leven en werkInternational Plant Names Index: Rembert Dodoens (1518–1585)Rembert Dodoens, или Template:lang-laRembertus DodonaeusWorldexplorer: Rembertus Dodonaeus, 29 червня 1517 — 10 березня 1585) — знаменитий нідерландський (фламандський) ботанік, найбільший європейський ботанік свого часуБСЭ: Бельгия, лікар, професор медицини, доктор медичних наук, а також географTemplate:ВТ-ЭСБЕTemplate:Перевірено та астроном.",
    "timestamp": "2016-12-07T14:17:10Z"
  },
  {
    "id": 1713822,
    "title": "Море Змії",
    "text": "Море Змії (Template:lang-la) — маленьке море на Місяці, в східній частині видимого боку, біля північно-східного краю Моря Криз. Його назву запропонував німецький астроном Template:Нп, а 1935 року затвердив Міжнародний астрономічний союз.",
    "timestamp": "2018-01-21T21:44:49Z"
  },
  {
    "id": 1713826,
    "title": "Чуднівська міська рада",
    "text": "Чу́днівська міська́ ра́да — адміністративно-територіальна одиниця та орган місцевого самоврядування в Чуднівському районі Житомирської області. Адміністративний центр — місто Чуднів.",
    "timestamp": "2018-04-22T05:20:46Z"
  },
  {
    "id": 1713827,
    "title": "Вакуленчуківська селищна рада",
    "text": "Вакуленчуківська се́лищна ра́да — адміністративно-територіальна одиниця та орган місцевого самоврядування в Чуднівському районі Житомирської області. Адміністративний центр — селище міського типу Вакуленчук.",
    "timestamp": "2015-10-19T13:47:27Z"
  },
  {
    "id": 1713828,
    "title": "Великокоровинецька селищна рада",
    "text": "Великокоровине́цька се́лищна ра́да — адміністративно-територіальна одиниця та орган місцевого самоврядування в Чуднівському районі Житомирської області. Адміністративний центр — селище міського типу Великі Коровинці.",
    "timestamp": "2015-10-19T13:50:04Z"
  },
  {
    "id": 1713829,
    "title": "Іванопільська селищна рада",
    "text": "Іванопільська се́лищна ра́да — адміністративно-територіальна одиниця та орган місцевого самоврядування в Чуднівському районі Житомирської області. Адміністративний центр — селище міського типу Іванопіль.",
    "timestamp": "2015-10-19T13:52:23Z"
  },
  {
    "id": 1713873,
    "title": "Жан-Батист Моньє",
    "text": "Жан-Батист Моньє (Template:lang-fr; Template:н22 грудня 1990, Бриньйоль, Вар) — французький співак та актор, який зіграв у фільмі «Хористи», «Клятий мобільник» та ін.",
    "timestamp": "2018-02-20T17:06:41Z"
  },
  {
    "id": 1713877,
    "title": "Джеймс Донн",
    "text": "Джеймс Донн (Template:lang-enDNB, Katalog der Deutschen Nationalbibliothek: James Donn, 1758 — 14 червня 1813) — британський ботанік.",
    "timestamp": "2017-02-12T04:11:34Z"
  },
  {
    "id": 1713878,
    "title": "Гейлі Джоел Осмент",
    "text": "Гейлі Джоел Осмент (Template:lang-en; *10 квітня 1988, Лос-Анджелес, США) — американський актор. Старший брат актриси та співачки Емілі Осмент.",
    "timestamp": "2018-01-25T17:06:01Z"
  },
  {
    "id": 1713882,
    "title": "Міжнародна конвенція з охорони людського життя на морі",
    "text": "Міжнаро́дна конве́нція з охоро́ни людсько́го життя́ на мо́рі (СОЛАС, від Template:lang-en) суть якої полягає у її документах, що послідовно виходили і є, мабуть, найважливішою з усіх міжнародних угод з безпеки торгових суден. Кожне судно, що здійснює міжнародний рейс і яке підпадає під дію цього нормативного документа (див. Правила 3 і 4 Розділу I), повинно виконувати її вимоги (якщо Вимоги не можуть бути виконані з об'єктивних причин, то на судно повинно бути оформлене Вилучення за згодою морської адміністрації прапора судна). В іншому випадку воно може бути затримане, а за деякими позиціями і не допущене в порт. Чинна версія документа відома як «СОЛАС-74».",
    "timestamp": "2018-07-27T20:51:13Z"
  },
  {
    "id": 1713886,
    "title": "Джон Доннелл Сміт",
    "text": "Джон Доннелл Сміт (Template:lang-en; 1829–1928) — американський ботанік-систематик, капітан кавалерії армії конфедератів.",
    "timestamp": "2016-10-11T18:10:01Z"
  },
  {
    "id": 1713889,
    "title": "Battlefleet Gothic",
    "text": "Battlefleet Gothic (BFG) — настільна гра з мініатюрами, заснована на вигаданому компанією Games Workshop всесвіті Warhammer 40,000.",
    "timestamp": "2018-03-29T07:07:10Z"
  },
  {
    "id": 1713892,
    "title": "Бібліотека № 36 для дітей (Львів)",
    "text": "Бібліотека-філія № 36 для дітей — інформаційний, культурний, освітній заклад  ЦБС м. Львова.",
    "timestamp": "2018-06-10T10:51:55Z"
  },
  {
    "id": 1713893,
    "title": "Бібліотека № 26 для дітей (Львів)",
    "text": "Бібліотека-філія № 26 для дітей — інформаційний, культурний, освітній заклад  ЦБС м. Львова.",
    "timestamp": "2017-12-21T13:35:06Z"
  },
  {
    "id": 1713899,
    "title": "Бібліотека № 42 для дітей (Львів)",
    "text": "Бібліотека-філія № 42 для дітей — інформаційний, культурний, освітній заклад  ЦБС м. Львова.",
    "timestamp": "2017-12-21T13:36:13Z"
  },
  {
    "id": 1713903,
    "title": "Романій Андрій Станіславович",
    "text": "Андрій Станіславович Романі́й (6 грудня 1970, Дніпропетровськ) — український актор і режисер, заслужений артист України, до 2014 року провідний актор Донецького академічного українського музично-драматичного театру.",
    "timestamp": "2018-01-14T09:06:50Z"
  },
  {
    "id": 1713904,
    "title": "Бібліотека № 35 для дітей (Львів)",
    "text": "Бібліотека № 35 для дітей у м. Львів.",
    "timestamp": "2018-10-13T12:20:04Z"
  },
  {
    "id": 1713907,
    "title": "Абубакар Шекау",
    "text": "Абубакар Шекау, псевдонім \"Darul Tawheed \" («Оселя монотеїзму»), (*Нігер  —) — нігерійський терорист. Після смерті в 2009 році Мохамеда Юсуфа — керівник (емір) Боко харам.",
    "timestamp": "2016-11-14T06:29:52Z"
  },
  {
    "id": 1713914,
    "title": "Матч усіх зірок НБА",
    "text": "Матч усіх зірок Національної баскетбольної асоціації — щорічна гра, в якій беруть участь найсильніші гравці ліги. Перший матч відбувся 12 березня 1951 року в Бостоні, в сезоні 1950–1951 років. Матч всіх зірок — апофеоз зіркового вікенду, який перш за все є чудовим шоу, де спортивна складова відходять на другий план. Матчі проводилися 61 раз. Збірна зірок Східної конференції лідирує з показником 36 : 25.",
    "timestamp": "2016-06-23T12:20:44Z"
  },
  {
    "id": 1713916,
    "title": "Антитерористична операція на сході України",
    "text": "Антитерористична операція на сході України (АТО) — комплекс військових та спеціальних організаційно-правових заходів українських силових структур, спрямований на протидію діяльності незаконних російських та проросійських збройних формувань у війні на сході України. Операція тривала з 14 квітня 2014 року до 30 квітня 2018. Після АТО на сході України була введена Операція об'єднаних сил (ООС).",
    "timestamp": "2018-08-30T11:44:13Z"
  },
  {
    "id": 1713920,
    "title": "Симон Ґотфрід Алберт Дооренбос",
    "text": "Симон Ґотфрід Алберт Дооренбос (7 жовтня 1891–1980) — голландський ботанік та садівник, відомий своєю діяльністю на посаді директора Департаменту парків Гааги з 1927 до його виходу на пенсію в 1957 році, з короткою перервою протягом Другої світової війни, коли він був звільнений і виселений нацистами за відмову вирубати дерева і чагарники, щоб полегшити будівництво стартового комплексу Фау-1.",
    "timestamp": "2016-10-11T18:09:40Z"
  },
  {
    "id": 1713922,
    "title": "Простір колізій",
    "text": "Простір колізій (Template:lang-en) - область мережі, в якій пакети можуть стикатись один з одним при пересиланні через спільний носій, створюючи колізії. Якщо в просторі колізій знаходиться більш ніж один передавач, для вирішення колізій доводиться використовувати метод CSMA/CD чи подібний.",
    "timestamp": "2015-03-29T18:26:57Z"
  },
  {
    "id": 1713926,
    "title": "Батівська селищна рада",
    "text": "Ба́тівська се́лищна ра́да — адміністративно-територіальна одиниця та орган місцевого самоврядування в Берегівському районі Закарпатської області. Адміністративний центр — селище міського типу Батьово.",
    "timestamp": "2018-08-03T11:47:51Z"
  },
  {
    "id": 1713934,
    "title": "Бродерік Кроуфорд",
    "text": "Вільям Бродерік Кроуфорд (Template:lang-en, 9 грудня 1911, Філадельфія — 26 квітня 1986, Ранчо-Міраж) — американський актор театру, кіно, радіо та телебачення.",
    "timestamp": "2018-03-12T14:23:55Z"
  },
  {
    "id": 1713944,
    "title": "Владімір Коколя",
    "text": "Владімір Коколя (1956) — чеський художник та графік.",
    "timestamp": "2017-03-11T19:55:00Z"
  },
  {
    "id": 1713952,
    "title": "Конституційна економіка",
    "text": "Конституці́йна еконо́міка — науковий напрям, що вивчає принципи оптимального поєднання економічної доцільності з досягнутим рівнем конституційного розвитку, який відображений в нормах конституційного права, що регламентують економічну і політичну діяльність в державі.",
    "timestamp": "2018-10-03T15:06:01Z"
  },
  {
    "id": 1713960,
    "title": "Ян Гербурт (белзький каштелян)",
    "text": "Ян Гербурт (Template:пом 1570) — польський шляхтич, військовик та урядник Королівства Польського. Представник роду Гербуртів.",
    "timestamp": "2017-12-24T12:45:32Z"
  },
  {
    "id": 1713961,
    "title": "90 мм гармата M.75/96",
    "text": "90 мм гармата M.75/96 належала до польової артилерії Збройних сил Австро-Угорщини періоду 1-ї світової війни. Була модернізацією гармати М.75 зразка 1898 року.",
    "timestamp": "2017-10-05T15:11:09Z"
  },
  {
    "id": 1713965,
    "title": "Національний реєстр рекордів України",
    "text": "Національний реєстр рекордів України (Template:lang-en) — створений 10 жовтня 1989 року.",
    "timestamp": "2018-08-28T10:56:18Z"
  },
  {
    "id": 1713967,
    "title": "Зимовий ранок (фільм)",
    "text": "«Зимовий ранок» (Template:lang-ru) — російський радянський художній фільм режисера Миколи Лебедєва знятий в 1967 році за мотивами повісті Тамари Цінберг «Сьома симфонія».",
    "timestamp": "2018-01-16T08:12:51Z"
  },
  {
    "id": 1713973,
    "title": "Белі Дунав (станція метро)",
    "text": "Бели Дунав (Template:lang-uk) — станція Другої лінії Софійського метрополітену.  Введена в експлуатацію 31 серпня 2012.",
    "timestamp": "2018-03-08T16:31:49Z"
  },
  {
    "id": 1713978,
    "title": "80 мм польова гармата M. 17",
    "text": "80 мм польова гармата M. 17 (Template:lang-de) належала до польової і гірської  артилерії Збройних сил Австро-Угорщини періоду 1-ї світової війни. Після завершення війни використовувалась арміями Австрії, Чехословаччини, Югославії. У Вермахті носила позначення 7.65 cm FK 17(ö) or (t) та 7.65 cm FK 303(j) і використовувалась в час Другої світової війни.",
    "timestamp": "2018-06-10T12:00:01Z"
  },
  {
    "id": 1713980,
    "title": "Клан Хаттан",
    "text": "Символ клану – брусниця.",
    "timestamp": "2018-07-17T12:06:01Z"
  },
  {
    "id": 1713986,
    "title": "Астейська сільська рада",
    "text": "Астейська сільська рада — орган місцевого самоврядування у Берегівському районі Закарпатської області з адміністративним центром у с. Астей.",
    "timestamp": "2014-12-17T00:52:56Z"
  },
  {
    "id": 1713996,
    "title": "Миколай Гербурт (галицький каштелян)",
    "text": "Миколай Гербурт (? — між 5 і 13 квітня 1593) — польський шляхтич, урядник Королівства Польського, Речі Посполитої.",
    "timestamp": "2017-12-22T12:05:19Z"
  },
  {
    "id": 1714005,
    "title": "Одеське археологічне товариство",
    "text": "Одеське археологічне товариство — наукове товариство, засноване в Одесі в травні 1959 року як спадкоємець Одеського товариства історії та старожитностей, діяльність якого була припинена 1922 році. Базою Одеського археологічного товариства є Одеський археологічний музей НАН України (Одеса, вул. Ланжеронівська, 4).",
    "timestamp": "2018-02-28T17:58:06Z"
  },
  {
    "id": 1714010,
    "title": "Надєжда (станція метро)",
    "text": "Надєжда (Template:lang-uk) — станція другої лінії Софійського метрополітену, введено в експлуатацію 31 серпня 2012. Розташована під рогом бул. „Ломско шосе“ та вул. „Кирил Дрангов“ у кварталі Надежда - 1,2.",
    "timestamp": "2015-03-02T16:06:11Z"
  },
  {
    "id": 1714014,
    "title": "Академія архітектури Франції",
    "text": "Академія архітектури Франції — вища наукова установа, яка об'єднувала видатних майстрів архітектури. Відіграє одночасно роль науково-творчого центру й вищої художньої школи. Одна з п'яти академій у складі Інституту Франції. Існує з 1816 року; створена з об'єднаних в 1803 році Академії живопису і скульптури, Академії музики та Академії архітектури, що виникли ще в XVII столітті.",
    "timestamp": "2018-06-24T09:18:27Z"
  },
  {
    "id": 1714017,
    "title": "Тахта",
    "text": "Тахта́Template:СУМ-11 — широкий диван без спинки, іноді з двома підлокітниками. Часто покривається килимом або матерією. Тахта поширена в азіатських країнах, в Україні зустрічається рідше.",
    "timestamp": "2018-02-01T13:47:45Z"
  },
  {
    "id": 1714018,
    "title": "Гусовський Сергій Михайлович",
    "text": "Сергій Михайлович Гусовський (Template:н Template:Дата народження, м. Київ) —  депутат Київради, голова депутатської групи \"Київська Команда\" в Київській міській раді, підприємець-ресторатор, член Наглядової Ради Києво-Могилянської АкадеміїTemplate:Cite web. Кандидат на посаду міського голови Києва на місцевих виборах 2015 року.",
    "timestamp": "2018-10-23T14:08:12Z"
  },
  {
    "id": 1714020,
    "title": "Девід Дуглас",
    "text": "Девід Дуглас (Template:lang-enDNB, Katalog der Deutschen Nationalbibliothek: David DouglasDavid DouglasDavid DouglasDavid DouglasCurtis's Botanical Magazine, 25 червня 1799 — 12 липня 1834) — шотландський біолог та ботанік.",
    "timestamp": "2017-08-02T21:05:07Z"
  },
  {
    "id": 1714021,
    "title": "Шезлонг",
    "text": "Шезлонг (Template:lang-fr — довгий стілець) — легке крісло для відпочинку напівлежачи, трансформоване на час використання.",
    "timestamp": "2017-05-31T20:50:40Z"
  },
  {
    "id": 1714023,
    "title": "Украерорух",
    "text": "«Украерору́х» — державне підприємство обслуговування повітряного руху України. Засноване 24 грудня 1992 року. Є головним постачальником аеронавігаційних послуг в Україні. Його діяльність регулює Міністерство інфраструктури України.",
    "timestamp": "2017-12-01T11:52:46Z"
  },
  {
    "id": 1714043,
    "title": "Зелені ланцюжки",
    "text": "«Зелені ланцюжки» (Template:lang-ru) — російський радянський художній фільм; його поставив на Ленінградської ордена Леніна кіностудії «Ленфільм» в 1970 році режисер Григорій Аронов за повістями Германа Матвеєва «Зелені ланцюжки» та «Таємна сутичка».",
    "timestamp": "2018-01-16T08:11:16Z"
  },
  {
    "id": 1714048,
    "title": "Державна служба України з лікарських засобів",
    "text": "Державна служба України з лікарських засобів (Держлікслужба України) — до 10 вересня 2014 — центральний орган виконавчої влади, діяльність якого спрямовується і координується Кабінетом Міністрів України через Міністра охорони здоров'я України.",
    "timestamp": "2018-09-24T20:23:55Z"
  },
  {
    "id": 1714049,
    "title": "Державна санітарно-епідеміологічна служба України",
    "text": "Державна санітарно-епідеміологічна служба України (Держсанепідслужба України) — центральний орган виконавчої влади, діяльність якого спрямовується і координується Кабінетом Міністрів України через Міністра охорони здоров'я України.",
    "timestamp": "2018-08-26T16:55:12Z"
  },
  {
    "id": 1714054,
    "title": "Сахновський Іван Гнатович",
    "text": "САХНОВСЬКИЙ [Васютинський] Іван Гнатович. Старший син сотника Гната Васильовича Сахнов-ського. Народився 1677 р. На службі Війська Запорозького з 1718 р. Сотник Менської сотні (1723–1739). Чернігівський полковий обозний з 30 січня 1739 р. (1739–1741; 4. ІІІ. 1748–1768). Учасник російсько-турецької війни 1735–1739 рр. Наказний чернігівський полковник (1739) у Кримському поході 1739 р. Одружився з донькою Михайла Забіли (генерального судді) Євдокією-старшою (по матері онука І. Ф. Новицького, компанійського полковника). Мав з нею семеро синів та доньку, шлюбами яких поріднився з Войцеховичами, Сангурськими, Вітковичами, Товстолісами, Бобирями. Свояк (по С. М. Забілі) А. Я. Безбородька, котрий продав йому посаду обозного. Один з найбільших землевласників Чернігівщини. Помер наприкінці 1768 року в Мені.",
    "timestamp": "2016-09-23T10:33:25Z"
  },
  {
    "id": 1714057,
    "title": "Денні Трехо",
    "text": "Денні Трехо (Template:lang-en; Template:н 16 травня 1944, Лос-Анджелес) — американський актор, здебільшого відомий виконанням ролей антагоністів.",
    "timestamp": "2018-03-23T16:24:15Z"
  },
  {
    "id": 1714063,
    "title": "Малюк Нельсон (фільм, 1996)",
    "text": "Малюк Нельсон (Template:lang-en) — американський фільм 1996 року.",
    "timestamp": "2017-07-11T10:24:21Z"
  },
  {
    "id": 1714064,
    "title": "Море Піни",
    "text": "Море Піни (Template:lang-lat) — маленьке море на Місяці, в східній частині видимого боку. Максимальний розмір — близько 150 кмВиміряно за картою., координати центра — Template:Coord.",
    "timestamp": "2016-12-11T20:35:33Z"
  },
  {
    "id": 1714065,
    "title": "Давід Бем",
    "text": "Давід Бем (Template:lang-cs; 25 лютого 1982) — чеський ілюстратор.",
    "timestamp": "2017-02-21T08:02:36Z"
  },
  {
    "id": 1714066,
    "title": "Сахновський Павло Якимович",
    "text": "Павло́ Яки́мович Сахно́вський (Template:н. 1745 — Template:Пом 16 січня 1806, Березна (нині смт Менського району Чернігівської області) — український військовий діяч XVIII століття.",
    "timestamp": "2018-09-08T15:05:58Z"
  },
  {
    "id": 1714071,
    "title": "Код убивці",
    "text": "Код вбивці (Template:lang-en) — американський трилер 2011 року.",
    "timestamp": "2016-05-16T14:49:09Z"
  },
  {
    "id": 1714073,
    "title": "Остапюк",
    "text": "Остапю́к — українське прізвище.",
    "timestamp": "2017-05-14T16:59:51Z"
  },
  {
    "id": 1714078,
    "title": "Водопровід на город (мультфільм)",
    "text": "«Водопровід на город» — анімаційний фільм Творчого об'єднання художньої мультиплікації студії Київнаукфільм.",
    "timestamp": "2018-07-09T17:05:33Z"
  },
  {
    "id": 1714079,
    "title": "Балістика (фільм)",
    "text": "Балістика (Template:lang-en) — американський бойовик 2009 року.",
    "timestamp": "2017-07-11T10:17:58Z"
  },
  {
    "id": 1714083,
    "title": "Сокото (річка)",
    "text": "Сокото (Template:lang-en) — річка в Західній Африці, ліва притока річки Нігер.",
    "timestamp": "2018-04-20T04:07:58Z"
  },
  {
    "id": 1714086,
    "title": "Сахновський Павло Петрович",
    "text": "САХНОВСЬКИЙ Павло Петрович. Народився 1724 р. Син П. Г. Сахновського та А. Ф. Лисенко. На службі у Війську Запорозькому з 1739 р. Учасник Хотинського походу (1739). Військовий канцелярист (1740–1753). 27 липня 1753 р. іменним указом Єлизавети Петрівни призначений сотником Менської сотні (1753–1772). Був усиновлений рідним дядьком Ф. Ф. Лисенком. Тому з 1763 р. називав себе Сахновський-Лисенко. 11 січня 1772 р. вийшов з уряду у відставку в чині бунчукового товариша (1772–1782). Першим шлюбом був одружений (1764) з донькою сосницького протопопа Федора Полторацького Євдокією (1735 р. н.). Помер після 1787 р.",
    "timestamp": "2014-06-07T12:11:07Z"
  },
  {
    "id": 1714091,
    "title": "Picturesque Matchstickable Messages from the Status Quo",
    "text": "Picturesque Matchstickable Messages from the Status Quo — дебютний студійний альбом англійської групи Status Quo, який був випущений 27 вересня 1968 року.",
    "timestamp": "2016-12-13T14:54:14Z"
  },
  {
    "id": 1714095,
    "title": "Spare Parts",
    "text": "Spare Parts — другий студійний альбом англійської групи Status Quo, який був випущений у вересні 1969 року.",
    "timestamp": "2017-05-20T07:04:12Z"
  },
  {
    "id": 1714097,
    "title": "Сахновський Яким Якимович",
    "text": "САХНОВСЬКИЙ Яким Якимович — Син Я. І. Сахновського та Г. П. Сангурської. Народився між 1761і 1765 рр. На службу до Війська Запорозького по-ступив 27 лютого 1777 р. Полковий чернігівський канцелярист (1777–1781). Значковий товариш з 8 вересня 1781 р. На уряді сотника Менської сотні (1781–1782). З 28 червня 1783 р. — поручик Чернігівського карабінерного полку. Сотник (1787). Одружився з донькою прем'єр-майора (1798) Олексія Кодинця Анастасією.",
    "timestamp": "2014-06-07T12:11:55Z"
  },
  {
    "id": 1714100,
    "title": "Ma Kelly's Greasy Spoon",
    "text": "Ma Kelly's Greasy Spoon — третій студійний альбом англійської групи Status Quo, який був випущений у серпні 1970 року.",
    "timestamp": "2016-12-18T18:17:21Z"
  },
  {
    "id": 1714102,
    "title": "Dog of Two Head",
    "text": "Dog of Two Head — четвертий студійний альбом англійської групи Status Quo, який був випущений у листопаді 1971 року.",
    "timestamp": "2016-12-18T21:16:20Z"
  },
  {
    "id": 1714103,
    "title": "Станіслав Владислав Потоцький",
    "text": "Станіслав Владислав Потоцький (Template:lang-pl; Template:† Template:ДС, Львів) — польський військовий і політичний діяч Речі Посполитої.",
    "timestamp": "2018-02-18T14:15:16Z"
  },
  {
    "id": 1714106,
    "title": "Piledriver",
    "text": "Piledriver — п'ятий студійний альбом британського рок-гурту Status Quo, який був випущений 15 грудня 1972 року.",
    "timestamp": "2016-12-19T08:57:38Z"
  },
  {
    "id": 1714108,
    "title": "Сахновський Яким Іванович",
    "text": "САХНОВСЬКИЙ Яким Іванович — Син І. Г. Васютинського та Є. М. Забіли. Народився 1705 р. Освіту здобув у Києво-Могилянській академії. На службі у Війську Запорозькому з 1737 р. Військовий канцелярист (1737—1739). Брав участь у Очаківському, Дністровському та Турецькому походах. 6 січня 1739 р. призначений сотником Менської сотні на місце батька (1739—1743). Брав участь у встановленні демаркаційної лінії російсько-турецького кордону в команді І. І. Неплюєва (1740). Сотник на вакансії (1743—1748). Сотник Березнянської сотні Чернігівського полку (1748—1769). Чернігівський полковий обозний (14 січня 1769). 16 жовтня 1769 р. вийшов у відставку в чині бунчукового товариша. Був одружений з донькою чернігівського полкового обозного Павла Сангурського Ганною. Помер у Березні 22 серпня 1781 р. у віці 76 років.",
    "timestamp": "2018-02-11T14:15:53Z"
  },
  {
    "id": 1714109,
    "title": "Зелена карета",
    "text": "«Зелена карета» (Template:lang-ru) — російський радянський повнометражний кольоровий художній фільм, поставлений на кіностудії «Ленфільм» в 1967 році режисером Яном Фрідом.",
    "timestamp": "2018-01-16T08:10:31Z"
  },
  {
    "id": 1714118,
    "title": "Таємниця чорного короля",
    "text": "Таємниця чорного короля  — анімаційний фільм Творчого об'єднання художньої мультиплікації студії Київнаукфільм. Мультфільм — режисерський дебют Давида Черкаського. Мультфільм було знято на замовлення як фільм-плакат з техніки пожежної безпеки.",
    "timestamp": "2018-10-08T04:59:51Z"
  },
  {
    "id": 1714119,
    "title": "Аварійне оповіщення",
    "text": "Система оповіщення про небезпеку (Template:lang-en) - система завчасного повідомлення про несприятливі події, такі як стихійні лиха, щоб бути в змозі запобігти або зменшити збитки, наприклад, при евакуації людей та їх майна. Прикладом може бути системи попередження про цунамі.",
    "timestamp": "2018-09-07T09:27:45Z"
  },
  {
    "id": 1714120,
    "title": "Нун (річка)",
    "text": "Нун (Template:lang-en) — річка, є найдовшим рукавом Нігера і тому вважається головним продовженням Нігера, на відміну від інших рукавів: Форкадос, Брасса, Бонні та Сомбреріо.",
    "timestamp": "2018-06-19T21:10:05Z"
  },
  {
    "id": 1714121,
    "title": "Лешно (Медика)",
    "text": "Лешно (до 1977, та між 4-12.1981 — Поздяч) — село у Польщі, Підкарпатське воєводство, перемишльський повіт, гміна Медика, відноситься до історичного регіону Надсяння, до операції Вісла мало український етнічний склад, зараз майже цілком спольщене.",
    "timestamp": "2017-09-14T20:21:57Z"
  },
  {
    "id": 1714128,
    "title": "Юргенс Наталя Микитівна",
    "text": "Юргенс Наталя Микитівна (14 лютого, 1932, Ленінград — 31 травня, 2014газета «Ильичёвец», 3 июня 2014 г., Маріуполь) — радянська і українська театральна актриса. Народна артистка Української РСР з 1976 р .",
    "timestamp": "2018-03-11T15:13:50Z"
  },
  {
    "id": 1714131,
    "title": "Нун (значення)",
    "text": "Нун — багатозначний термін.",
    "timestamp": "2014-06-05T14:52:19Z"
  }
]