[
  {
    "id": 626708,
    "title": "Тезак (Приморська Шаранта)",
    "text": "Теза́к (Template:lang-fr) — муніципалітет у Франції, у регіоні Нова Аквітанія, департамент Приморська Шаранта. Населення — 316 осіб (2011)Template:cite webTemplate:ref-fr.",
    "timestamp": "2017-05-16T02:14:24Z"
  },
  {
    "id": 626716,
    "title": "Тор (Приморська Шаранта)",
    "text": "Тор (Template:lang-fr) — муніципалітет у Франції, у регіоні Нова Аквітанія, департамент Приморська Шаранта. Населення — 436 осіб (2011)Template:cite webTemplate:ref-fr.",
    "timestamp": "2017-05-16T02:47:14Z"
  },
  {
    "id": 626718,
    "title": "Тонне-Бутонн",
    "text": "Тонне́-Буто́нн (Template:lang-fr) — муніципалітет у Франції, у регіоні Нова Аквітанія, департамент Приморська Шаранта. Населення — 1,157 осіб (2011)Template:cite webTemplate:ref-fr.",
    "timestamp": "2017-05-16T02:46:21Z"
  },
  {
    "id": 626720,
    "title": "Тонне-Шарант",
    "text": "Тонне́-Шара́нт (Template:lang-fr) — муніципалітет у Франції, у регіоні Нова Аквітанія, департамент Приморська Шаранта. Населення — 7,739 осіб (2011)Template:cite webTemplate:ref-fr.",
    "timestamp": "2017-05-16T02:46:26Z"
  },
  {
    "id": 626722,
    "title": "Торксе",
    "text": "Торксе́ (Template:lang-fr) — муніципалітет у Франції, у регіоні Нова Аквітанія, департамент Приморська Шаранта. Населення — 242 осіб (2011)Template:cite webTemplate:ref-fr.",
    "timestamp": "2017-05-16T02:51:16Z"
  },
  {
    "id": 626724,
    "title": "Тризе",
    "text": "Тризе́, Трізе (Template:lang-fr) — муніципалітет у Франції, у регіоні Нова Аквітанія, департамент Приморська Шаранта. Населення — 1,371 осіб (2011)Template:cite webTemplate:ref-fr.",
    "timestamp": "2017-05-16T05:14:52Z"
  },
  {
    "id": 626734,
    "title": "Тюжера-Сен-Морис",
    "text": "Тюжера́-Сен-Мори́с, Тюжера-Сен-Моріс (Template:lang-fr) — муніципалітет у Франції, у регіоні Нова Аквітанія, департамент Приморська Шаранта. Населення — 362 осіб (2011)Template:cite webTemplate:ref-fr.",
    "timestamp": "2017-05-16T05:43:43Z"
  },
  {
    "id": 626736,
    "title": "Вандре",
    "text": "Вандре́ (Template:lang-fr) — муніципалітет у Франції, у регіоні Нова Аквітанія, департамент Приморська Шаранта. Населення — 796 осіб (2011)Template:cite webTemplate:ref-fr.",
    "timestamp": "2017-05-13T17:49:34Z"
  },
  {
    "id": 626738,
    "title": "Ванзак",
    "text": "Ванза́к (Template:lang-fr) — муніципалітет у Франції, у регіоні Нова Аквітанія, департамент Приморська Шаранта. Населення — 175 осіб (2011)Template:cite webTemplate:ref-fr.",
    "timestamp": "2017-05-13T17:50:40Z"
  },
  {
    "id": 626739,
    "title": "Варез (Приморська Шаранта)",
    "text": "Варе́з (Template:lang-fr) — муніципалітет у Франції, у регіоні Нова Аквітанія, департамент Приморська Шаранта. Населення — 564 осіб (2011)Template:cite webTemplate:ref-fr.",
    "timestamp": "2017-05-13T17:56:59Z"
  },
  {
    "id": 626740,
    "title": "Варзе",
    "text": "Варзе́ (Template:lang-fr) — муніципалітет у Франції, у регіоні Нова Аквітанія, департамент Приморська Шаранта. Населення — 804 осіб (2011)Template:cite webTemplate:ref-fr.",
    "timestamp": "2017-05-13T18:00:31Z"
  },
  {
    "id": 626748,
    "title": "Во-сюр-Мер",
    "text": "Во-сюр-Мер (Template:lang-fr) — муніципалітет у Франції, у регіоні Нова Аквітанія, департамент Приморська Шаранта. Населення — 3,879 осіб (2011)Template:cite webTemplate:ref-fr.",
    "timestamp": "2017-05-13T20:37:59Z"
  },
  {
    "id": 626750,
    "title": "Венеран",
    "text": "Венера́н (Template:lang-fr) — муніципалітет у Франції, у регіоні Нова Аквітанія, департамент Приморська Шаранта. Населення — 720 осіб (2011)Template:cite webTemplate:ref-fr.",
    "timestamp": "2017-05-13T18:24:31Z"
  },
  {
    "id": 626751,
    "title": "Вержеру",
    "text": "Вержеру́ (Template:lang-fr) — муніципалітет у Франції, у регіоні Нова Аквітанія, департамент Приморська Шаранта. Населення — 1,032 осіб (2011)Template:cite webTemplate:ref-fr.",
    "timestamp": "2017-05-13T18:37:50Z"
  },
  {
    "id": 626752,
    "title": "Верньє",
    "text": "Верньє́ (Template:lang-fr) — муніципалітет у Франції, у регіоні Нова Аквітанія, департамент Приморська Шаранта. Населення — 134 осіб (2011)Template:cite webTemplate:ref-fr.",
    "timestamp": "2017-05-13T18:47:16Z"
  },
  {
    "id": 626753,
    "title": "Верін (Франція)",
    "text": "Вери́н, Верін (Template:lang-fr) — муніципалітет у Франції, у регіоні Нова Аквітанія, департамент Приморська Шаранта. Населення — 2,114 осіб (2011)Template:cite webTemplate:ref-fr.",
    "timestamp": "2018-01-27T08:26:34Z"
  },
  {
    "id": 626754,
    "title": "Кайзерслаутерн (футбольний клуб)",
    "text": "Футбольний клуб Кайзерслаутерн (Template:lang-de) — німецький професіональний футбольний клуб із Кайзерслаутерна, Рейнланд-Пфальц.",
    "timestamp": "2018-05-30T10:25:10Z"
  },
  {
    "id": 626756,
    "title": "Верін",
    "text": "Верін — власна назва.",
    "timestamp": "2018-01-27T08:34:20Z"
  },
  {
    "id": 626763,
    "title": "Верван (Приморська Шаранта)",
    "text": "Верва́н (Template:lang-fr) — муніципалітет у Франції, у регіоні Нова Аквітанія, департамент Приморська Шаранта. Населення — 220 осіб (2011)Template:cite webTemplate:ref-fr.",
    "timestamp": "2017-05-13T18:33:21Z"
  },
  {
    "id": 626764,
    "title": "Вібрак (Приморська Шаранта)",
    "text": "Вібра́к (Template:lang-fr) — муніципалітет у Франції, у регіоні Нова Аквітанія, департамент Приморська Шаранта. Населення — 153 осіб (2011)Template:cite webTemplate:ref-fr.",
    "timestamp": "2017-05-13T18:59:56Z"
  },
  {
    "id": 626765,
    "title": "Віллар-ан-Пон",
    "text": "Вілла́р-ан-Пон (Template:lang-fr) — муніципалітет у Франції, у регіоні Нова Аквітанія, департамент Приморська Шаранта. Населення — 564 осіб (2011)Template:cite webTemplate:ref-fr.",
    "timestamp": "2017-05-13T19:21:54Z"
  },
  {
    "id": 626767,
    "title": "Віллар-ле-Буа",
    "text": "Вілла́р-ле-Буа́ (Template:lang-fr) — муніципалітет у Франції, у регіоні Нова Аквітанія, департамент Приморська Шаранта. Населення — 262 осіб (2011)Template:cite webTemplate:ref-fr.",
    "timestamp": "2017-05-13T19:22:41Z"
  },
  {
    "id": 626768,
    "title": "Вільду",
    "text": "Вільду́ (Template:lang-fr) — муніципалітет у Франції, у регіоні Нова Аквітанія, департамент Приморська Шаранта. Населення — 1,659 осіб (2011)Template:cite webTemplate:ref-fr.",
    "timestamp": "2017-05-13T19:51:02Z"
  },
  {
    "id": 626776,
    "title": "Вільморен",
    "text": "Вільморе́н (Template:lang-fr) — муніципалітет у Франції, у регіоні Нова Аквітанія, департамент Приморська Шаранта. Населення — 97 осіб (2011)Template:cite webTemplate:ref-fr.",
    "timestamp": "2017-05-13T19:59:55Z"
  },
  {
    "id": 626777,
    "title": "Вільнев-ла-Контесс",
    "text": "Вільне́в-ла-Конте́сс (Template:lang-fr) — муніципалітет у Франції, у регіоні Нова Аквітанія, департамент Приморська Шаранта. Населення — 752 осіб (2011)Template:cite webTemplate:ref-fr.",
    "timestamp": "2017-05-13T20:03:42Z"
  },
  {
    "id": 626778,
    "title": "Ахцк",
    "text": "Ахцк (Template:lang-hy) — село в марзі Арагацотн, на заході Вірменії. Село розташоване за 9 км на північний захід від міста Аштарака, на Арзні-Шамірамському каналі. У безпосередній близькості від автомобільної дороги Артік — Агарак. Сусідніми селами є Агарак, Бюракан і Уджан. У селі розташований монастир Тегер XIII століття.",
    "timestamp": "2018-09-06T20:18:19Z"
  },
  {
    "id": 626779,
    "title": "Вільксав'є",
    "text": "Вільксав'є́ (Template:lang-fr) — муніципалітет у Франції, у регіоні Нова Аквітанія, департамент Приморська Шаранта. Населення — 268 осіб (2011)Template:cite webTemplate:ref-fr.",
    "timestamp": "2017-05-13T19:57:16Z"
  },
  {
    "id": 626780,
    "title": "Вільє-Кутюр",
    "text": "Вільє́-Кутю́р (Template:lang-fr) — муніципалітет у Франції, у регіоні Нова Аквітанія, департамент Приморська Шаранта. Населення — 141 осіб (2011)Template:cite webTemplate:ref-fr.",
    "timestamp": "2017-05-13T19:53:02Z"
  },
  {
    "id": 626781,
    "title": "Віна (Франція)",
    "text": "Віна́ (Template:lang-fr) — муніципалітет у Франції, у регіоні Нова Аквітанія, департамент Приморська Шаранта. Населення — 65 осіб (2011)Template:cite webTemplate:ref-fr.",
    "timestamp": "2017-05-13T20:16:51Z"
  },
  {
    "id": 626789,
    "title": "Віролле",
    "text": "Віролле́ (Template:lang-fr) — муніципалітет у Франції, у регіоні Нова Аквітанія, департамент Приморська Шаранта. Населення — 263 осіб (2011)Template:cite webTemplate:ref-fr.",
    "timestamp": "2017-05-13T20:25:50Z"
  },
  {
    "id": 626790,
    "title": "Вірсон",
    "text": "Вірсо́н (Template:lang-fr) — муніципалітет у Франції, у регіоні Нова Аквітанія, департамент Приморська Шаранта. Населення — 756 осіб (2011)Template:cite webTemplate:ref-fr.",
    "timestamp": "2017-05-13T20:26:13Z"
  },
  {
    "id": 626792,
    "title": "Вуассе",
    "text": "Вуассе́ (Template:lang-fr) — муніципалітет у Франції, у регіоні Нова Аквітанія, департамент Приморська Шаранта. Населення — 174 осіб (2011)Template:cite webTemplate:ref-fr.",
    "timestamp": "2017-05-13T20:58:21Z"
  },
  {
    "id": 626793,
    "title": "Вуе (Приморська Шаранта)",
    "text": "Вуе́ (Template:lang-fr) — муніципалітет у Франції, у регіоні Нова Аквітанія, департамент Приморська Шаранта. Населення — 652 осіб (2011)Template:cite webTemplate:ref-fr.",
    "timestamp": "2017-05-13T20:59:08Z"
  },
  {
    "id": 626794,
    "title": "Ів (Приморська Шаранта)",
    "text": "Ів (Template:lang-fr) — муніципалітет у Франції, у регіоні Нова Аквітанія, департамент Приморська Шаранта. Населення — 1,387 осіб (2011)Template:cite webTemplate:ref-fr.",
    "timestamp": "2017-05-14T02:58:46Z"
  },
  {
    "id": 626800,
    "title": "Шуменський (мікрорайон)",
    "text": "Мікрорайон Шу́менський — мікрорайон, розташований в західній частині міста Херсона.",
    "timestamp": "2016-05-11T18:43:14Z"
  },
  {
    "id": 626805,
    "title": "Ацашен",
    "text": "Ацаше́н (Template:lang-hy) — село в марзі Арагацотн, на заході Вірменії. Село розташоване за 13 км на північний захід від міста Таліна. За 6 км на південний схід розташоване село Арег, за 5 км на захід розташоване село Сорік, за 5 км на північ розташоване село Цамакасар, а за 10 км на схід розташоване село Мастара.",
    "timestamp": "2018-09-06T20:18:44Z"
  },
  {
    "id": 626813,
    "title": "Корабел (мікрорайон, Херсон)",
    "text": "Корабе́л — мікрорайон Херсона, що входить до складу Корабельного району міста.",
    "timestamp": "2016-03-31T14:43:45Z"
  },
  {
    "id": 626828,
    "title": "Ашнак",
    "text": "Ашна́к (Template:lang-hy) — село в марзі Арагацотн, на заході Вірменії. Село розташоване за 5 км від села Давташен та за 7 км від села Катнахпюр. В селі розташована церква та V століття руїни дзвіниці X століття. Під час вірмено-турецької війни загін Андраніка відзначився у боях за село. У селі народився вірменський державний діяч Шароян Роланд Даніелович.",
    "timestamp": "2018-09-06T20:20:17Z"
  },
  {
    "id": 626829,
    "title": "Базмахпюр",
    "text": "Базмахпюр (Template:lang-hy) — село в марзі Арагацотн, на заході Вірменії. Базмахпюр дослівно перекладається з вірменської, як «безліч джерел». Село розташоване за 7 км на північний захід від Аштарака.",
    "timestamp": "2018-09-06T20:25:37Z"
  },
  {
    "id": 626830,
    "title": "Балашиха",
    "text": "Балаши́ха — місто в Росії, в центрі Московської області, найбільше за чисельністю населення місто Московської області та четверте за величною місто РФ, що не є центром суб’єкту федерації. Засноване у 1830 році, статус міста отримало у 1939 р. Населення міста у 2017 році становило 450 771 мешканців.",
    "timestamp": "2018-08-30T15:01:30Z"
  },
  {
    "id": 626833,
    "title": "Герцогство Крайна",
    "text": "Князі́вство Кра́йна (Template:lang-sl, Template:lang-de) — адміністративна одиниця Священної Римської імперії і Габсбурзької монархії 1364 — 1918. Столиця Любляна. Герцогство мало площу 9990 км ², населення 510,000 осіб.",
    "timestamp": "2018-06-10T13:33:43Z"
  },
  {
    "id": 626837,
    "title": "Ярмолюк",
    "text": "Ярмолю́к — українське прізвище.",
    "timestamp": "2018-02-13T20:52:17Z"
  },
  {
    "id": 626838,
    "title": "Карантинний острів",
    "text": "Каранти́нний острів — острів у пониззі Дніпра, входить до складу земель Херсонської міської ради. Нині на території острова розташований мікрорайон Корабел.",
    "timestamp": "2016-03-31T14:59:10Z"
  },
  {
    "id": 626841,
    "title": "AfterLogic WebMail Lite",
    "text": "AfterLogic WebMail Lite — безплатний POP3/IMAP4 вебмейл з AJAX-інтерфейсом, реалізований для платформ PHP та ASP.NET. Версію для PHP опубліковано згідно з ліцензією AGPLv3, а версію для ASP.NET — як безплатне (freeware) програмне забезпечення.",
    "timestamp": "2016-02-01T19:43:49Z"
  },
  {
    "id": 626843,
    "title": "Автошлях М 16",
    "text": "Автошлях М 16 — автомобільний шлях міжнародного значення на території України, Одеса — Кучурган — пункт контролю Кучурган (кордон із Молдовою). Проходить територією Одеської області. Збігається з частиною європейського маршруту Template:Автошлях E (Відень — Ужгород — Кишинів — Одеса — Ростов-на-Дону).",
    "timestamp": "2018-08-24T16:58:42Z"
  },
  {
    "id": 626844,
    "title": "Шліф",
    "text": "Шліф (від Template:lang-de - точити, шліфувати) — тонка пластинка гірської породи або мінералу, приклеєна на скло. Стандартний петрографічний шліф має товщину близько 0,03 мм, приклеєний на спеціальну рослинну смолу — канадський бальзам і покритий зверху тонким покривним склом. Розмір стандартного шліфу приблизно 20х20 мм. Шліфи виготовляють для вивчення гірських порід і мінералів під петрографічним мікроскопом проти світла, оскільки при такій товщині пластинки більшість мінералів є прозорими. Для дослідження непрозорих (рудних) мінералів у відбитому світлі виготовляють поліровані пластинки довільної товщини — аншліфи.",
    "timestamp": "2016-09-10T13:32:49Z"
  },
  {
    "id": 626846,
    "title": "Драгобрат",
    "text": "Драгобра́т — невелика міжгірна долина і найбільш високогірний гірськолижний курорт Українських Карпат. Розташований у масиві Свидівець. Популярний серед любителів гірських лиж та сноуборду. Долина розташована на висоті 1300—1400 м над рівнем моря, на відстані 18 км від селища Ясіня, на стику хвойних лісів і альпійської зони, біля підніжжя гори Стіг (1704 м). Поряд розташовані вершини Перший Жандарм (1763 м), Другий Жандарм (близько 1800 м) та Близниця (1883 м).",
    "timestamp": "2016-09-16T23:09:44Z"
  },
  {
    "id": 626847,
    "title": "Мрія Кассандри",
    "text": "«Мрія Касандри» (Template:lang-en) — драматичний трилер Вуді Аллена 2007 року про двох братів, які прагнуть хоч трохи поліпшити своє життя. Один із них завзятий гравець, постійно в боргах; інший закоханий у красуню-актрису, з якою нещодавно познайомився. Щоб роздобути грошей, вони, піддавшись на вмовляння свого дядька, вирішують піти на злочин, але все йде не так, як треба, — і брати стають ворогами. Рейтинг PG-13 від MPAA.",
    "timestamp": "2018-01-22T06:41:10Z"
  },
  {
    "id": 626848,
    "title": "Стипе Плетикоса",
    "text": "Сти́пе Плети́коса (Template:lang-hr; 8 січня 1979, Спліт) — хорватський футболіст, воротар, екс-воротар збірної Хорватії.",
    "timestamp": "2017-05-20T16:26:42Z"
  },
  {
    "id": 626851,
    "title": "Ізольована особлива точка",
    "text": "Ізольо́вана особли́ва то́чка — точка, в деякому проколотому околі якої функція f (z) однозначна і аналітична, а в самій точці або не задана, або не голоморфна.",
    "timestamp": "2013-03-22T06:02:08Z"
  },
  {
    "id": 626869,
    "title": "Захаров Андреян Дмитрович",
    "text": "Андрея́н (Адрія́н) Дмитрович Заха́ров (*Template:ДН, Петербург — †Template:ДС, там же) — російський архітектор, представник класицизму.",
    "timestamp": "2018-05-18T03:55:16Z"
  },
  {
    "id": 626871,
    "title": "Аргун (річка)",
    "text": "Аргу́н — річка на Північному Кавказі, права притока Сунжі. Довжина 148 км, площа басейну 3 390 км². Утворюється декількома джерелами із льодовиків Великого Кавказу, нижня течія на рівнині.",
    "timestamp": "2013-03-22T10:28:36Z"
  },
  {
    "id": 626879,
    "title": "Число (мовознавство)",
    "text": "Число — граматична категорія, що вказує на кількість предметів, про які мовиться в реченні. Категорія числа характерна для більшості мов, хоча в деяких числа немає, наприклад у японській. У різних мовах зустрічається також двоїна, троїна, та інші форми числа, в яких, наприклад, протиставляється невелике число предметів великому.",
    "timestamp": "2017-05-03T11:47:05Z"
  },
  {
    "id": 626880,
    "title": "Арувімі",
    "text": "Аруві́мі — річка в Демократичній Республіці Конго, права притока річки Конго. Довжина близько 1 300 км, площа басейну 116,1 тисяч км². Під назвою Ітурі бере початок в Синіх горах, на захід від озера Альберт, протікає по плато, а потім по западині Конго. Багато порогів і водоспадів.",
    "timestamp": "2014-07-15T20:06:17Z"
  },
  {
    "id": 626889,
    "title": "Отеван",
    "text": "Отеван (Template:lang-hy) — село в марзі Арагацотн, на заході Вірменії. За 41 км на південний схід розташоване місто Аштарак, а за 22 км на захід розташоване місто Талін. За 2 км на південь розташоване село Какавадзор, від якого тягнеться асфальтована дорога на південь, до траси Єреван — Гюмрі. За 2 км на південний схід розташоване село Діан, із заходу розташовані села Верін Базмаберд і Мецадзор, але через гірську місцевість, до них із села прямої дороги немає. З північного сходу розташована найвища точка Вірменії — гора Арагац. У селі є руїни церкви XII століття і руїни замку. У марзі Арагацотн мінімальну площу орних земель має громада Отевану (38,46 га, або 0,022%).",
    "timestamp": "2015-10-07T20:42:44Z"
  },
  {
    "id": 626896,
    "title": "Аревут",
    "text": "Аревут (Template:lang-hy) — село в марзі Арагацотн, на заході Вірменії. За 11 км на північний схід розташоване місто Талін, за 4 км на північ розташоване село Татул, а за 4 км на південний схід розташоване село Ддмасар, а з заходу вершина Покр Артені (1753 м).",
    "timestamp": "2018-09-06T20:02:50Z"
  },
  {
    "id": 626902,
    "title": "Драфт НХЛ 1995",
    "text": "Драфт НХЛ 1995 відбувся в Едмонтон-колізеумі в Едмонтоні, Альберта. З цьбого року порядок вибору гравців частково визначався ситмемою лотереї, через яку командам, що посіли останнє місце в турнірній таблиці, не завжди гарантувались перші номери драфту. Клуб «Лос-Анджелес Кінгс» мав вигоду на цьому драфті, обравши третіми, в той час як фінішував в чемпіонаті 7-м на дні турнірної таблиці. Втім «Оттава Сенаторс», що посіла останнє місце в таблиці, не втратила загальний перший вибір через лотерею, обравши Браєна Берарда під першим номером.",
    "timestamp": "2018-06-13T20:36:47Z"
  },
  {
    "id": 626925,
    "title": "Віган Атлетік",
    "text": "Ві́ган Атле́тик (Template:lang-en) — професіональний англійський футбольний клуб з міста Віган. Заснований 1932 року і зараз є наймолодшим клубом у Прем'єр-Лізі.Template:cite web До 1932 року у Вігані, який славетний своїми досягненнями у регбіліг, розпалися п'ять футбольних команд.Template:cite web «Атлетик» потрапив до системи футбольних ліг лише через 46 років свого існування.Template:cite web Клуб виступає у вищій лізі англійського футболу з 2005 року.",
    "timestamp": "2018-09-12T05:28:53Z"
  },
  {
    "id": 626949,
    "title": "Яворський Ігор Петрович",
    "text": "І́гор Петро́вич Яво́рський  (*9 червня 1959, Муроване, нині Пустомитівського району Львівської області) — український футболіст та футбольний тренер. Майстер спорту України (1995).",
    "timestamp": "2018-08-15T11:14:55Z"
  },
  {
    "id": 626958,
    "title": "Закінчення",
    "text": "Закі́нчення (фле́ксія; Template:lang-la, Template:lang-en, Template:lang-pl- Template:lang-ru) — змінна звукова частина змінюваного слова. Відсутність звукового закінчення прийнято називати нульовим закінченням.",
    "timestamp": "2018-03-16T07:27:36Z"
  },
  {
    "id": 626967,
    "title": "Хорда (біологія)",
    "text": "Хо́рда (Template:lang-el — струна́) — несегментована скелетна вісь хордових тварин. Є важливою таксономічною ознакою. У деяких покривників (апендикулярії), безчерепних (ланцетник), риб (хрящові ганоїди та дводишні) хорда зберігається протягом усього життя. В інших покривників та хребетних наявна лише в період ембріонального розвитку. У дорослих хребетних замінюється хребцями. У безчерепних та хребетних хорда розташована на спинній стороні під нервовою трубкою, у личинок покривників — у хвостовому відділі. У ланцетника хорда тягнеться вздовж всього тіла, у хребетних — закінчується позаду гіпофізу.",
    "timestamp": "2017-06-25T10:14:24Z"
  },
  {
    "id": 626974,
    "title": "Акселерація",
    "text": "Акселерація (біологія) — набагато раніше або швидше формування якогось органу в період ембріонального розвитку порівняно з іншими органами або зародком у цілому. Також прискорений фізичний розвиток людини; прискорення росту і статевого дозрівання дітей і підлітків порівняно з їхніми ровесниками попередніх поколінь.",
    "timestamp": "2018-04-26T20:54:47Z"
  },
  {
    "id": 626977,
    "title": "Аягуз (річка)",
    "text": "Аягу́з — річка в Східно-Казахстанській і Алматинській областях Казахстану. Довжина 492 км, площа басейну 15,7 тисяч км². Утворюється злиттям Великого і Малого Аягуза, що стікають з північного схилу хребта Тарбагатай, тече по напівпустельній місцевості, в паводок впадає в озеро Балхаш. Влітку в низинах пересихає, вода стає солоною.",
    "timestamp": "2013-04-09T13:00:36Z"
  },
  {
    "id": 626982,
    "title": "Завітинськ",
    "text": "Завітінськ, Завитинськ (Template:lang-ru) — місто (з 1954) в Амурській області, Російська Федерація. Районний центр.",
    "timestamp": "2018-06-09T15:52:01Z"
  },
  {
    "id": 626984,
    "title": "Шутков Дмитро Анатолійович",
    "text": "Дмитро́ Анато́лійович Шутко́в (*3 квітня 1972, Донецьк) — радянський і український футболіст, колишній воротар донецького «Шахтаря» та збірної України.",
    "timestamp": "2015-01-24T22:50:31Z"
  },
  {
    "id": 627714,
    "title": "Бадяріха",
    "text": "Бадя́ріха (Template:lang-sah) — річка в Росії в Якутії, права притока Індигірки. Довжина 545 км, площа басейну 12,2 тисяч км². Бере початок на північно-східних схилах Момського хребта. Тече по Абийській низовині, огинаючи із заходу Алазейське плоскогір'я.",
    "timestamp": "2018-04-16T11:07:12Z"
  },
  {
    "id": 627721,
    "title": "Беркарат",
    "text": "Беркарат (Template:lang-hy) — село в марзі Арагацотн, на північному заході Вірменії. За 26 км на південний схід розташоване місто Апаран, а за 26 км на північний захід розташоване місто Артік. Зі сходу розташоване село Вардаблур, а з півдня розташовані села Садунц, Гехадзор, Хнаберд і Гехадір. Від північного сходу до півночі в відстані 7-10 км тягнуться три села сусіднього марза Лорі. Із заходу розташована вершина Мец Шараілер (2474 м), а зі сходу розташована вершина Вардаблур (2376 м).",
    "timestamp": "2018-09-06T21:05:18Z"
  },
  {
    "id": 627731,
    "title": "Північний морський шлях",
    "text": "Північний морський шлях (до початку 20-го століття — Північно-Східний прохід) — головна судноплавна магістраль Росії в Арктиці, іноді розглядається як міжнародний морський шлях від Норвегії до Японії. Проходить по морях Північного Льодовитого океану, поєднуючи порти європейських і азійських російських берегів. Довжина від Карських Воріт до бухти Провидіння 5600 км.",
    "timestamp": "2018-03-18T09:43:53Z"
  },
  {
    "id": 627739,
    "title": "Завадський Юрій Романович",
    "text": "Ю́рій Рома́нович Зава́дський (Template:н 18 березня 1981, Тернопіль) — український поет, громадський діяч, видавець, кандидат філологічних наук.",
    "timestamp": "2018-01-16T16:58:11Z"
  },
  {
    "id": 627748,
    "title": "Перший дивізіон Футбольної ліги",
    "text": "Перший дивізіон — найвищий дивізіон англійської Футбольної ліги до утворення Прем'єр-ліги у 1992 році. А також другий за рівнем англійський дивізіон (вищий дивізіон Футбольної ліги) з 1993 по 2004 роки (на заміну йому прийшов Чемпіонат Футбольної ліги).",
    "timestamp": "2018-01-13T19:17:41Z"
  },
  {
    "id": 627753,
    "title": "Мінськ-Арена",
    "text": "«Мі́нськ Аре́на» — (білор. «Мінск-Арэна», повна назва — «Багатопрофільний культурно-спортивний комплекс „Мінськ-Арена“») — спортивно-розважальний комплекс в місті Мінськ, Білорусь. Складається з трьох об'єктів: багатофункціональної спортивно-видовищної арени місткістю 15000 глядачів, ковзанярського стадіону і велодрому.",
    "timestamp": "2017-07-02T16:38:26Z"
  },
  {
    "id": 627778,
    "title": "Нефросклероз",
    "text": "Нефросклероз, також Гіпертонічна нефропатія (Template:lang-en; Template:lang-el (нирка) + склероз) — заміщення паренхіми нирки сполучною тканиною, що призводить до ущільнення, зморщування органу і порушення його функцій.",
    "timestamp": "2016-11-25T05:22:11Z"
  },
  {
    "id": 627790,
    "title": "Бюракан",
    "text": "Бюракан (Template:lang-hy) — село в марзі Арагацотн, на заході Вірменії. Бюракан відомий тим, що тут розташована Бюраканська астрофізична обсерваторія. За 2 км на північ розташоване село Антарут, 2 км на північний захід — село Оргов та за 12 км на північний захід від міста Аштарака.",
    "timestamp": "2018-09-06T22:20:38Z"
  },
  {
    "id": 627791,
    "title": "Гімн Гвінеї-Бісау",
    "text": "Esta é a Nossa Pátria Bem Amada (Template:lang-uk) — державний гімн Гвінеї-Бісау. Офіційно затверджений у 1974 році після проголошення незалежності від Португалії. Слова гімну написав Амілкар Кабрал на основі мелодії китайського композитора Сяо Хе у 1963 році. У період з 1976 по 1995 роки також був гімном Кабо-Верде, поки країна не затвердила свій власний гімн.",
    "timestamp": "2017-03-18T15:20:21Z"
  },
  {
    "id": 627792,
    "title": "Бутун",
    "text": "Буту́н (Template:lang-ru) — невелика річка в Юкаменському районі Удмуртії, Росія, ліва притока Леми.",
    "timestamp": "2012-04-01T13:23:21Z"
  },
  {
    "id": 627797,
    "title": "Солшурка",
    "text": "Солшу́рка (Template:lang-ru) — невелика річка в Юкаменському районі Удмуртії, Росія, ліва притока Лекми.",
    "timestamp": "2014-01-31T13:22:55Z"
  },
  {
    "id": 627799,
    "title": "Тетерів (станція)",
    "text": "Те́терів — проміжна залізнична станція III класу Коростенського напрямку Південно-Західної залізниці. Розташована на території смт Пісківка. Станція розміщується між станціями Піски (відстань — 2 км) та Макалевичі (відстань — 12 км).",
    "timestamp": "2018-08-10T19:18:52Z"
  },
  {
    "id": 627803,
    "title": "Герцог Ричмонд",
    "text": "Ге́рцог Ри́чмонд (Template:lang-en) — англійський герцогский титул, у 1525 році вперше присвоєний позашлюбному сину Генріха VIII і Елізабет Блаунт Генрі Фіцрою. Титул досі існує.",
    "timestamp": "2017-12-27T07:39:51Z"
  },
  {
    "id": 627810,
    "title": "Ягошур (притока Убиті)",
    "text": "Ягошу́р (Template:lang-ru) — струмок в Юкаменському та Глазовському Удмуртії, Росія, ліва притока Убиті.",
    "timestamp": "2013-03-21T22:22:13Z"
  },
  {
    "id": 627813,
    "title": "Таранчашур",
    "text": "Таранчашу́р (Template:lang-ru) — струмок в Юкаменському та Глазовському Удмуртії, Росія, права притока Кузьми.",
    "timestamp": "2012-04-01T12:55:07Z"
  },
  {
    "id": 627822,
    "title": "Футбол (журнал, Україна)",
    "text": "«Футбол» — український футбольний журнал. Виходить у Києві двічі на тиждень, заснований 1996 року (тоді — як додаток до газети «Теленеделя»). Виходить російською мовою. Це одне з провідних футбольних видань України з накладом 99100 примірниківTemplate:fact.",
    "timestamp": "2018-10-10T18:35:03Z"
  },
  {
    "id": 627829,
    "title": "Добротність сукупності вимірів",
    "text": "Приклад обчислення добротності сукупності вимірів наведено в статті \"Сукупність вимірів\".",
    "timestamp": "2017-12-16T22:09:56Z"
  },
  {
    "id": 627832,
    "title": "Кузьма (притока Чепци)",
    "text": "Ку́зьма (Template:lang-ru) — річка в Юкаменському та Глазовському Удмуртії, Росія, ліва притока Чепци.",
    "timestamp": "2013-03-21T19:28:03Z"
  },
  {
    "id": 627835,
    "title": "Уссурійський край",
    "text": "Уссурі́йський край — традиційна назва південної частини Далекого Сходу Росії. Включає південну частину хребта Сіхоте-Алінь, Приханкайську низовину і прилеглі хребти.",
    "timestamp": "2013-11-19T07:43:25Z"
  },
  {
    "id": 627836,
    "title": "Йожево-Кезьйовир",
    "text": "Йожево-Кезьйови́р (Template:lang-ru) — невисока земляна гора (пагорб) в Красногорській височині, що знаходиться на півночі Удмуртії, Росія.",
    "timestamp": "2017-09-24T07:27:49Z"
  },
  {
    "id": 627839,
    "title": "Кезьйовир",
    "text": "Кезьйови́р (Template:lang-ru) — невисока земляна гора (пагорб) в Красногорській височині, що знаходиться на півночі Удмуртії, Росія.",
    "timestamp": "2013-03-24T23:50:07Z"
  },
  {
    "id": 627842,
    "title": "Таранчавир",
    "text": "Таранчави́р (Template:lang-ru) — невисока земляна гора (пагорб) в Красногорській височині, що знаходиться на півночі Удмуртії, Росія.",
    "timestamp": "2013-03-24T23:50:09Z"
  },
  {
    "id": 627843,
    "title": "Четкервир",
    "text": "Четкерви́р (Template:lang-ru) — невисока земляна гора (пагорб) в Красногорській височині, що знаходиться на півночі Удмуртії, Росія.",
    "timestamp": "2013-03-24T23:50:10Z"
  },
  {
    "id": 627854,
    "title": "Віра Фарміґа",
    "text": "Віра Фарміґа (Template:lang-en; Template:н 6 серпня 1973, округ Пассаїк, Нью-Джерсі, США) — американська кіноакторка українського походження. Відома за ролями у фільмах «Відступники», «Біжи не озираючись» та «Вище неба», за роль в останньому її 2010-го року було номіновано на «Оскар» в категорії найкраща жіноча роль другого плану. Сестра акторки Таїсси Фарміґи.",
    "timestamp": "2018-08-31T19:09:49Z"
  },
  {
    "id": 627856,
    "title": "Філістер",
    "text": "Філістер (Template:lang-de — філістимлянин) — людина з обмеженим світоглядом, самозадоволена, яка не цінує знання, науку, не розділяє естетичних або духовних цінностей; неосвічений обиватель, що відрізняється лицемірною, святенницькою поведінкою; людина без духовних потребАртур Шопенгауер: «Афоризми життєвої мудрості».",
    "timestamp": "2017-03-21T21:21:03Z"
  },
  {
    "id": 627857,
    "title": "Улун",
    "text": "Улун (спрощ. кит.: 乌龙; трад. кит.: 烏龍) — традиційний китайський чай, що за ступенем окиснення стоїть між зеленим та чорним чаями. Також відомий під назвою Оолонг (помилкова, але поширена транслітерація англійського варіанта назви — Oolong). Оригінальна назва улуну звучить, як Мін Бей Вулонг Ча (Min Bei Wulong Cha), що означає «Чай Чорного Дракона з Півночі Фуцзяню». В Китаї улун також називають «синьо-зеленим» або «блакитним» чаєм.",
    "timestamp": "2017-12-06T08:14:20Z"
  },
  {
    "id": 627859,
    "title": "Енді Саммерс",
    "text": "Е́нді Са́ммерс (Template:lang-en, 31 грудня 1942, Пултон-Ле-Файлд, Ланкашир) — Британський гітарист і композитор, учасник гурту The Police.",
    "timestamp": "2015-10-02T11:13:29Z"
  },
  {
    "id": 627862,
    "title": "Кіб'явир",
    "text": "Кіб'яви́р (Template:lang-ru) — невисока земляна гора (пагорб) в Красногорській височині, що знаходиться на півночі Удмуртії, Росія.",
    "timestamp": "2014-05-15T17:53:28Z"
  },
  {
    "id": 627867,
    "title": "Суперліга (Туреччина)",
    "text": "Турецька футбольна суперліга (SporToto SuperLig) - найсильніший дивізіон турецького футболу. У змаганні беруть участь 18 клубів. Після кожного сезону клуби, що зайняли три останні місця, перераховуються в ТФФ Першу лігу, а їхні місця займають три найсильніші команди з тієї ж ліги.",
    "timestamp": "2018-09-17T08:13:50Z"
  },
  {
    "id": 627869,
    "title": "Гравець року КХЛ",
    "text": "Гравець року КХЛ — щорічна нагорода, яка вручається найкращому гравцю Канадської хокейної ліги. Володарі обираються серед переможців Трофея Реда Тілсона (MVP ОХЛ), Пам'ятного трофея Мішеля Брієра (MVP QMJHL) і Пам'ятного трофея Фор Бронкос (MVP ЗХЛ).",
    "timestamp": "2016-05-07T13:17:20Z"
  },
  {
    "id": 627873,
    "title": "Поліха Зіновій Семенович",
    "text": "Зіновій Семенович Поліха (2 квітня 1938, с. Поториця, нині Україна — Template:Джерело) — український лікар-стоматолог, статистик футболу. Батько Ігора Поліхи.",
    "timestamp": "2018-09-09T21:36:08Z"
  },
  {
    "id": 627875,
    "title": "Подібність (геометрія)",
    "text": "Подібність — перетворення евклідового простору, при якому для будь-яких двох точок A, B та їх образів A', B' має місце співвідношення |A'B'|=k|AB|, де k — додатне число, яке називають коефіцієнтом подібності.",
    "timestamp": "2016-01-13T19:54:00Z"
  },
  {
    "id": 627878,
    "title": "Метод Волта Діснея",
    "text": "Метод Волта Діснея — методика творчості, яка проводиться у формі рольової гри, в якій учасники розглядають поставлену задачу з трьох точок зору: творчої, реалістичної та критичної. Названа на честь американського мультиплікатора Волта Діснея. Автором методики є Роберт Б. Ділтс. Метод відомий також у нейролінгвістичному програмуванні (НЛП) як стратегічна модель НЛП.",
    "timestamp": "2017-03-21T09:52:57Z"
  },
  {
    "id": 627883,
    "title": "Вулвергемптон Вондерерз",
    "text": "«Вулверге́мптон Во́ндерерз» (Template:lang-en) — професіональний англійський футбольний клуб з міста Вулвергемптон. Клуб засновано у 1877 році учнями школи Сент-Лакс, на честь якої отримав свою першу назву.Template:cite web Далі назву змінювали ще кілька разів, і у 1923 році остаточно встановилася сучасне ім'я. «Вовки» були дуже впливовою командою, відігравши значну роль у становленні Футбольної Ліги та Кубка європейських чемпіонів.",
    "timestamp": "2018-08-12T04:09:18Z"
  },
  {
    "id": 627890,
    "title": "Гімн Тунісу",
    "text": "Захисники́ Вітчи́зни (Template:lang-ar) — державний гімн Тунісу. Офіційно затверджений у листопаді 1987 року. Слова написали Мостафа Садек аль-Рафеі, Абуль-Кассєм Ешеббі. Музику склав Мохаммед Абдельвахаб.",
    "timestamp": "2017-03-18T16:22:48Z"
  },
  {
    "id": 627895,
    "title": "Фаоліт",
    "text": "Фаоліт — це кислотостійкий матеріал на основі волокнистого азбесту або суміші азбесту, графіту чи кварцового піску і фенолформальдегідної смоли. Поверхню фаолітових виробів покривають бакелітовим лаком для підвищення їх кислотостійкості.",
    "timestamp": "2012-11-07T21:08:36Z"
  },
  {
    "id": 627896,
    "title": "Ґеммайтя",
    "text": "Ґеммайтя (Template:lang-ja, Template:МФА2, «рисовий чай») — японський різновид зеленого чаю з додаванням обсмажених зерен неочищеного рису (ґеммай), що мають коричневий колір. Іноді певна кількість зерен рису вибухає, і вони стають схожими на повітряну кукурудзу. За ці зерна ґеммайтя іноді називають «попкорновим чаєм».",
    "timestamp": "2015-12-19T10:19:57Z"
  },
  {
    "id": 627899,
    "title": "Сухарне",
    "text": "Суха́рне (Сухарка) — один з районів Херсона, що утворився у першій половині XIX ст. на західній околиці міста, між р. Кошовою та Забалкою.",
    "timestamp": "2017-09-10T14:59:41Z"
  },
  {
    "id": 627900,
    "title": "Верхня Крайна",
    "text": "Верхня Крайна (Template:lang-sl; Template:lang-de) — колишній округ в історичній коронній землі Габсбургів Крайна 1849 — 1919 роках, наразі є історичною областю Словенії. Центром регіону є КраньTemplate:cite web, в той час як інші міські центри включають Есеніце, Тржич, Шкоф'я-Лока, Камнік і Домжале.",
    "timestamp": "2016-10-12T11:44:18Z"
  },
  {
    "id": 627904,
    "title": "Нижня Крайна",
    "text": "Нижня Крайна (Template:lang-sl; Template:lang-de) — історичний край, габсбурзького кронланду Крайна 1849 — 1919 роках і наразі історична область Словенії. Її центром було Ново Мєсто, інші міські центри: Кочевьє, Гросуплє, Кршко, Требнє, Чрномель, Семіч і Метліка.",
    "timestamp": "2015-01-22T20:53:47Z"
  },
  {
    "id": 627905,
    "title": "Піонер-10",
    "text": "«Піонер-10» (Template:lang-en) — безпілотний космічний апарат NASA, призначений головним чином для вивчення Юпітера. Це був перший апарат, що розігнався до третьої космічної швидкості, пролетів повз Юпітер і сфотографував його. Апарат-близнюк «Піонер-11» досліджував також Сатурн.",
    "timestamp": "2018-07-12T11:34:08Z"
  },
  {
    "id": 627906,
    "title": "Полянський Віктор Павлович",
    "text": "Полянський Віктор Павлович (28 квітня 1937, м. Новгород-Сіверський, нині Чернігівської області — 7 вересня 1994, м. Тернопіль) — український футболіст, футбольний тренер. Відмінник освіти України.",
    "timestamp": "2017-10-05T15:49:52Z"
  },
  {
    "id": 627907,
    "title": "Гімн Камеруну",
    "text": "Chant de Ralliement (Template:lang-uk) — державний гімн Камеруну. Відомий також під назвою O Cameroun berceau de nos ancêtres (Template:lang-uk). Офіційно затверджений у 1957 році. Слова написали Рене Джам Афаме, Самюель Мінкіо Бамба та Мойсе Ньятте Нко'о в 1948 році. Того ж року Рене Джам Афаме написав музику. У 1978 році слова гімну були дещо змінені.",
    "timestamp": "2017-03-18T15:28:48Z"
  },
  {
    "id": 627909,
    "title": "Внутрішня Крайна",
    "text": "Внутрішня Крайна (Template:lang-sl — колишній край, Габсбурзького кронланду Крайна 1849 — 1919 роках, наразі історична область Словенії. Її адміністративним і економічним центром була Постойна, інші менші центри Логатець, Церкниця, Півка і Ілірська-Бистриця.",
    "timestamp": "2018-05-27T13:29:00Z"
  },
  {
    "id": 627915,
    "title": "Оп-арт",
    "text": "Оп-арт (від Template:lang-en) або оп-мистецтво — стиль сучасного мистецтва, який широко використовує оптичні ілюзії. Митці оп-арту досягають створення ілюзій руху або мерехтіння нерухомих об'єктів через зображення періодичних структур і влучне використання кольорів та форм. Зазвичай твори оп-арту носять абстрактний характер.",
    "timestamp": "2018-08-25T18:45:41Z"
  },
  {
    "id": 627917,
    "title": "Прошкін Володимир Панасович",
    "text": "Володимир Панасович Прошкін (20 листопада 1941, м. Горький, СРСР) — російський та український радянський футболіст, хокеїст, футбольний тренер. Майстер спорту СРСР (1968).",
    "timestamp": "2017-10-05T15:43:52Z"
  },
  {
    "id": 627918,
    "title": "Прошкін",
    "text": "Прошкін (Template:lang-ru) — російське прізвище.",
    "timestamp": "2018-01-24T16:24:19Z"
  },
  {
    "id": 627920,
    "title": "Королівство Хорватія і Славонія",
    "text": "Королівство Хорватія і Славонія (Template:lang-hr, Template:lang-hu; Template:lang-de) — сполучене королівство, що входило до складу Австро-Угорської монархії і належало до Транслейтанської частини її; складалося з королівства Хорватії, королівства Славонії і розташованої між цими обома землями так званої колишньої Хорватсько-Славонської Військової Границі. Межувало на півночі і сході з Угорщиною, від якої відокремлювалось річками Дравою і Дунаєм, на південно-сході та сході — з Сербією і Боснією, відокремлюючись від них річкою Савою, на південному заході — з Далмацією, Істрією і Адріатичним морем, на північно — заході — з Крайною та Штирією. Вся країна має площу 42 535,25 км ², з яких на Хорватію припадає 13 525,14 км², на Славонію — 9 435,68 км² і на колишню Військову Границю- 19 574,43 км². Хорватія має поділ на п'ять комітатів, а Славонія — на три.",
    "timestamp": "2018-02-12T20:38:26Z"
  },
  {
    "id": 627921,
    "title": "Жовтий чай",
    "text": "Жовтий чай (Template:lang-zh) — рідкісний ґатунок високоякісного китайського чаю. Жовтий чай загалом схожий на зелений чай, але має деякі відмінності у технології виробництва, а саме — уповільнена стадія сушіння. Цей технологічний прийом надає жовтому чаю особливий аромат, за який він і цінується.Жовтий чай - порівняно маловідомий за межами Китаю тип чаю, однак дуже популярний в самій країні і відомий ще з часів династії Тан (618-907 рр. н.е.). Виробництво цього чаю відрізняється від виробництва зеленого чаю додатковим етапом повільної ферментації, який триває в різних жовтих чаїв від 30 хвилин до тижня. Хуо Шань Хуан Я (жовті бруньки з гори Хуо Шань) - один з найвідоміших жовтих чаїв, який вперше згадується ще в знаменитій книзі Лу Ю \"Ча Цзин\" («Чайний канон»). Для цього чаю збирають найніжніші бруньки (іноді з одним або двома листочками), що вкриті білими ворсинками, та обробляють за складною технологією, яка була втрачена у 40-х роках 20-го століття, однак у 1970-х була відновлена трьома старими чайними майстрами. Отриманий чай має унікальний свіжий аромат з цікавими нотками, що нагадують солодку кукурудзу, зелений горошок та авокадо. Смак чаю свіжий і солодкий, відрізняється від зелених чаїв додатковою пікантністю.",
    "timestamp": "2015-12-19T08:23:57Z"
  },
  {
    "id": 627927,
    "title": "Картвельські мови",
    "text": "Картве́льські мо́ви — мовна сім'я, розповсюджена на Південному Кавказі, здебільшого в Грузії.",
    "timestamp": "2018-03-12T14:20:46Z"
  },
  {
    "id": 627930,
    "title": "Міністерство армії Японії",
    "text": "Міністерство армії Японії (Template:lang-ja, рікуґун-сьо) — центральна урядова установа в Японії, що керувала адміністративними і господарськими справами Імперської армії Японії. Існувала протягом 1872 — 1945 років. Одне з міністерств Великої державної ради (з 1872) і кабінету міністрів Японії (з 1885).",
    "timestamp": "2013-03-26T22:10:22Z"
  },
  {
    "id": 627934,
    "title": "Дофіне",
    "text": "Дофіне́ (Template:lang-fr) — історична область на південному сході Франції; департаменти Ізер, Дром, Верхні Альпи. Площа близько 20 тисяч км². Головне місто — Гренобль.",
    "timestamp": "2017-04-14T18:27:20Z"
  },
  {
    "id": 627937,
    "title": "Прорізна вулиця (Київ, Шевченківський район)",
    "text": "Прорізна́ ву́лиця — вулиця в Шевченківському районі міста Києва, місцевість Старий Київ. Пролягає від Хрещатика до Володимирської вулиці.",
    "timestamp": "2018-04-17T06:32:09Z"
  },
  {
    "id": 627938,
    "title": "Раві",
    "text": "Ра́ві — річка в Індії і Пакистані, ліва притока річки Чинаб (басейн Інду). Довжина 725 км. Бере початок на хребті Пір-Панджал, тече по Пенджабу.",
    "timestamp": "2016-01-06T21:41:32Z"
  },
  {
    "id": 627943,
    "title": "Лісосплав",
    "text": "Лісоспла́в, сплав лісу — транспортування лісоматеріалів водою з використанням ефекту плавучості деревини, яке значно застосовувалося у світі в ХІХ та першій половині ХХ ст., зокрема на річках Карпат (до середини ХХ ст. там існувала професія бокораш — плотогін).",
    "timestamp": "2018-08-21T09:33:06Z"
  },
  {
    "id": 627947,
    "title": "Метрика Фрідмана-Леметра-Робертсона-Вокера",
    "text": "Метрика Фрідмана-Леметра-Робертсона-Вокера — метрика простору-часу, яка описує однорідний ізотропний нескінченний простір і використовується в фізичній космології для опису його еволюції.",
    "timestamp": "2018-09-09T14:28:15Z"
  },
  {
    "id": 627948,
    "title": "Довгошия Петро Іванович",
    "text": "Петро́ Іва́нович Довгоши́я (Template:Н 27 червня 1956, с. Великі Чорнокінці, Україна) — український педагог, журналіст, публіцист, громадський діяч, літературознавець Чоловік Марії Довгошиї. Член НСЖУ (2003).",
    "timestamp": "2018-10-18T19:50:04Z"
  },
  {
    "id": 627951,
    "title": "Арумуни",
    "text": "Арумуни, інколи аромуни, влахи (також цінцари, куцоволоси, куцовлахи, македонські румуни) — романськомовний народ у Греції, Албанії, Республіці Македонія, Сербії, східній Добруджі (Румунія).",
    "timestamp": "2018-05-22T07:34:17Z"
  },
  {
    "id": 627953,
    "title": "Баль Андрій Михайлович",
    "text": "Андрій Михайлович Баль (16 лютого 1958, Розділ, Львівська область — 9 серпня 2014, Київ, Україна) — український футбольний тренер. У минулому — радянський футболіст. Майстер спорту міжнародного класу (1977), Заслужений майстер спорту СРСР (1986). Володар Кубка Кубків УЄФА, чотириразовий чемпіон СРСР. Упродовж сезону 2009/2010 — головний тренер одеського «Чорноморця», а з 6 по 17 жовтня 2012 року тимчасово виконував обов'язки головного тренера збірної України, керуючи командою у двох матчах.",
    "timestamp": "2018-04-23T21:18:05Z"
  },
  {
    "id": 627962,
    "title": "Вулиця Арсенія Тарковського",
    "text": "Вулиця Арсенія Тарковського — вулиця в Кропивницькому. Пролягає від вулиці Леоніда Куценка до річки Інгулу. Вулицю перетинають Студентський бульвар, вулиці Єгорова, Гагаріна, Шевченка, архітектора Паученка, Чміленка, Тараса Карпи, Гоголя, Преображенська, Покровська та Миколи Смоленчука. Названа на честь поета та перекладача Арсенія Тарковського, який народився і навчався у гімназії у будинках на цій вулиці.",
    "timestamp": "2018-01-06T23:51:10Z"
  },
  {
    "id": 627963,
    "title": "Гольдштейн Мойсей Маркович",
    "text": "В. Володарський (справжнє ім'я — Мойсе́й Ма́ркович Гольдште́йн) (Template:ДН, містечко Остропіль, Волинська губернія — Template:ДС, Петроград) — діяч російського революційного руху єврейського походження.",
    "timestamp": "2016-02-22T11:16:11Z"
  },
  {
    "id": 627964,
    "title": "Авторадіо",
    "text": "Авторадіо — одна з найбільших радіостанцій Києва та України. Основою музичного формату є музика 1980-х—1990-х років, а також сучасні хіти вітчизняних та зарубіжних виконавців. Розпочала мовлення 5 квітня 1993 року, в Україні — 23 квітня 2004 року.",
    "timestamp": "2017-12-05T22:12:37Z"
  },
  {
    "id": 627967,
    "title": "Мелінда та Мелінда",
    "text": "«Мелінда та Мелінда» (Template:lang-en) — фільм Вуді Аллена, який вийшов у світ в 2004 році в Іспанії на Сант-Себастіанському кінофестивалі. Події фільму розгортаються в Манхеттені. Головна героїня фільму Мелінда (Рада Мітчел) знаходиться в двох життєвих ситуаціях: одній комічній, іншій драматичній. Рейтинг PG-13 від MPAA.",
    "timestamp": "2017-05-20T15:46:50Z"
  },
  {
    "id": 627977,
    "title": "Пассендале",
    "text": "Пассендале (Template:lang-nl, Template:МФА2) — невеличке селище в Бельгії.",
    "timestamp": "2018-05-04T22:16:43Z"
  },
  {
    "id": 627979,
    "title": "Міст Ріо-Антіріо",
    "text": "Міст Ріо-Антіріо (Template:lang-el), офіційна назва Міст «Харілаос Трикупіс» — найбільший вантовий міст в Європі, що поєднав західний Пелопоннес через Коринфську затоку із західною частиною Центральної Греції, а саме міста Ріо та Антіріо.",
    "timestamp": "2017-08-03T21:48:40Z"
  },
  {
    "id": 627985,
    "title": "Довгошия Марія Михайлівна",
    "text": "Марі́я Миха́йлівна Довгоши́я (з дому — Фафруник, Template:Нар 3 грудня 1961, с. Великі Чорнокінці, Україна) — українська журналістка, письменниця, громадська діячка. Дружина Петра Довгошиї. Член НСЖУ (1986).",
    "timestamp": "2018-09-03T07:40:10Z"
  },
  {
    "id": 627990,
    "title": "Фонетична розкладка",
    "text": "Фонети́чна розкла́дка — узгоджена заміна в розкладці клавіатури літер однієї мови літерам іншої. Узгодження відбувається за фонетичної відповідністю : «літера»-«літера».",
    "timestamp": "2017-01-28T11:02:27Z"
  },
  {
    "id": 627997,
    "title": "Егнатія-Одос",
    "text": "Егнатія-Одос (Template:lang-el), або Автобан 2 — одна з основних автомагістралей Греції, частина європейської траси E90 довжиною 670 км і шириною 24,5 м. Нині деякі ділянки автомагістралі перебувають на стадії будівництва.",
    "timestamp": "2018-02-23T19:14:54Z"
  },
  {
    "id": 627998,
    "title": "Автошлях М 18",
    "text": "Автошлях М 18 (Харків — Сімферополь — Алушта — Ялта) — автомобільний шлях міжнародного значення на території України. Проходить територією Харківської, Дніпропетровської, Запорізької, Херсонської областей та АРК. Збігається з частиною європейського маршруту Template:Автошлях E (Кіркенес — Санкт-Петербург — Москва — Харків — Ялта).",
    "timestamp": "2018-08-29T07:19:00Z"
  },
  {
    "id": 628005,
    "title": "Іпуть",
    "text": "І́путь — річка в Білорусі і Росії, ліва притока Сожа (басейн Дніпра). Протікає Могильвською, Смоленською, Брянською і Гомельською областями. Довжина 437 км, площа басейну 10,9 тисяч км².",
    "timestamp": "2017-08-26T22:07:22Z"
  },
  {
    "id": 628053,
    "title": "Шкловський Йосип Самуїлович",
    "text": "Шкловський Йосип Самуїлович (Template:ДН, Глухів, Глухівський повіт, Чернігівська губерніяГенеральная карта Черниговской губерніи Съ показаніемъ почтовыхъ и большихъ проъзжихъ дорогъ, станціи и разстоянія между оными верстъ — Ст. Петербургъ, 1829 Російська імперія (нині — Україна) — 3 березня 1985, Москва, РРФСР, СРСР) — видатний український радянський астрофізик єврейського походження, член-кореспондент АН СРСР.",
    "timestamp": "2016-06-25T17:53:00Z"
  },
  {
    "id": 628062,
    "title": "Радіоастрономія",
    "text": "Радіоастрономія — розділ астрономії, що вивчає космічні об'єкти шляхом дослідження їх електромагнітного випромінювання в діапазоні радіохвиль. Радіоастрономія виникла в 30-х роках 20-го століття разом з появою перших радіотелескопів.",
    "timestamp": "2015-01-15T16:19:36Z"
  },
  {
    "id": 628073,
    "title": "Вінницький соціально-економічний інститут",
    "text": "Вінницький соціально-економічний інститут — підрозділ Відкритого міжнародного університету розвитку людини «Україна» у місті Вінниця.",
    "timestamp": "2018-02-27T10:40:51Z"
  },
  {
    "id": 628081,
    "title": "PATHE",
    "text": "PATHE (Template:lang-el, акронім від Патри-Афіни-Салоніки-Евзоні) — осьова автомагістраль Греції загальною протяжністю 730 км, частина травнс-європейської атомобільної мережі. Вона сполучає міста Патри-Афіни-Салоніки-Евзоні. Деякі її ділянки вже експлуатуються, інші перебувають у стадії будівництва, тому PATHE тимчасово використовує ділянки Національного Автобану 1.",
    "timestamp": "2018-02-23T19:14:58Z"
  },
  {
    "id": 628086,
    "title": "Художня обробка деревини",
    "text": "Худо́жня обро́бка деревини́ — найдавніший вид декоративно-прикладного мистецтва, виготовлення оригінальних виробів з дерева різноманітного функціонального призначення.",
    "timestamp": "2017-04-24T19:21:35Z"
  },
  {
    "id": 628103,
    "title": "Адії",
    "text": "Адії́ (Template:lang-fr) — муніципалітет у Франції, у регіоні Нова Аквітанія, департамент Де-Севр. Населення — 304 осіб (2011)Template:cite webTemplate:ref-fr.",
    "timestamp": "2017-05-13T07:09:11Z"
  },
  {
    "id": 628105,
    "title": "Еффр",
    "text": "Еффр (Template:lang-fr) — муніципалітет у Франції, у регіоні Нова Аквітанія, департамент Де-Севр. Населення — 5,340 осіб (2011)Template:cite webTemplate:ref-fr.",
    "timestamp": "2017-05-14T01:49:56Z"
  },
  {
    "id": 628107,
    "title": "Егонне",
    "text": "Егонне́, Еґонне (Template:lang-fr) — муніципалітет у Франції, у регіоні Нова Аквітанія, департамент Де-Севр. Населення — 616 осіб (2011)Template:cite webTemplate:ref-fr.",
    "timestamp": "2017-05-14T00:17:38Z"
  },
  {
    "id": 628109,
    "title": "Ерво",
    "text": "Ерво́ (Template:lang-fr) — муніципалітет у Франції, у регіоні Нова Аквітанія, департамент Де-Севр. Населення — 3,064 осіб (2011)Template:cite webTemplate:ref-fr.",
    "timestamp": "2017-05-14T01:07:19Z"
  },
  {
    "id": 628111,
    "title": "Аллонн (Де-Севр)",
    "text": "Алло́нн (Template:lang-fr) — муніципалітет у Франції, у регіоні Нова Аквітанія, департамент Де-Севр. Населення — 658 осіб (2011)Template:cite webTemplate:ref-fr.",
    "timestamp": "2017-05-13T07:33:54Z"
  },
  {
    "id": 628123,
    "title": "Амаю",
    "text": "Амаю́ (Template:lang-fr) — муніципалітет у Франції, у регіоні Нова Аквітанія, департамент Де-Севр. Населення — 865 осіб (2011)Template:cite webTemplate:ref-fr.",
    "timestamp": "2017-05-13T07:53:40Z"
  },
  {
    "id": 628125,
    "title": "Амюре",
    "text": "Амюре́ (Template:lang-fr) — муніципалітет у Франції, у регіоні Нова Аквітанія, департамент Де-Севр. Населення — 471 осіб (2011)Template:cite webTemplate:ref-fr.",
    "timestamp": "2017-05-13T08:09:48Z"
  },
  {
    "id": 628127,
    "title": "Арсе (Де-Севр)",
    "text": "Арсе́ (Template:lang-fr) — муніципалітет у Франції, у регіоні Нова Аквітанія, департамент Де-Севр. Населення — 603 осіб (2011)Template:cite webTemplate:ref-fr.",
    "timestamp": "2017-05-13T09:22:31Z"
  },
  {
    "id": 628129,
    "title": "Ардіє",
    "text": "Ардіє́ (Template:lang-fr) — муніципалітет у Франції, у регіоні Нова Аквітанія, департамент Де-Севр. Населення — 164 осіб (2011)Template:cite webTemplate:ref-fr.",
    "timestamp": "2017-05-13T08:58:48Z"
  },
  {
    "id": 628137,
    "title": "Аржантон-л'Егліз",
    "text": "Аржанто́н-л'Еглі́з, Аржантон-л'Еґліз (Template:lang-fr) — муніципалітет у Франції, у регіоні Нова Аквітанія, департамент Де-Севр. Населення — 1,632 осіб (2011)Template:cite webTemplate:ref-fr.",
    "timestamp": "2017-05-13T09:02:02Z"
  },
  {
    "id": 628139,
    "title": "Аржантон-ле-Валле",
    "text": "Аржанто́н-ле-Валле́ (Template:lang-fr) — муніципалітет у Франції, у регіоні Нова Аквітанія, департамент Де-Севр. Населення — 1,615 осіб (2011)Template:cite webTemplate:ref-fr.",
    "timestamp": "2017-05-13T09:02:07Z"
  }
]