[
  {
    "id": 2637429,
    "title": "Безіменна (притока Знобівки)",
    "text": "Безіменна — річка в Україні, у Середино-Будському районі Сумської області. Права притока Знобівки (басейн Дніпра).",
    "timestamp": "2018-05-24T05:38:49Z"
  },
  {
    "id": 2637430,
    "title": "Список лідерів кінопрокату України 2018",
    "text": "Список лідерів кінопрокату України 2018 року містить анотоване перерахування фільмів, які займали перше місце в Україні за підсумками зборів кожного з тижнів 2018 року з сумою понад $1,000,000. Список заснований на остаточних сумах, зароблених фільмами з продажу квитків у кінотеатрах. Прибуток від відеопрокату, показу телебаченням тощо не враховується. Суми вказуються у доларах США і не враховують інфляцію. Суми касових зборів наведені за даними сайту Box Office Mojo.",
    "timestamp": "2018-10-14T15:51:24Z"
  },
  {
    "id": 2637431,
    "title": "Жовковська Тетяна Тарасівна",
    "text": "Тетяна Тарасівна Жовковська (Машталяр) (Template:Нар 9 серпня 1968, с. Колиндяни, Україна) — директор Чортківського коледжу економіки та підприємництва Тернопільського національного економічного університету, кандидат економічних наук, спеціаліст вищої кваліфікаційної категорії, викладач-методист, голова педагогічної ради.",
    "timestamp": "2018-05-03T15:34:13Z"
  },
  {
    "id": 2637433,
    "title": "Добре сидимо!",
    "text": "«Добре сидимо!» (Template:lang-ru) — радянський художній фільм 1986 року, випущений на кіностудії «Мосфільм».",
    "timestamp": "2018-01-27T09:00:10Z"
  },
  {
    "id": 2637435,
    "title": "Бембі зустрічає Годзіллу",
    "text": "«Бембі зустрічає Ґодзіллу» (Template:lang-en) — півторахвилинний анімаційний фільм 1969 року канадського мультиплікатора Марва Ньюленда, створений ним самим під час навчання в коледжі дизайну в Лос-Анджелесі. Історія фатальної зустрічі двох персонажів поп-культури Бембі та Ґодзілли. Займає 38-е місце місце в списку п'ятдесяти найвизначніших мультфільмів всіх часів, складеному в 1994 році істориком анімації Джеррі Беком за підсумками голосування 1000 діячів мультиплікаціїHistory Of The 50 Greatest Cartoons of All Time.",
    "timestamp": "2018-02-03T00:11:58Z"
  },
  {
    "id": 2637437,
    "title": "Власенко Іван Афанасійович",
    "text": "Іван Опанасович Власенко (1907—1995) — полковник Радянської Армії, учасник боїв на Халхін-Голі і Великої Вітчизняної війни, Герой Радянського Союзу (1945).",
    "timestamp": "2018-02-01T17:11:17Z"
  },
  {
    "id": 2637438,
    "title": "Пароплавчик Віллі",
    "text": "«Пароплавчик Віллі» (Template:lang-en) — найраніший зі збережених звукових мультфільмівПредыстория анимации; перший звуковий фільм студії Діснея і дебютний мультфільм для Міккі МаусаTemplate:lang-ru.",
    "timestamp": "2018-05-20T14:51:15Z"
  },
  {
    "id": 2637440,
    "title": "Хрінников Володимир Миколайович",
    "text": "Хрінников Володимр Миколайович (1876, Катеринослав, Катеринославська губернія — 1935, Кисловодськ, СРСР) — член ради місцевого товариства «Просвіта». Місцевий меценат українства.",
    "timestamp": "2018-02-08T10:00:10Z"
  },
  {
    "id": 2637441,
    "title": "304 км (колійний пост)",
    "text": "304 кіломе́тр — залізничний колійний пост Конотопської дирекції Південно-Західної залізниці на лінії Ворожба — Волфине.",
    "timestamp": "2018-01-27T09:11:21Z"
  },
  {
    "id": 2637444,
    "title": "Апіон (граматик)",
    "text": "Апіон (20-ті роки до н. е. — близько 45-48 року н. е.) — греко-єгипетський граматик, софіст.",
    "timestamp": "2018-08-24T08:39:08Z"
  },
  {
    "id": 2637446,
    "title": "308 км (зупинний пункт)",
    "text": "308 кіломе́тр — пасажирський залізничний зупинний пункт Конотопської дирекції Південно-Західної залізниці на лінії Ворожба — Волфине.",
    "timestamp": "2018-01-27T09:20:58Z"
  },
  {
    "id": 2637447,
    "title": "Король Федір Петрович",
    "text": "Федір Петрович Король (Template:Date, с. Апанасовка, Гадяцький повіт, Полтавська губернія — Template:Date, Воронеж) — радянський воєначальник, генерал-майор.",
    "timestamp": "2018-10-12T09:30:29Z"
  },
  {
    "id": 2637451,
    "title": "Солгутівська загальноосвітня школа І-ІІІ ступенів",
    "text": "Солгутівська загальноосвітня школа І-ІІІ ступенів — загальноосвітня школа І-ІІІ ступенів у с. Солгутове Гайворонського району Кіровоградської області.",
    "timestamp": "2018-01-27T15:42:35Z"
  },
  {
    "id": 2637455,
    "title": "Смерть героя",
    "text": "Смерть геро́я — роман Річарда Олдінгтона . Це був його перший роман, опублікований Chatto & Windus в 1929 році і вважався частково автобіографічним.",
    "timestamp": "2018-06-23T14:41:56Z"
  },
  {
    "id": 2637463,
    "title": "Довгий Степан Іванович",
    "text": "Степан Іванович Довгий (1923—1943) — командир гармати 297-го окремого винищувально-протитанкового дивізіону 322-ї стрілецької дивізії 13-ї армії Центрального фронту, старший сержант.",
    "timestamp": "2018-09-29T11:48:06Z"
  },
  {
    "id": 2637464,
    "title": "Куценко Андрій Сергійович",
    "text": "Андрій Сергійович Куценко (Template:н 30 травня 1979, Куп'янськ, Харківська область УРСР — Template:† 2 жовтня 2007, Високе, Охтирський район, Харківська область Україна) — український футболіст, півзахисник.",
    "timestamp": "2018-04-19T19:37:02Z"
  },
  {
    "id": 2637467,
    "title": "312 км (зупинний пункт)",
    "text": "312 кіломе́тр — пасажирський залізничний зупинний пункт Конотопської дирекції Південно-Західної залізниці на лінії Ворожба — Волфине.",
    "timestamp": "2018-01-27T09:29:30Z"
  },
  {
    "id": 2637473,
    "title": "Хенткаус I",
    "text": "Хенткаус — головна дружина фараона Усеркафа.",
    "timestamp": "2018-08-24T08:11:10Z"
  },
  {
    "id": 2637475,
    "title": "Мірошниченко Петро Опанасович",
    "text": "Петро Опанасович Мірошниченко (1922—1944) — учасник Другої світової війни, командир взводу пішої розвідки 717-го стрілецького полку 170-ї стрілецької дивізії 48-ї армії 1-го Білоруського фронту, лейтенант, Герой Радянського Союзу (1944).",
    "timestamp": "2018-02-01T17:11:20Z"
  },
  {
    "id": 2637476,
    "title": "Дошкільний навчальний заклад «Пролісок» (Солгутове)",
    "text": "Дошкільний навчальний заклад «Пролісок» — дитячий садок, об'єкт соціальної інфраструктури у селі Солгутове Гайворонського району Кіровоградської області; на базі закладу діє народний краєзнавчий музей села.",
    "timestamp": "2018-01-30T19:34:19Z"
  },
  {
    "id": 2637478,
    "title": "Ряснянський Сергій Миколайович",
    "text": "Сергій Миколайович Ряснянський (1886, Суми, Харківська губернія — 26 жовтня 1976, Нью-Йорк) — російський офіцер, полковник Генерального штабу, учасник Першої світової війни, соратник Корнілова, учасник Білого руху і один з організаторів Добровольчої армії на Півдні Росії.",
    "timestamp": "2018-01-27T10:22:19Z"
  },
  {
    "id": 2637479,
    "title": "MobiCat",
    "text": "MobiCat — пасажирське судно-катамаран з електричним приводом, швейцарської компанії  Navigation Lac de Bienne/Bielersee Schifffahrt. Спущено на воду в 2001 році.",
    "timestamp": "2018-02-01T17:11:20Z"
  },
  {
    "id": 2637480,
    "title": "Нереальність часу",
    "text": "7. Відтак і А-послідовність, і В-послідовність є лише абстракціями або ілюзіями.",
    "timestamp": "2018-02-03T18:41:31Z"
  },
  {
    "id": 2637483,
    "title": "Себастьян Кава",
    "text": "Себастьян Кава (15 листопада 1972, Забже) — польський пілот-планерист. Десятиразовий Чемпіон Світу, багаторазовий переможець чемпіонатів Європи та Гран-Прі з планерного спорту. Тривалий час номер один в міжнародному рейтингу пілотів-планеристів. Чинний світовий чемпіон у класі 15-метрових планерів і чемпіон Європи у 18-метровому класі. Активний популяризатор авіації, автор книг про планеризм, блогер. Професія — лікар.",
    "timestamp": "2018-07-05T00:28:13Z"
  },
  {
    "id": 2637485,
    "title": "Peugeot EX1",
    "text": "Peugeot EX1 — спортивний концепт-електромобіль французької компанії Пежо. Створено до ювілею компаніїTemplate:Цитата:Новини. Електромобіль оснащений двома двигунами, які забезпечують 250 кВ (340 л. с.) і 480 Нм крутящого моментуTemplate:Cite web.",
    "timestamp": "2018-03-18T15:38:40Z"
  },
  {
    "id": 2637488,
    "title": "Хіміко-технологічний коледж імені Івана Кожедуба",
    "text": "Хіміко-технологічний коледж імені Івана Кожедуба Шосткінського інституту Сумського державного університету — освітній заклад І рівня акредитації, що здійснює підготовку здобувачів вищої освіти за освітньо-кваліфікаційним рівнем молодшого спеціаліста.",
    "timestamp": "2018-02-09T09:56:20Z"
  },
  {
    "id": 2637490,
    "title": "Дитячий парк (Сімферополь)",
    "text": "Сімферопольський Дитячий парк — парк у центрі Сімферополя, спочатку проектировавшийся як парк для дітей. Парк має цікаву історію і є одним з найбільш відвідуваних парків міста завдяки масовим заходам, які проводяться на території парку. Обмежений центральним проспектом Кірова, вулицями Київською та Шмідта. На території парку розташувався міський зоопарк (зоопарк). Основний вхід в парк розташований на проспекті Кірова, додаткові — на вулиці Шмідта.",
    "timestamp": "2018-02-11T08:32:44Z"
  },
  {
    "id": 2637493,
    "title": "Hawker Siddeley Harrier",
    "text": "Хоукер Сіддлі «Харрієр» (Template:Lang-en) GR.1/GR.3 і AV-8A — перше покоління сімейства британських винищувачів-бомбардувальників «Харрієр». Розроблений в 1960-х роках, «Харрієр» став першим у світі серійним літаком вертикального зльоту і посадки. Серійний випуск розпочато в 1967 р. Складався на озброєнні Великої Британії (Королівські ВПС), США (морська піхота), Іспанії, Індії і Таїланду.",
    "timestamp": "2018-02-05T22:00:02Z"
  },
  {
    "id": 2637494,
    "title": "PSLV",
    "text": "PSLV — індійська ракета-носій. Назва є широко використовуваною абревіатурою від Polar Satellite Launch Vehicle, що українською означає «ракета-носій для виведення супутників на полярну орбіту». Ракета розроблена Індійською організацією космічних досліджень (ISRO), для запуску індійських супутників дистанційного зондування (IRS) на сонячно-синхронні орбіти.",
    "timestamp": "2018-07-25T22:46:30Z"
  },
  {
    "id": 2637495,
    "title": "Барроу (місто)",
    "text": "Ба́рроу (Template:lang-en, Template:lang-ik) — невелике місто (4,2 тис. осіб у 2010 році) на півночі Аляски, найпівнічніше місто в США. Назване на честь Template:не перекладено.",
    "timestamp": "2018-04-01T07:14:08Z"
  },
  {
    "id": 2637496,
    "title": "14 км (зупинний пункт, Південна залізниця, Сумська дирекція)",
    "text": "14 кіломе́тр — пасажирський залізничний зупинний пункт Сумської дирекції Південної залізниці на лінії Баси — Пушкарне.",
    "timestamp": "2018-01-27T09:51:09Z"
  },
  {
    "id": 2637500,
    "title": "Хваджон",
    "text": "Хваджон, хвачон (Template:Lang-ko2화전, 花煎, hwadʑʌnTemplate:IPA) — невеликий за розміром, солодкий корейський десерт, різновид оладок чон або пиріжків тток, готується з клейкого борошна і цукру з будь-яким видом їстівних квітів, наприклад, азалією або хризантемоюTemplate:Cite webTemplate:Cite book. Буквально запозичення з китайської «хваджон» означає «квітковий чон»; інші назви — ккот пуккуми (꽃부꾸미), ккот чиджими (꽃지지미), ккот тарім (꽃달임), вони мають корейське походженняTemplate:Cite web.",
    "timestamp": "2018-02-01T17:11:24Z"
  },
  {
    "id": 2637502,
    "title": "Філер (фільм)",
    "text": "«Філер» (Template:lang-ru) — український радянський драматичний художній фільм 1987 року режисера Романа Балаяна.",
    "timestamp": "2018-01-27T09:57:35Z"
  },
  {
    "id": 2637503,
    "title": "Сільвія Ештон",
    "text": "Сільвія Ештон (Template:lang-en; 26 січня 1880, Денвер, Колорадо — 17 листопада 1940, Лос-Анджелес, Каліфорнія) — американська акторка епохи німого кіно.",
    "timestamp": "2018-10-20T04:39:08Z"
  },
  {
    "id": 2637506,
    "title": "Сушкевич Володимир Леонович",
    "text": "Володимир Леонович Сушкевич  — (Template:ДН, м. Тернопіль — Template:ДС, м. Тернопіль) — Заслужений журналіст України.",
    "timestamp": "2018-08-20T17:33:34Z"
  },
  {
    "id": 2637508,
    "title": "Глибне (зупинний пункт)",
    "text": "Гли́бне — пасажирський залізничний зупинний пункт Сумської дирекції Південної залізниці на лінії Баси — Пушкарне.",
    "timestamp": "2018-02-03T16:32:19Z"
  },
  {
    "id": 2637527,
    "title": "Сесіль Арнольд",
    "text": "Сесіль Арнольд (Template:lang-en, уроджена Сесіль Лаваль Арнокс (Template:lang-en; квітень 1891, Луїсвілл, Кентуккі — 1931, Гонконг) — американська акторка епохи німого кіно, учасниця ревю «Навіженство Зігфелда».",
    "timestamp": "2018-01-27T12:31:08Z"
  },
  {
    "id": 2637528,
    "title": "Никон Когутовський",
    "text": "Никон Михайлович Когутовський (Template:н Template:Дата народження — Template:† Template:Дата смерті, Умань) — ієрей, православний священномученик. Мешкав в Умані, страчений в Уманській в'язниці.",
    "timestamp": "2018-07-15T06:10:22Z"
  },
  {
    "id": 2637531,
    "title": "Обер-єфрейтор",
    "text": "Обер-єфрейтор (Template:lang-de, OGefr) — військове звання рядового складу в Збройних силах Німеччини (Імперська армія Німеччини, Рейхсвер, Вермахт, Бундесвер) та Швейцарії.",
    "timestamp": "2018-01-27T10:39:35Z"
  },
  {
    "id": 2637534,
    "title": "Interplanet Overdrive",
    "text": "«Interplanet Overdrive» — третій студійний альбом гурту SINOPTIK, що вперше був опублікований 2016 року. 15 жовтня 2015 вийшов перший сингл «White Cats», одночасно з публікацією відеокліпу.Template:cite webTemplate:cite web У 2017 році випущений на вінілових платівках і в цифровому форматі.",
    "timestamp": "2018-02-10T23:18:23Z"
  },
  {
    "id": 2637540,
    "title": "Сезон перемог",
    "text": "«Сезон перемог» — спортивна кінокомедія про колишнього успішного спортсмена, якому доручили тренувати баскетбольну команду дівчат.",
    "timestamp": "2018-01-27T10:20:31Z"
  },
  {
    "id": 2637543,
    "title": "Три гільзи від англійського карабіна",
    "text": "«Три гільзи від англійського карабіна» (Template:lang-ru) — український радянський пригодницький художній фільм 1983 року режисера Володимира Довганя. Виробництво кіностудії імені Олександра Довженка.",
    "timestamp": "2018-01-27T10:22:25Z"
  },
  {
    "id": 2637548,
    "title": "Несліхан Атагюль",
    "text": "Несліхан Атагюль Догулу (Template:lang-tr; Template:нар 20 серпня 1992, Стамбул) — турецька актриса і модель. Навчалася на театральному факультеті Університету Едітепе.",
    "timestamp": "2018-05-16T10:29:03Z"
  },
  {
    "id": 2637549,
    "title": "Лисичанська міська бібліотека",
    "text": "Лисичанська центральна міська бібліотека  — публічна бібліотека у м. Лисичанськ Луганської області, входить до складу Комунального закладу «Лисичанська централізована бібліотечна система». Лисичанська центральна міська бібліотека є головною бібліотекою Комунального закладу «Лисичанська ЦБС» — інформаційним та культурно — просвітницьким закладом, організаційно — методичним центром для бібліотек — філій. На 1 січня 2018 року фонди бібліотеки становлять 82 701 екз., користувачами бібліотеки є 7 773 особи.",
    "timestamp": "2018-02-04T03:50:48Z"
  },
  {
    "id": 2637553,
    "title": "33 км (зупинний пункт, Південна залізниця)",
    "text": "33 кіломе́тр (також Ступівка) — пасажирський залізничний зупинний пункт Сумської дирекції Південної залізниці на лінії Баси — Пушкарне.",
    "timestamp": "2018-01-27T10:33:10Z"
  },
  {
    "id": 2637554,
    "title": "Мухаммед Хамза аз-Зубейді",
    "text": "Мухаммед Хамза аз-Зубейді (Template:lang-ar; 1938 — 2 грудня 2005) — іракський військовик і політичний діяч, прем'єр-міністр країни у 1991—1993 роках. Разом з Саадуном Хаммаді був найвищим посадовцем-представником шиїтів в уряді Саддама Хусейна. Відповідальний за масові репресії проти шиїтів, за що отримав прізвисько «Шиїтський м'ясник».",
    "timestamp": "2018-01-27T11:13:46Z"
  },
  {
    "id": 2637556,
    "title": "Борисенко Михайло Петрович",
    "text": "Миха́йло Петро́вич Борисенко (1909—1979) — майор Радянської Армії, учасник німецько-радянської війни, Герой Радянського Союзу (1944).",
    "timestamp": "2018-02-25T08:34:26Z"
  },
  {
    "id": 2637557,
    "title": "Джорджія Бінг",
    "text": "Джорджія Бінг (Template:lang-en; Template:н 6 вересня 1965, Велика Британія) — відома англійська письменниця з театральною освітою.",
    "timestamp": "2018-09-11T11:06:49Z"
  },
  {
    "id": 2637563,
    "title": "Настільний футбол",
    "text": "Настільний футбол або кікер (нім. kicker — футболіст) — гра, яка є настільною формою класичного футболу. Кікерщик — людина, що грає у цю гру.",
    "timestamp": "2018-09-08T10:05:09Z"
  },
  {
    "id": 2637565,
    "title": "Ще до війни",
    "text": "«Ще до війни» (Template:lang-ru) — український радянський художній фільм 1982 року режисера Бориса Савченка; екранізація однойменної повісті Віля Ліпатова.",
    "timestamp": "2018-01-27T12:14:04Z"
  },
  {
    "id": 2637566,
    "title": "Великокінь Григорій Іванович",
    "text": "Григорій Іванович Великоконь (1920—1982) — старший сержант Робітничо-селянської Червоної Армії, учасник нацистсько-радянської війни, Герой Радянського Союзу (1945).",
    "timestamp": "2018-02-04T04:00:16Z"
  },
  {
    "id": 2637568,
    "title": "Андрієнко Василь Прокопович",
    "text": "Василь Прокопович Андрієнко (Template:Date — Template:Date) — Герой Радянського Союзу (1945).",
    "timestamp": "2018-09-19T17:18:54Z"
  },
  {
    "id": 2637569,
    "title": "Еналага",
    "text": "Еналага (з Template:lang-grc «підстановка») — стилістична фігура, яка полягає у використанні неправильної граматичної форми чи синтаксичної конструкції замість правильної.Що таке еналага? Часто еналагу використовують навмисно для створення іронії, синтаксичного паралелізму, логічного виділення певної частини висловлювання.",
    "timestamp": "2018-02-04T04:03:12Z"
  },
  {
    "id": 2637570,
    "title": "Олександрівка (зупинний пункт, Південна залізниця)",
    "text": "Олекса́ндрівка — пасажирський залізничний зупинний пункт Сумської дирекції Південної залізниці на лінії Баси — Пушкарне.",
    "timestamp": "2018-02-03T16:33:51Z"
  },
  {
    "id": 2637577,
    "title": "Сріблястий (мікрорайон)",
    "text": "Сріблястий — житловий мікрорайон на південному заході Львова, у Залізничному районі, місцевість Сигнівка.",
    "timestamp": "2018-08-27T05:33:54Z"
  },
  {
    "id": 2637578,
    "title": "Список нагород і номінацій телесеріалу «Цілком таємно»",
    "text": "«Цілком таємно» — американський фантастичний телесеріал, який стартував 10 вересня 1993 року на телеканалі Fox. Серіал оповідає історію спеціальних агентів Федерального бюро розслідувань (ФБР) — Фокса Малдера (Девід Духовни) та Дейни Скаллі (Джилліан Андерсон). Головні герої займаються розслідуванням справ, що стосуються паранормальних і загадкових явищ, знані як справи з грифом «X».",
    "timestamp": "2018-02-16T18:35:19Z"
  },
  {
    "id": 2637579,
    "title": "Адміністративна реформа в Естонії (2017)",
    "text": "Адміністративна реформа в Естонії 2017 року — адміністративно-територіальна реформа місцевого самоврядування, що завершилась у 2017 році. Мета адміністративної реформи — забезпечити ефективність самоврядування в питаннях надання громадських послуг, використання переваг для розвитку регіонів та підвищення конкурентоспроможності, а також забезпечити більш рівномірний регіональний розвиток. Для виконання мети реформи передбачалося зміна адміністративно-територіальної організації волостей і міст, а саме укрупнення одиниць самоврядування шляхом добровільного, а в деяких випадках, і примусового злиття. У результаті реформи кількість місцевих самоврядувань зменшилася з 213 (30 міських та 183 волосні) до 79: 15 міст-муніципалітетів та 64 волості.",
    "timestamp": "2018-03-30T21:47:10Z"
  },
  {
    "id": 2637581,
    "title": "Титомир Богдан Петрович",
    "text": "Богдан Петрович Титомир«Жениться на Пугачёвой пока не готов!» — Газета «Вятский край»Template:ref-ru«Мир, труд, май, или Полон планов Огурцов…» — «Радио Юнитон»Template:ref-ru«Большой Бо» — Газета «Панорама»Template:ref-ru (Template:нар 16 березня 1967, Суми Поп-звезда 90-х Богдан Титомир: «Уходя со сцены, Кобзон именно мне передал эстафету в виде микрофона» — Газета «Факты и комментарии»Чат с личностью: Богдан Титомир — M1Template:ref-ru) — естрадний співак, танцюрист, діджей, поп-виконавець, телеведучий, колишній учасник групи «Кар-Мен».",
    "timestamp": "2018-10-17T11:34:46Z"
  },
  {
    "id": 2637582,
    "title": "П'ятипілля (зупинний пункт)",
    "text": "П'ятипі́лля — пасажирський залізничний зупинний пункт Сумської дирекції Південної залізниці на лінії Баси — Пушкарне.",
    "timestamp": "2018-02-03T16:26:48Z"
  },
  {
    "id": 2637589,
    "title": "Дрогобицький розстріл виборців (1911)",
    "text": "Дрогобицький розстріл виборців 1911 року — застосування збройної сили для розгону протестуючих виборців у Дрогобичі в ході виборів до австрійського парламенту 19 червня 1911 року, у результаті чого 29 осіб було вбито, ще двоє відразу померли від ран, близько 100 поранено.",
    "timestamp": "2018-01-27T14:37:56Z"
  },
  {
    "id": 2637600,
    "title": "Годинникар і курка",
    "text": "«Годинникар і курка» (Template:lang-ru) — український радянський двосерійний телевізійний драматичний фільм 1989 року режисера Анатолій Степаненка за мотивами однойменної п'єси Івана Кочерги.",
    "timestamp": "2018-01-27T12:53:49Z"
  },
  {
    "id": 2637605,
    "title": "Болонська Республіка",
    "text": "Болонська республіка (Template:Lang-it) — клієнтська республіка Франції, проголошена в Болоньї у червні 1796 року після того, як представники влади Папської держави покинули місто. 16 жовтня 1796 року була анексована Циспаданською республікою.",
    "timestamp": "2018-09-12T18:53:45Z"
  },
  {
    "id": 2637606,
    "title": "Thief: The Dark Project",
    "text": "Thief: The Dark Project — стелс-гра, яка є першою грою з серії Thief. Вона була розроблена Looking Glass Studios і випущена Eidos Interactive в 1998 році.",
    "timestamp": "2018-02-04T04:08:09Z"
  },
  {
    "id": 2637608,
    "title": "North American F-100 Super Sabre",
    "text": "Норт Америкен F-100 Супер Сейбр — американський одномісний одномоторний надзвуковий винищувач, винищувач-перехоплювач зі стрілоподібним крилом, винищувач-бомбардувальник, літак-розвідник.",
    "timestamp": "2018-09-21T14:03:13Z"
  },
  {
    "id": 2637609,
    "title": "Олександр Маленький",
    "text": "«Олександр Маленький» — спільний радянсько-німецький художній фільм про Німецько-радянську війну, знятий у 1981 році режисером Володимиром Фокіним. Знятий на Кіностудії ім. М. Горького.",
    "timestamp": "2018-02-01T17:11:32Z"
  },
  {
    "id": 2637613,
    "title": "Ахмед Хусейн ас-Самарраї",
    "text": "Ахмед Хусейн ас-Самарраї (Template:lang-ar; нар. 2 липня 1941) — іракський військовик і політичний діяч, прем'єр-міністр країни у 1993—1994 роках.",
    "timestamp": "2018-01-27T11:17:54Z"
  },
  {
    "id": 2637618,
    "title": "Cardi B",
    "text": "Cardi B — телевізійна та інтернет-зірка. Справжнє ім'я — Belcalis Almanzar, але більш відома під псевдонімом Cardi B, особливо завдяки Інстаграму.",
    "timestamp": "2018-06-11T12:32:08Z"
  },
  {
    "id": 2637619,
    "title": "Яковлєв Валентин Миколайович",
    "text": "Яковлєв Валентин Миколайович (22 вересня 1892, Суми — 25 жовтня 1918, Красноярськ) — один з керівників боротьби за Радянську владу в Сибіру, голова Єнісейської Ради, заступник голови губвиконкому, член Центросибіру.",
    "timestamp": "2018-02-04T04:16:50Z"
  },
  {
    "id": 2637623,
    "title": "Gibson Hummingbird",
    "text": "Gibson Hummingbird (читається «Гібсон гаммінгберд») — легендарна акустична гітара компанії Gibson, яка вперше була представлена у 1960-му році. Це була перша гітара Gibson з корпусом Dreadnought («квадратними плечима»). Гітара дуже швидко стала іконою лінійки акустичних гітар Gibson і улюбленою моделлю таких зірок, як Грем Парсонс і Кіт Річардс (гурт The Rolling Stones).",
    "timestamp": "2018-08-10T15:27:58Z"
  },
  {
    "id": 2637632,
    "title": "Пушкарне (станція)",
    "text": "Пушка́рне — проміжна залізнична станція Сумської дирекції залізничних перевезень Південної залізниці на одноколійній неелектрифікованої лінії Баси — Готня.",
    "timestamp": "2018-02-03T16:27:42Z"
  },
  {
    "id": 2637634,
    "title": "Марселіно Гарсія Тораль",
    "text": "Марселіно Гарсія Тораль (Template:lang-es, Template:нар 14 серпня 1965, Вільявісьйоса) — іспанський футболіст, що грав на позиції півзахисника. По завершенні ігрової кар'єри — тренер. З 2017 року очолює тренерський штаб «Валенсії».",
    "timestamp": "2018-06-14T03:01:59Z"
  },
  {
    "id": 2637638,
    "title": "Ліквідація забруднень морського середовища нафтопродуктами",
    "text": "Ліквідація забруднень морського середовища нафтопродуктами - заходи з локалізації і збору нафти з поверхні моря у випадку її аварійного розливу (витіканя).",
    "timestamp": "2018-01-29T06:20:26Z"
  },
  {
    "id": 2637640,
    "title": "Тубус-зупинка",
    "text": "Тубус-зупинка — вид автобусної зупинки, який з'явився в місті Курітіба за часів його модернізації мером Жеймом Лернером.",
    "timestamp": "2018-02-07T02:37:48Z"
  },
  {
    "id": 2637641,
    "title": "Яковлєв Максим Володимирович",
    "text": "Яковлєв Максим Володимирович (нар. 26 листопада 1982, Донецьк, Україна) — науковець, викладач, перекладач, доцент, кандидат політичних наук, директор Школи політичної аналітики НаУКМА, доцент кафедри політології Національного університету «Києво-Могилянська академія», в якій викладає методи суспільствознавчих досліджень на кафедрі політології, кафедрі соціології, у Школі охорони здоров'я, Школі соціальної роботи (2010—2017 рр.), Школі публічного адміністрування, Докторській школі імені родини Юхименків, для докторантів Могилянської школи журналістики. Він також є українським координатором проекту проекту «Німецькі та європейські студії» з Інститутом політичних наук в Університеті ім. Ф. Шиллера у м. Єна та НаУКМА. Коментує актуальні суспільно-політичні події в Україні та світі, активно викладає поза академічним середовищем, зокрема М. Яковлєв є національним лектором Української академії лідерства. Його коло наукових інтересів охоплює методи та методологію пізнання й дослідження реальності, а також суспільно-політичні перетворення на пострадянському просторі.",
    "timestamp": "2018-10-11T15:57:49Z"
  },
  {
    "id": 2637646,
    "title": "Михайло Стасюлевич",
    "text": "Михайло Матвійович Стасюлевич (1826—1911) — російський історик і публіцист, редактор журналу «Вісник Європи». Дійсний статський радник.",
    "timestamp": "2018-02-04T04:26:05Z"
  },
  {
    "id": 2637648,
    "title": "Гайдамака Василь Васильович",
    "text": "Гайдамака Василь Васильович (10 жовтня 1935 року) — український поет, публіцист, громадський діяч, член Національної спілки журналістів України, член Всеукраїнської спілки письменників-мариністів.",
    "timestamp": "2018-03-18T19:46:29Z"
  },
  {
    "id": 2637650,
    "title": "Чернишенко Наталя Іванівна",
    "text": "Чернишенко Наталя Іванівна (народилася 8 липня 1957 року в містечку Помошна Кіровоградської області) — українська письменниця, лауреат літературної премії ім. Бориса Лавреньова, член Національної спілки письменників України.",
    "timestamp": "2018-03-18T19:05:55Z"
  },
  {
    "id": 2637651,
    "title": "Вышел покурить",
    "text": "Вышел покурить — репер з Одеси.",
    "timestamp": "2018-07-24T19:57:24Z"
  },
  {
    "id": 2637653,
    "title": "Берклі (Глостершир)",
    "text": "Берклі (Template:Lang-en) — місто в графстві Глостершир (Англія), входить до складу району Страуд.",
    "timestamp": "2018-08-06T08:10:02Z"
  },
  {
    "id": 2637656,
    "title": "Каширіна Галина Миколаївна",
    "text": "Каширіна Галина Миколаївна (Template:нар 31 серпня 1931, Ленінград (тепер Санкт-Петербург) — Template:пом19 вересня 2016, Харків) — український бібліограф, укладач краєзнавчих посібників та бібліографічних покажчиків, Почесний член Всеукраїнської спілки краєзнавців (з 1995).",
    "timestamp": "2018-03-17T11:54:13Z"
  },
  {
    "id": 2637668,
    "title": "Медіаобізнаність",
    "text": "Медіаобізнаність - рівень медіакультури, який передбачає засвоєння особистістю системи знань про засоби масової комунікації, їх історію та особливості функціонування, користь і шкоду для людини, уміння убезпечити себе від негативних інформаційних впливів і вільно орієнтуватися у світі інформації.",
    "timestamp": "2018-02-01T17:11:41Z"
  },
  {
    "id": 2637674,
    "title": "Педагогіка єзуїтів",
    "text": "Педагогіка єзуїтів — освітня система, розроблена педагогами католицького ордену єзуїтів. Педагогіка єзуїтів побудована на прагматичних засадах, метою якої було створення мережі навчальних закладів, у яких здійснювалося виховання і навчання юнаків з привілейованих соціальних верств у католицькому дусі.",
    "timestamp": "2018-02-04T04:37:11Z"
  },
  {
    "id": 2637677,
    "title": "Шоломова Софія Богданівна",
    "text": "Шоломова Софія Богданівна  (дівоче приз. Самойлович, Template:н Template:ДН, Харків — Template:пом Template:ДС, Харків) — українська та радянська книгознавець, літературознавець та краєзнавець, історик української та російської духовної культури XVIII—XX століть. Одна із засновниць товариства харківської інтелігенції «Коло».",
    "timestamp": "2018-06-13T20:51:15Z"
  },
  {
    "id": 2637681,
    "title": "Демілітаризована зона (В'єтнам)",
    "text": "Демілітаризована зона (В'єтнам) (Template:lang-en, скорочено DMZ) — зона, що розділяла В'єтнам на дві держави в 1950-1970-х роках. Під час В'єтнамської війни була місцем активних бойових дій.",
    "timestamp": "2018-05-30T22:04:34Z"
  },
  {
    "id": 2637683,
    "title": "Ворскла (зупинний пункт)",
    "text": "Во́рскла (кол. назва Піонерська) — пасажирський залізничний зупинний пункт Сумської дирекції Південної залізниці на лінії Боромля — Кириківка.",
    "timestamp": "2018-02-03T16:29:25Z"
  },
  {
    "id": 2637684,
    "title": "Ервін Штремпель",
    "text": "Ервін Штремпель (Template:lang-de; 6 січня 1924, Карлсруе, Німеччина — 17 жовтня 1999) — німецький футболіст, що грав на позиції воротаря. Гравець клубів «Саарбрюкен», «Боруссія» (Нойнкірхен) і збірної Саару.",
    "timestamp": "2018-01-27T16:38:31Z"
  },
  {
    "id": 2637704,
    "title": "Лашук Євген Віталійович",
    "text": "Євген Віталійович Лашук (Template:н 26 лютого 1978, Київ, УРСР) — український футболіст, півзахисник.",
    "timestamp": "2018-01-27T19:10:21Z"
  },
  {
    "id": 2637706,
    "title": "Френкель Ірина Володимирівна",
    "text": "Ірина Володимирівна Френкель (*1969 ?) — українська артистка, громадська і політична діячка, заслужена артистка України.",
    "timestamp": "2018-05-27T10:25:29Z"
  },
  {
    "id": 2637713,
    "title": "Штефан Ковач",
    "text": "Штефан Ковач (Template:lang-ro, Template:lang-huTemplate:cite web, 2 жовтня 1920, Тімішоара — 12 травня 1995, Клуж-Напока) — румунський футболіст угорського походження, грав на позиції нападника або півзахисника. По завершенні ігрової кар'єри — тренер.",
    "timestamp": "2018-09-28T10:48:59Z"
  },
  {
    "id": 2637714,
    "title": "Козацьке (зупинний пункт)",
    "text": "Коза́цьке — пасажирський залізничний зупинний пункт Сумської дирекції Південної залізниці на лінії Боромля — Кириківка.",
    "timestamp": "2018-02-03T16:20:01Z"
  },
  {
    "id": 2637715,
    "title": "Doki Doki Literature Club!",
    "text": "Doki Doki Literature Club! — візуальний роман, розроблений командою «Team Salvato». Він був випущений 22 вересня Template:рув року для Windows, MacOS і LinuxTemplate:Cite web, а пізніше, 6 жовтня, і для Steam. Гра має, в основному, лінійний сюжет, альтернативні сцени і кінцівки, що залежать від вибору гравця. Хоча на перший погляд гра здається безтурботною, насправді це психологічний хорор, який передбачає інтенсивне використання техніки руйнування четвертої стіниTemplate:Cite web.",
    "timestamp": "2018-04-19T12:44:52Z"
  },
  {
    "id": 2637721,
    "title": "Чупахівська селищна громада",
    "text": "Чупахівська селищна об'єднана територіальна громада — об'єднана територіальна громада в Україні, в Охтирському районі Сумської області. Адміністративний центр — смт Чупахівка.",
    "timestamp": "2018-08-17T22:37:24Z"
  },
  {
    "id": 2637727,
    "title": "Баличов Іван Мойсейович",
    "text": "Іван Мойсейович Баличов (Template:ДН — Template:ДС) — учасник німецько-радянської війни, стрілок 957-го стрілецького полку 309-ї Пирятинської стрілецької дивізії 40-ї армії Воронезького фронту, Герой Радянського Союзу (Template:Date), червоноармієцьПосада і військове звання на дату присвоєння звання Героя Радянського Союзу..",
    "timestamp": "2018-02-04T04:44:28Z"
  },
  {
    "id": 2637730,
    "title": "Тростянецька міська громада",
    "text": "Тростянецька міська об'єднана територіальна громада — об'єднана територіальна громада в Україні, у Тростянецькому районі Сумської області. Адміністративний центр — місто Тростянець.",
    "timestamp": "2018-08-17T22:52:42Z"
  },
  {
    "id": 2637732,
    "title": "Батюк Микола Пилипович",
    "text": "Микола Пилипович Батюк (19 грудня 1905 — 27 липня 1943) — радянський воєначальник, під час Німецько-радянської війни дивізія під його командуванням відзначився при обороні Сталінграда. Гвардії генерал-майор (1943).",
    "timestamp": "2018-09-28T11:13:02Z"
  },
  {
    "id": 2637733,
    "title": "Німецький ягдтер'єр",
    "text": "Німецький ягдтер'єр (Template:lang-en) — порода мисливських собак, виведена спеціально для полювання. Їх не заводять в якості компаньйонів, це робочі собаки які потребують регулярного полювання. Собак потрібно використовувати за призначенням тому що ці собаки стануть злими, агресивними, кидатимуться і патратимуть усіх котів, що попадуться їм на очі, будуть незадоволеними і змученими.",
    "timestamp": "2018-05-13T20:17:17Z"
  },
  {
    "id": 2637736,
    "title": "Кангли (Ставропольський край)",
    "text": "Кангли (Template:lang-ru) — село у складі муніципальної освіти «Сільське поселення Побєгайловська сільрада» Мінераловодського району Ставропольського краю, Росія.",
    "timestamp": "2018-02-04T04:53:40Z"
  },
  {
    "id": 2637742,
    "title": "9 км (зупинний пункт, Сумська дирекція Південної залізниці)",
    "text": "9 кіломе́тр — пасажирський залізничний зупинний пункт Сумської дирекції Південної залізниці на лінії Кириківка — Охтирка.",
    "timestamp": "2018-01-27T13:05:54Z"
  },
  {
    "id": 2637744,
    "title": "Бідненко Степан Петрович",
    "text": "Степан Петрович Бідненко (Template:ДН, с. Маково, Харківська губернія, Російська імперія — Template:Date, Алушта, Кримська область, УРСР, СРСР) — радянський офіцер, танкіст, учасник Великої Вітчизняної війни, командир взводу 51-го гвардійського танкового полку 10-ї гвардійської механізованої бригади 5-го гвардійського механізованого корпусу 4-ї гвардійської танкової армії 1-го Українського фронту, Герой Радянського Союзу (Template:Date), гвардії лейтенант.",
    "timestamp": "2018-05-10T20:38:15Z"
  },
  {
    "id": 2637755,
    "title": "Кулівар Віктор Павлович",
    "text": "Віктор Павлович Кулівар (Template:нар 1949 року  — Template:пом 21 квітня 1997 року) — одеський кримінальний авторитет на прізвисько Карабас. За своє життя мав тільки одну судимість за хуліганство. Був розстріляний кілером в 1997 роціTemplate:cite webTemplate:cite web.",
    "timestamp": "2018-08-20T17:35:24Z"
  },
  {
    "id": 2637756,
    "title": "Приватна військова компанія",
    "text": "Приватна військова компанія (ПВК; Template:Lang-en) — комерційне підприємство, що пропонує спеціалізовані послуги, пов'язані з охороною, захистом (обороною) кого-небудь і до чого-небудь, нерідко з участю у військових конфліктах, а також зі збором розвідувальної інформації, стратегічним плануванням, логістикою і консультуванням[1].",
    "timestamp": "2018-10-08T07:58:41Z"
  },
  {
    "id": 2637757,
    "title": "Бочек Петро Семенович",
    "text": "Бочек Петро Семенович (у нагородному листі — Бачок) (1925—2018)  молодший лейтенант Радянської Армії, полковник міліції, учасник Німецько-радянської війни, Герой Радянського Союзу (1945).",
    "timestamp": "2018-02-28T11:41:00Z"
  },
  {
    "id": 2637760,
    "title": "Васильченко Микола Тихонович",
    "text": "Микола Тихонович Васильченко (1923—1985) — сержант Робітничо-селянської Червоної Армії, учасник Німецько-радянської війни, Герой Радянського Союзу (1945).",
    "timestamp": "2018-08-18T05:43:43Z"
  },
  {
    "id": 2637763,
    "title": "Верхньосироватська сільська громада",
    "text": "Верхньосироватська сільська об'єднана територіальна громада — об'єднана територіальна громада в Україні, на території Краснопільського та Сумського районів Сумської області. Адміністративний центр — село Верхня Сироватка.",
    "timestamp": "2018-08-17T22:14:57Z"
  },
  {
    "id": 2637765,
    "title": "Райнер Кунце",
    "text": "Райнер Кунце (Template:lang-de; Template:нар 16 серпня 1933, Ельсніц) — німецький письменник, перекладач літератури, дисидент НДР.",
    "timestamp": "2018-09-18T15:05:47Z"
  },
  {
    "id": 2637766,
    "title": "Пономаренко Микола Степанович",
    "text": "Микола Степанович Пономаренко (1 серпня 1893, с. Степанівка, Сумська область — 6 липня 1952, Кишинів) — радянський композитор і педагог, заслужений діяч мистецтв Молдавської РСР.",
    "timestamp": "2018-02-04T05:13:20Z"
  },
  {
    "id": 2637771,
    "title": "Лівенцев Валентин Борисович",
    "text": "Лівенцев Валентин Борисович (25 березня 1914, Горлівка, Російська імперія — 14 вересня 1989, Сєверодвінськ, РРФСР) — радянський футболіст, нападник.",
    "timestamp": "2018-08-23T09:38:25Z"
  },
  {
    "id": 2637773,
    "title": "Яблучне (зупинний пункт)",
    "text": "Я́блучне — пасажирський залізничний зупинний пункт Сумської дирекції Південної залізниці на лінії Кириківка — Люботин.",
    "timestamp": "2018-02-03T16:24:32Z"
  },
  {
    "id": 2637774,
    "title": "Оліївська сільська громада",
    "text": "Оліївська сільська об'єднана територіальна громада — об'єднана територіальна громада в Україні, на території Житомирського та Черняхівського районів Житомирської області. Адміністративний центр — село Оліївка.",
    "timestamp": "2018-08-10T21:43:03Z"
  },
  {
    "id": 2637777,
    "title": "Курс Вільних Людей",
    "text": "Курс Вільних Людей (Template:lang-en) — платформа об’єднання дієвих патріотів — включає в себе цикл заходів неформальної освіти для молоді, яка прагне кращого майбутнього для своєї держави та готова докласти для цього власних зусиль. Учасниками таборів можуть стати всі молоді люди віком 15-22 років, яких цікавлять ідеї патріотизму, подобається вчитися та здобувати нові навички, які готові застосовувати їх для створення кращого майбутнього для України.",
    "timestamp": "2018-03-23T15:31:10Z"
  },
  {
    "id": 2637779,
    "title": "Головинський Гай Петрович",
    "text": "Головинський Гай Петрович (1926—1945) — молодший сержант Робітничо-селянської Червоної Армії, учасник німецько-радянської війни, Герой Радянського Союзу (1945).",
    "timestamp": "2018-05-03T15:03:50Z"
  },
  {
    "id": 2637784,
    "title": "Колосов Олександр Олександрович",
    "text": "Колосов Олександр Олександрович (Template:ДН — Template:ДС) — російський і радянський гістолог, доктор медицини (1892), професор (1895). Учень К. З. КучинаРоссийская профессура, XVIII-начало XX вв: Биологические и медико-биологические науки. Изд-во Русского Христианского гуманитарного ин-та, 2003.",
    "timestamp": "2018-02-04T07:21:52Z"
  },
  {
    "id": 2637785,
    "title": "Лютеранська кірха (Житомир)",
    "text": "Лютера́нська кі́рха — лютеранська (нині також баптистська) церква в Житомирі; пам'ятка архітектури, розташована на вулиці Коцюбинського, 5. Охоронний номер пам'ятки — 19.",
    "timestamp": "2018-09-25T00:06:42Z"
  },
  {
    "id": 2637787,
    "title": "Стоянов Олександр Опанасович",
    "text": "Стоянов Олександр Афанасійович (Template:нар 10 червня 1987, Сімферополь) — український артист балету, прем'єр Національної опери України. Заслужений артист України (2016)Указ Президента України від 25 червня 2016 року № 276/2016 «Про відзначення державними нагородами України з нагоди Дня Конституції України».",
    "timestamp": "2018-10-13T17:29:25Z"
  },
  {
    "id": 2637795,
    "title": "Цикл снів",
    "text": "«Цикл снів» (Template:Lang-en) — одна з трьох головних категорій, на які умовно поділяють творчість Говарда Філліпса Лавкрафта і його послідовників (до інших категорій відносять «Міфи Ктулху» (Template:Lang-en) і «Смертельні Історії» (Template:Lang-en). Основний твір — «Сновидні пошуки незвіданого Кадата»Template:Cite book. Цикл Снів — невід'ємна і важлива частина Лавкрафтовских жахів.",
    "timestamp": "2018-04-07T05:32:38Z"
  },
  {
    "id": 2637797,
    "title": "Вулиця Новознесенська",
    "text": "Вулиця Новозне́сенська — вулиця у Личаківському районі Львова, у місцевості Нове Знесіння. Пролягає від вулиці Механічної до вулиці Польової. Головна вулиця Нового Знесіння.",
    "timestamp": "2018-07-20T12:49:27Z"
  },
  {
    "id": 2637800,
    "title": "Юлія Тичківська",
    "text": "Юлія Тичківська (Кочерган) — економіст, активний громадський діяч, співзасновниця Відкритого Університету Майдану, працює в одній з найпрогресивніших шкіл економіки України — Kyiv School of EconomicsTemplate:Cite web, співзасновниця Bendukidze Free Market CenterTemplate:Cite news, працювала у Міністерство економічного розвитку і торгівлі УкраїниTemplate:Cite web, пластунка.",
    "timestamp": "2018-05-02T16:33:45Z"
  },
  {
    "id": 2637802,
    "title": "Андрій і злий чарівник",
    "text": "«Андрій і злий чарівник» (Template:lang-ru) — білоруський радянський фільм-казка 1981 року режисера Геннадія Харлана. Виробництво кіностудії «Білорусьфільм».",
    "timestamp": "2018-02-21T05:09:18Z"
  },
  {
    "id": 2637803,
    "title": "Чайка Олександр Миколайович",
    "text": "Чайка Олександр Миколайович (Template:нар 23 липня 1974, Суми, СРСР) — український серійний вбивця, також відомий як «Мисливець за шубами» (в якості жертв він обирав жінок, одягнених в шуби). Всі вбивства зробив у Москві, у ліфтах багатоповерхових будинків.",
    "timestamp": "2018-02-12T22:35:17Z"
  },
  {
    "id": 2637805,
    "title": "Ісраель Бар-Єхуда",
    "text": "Ісрае́ль Бар-Єху́да (справжнє ім'я — Ізраїль Ідельсон; 15 листопада 1895 року — 4 травня 1965 року) — ізраїльський політичний і державний діяч, міністр внутрішніх справ Ізраїлю, міністр транспорту ІзраїлюИсраэль Бар-Йехуда на сайте кнессета.",
    "timestamp": "2018-02-09T11:25:35Z"
  },
  {
    "id": 2637807,
    "title": "Митрофан (Абрамов)",
    "text": "Єпископ Митрофан (у миру Микола Іванович Абрамов, в схимі Макарій; 1876, слобода Стара Крейдяна, Богучарский повіт, Воронезька губернія — 4 листопада 1945, Белград) — єпископ Сербської православної церкви на спокої, до 1922 року — єпископ Російської православної церкви, єпископ Сумський, вікарій Харківської єпархії.",
    "timestamp": "2018-05-19T19:29:23Z"
  },
  {
    "id": 2637811,
    "title": "Культурознак",
    "text": "Культурознак — слово, яке є мовним знаком національної культури, знак-символ, конденсат певних культурологічних відомостей про національну культуру, духовність, ментальність народу, мова якого вивчається. В українській культурі, наприклад, це такі слова як тризуб, хата, щедрівка та ін.",
    "timestamp": "2018-07-04T13:10:05Z"
  },
  {
    "id": 2637812,
    "title": "Людина в прохідному дворі",
    "text": "«Людина в прохідному дворі» (Template:lang-ru) — український радянський чотирисерійний художній фільм 1971 року режисера Марка Орлова. Детектив, в основі якого лежить однойменна повість Дмитра Тарасенкова. На екрани фільм вийшов в 1972 році.",
    "timestamp": "2018-01-27T13:13:07Z"
  },
  {
    "id": 2637813,
    "title": "Спицин (станція)",
    "text": "Спи́цин — проміжна залізнична станція Сумської дирекції залізничних перевезень Південної залізниці на лінії Кириківка — Люботин.",
    "timestamp": "2018-02-03T16:22:57Z"
  },
  {
    "id": 2637814,
    "title": "Київський діалог",
    "text": "Київський Діалог – це німецько-українська платформа для діалогу та обміну досвідом, яка об’єднує мультиплікаторів зі сфери політики, бізнесу, медіа та громадянського суспільства Німеччини та України. Основною метою проекту є сприяння демократичному розвитку УкраїниTemplate:Cite web.",
    "timestamp": "2018-09-26T21:23:03Z"
  },
  {
    "id": 2637817,
    "title": "Стефан (Архангельський)",
    "text": "Архієпископ Стефан (у миру Микола Павлович Архангельський; 22 липня 1861, Пензенська губернія — 1 (14) липня 1914) — єпископ Російської православної церкви, архієпископ Курський і Обоянський. Доктор богослов'я.",
    "timestamp": "2018-08-16T09:51:56Z"
  },
  {
    "id": 2637819,
    "title": "Печена Аляска",
    "text": "Печена Аляска (англ. \"baked Alaska\") — десерт із морозива, бісквіту та безе.",
    "timestamp": "2018-02-07T02:30:58Z"
  },
  {
    "id": 2637836,
    "title": "Туризм в Угорщині",
    "text": "Туризм в Угорщині славиться багатою історією. Угорщина стала тринадцятою за туристичною відвідуваністю країною світу у 2002 році.Template:Cite book У 2004 і 2005 роках кількість туристів, що приїжджли в країну, збільшилася на 7 %Template:Цитата:Новини. 98 відсотків туристів складають жителі європейських країн, здебільшого — Австрії, Німеччини та Словаччини. Туристичний сезон Угорщини триває з квітня по жовтень. У липні та серпні спостерігається пік туристичної активності. найпопулярнішим місце для туристів в Угорщині є Будапешт.",
    "timestamp": "2018-02-22T16:50:57Z"
  },
  {
    "id": 2637840,
    "title": "Євген (Бережков)",
    "text": "Єпископ Євген (в миру Іван Миколайович Бережков; 15 (27) березня 1864, село Мостцы, Володимирський повіт, Володимирська губернія — 24 жовтня 1921, село Писцово, Середской повіт, Іваново-Вознесенська губернія) — єпископ Російської православної церкви, єпископ Костромський і Галицький.",
    "timestamp": "2018-02-11T08:34:02Z"
  },
  {
    "id": 2637844,
    "title": "Життя Галілея",
    "text": "«Життя Галілея» (нім. Leben des Galilei) - п'єса німецького поета і драматурга Бертольта Брехта, одне з найзначніших його творів. Перша редакція п'єси датується тисяча дев'ятсот тридцять дев'ять роком, друга, яка значно відрізняється від першої, - 1945-м; на думку ряду дослідників, існує і третя редакція, спеціально підготовлена Брехтом до постановки спектаклю в театрі «Берлінер ансамбль» в 1955 році.",
    "timestamp": "2018-02-13T18:52:30Z"
  },
  {
    "id": 2637848,
    "title": "Татібана Гінтійо",
    "text": "Татібана Гінтійо (Template:lang-ja; 23 вересня 1569 — 30 листопада 1602) — глава японського клану Татібана під час періоду Сенґоку. Вона була дочкою Татібана Досецу, впливого васала клану Отомо (на той час вони були суперники з кланом Сімадзу). Оскільки в Досецу не було синів, він наказав, щоб Гінтійо стала главою сім'ї після його смерті. Шестирічна Гінтійо керувала кланом у скрутні часи. Вона навчала дівчат управлятися з мечами. Гінтійо одружилася з Татібаном, який був прийнятий до сім'ї та очолив родину Досецу.",
    "timestamp": "2018-03-08T14:20:01Z"
  },
  {
    "id": 2637851,
    "title": "Раґамаффін",
    "text": "Раґамаффін — це порода домашніх котів, які вийшли в результаті схрещування регдолл з різними породистими і дворовими котами. Так заводчики вивели кота з густою красивою шубкою і великою різноманітністю забарвлень.",
    "timestamp": "2018-03-14T22:49:03Z"
  },
  {
    "id": 2637852,
    "title": "Дар'я Черкасова",
    "text": "Чеснокова Дар'я (Template:нар 1 жовтня 1988, Харків) — хореограф, багаторазова чемпіонка зі спортивного бального танцю, переможниця європейських і світових турнірів з латиноамериканської програми. Кілька років поспільи українка виступає зі Стефано де Філіппо.",
    "timestamp": "2018-02-17T09:28:34Z"
  },
  {
    "id": 2637858,
    "title": "Нейтринна астрономія",
    "text": "Нейтринна астрономія — галузь астрономії, що спостерігає астрономічні об'єкти в спеціальних обсерваторіях за допомогою нейтринних детекторів. Частинки нейтрино утворюються внаслідок деяких видів радіоактивного розпаду, ядерних реакцій, подібно до тих, що відбуваються на Сонці, чи внаслідок зіткнення космічних променів з атомами. Через дуже слабку взаємодію з речовиною нейтрино надає унікальну можливість спостерігати за процесами, які недоступні для оптичних телескопів.",
    "timestamp": "2018-08-20T09:09:06Z"
  },
  {
    "id": 2637859,
    "title": "Щедре літо",
    "text": "«Щедре літо» (Template:lang-ru) — український радянський художній фільм 1950 року режисера Бориса Барнета за мотивами роману Єлизара Мальцева «Від щирого серця». Виробництво кіностудії імені Олександра Довженка.",
    "timestamp": "2018-01-27T13:35:17Z"
  },
  {
    "id": 2637861,
    "title": "Плошко Вадим Васильович",
    "text": "Плошко Вадим Васильович (16 березня 1933, с. Гречанівка, Снігурівський район, Миколаївська область — 28 березня 2015, с.Ольшана, Ічнянський район, Чернігівська область) — письменник, геолог, краєзнавець.",
    "timestamp": "2018-08-08T03:17:07Z"
  },
  {
    "id": 2637863,
    "title": "Чемпіонат Богемії з футболу 1913",
    "text": "Чемпіонат чеської футбольної асоціації 1913 — другий розіграш футбольного чемпіонату у Богемії. Змагання відбувалось у трьох регіональних лігах. У загальнонаціональному фіналі перемогу здобув клуб «Славія» (Прага), що переміг з рахунком 2:0 команду «Моравська Славія» (Брно).",
    "timestamp": "2018-03-16T21:28:44Z"
  },
  {
    "id": 2637865,
    "title": "Коваленко Світлана Олексіївна",
    "text": "Світлана Олексіївна Коваленко (7 вересня 1927, Суми, УРСР — 6 вересня 2007, Москва) — радянський і російський літературознавець. Дружина літературознавця О. М. Ніколюкіна.",
    "timestamp": "2018-02-01T17:12:06Z"
  },
  {
    "id": 2637872,
    "title": "Сасакі Руй",
    "text": "Сасакі Руй (Template:lang-ja) — жінка-майстер з кендзюцу початку періоду Едо (середина XVII століття). Вона була відома як «Дивно вдягнена жінка-майстер меча»佐々木累、朝日日本歴史人物事典、コトバンク、2012年8月1日閲覧。佐々木累、デジタル版 日本人名大辞典+Plus、コトバンク、2012年8月1日閲覧。実録、p.53-55..",
    "timestamp": "2018-02-04T22:31:11Z"
  },
  {
    "id": 2637875,
    "title": "Алана де ла Гарза",
    "text": "Алана де ла Гарза (Template:lang-en) — американська акторка. Насамперед відома завдяки ролям Конні Рабірози в телесеріалі «Закон і порядок», «Закон і порядок: Лос-Анджелес», «Закон і порядок: Спеціальний корпус» та Мерісол Делько-Кейн у телесеріалі «Місце Злочину: Маямі». У 2014—2015 роках зіграла роль детектива Джо Мартінес у серіалі «Вічність». У 2016—2017 роках з'явилася у серіалі «Мислити як злочинець: За кордоном», де виконала роль спеціального агента Клару Сегер.",
    "timestamp": "2018-02-04T22:41:22Z"
  },
  {
    "id": 2637878,
    "title": "Node-RED",
    "text": "Node-RED (Template:lang-uk) — інструмент для візуального програмування потоком даних, розроблений працівниками компанії IBM для поєднання різноманітних пристроїв, API та онлайн-сервісів як складових частин Інтернету речейTemplate:cite web.",
    "timestamp": "2018-02-09T11:25:37Z"
  },
  {
    "id": 2637879,
    "title": "Інокентій (Біляєв)",
    "text": "Архієпископ Інокентій (в миру Іван Васильович Біляєв; 23 вересня 1862, Володимирська губернія — 9 (22) вересня 1913, Санкт-Петербург) — єпископ Православної Російської Церкви; з 7 грудня 1909 року архієпископ Карталинский і Кахетинський, Екзарх Грузії, постійний член Священного Синоду.",
    "timestamp": "2018-02-04T22:46:12Z"
  },
  {
    "id": 2637881,
    "title": "Гладій Ганна Олексіївна",
    "text": "Ганна Олексіївна Гладій (Template:ДН, село Різдвяни, тепер Галицького району Івано-Франківської області — ?) — українська радянська діячка, завідувач бібліотеки при партійному кабінеті Бурштинського районного комітету КП(б)У Станіславської області. Депутат Верховної Ради УРСР 2-го скликання.",
    "timestamp": "2018-07-07T03:47:50Z"
  },
  {
    "id": 2637884,
    "title": "Серафим (Загоровський)",
    "text": "Ієромонах Серафим (в миру Микола Михайлович Загоровський; Template:ДН, Охтирка — Template:Дата смерті, Перемишль) — ієромонах, преподобноісповідник, местночтимый святої Української Православної Церкви.",
    "timestamp": "2018-02-01T17:12:11Z"
  },
  {
    "id": 2637885,
    "title": "Скаутинг для хлопчиків",
    "text": "«Скаутинг для хлопців» — книга про основні принципи скаутингу, написана Робертом Бейденом-Пауелом (Robert Baden-Powell), основоположником Скаутського руху у світі. Підручник був виданий у Лондоні, 1908 року. Ранні видання були написані та проілюстровані автором, а пізніші переписані іншими. Книга була спочатку посібником для самонавчання у спостереженні, мандрівництві та виживанні, а також самодисципліні та самовдосконаленні.",
    "timestamp": "2018-07-31T15:24:17Z"
  },
  {
    "id": 2637886,
    "title": "Jerry Heil",
    "text": "Jerry Heil, справжнє ім'я Шемаєва Яна Олександрівна (нар. 23 жовтня 1995, Васильків, Україна) — українська співачка, кавер-виконавиця та відеоблогер.",
    "timestamp": "2018-07-30T06:59:16Z"
  },
  {
    "id": 2637890,
    "title": "Герман (Осецький)",
    "text": "Єпископ Герман (у миру Олександр Косьмич Осецький; 19 лютого 1828, село Богородське, Любимський повіт, Ярославська губернія — 18 (30) грудня 1895, Олександро-Невська лавра) — єпископ Російської православної церкви, єпископ Кавказький і Єкатеринодарський. Духовний письменник.",
    "timestamp": "2018-01-27T14:17:49Z"
  },
  {
    "id": 2637893,
    "title": "КЗК «Покровська бібліотека»",
    "text": "КЗК «Покровська бібліотека» — публічна бібліотека розташована в смт Покровське Дніпропетровської області.",
    "timestamp": "2018-09-28T11:13:04Z"
  },
  {
    "id": 2637904,
    "title": "Турелик Марія Олексіївна",
    "text": "Марі́я Олексі́ївна Турелик (Template:ДН, село Войнилів, тепер смт Калуського району Івано-Франківської області — ?) — українська радянська діячка, селянка-активістка, ланкова колгоспу села Войнилів Станіславської області. Депутат Верховної Ради УРСР 2-го скликання.",
    "timestamp": "2018-07-07T17:26:32Z"
  },
  {
    "id": 2637905,
    "title": "Реакція Ґевальда",
    "text": "Реакція Ґевальда — це мультикомпонентна реакція конденсації α-метиленкарбонільної сполуки (кетону чи альдегіду, коли R2 = H) із активованим ацетонітрилом (коли EWG = COOAlk, CN, C(O)NH2) у присутності  сірки та  основи  з утворенням функціоналізованого 2-амінотіофену Template:Cite newsTemplate:Cite newsTemplate:Cite news.",
    "timestamp": "2018-02-01T17:12:14Z"
  },
  {
    "id": 2637906,
    "title": "Приштинський університет (1969)",
    "text": "Приштинський університет — вищий навчальний заклад, заснований у Соціалістичному автономному краї Косово, Соціалістичної Республіки Сербії (Югославії) у місті Приштині в 1969—1970 навчальному році і що працював до 1999 року. В результаті політичних і воєнних потрясінь, що слідували за ними взаємні вигнань викладачів різної етнічної приналежності, у місті з'явилися два ніяк не пов'язаних один з одним ВУЗи, які використовують одну і ту ж назву на різних мовах: албаномовний університет в Приштині (Template:Lang-sq) і сербомовний Приштинський університет, який перенесли в Північне КосовоTemplate:SfnTemplate:Sfn.",
    "timestamp": "2018-02-04T23:10:13Z"
  }
]