[
  {
    "id": 1282173,
    "title": "Хижани",
    "text": "Хижани або Кесини (Kessini, Chizzini) — давнє західнослов'янське плем'я, що входило до союзу Велетів й мешкали на узбережжі Балтійського моря, на північному сході сучасної Німеччини. Вони населяли землі між річками Варнов і Рекніц (Recknitz), сьогодні це територія розділена між німецьмики адміністративними районами з центром з містом Росток і Передньою Померанією-Рюген в федеральній землі Мекленбург-Передня Померанія.",
    "timestamp": "2017-11-20T16:39:30Z"
  },
  {
    "id": 1282175,
    "title": "Центральний банк Аргентинської Республіки",
    "text": "Центральний банк Аргентинської Республіки (Template:lang-es, BCRA) був заснований 28 травня 1935 року у формі акціонерного товариства. У 1946 році банк було націоналізовано. До його функцій входить регулювання і контроль за банківською та кредитною системою держави, системою обміну іноземних валют і випуском грошових знаків.",
    "timestamp": "2018-02-08T20:07:17Z"
  },
  {
    "id": 1282176,
    "title": "Відповідач",
    "text": "Відповідач — у цивільному судочинстві сторона, якій пред'явлено позов.",
    "timestamp": "2018-10-22T17:17:36Z"
  },
  {
    "id": 1282185,
    "title": "Базарська волость",
    "text": "Базарська волость — історична адміністративно-територіальна одиниця Овруцького повіту Волинської губернії Російської імперії. Волосний центр — містечко Базар.",
    "timestamp": "2018-02-08T10:24:41Z"
  },
  {
    "id": 1282191,
    "title": "Агуаділья (Пуерто-Рико)",
    "text": "Агуаділья (Template:lang-es, Template:МФА2) — муніципалітет Пуерто-Рико, острівної території у складі США. Заснований 1775 року.",
    "timestamp": "2017-11-05T22:39:17Z"
  },
  {
    "id": 1282193,
    "title": "Жир Василь Дорофійович",
    "text": "Жир Васи́ль Дорофі́йович (Template:н 1899, село Хандаліївка, Павлоградський повіт, Катеринославська губернія — Template:† 22 листопада 1921, містечко Базар, Базарська волость, Овруцький повіт, Волинська губернія) — козак 4-ї Київської дивізії Армії УНР, Герой Другого Зимового походу.",
    "timestamp": "2018-06-19T05:10:42Z"
  },
  {
    "id": 1282197,
    "title": "Термопласти",
    "text": "Термопласти — полімерні матеріали, здатні оборотно переходити при нагріванні у високоеластичний або в'язкотекучий стан.",
    "timestamp": "2017-05-02T01:07:45Z"
  },
  {
    "id": 1282200,
    "title": "Тайлер (прізвище)",
    "text": "Та́йлер (Template:lang-en) — англійське прізвище, яке можна перекласти як «господар готелю».",
    "timestamp": "2018-04-07T11:42:35Z"
  },
  {
    "id": 1282207,
    "title": "Іщенко Іван Іванович (козак)",
    "text": "І́щенко Іва́н Іва́нович (29 травня 1898, Зіньків, Полтавська губернія — 22 листопада 1921, містечко Базар, Базарська волость, Овруцький повіт, Волинська губернія) — козак 4-ї гарматної бригади 4-ї Київської дивізії Армії УНР, учасник Другого Зимового походу.",
    "timestamp": "2018-03-24T05:34:53Z"
  },
  {
    "id": 1282214,
    "title": "Голос країни (другий сезон)",
    "text": "«Голос країни 2» — другий сезон співочого талант-шоу «Голос країни».",
    "timestamp": "2018-04-09T07:13:35Z"
  },
  {
    "id": 1282215,
    "title": "Піаністка (фільм)",
    "text": "«Піаністка» (Template:lang-fr) — фільм-драма 2001 року, режисера Міхаеля Ганеке за мотивами однойменного роману Ельфріди Єлінек з Ізабель Юппер і Бенуа Мажимель в головних ролях. Ґран-прі Каннського кінофестивалю 2001 року.",
    "timestamp": "2017-11-15T22:46:39Z"
  },
  {
    "id": 1282221,
    "title": "Вираз (інформатика)",
    "text": "Ви́раз (Template:lang-en) — мовна конструкція для обчислення значення невідомої величини за допомогою одного або декількох операндів. Це комбінація певних сутностей, констант, змінних, операторів і функцій, які інтерпретуються згідно з певними правилами черговості і асоціації для конкретної мови програмування, яка обчислює і потім виробляє інше значення. Цей процес, як в математичних виразах, називається обчисленням. Значення можуть бути різних типів, наприклад: числові, рядкові й логічні.",
    "timestamp": "2017-12-08T13:23:49Z"
  },
  {
    "id": 1282222,
    "title": "Динамотор",
    "text": "Динамотор — електромеханічний агрегат, який конструктивно поєднує в собі електричний двигун і генератор. Як правило, дана електрична машина має один якір з декількома роздільними обмотками, які підключені до двох колекторів. Статор також може мати декілька обмоток, зазвичай силові і пускові, різної конструкції. Основне призначення динамоторів — зміна параметрів електричної енергії.",
    "timestamp": "2013-03-31T13:57:37Z"
  },
  {
    "id": 1282223,
    "title": "Бродячі тварини",
    "text": "Бродя́чі, або бродя́жні твари́ни (engl. Vagrant species) — загальна назва всіх видів тварин, які ведуть неосілий спосіб життя або окремі особини яких здатні до дальніх виселень за межі своїх популяцій. Бродячий спосіб життя часто веде до загибелі особин, проте саме він є основою формування нових колоній. Особливо яскраво це проявляється у тварин, які стають синантропами або урбофілами і активно розселяються по мережі людських поселень або інших неприродних для них середовищ, видозмінених людиною, у тому числі агроценозів.",
    "timestamp": "2018-10-03T16:01:43Z"
  },
  {
    "id": 1282227,
    "title": "Волиця (Теребовлянська)",
    "text": "Воли́ця (Теребовля́нська) — колишнє село на Теребовлянщині, передмістя Теребовлі. Приєднане після Другої світової війни до міста Теребовля.",
    "timestamp": "2016-01-31T15:12:53Z"
  },
  {
    "id": 1282228,
    "title": "Голос країни (перший сезон)",
    "text": "Перший сезон шоу «Голос країни» виходив на каналі «1+1» щонеділі о 20:00 від 22 травня до 11 вересня 2011.",
    "timestamp": "2018-03-15T15:19:17Z"
  },
  {
    "id": 1282236,
    "title": "Кам'яниця (Глухів)",
    "text": "Кам'яниця (Глухів) — пам'ятка архітектури XVIII ст., найстаріша цивільна будівля Глухова. Мурований двоповерховий будинок стоїть у центральній частині міста, на одній з найстародавніших головних вулиць — Путивльській, за межами колишньої фортеці. Причілковим західним фасадом виходить на червону лінію. Відіграє роль архітектурного акценту в довколишній забудові.",
    "timestamp": "2016-06-27T10:34:13Z"
  },
  {
    "id": 1282237,
    "title": "Список найвищих статуй світу",
    "text": "Список найвищих статуй світу .Цей список найвищих статуй включає статуї загальною висотою не менше 40 метрів і фігурою не менш 20 метрів. Він містить статуї в тому сенсі, що вони стоять, сидять або це архітектурний ансамбль. Не вільно стоячі фігури, такі як Великий Будда в Лешані або знищені статуї, наприклад така як Будди в Баміані, не включаються.",
    "timestamp": "2018-09-30T14:26:30Z"
  },
  {
    "id": 1282238,
    "title": "Будда Весняного Храму",
    "text": "Будда Весняного Храму (Template:lang-cn, Template:zh) — найбільша статуя у світі, зображує будду Вайрочану. Знаходиться в селищі Чжаоцунь в провінції Хенань, недалеко від національного шосе № 311. Статуя була завершена в 2002 році.",
    "timestamp": "2018-10-23T13:06:10Z"
  },
  {
    "id": 1282248,
    "title": "Шабалін Микола Михайлович",
    "text": "Шабалі́н Мико́ла Миха́йлович (*3 березня 1957, місто Іжевськ) — удмуртський та російський композитор, лауреат премії імені Дмитра Шостаковича (1996), член Спілки композиторів Росії.",
    "timestamp": "2013-02-18T14:56:52Z"
  },
  {
    "id": 1282249,
    "title": "Луцій Мунацій Планк",
    "text": "Луцій Мунацій Планк (Template:lang-la; 87, Тібур — 15 рік до н. е.) — політичний та військовий діяч пізньої Римської республіки та ранньої Римської імперії, консул 42 року до н. е., цензор 22 року до н. е., відомий красномовець.",
    "timestamp": "2018-08-04T16:29:38Z"
  },
  {
    "id": 1282250,
    "title": "Шабанова Ірина Миколаївна",
    "text": "Шаба́нова Іри́на Микола́ївна (*10 вересня 1938, місто Уфа) — удмуртський і російський науковець-фізик, доктор фізико-математичних наук (1990), професор (1993). Член наукової Ради з фізики металів РАН, фізико-хімії поверхонь УрВ РАН. Лауреат Державної премії СРСР (1985), Державної премії Удмуртії (1994).",
    "timestamp": "2017-05-21T02:07:18Z"
  },
  {
    "id": 1282251,
    "title": "Марк Тулій Цицерон (консул-суфект 30 року до н. е.)",
    "text": "Марк Тулій Цицерон Молодший (Template:lang-la; 65 — після 23 року до н. е.) — політичний діяч пізньої Римської республіки та державний діяч ранньої Римської імперії, консул-суфект 30 року до н. е.",
    "timestamp": "2018-07-05T00:37:05Z"
  },
  {
    "id": 1282252,
    "title": "28-ма єгерська дивізія (Третій Рейх)",
    "text": "28-ма єгерська дивізія (Третій Рейх) (Template:lang-de) — єгерська піхотна дивізія Вермахту за часів Другої світової війни.",
    "timestamp": "2018-04-27T19:09:17Z"
  },
  {
    "id": 1282254,
    "title": "Марк I",
    "text": "«Марк I» (Automatic Sequence Controlled Calculator — автоматичний обчислювач, керований послідовностями)Повне ім'я, написане на корпусі комп'ютера — «Aiken-IBM Automatic Sequence Controlled Calculator Mark I» . — перший американський програмований комп'ютер. Розроблений і побудований у 1941 р. за контрактом з IBM молодим гарвардським математиком Говардом Ейкеном та ще чотирма інженерами цієї компанії на основі ідей англійця Чарльза Беббіджа.",
    "timestamp": "2017-11-15T15:05:49Z"
  },
  {
    "id": 1282256,
    "title": "Мінікомп'ютер",
    "text": "Мінікомп'ютер — термін, поширений в 1960-1980-х рр.., щодо класу комп'ютерів, розміри яких варіювалися від шафи до невеликої кімнати. З кінця 1980-х років повністю витіснені персональними комп'ютерами, які мали назву «мікрокомп'ютери» в рамках старої класифікації.",
    "timestamp": "2017-03-28T09:06:06Z"
  },
  {
    "id": 1282257,
    "title": "Городищенське районне територіальне медичне об'єднання",
    "text": "Городищенське районне територіальне медичне об'єднання (Городищенське РТМО) — головна установа охорони здоров'я в Городищенському районі Черкаської області. Надає кваліфіковану медичну допомогу жителям району. Об'єднання очолює заслужений лікар України Кравченко Василь Михайлович.",
    "timestamp": "2015-10-07T20:33:00Z"
  },
  {
    "id": 1282258,
    "title": "Говард Ейкен",
    "text": "Говард Гетевей Ейкен (Template:lang-en; 8 березня 1900, Хобокен, штат Нью-Джерсі, США — 14 березня 1973, Сент-Луїс, штат Міссурі, США) — американський піонер комп'ютеробудування. На посаді інженера IBM керував роботами зі створення першого американського комп'ютера «Марк I».",
    "timestamp": "2018-05-24T13:27:33Z"
  },
  {
    "id": 1282260,
    "title": "28-ма піхотна дивізія (Третій Рейх)",
    "text": "28-ма піхотна дивізія (Третій Рейх) (Template:lang-de) — піхотна дивізія Вермахту за часів Другої світової війни. 1 грудня 1941 переформована на 28-му легку піхотну дивізію.",
    "timestamp": "2018-05-13T05:48:49Z"
  },
  {
    "id": 1282263,
    "title": "Карликові австралійські пітони",
    "text": "Карликові австралійські пітони (Antaresia) — рід неотруйних змій з родини Пітони. Має 4 види.",
    "timestamp": "2017-05-20T09:22:35Z"
  },
  {
    "id": 1282265,
    "title": "Канталь (сплав)",
    "text": "Канта́ль (кантал, kanthal; FeCrAl) — прецизійний сплав на основі заліза, що містить близько 20…22 % хрому, 5…6 % алюмінію і 0,5 % кобальту, що характеризуються високим електричним опором та жаротривкістю.",
    "timestamp": "2018-05-26T05:26:44Z"
  },
  {
    "id": 1282266,
    "title": "Битва під Любаром",
    "text": "Би́тва під Лю́баром відбулася 16—26 вересня 1660 року під час Московсько-польської війни 1654—1667. Польські війська в союзі з кримсько-татарським військом та козаками Івана Виговського зійшлися в бою з московською армією під командуванням боярина Василя Шереметьєва і козаками наказного гетьмана Війська Запорізького Тимоша Цюцюри.",
    "timestamp": "2018-08-13T17:39:39Z"
  },
  {
    "id": 1282268,
    "title": "28-ма легка піхотна дивізія (Третій Рейх)",
    "text": "28-ма легка піхотна дивізія (Третій Рейх) (Template:lang-de) — легка піхотна дивізія Вермахту за часів Другої світової війни. 1 липня 1942 переформована на 28-му єгерську дивізію.",
    "timestamp": "2018-05-28T10:01:05Z"
  },
  {
    "id": 1282270,
    "title": "Дуглас Енгельбарт",
    "text": "Дуглас Карл Енгельбарт (Template:lang-en; Template:н 30 січня 1925, Орегон — † 2 липня 2013, Каліфорнія) — один з перших дослідників людино-машинного інтерфейсу і винахідник комп'ютерного маніпулятора — мишіTemplate:cite news, глава лабораторії в якій був створений перший графічний інтерфейс користувача, підготовлений прототип текстового редактора і розроблена концепція гіпертексту.",
    "timestamp": "2018-08-10T15:50:36Z"
  },
  {
    "id": 1282271,
    "title": "Новоолексіївська волость",
    "text": "Новоолексіївська волость — історична адміністративно-територіальна одиниця Бердянського повіту Таврійської губернії.",
    "timestamp": "2013-09-30T17:49:44Z"
  },
  {
    "id": 1282273,
    "title": "5-та легка піхотна дивізія (Третій Рейх)",
    "text": "5-та легка піхотна дивізія (Третій Рейх) (Template:lang-de) — легка піхотна дивізія Вермахту за часів Другої світової війни.",
    "timestamp": "2018-05-28T10:00:38Z"
  },
  {
    "id": 1282275,
    "title": "Карликовий пітон Стімсона",
    "text": "Карликовий пітон Стімсона (Antaresia stimsoni) — неотруйна змія з роду Карликові австралійські пітони родини Пітони. Має 2 підвиди.",
    "timestamp": "2015-01-12T17:34:09Z"
  },
  {
    "id": 1282276,
    "title": "Сальто",
    "text": "Са́льто (Template:lang-it — стрибок, раніш використовувався нині застарілий вираз «сальто-морталє») — вид стрибка в гімнастиці, акробатиці або інших видах спорту. Під час стрибка спортсмен робить в повітрі оберт навколо горизонтальної осі (центра ваги власного тіла) на 360°. Іноді спортсмен робить декілька обертів під час одного стрибка. В цьому разі кажуть про «підвійне сальто», «потрійне...», тощо.",
    "timestamp": "2016-10-18T11:20:35Z"
  },
  {
    "id": 1282278,
    "title": "Берестовацька волость",
    "text": "Берестовацька волость — історична адміністративно-територіальна одиниця Бердянського повіту Таврійської губернії.",
    "timestamp": "2013-09-22T16:54:22Z"
  },
  {
    "id": 1282281,
    "title": "Пітон папуановий",
    "text": "Пітон папуановий (Apodora papuana) — єдиний представник роду неотруйних змій папуанових пітонів родини Пітони. Інші назви «оливковий пітон» та «великий водяний пітон».",
    "timestamp": "2017-05-20T11:12:43Z"
  },
  {
    "id": 1282296,
    "title": "Удав справжній",
    "text": "Удав справжній  (Boa constrictor L.) — єдиний представник роду неотруйних змій Boa родини Удавові. Має 10 підвидів. Раніше до роду зараховували 4 види. Втім з 2001 року визнано справжнього удава як єдиний вид.",
    "timestamp": "2018-06-22T08:29:48Z"
  },
  {
    "id": 1282300,
    "title": "Безодня Челленджера",
    "text": "Безодня Челленджера (англ. Challenger Deep) — найглибша точка Маріанської западини, що знаходиться в Тихому океані. Її глибина становить 10 994 м нижче рівня моря.",
    "timestamp": "2018-09-14T11:46:40Z"
  },
  {
    "id": 1282306,
    "title": "Аліково (Аліковський район)",
    "text": "А́ліково (Template:lang-ru, Template:lang-cv) — село у Чувашії Російської Федерації, центр Аліковського сільського поселення та всього Аліковського району.",
    "timestamp": "2015-05-05T07:41:28Z"
  },
  {
    "id": 1282308,
    "title": "Расулов Тимур Рамізович",
    "text": "Тимур Рамізович Расулов (Template:lang-ru; 17 березня 1989, м. Новочебоксарськ, СРСР) — російський хокеїст, захисник. Виступає за «Зауралля» (Курган) у Вищій хокейній лізі.",
    "timestamp": "2015-11-22T04:24:31Z"
  },
  {
    "id": 1282313,
    "title": "Купідон (супутник)",
    "text": "Купідон (Template:lang-en) — внутрішній супутник Урана.",
    "timestamp": "2017-04-22T13:24:06Z"
  },
  {
    "id": 1282318,
    "title": "Васильєв Валерій Юрійович",
    "text": "Валерій Юрійович Васильєв (Template:lang-ru; 17 березня 1990, м. Тольятті, СРСР) — російський хокеїст, захисник. Виступає за «Сариарка» (Караганда) у Вищій хокейній лізі.",
    "timestamp": "2013-06-30T18:42:21Z"
  },
  {
    "id": 1282321,
    "title": "Тихоокеанський удав",
    "text": "Тихоокеанський удав (Candoia) — рід неотруйних змій з родини Удавові, що мешкають на островах південно-східної Азії. Має 5 видів. Інша назва — «гостроносі удави».",
    "timestamp": "2018-04-03T19:38:17Z"
  },
  {
    "id": 1282323,
    "title": "Гейді Гаутала",
    "text": "Гейді Аннелі Гаутала (Template:lang-fi, Template:н 14 листопада 1955, Оулу, Фінляндія) — фінський політик, у минулому — голова Зеленого союзу Фінляндії і депутат Європейського парламенту. З червня 2011 року - Міністр у справах міжнароного співробітництва Фінляндії.",
    "timestamp": "2017-11-30T22:30:01Z"
  },
  {
    "id": 1282325,
    "title": "Андре Кальмет",
    "text": "Андре Кальметт, Template:lang-fr (* Template:ДН, Париж - †Template:ДС) — французький кінорежисер, актор.",
    "timestamp": "2017-07-15T17:35:00Z"
  },
  {
    "id": 1282326,
    "title": "Упячка.ру",
    "text": "Упячка (Уп'ячка) — інтернет-сайт, назва якого походить від інтернет-мему, що з'явився, згідно з «антології мережевого фольклору» ru / upyachka «Антологія мережевого фольклору», в результаті спроби штучного створення медіавірусів а. Джерелом медіавірусів називають мережевий ресурс «Лепрозорій». Авторство мема антологія приписує учаснику проекту «Лепрозорій» unab0mber'у, проте насправді автором зображення, на якому вперше було вжито слово «Упячка» був учасник «Лепрозорію» під ніком xbost. Цей інтернет-мем став популярним після атаки, виробленої учасниками «Лепрозорій» на Хабрахабр Пам'ятник Упячке .",
    "timestamp": "2015-10-11T19:40:54Z"
  },
  {
    "id": 1282327,
    "title": "Бутильована вода",
    "text": "Бутильована вода (з Template:lang-en — «вода в пляшках») — питна вода: колодязна, дистильована, джерельна, або мінеральна — упакована в пластикові або скляні пляшки; може бути газованою («шипучою») або негазованою. Місткість тари —  від невеликих (0,33 мл) порцій води, до великих 22-літрових бутлів для кулерів з водою.",
    "timestamp": "2018-07-03T08:40:32Z"
  },
  {
    "id": 1282328,
    "title": "Планетезималь",
    "text": "Планетезималь (від Template:lang-en — планета та Template:lang — нескінченно мала) — небесне тіло на орбіті навколо зорі, що утворюється в результаті поступового осідання на ньому менших об'єктів та частинок протопланетного дискуTemplate:А-Е-С.",
    "timestamp": "2017-07-31T13:33:57Z"
  },
  {
    "id": 1282330,
    "title": "Господарський суд Сумської області",
    "text": "Господа́рський суд Сумсько́ї о́бласті — місцевий спеціалізований господарський суд першої інстанції загальної юрисдикції, розташований в місті Суми, юрисдикція якого поширюється на Сумську область.",
    "timestamp": "2018-09-04T17:10:50Z"
  },
  {
    "id": 1282333,
    "title": "Ролик Алла Миколаївна",
    "text": "Алла Миколаївна Ролик (18 квітня 1932, Київ) — українська актриса театру та кіно.",
    "timestamp": "2016-09-24T20:52:23Z"
  },
  {
    "id": 1282334,
    "title": "Крамар Михайло Полікарпович",
    "text": "Миха́йло Поліка́рпович Кра́мар (Template:нар 4 листопада 1935, с. Пії, Миронівського району Київської області — Template:пом 26 серпня 2008, Київ) — український актор театру і кіно. Народний артист України (2000)Указ Президента України від 23 березня 2000 року № 515.",
    "timestamp": "2018-07-27T20:37:02Z"
  },
  {
    "id": 1282337,
    "title": "Удав гадюковий",
    "text": "Удав гадюковий (Candoia aspera) — неотруйна змія з роду Тихоокеанський удав родини Удавові. Має 2 підвиди. Інші назви «новогвінейська земляна змія», «удав шорсткий».",
    "timestamp": "2017-05-20T13:43:28Z"
  },
  {
    "id": 1282338,
    "title": "Хірлеппосі",
    "text": "ХірлеппосіПаспорт населеного пунктуКартографічне опис меж с. Хірлеппосі (Template:lang-cv) - селище, входить до Таутовського сільського поселення Аліковського району Чувашії.",
    "timestamp": "2017-07-01T13:04:10Z"
  },
  {
    "id": 1282351,
    "title": "Болградський Сивашик",
    "text": "Бо́лградський Сива́шик — лиман річки Атманай, один з лиманів Азовського моря.",
    "timestamp": "2016-04-27T16:27:15Z"
  },
  {
    "id": 1282362,
    "title": "Удав кілеватий",
    "text": "Удав кілеватий (Candoia carinata) — неотруйна змія з роду Тихоокеанський удав родини Удавові. Має 2 підвиди. Інші назви «удав целебеський» та «новогвінейський деревний удав».",
    "timestamp": "2017-05-20T13:43:29Z"
  },
  {
    "id": 1282363,
    "title": "GSM Association",
    "text": "GSM Association (також відома як GSMA, Template:lang-de  — Асоціація «Спеціальна Група Мобільних технологій»)  — об'єднання мобільних операторів та інших компаній мобільного зв'язку з усього світу.",
    "timestamp": "2016-09-18T12:43:27Z"
  },
  {
    "id": 1282369,
    "title": "Травневий проспект",
    "text": "Травневий проспект (Template:lang-es) — проспект у Буенос-Айресі, столиці Аргентини. Він пов'язує Пласа де Мажо з площею Конгресу. Має довжину 1,5 км із заходу на схід, переходить у Авеніда Рівадавія.",
    "timestamp": "2017-04-11T19:41:48Z"
  },
  {
    "id": 1282371,
    "title": "Координаційна рада з питань розвитку громадянського суспільства",
    "text": "Координаційна рада з питань розвитку громадянського суспільства — допоміжний орган при Президентові України.",
    "timestamp": "2018-10-23T07:04:11Z"
  },
  {
    "id": 1282372,
    "title": "Проспект Генерала Паса",
    "text": "Проспект Генерала Паса (Template:lang-es) — кільцева вулиця навколо Буенос-Айреса, є національною автострадою № А001. Є однією з небагатьох безкоштовних аргентинських автострад. Майже упродовж всієї довжини вулиця має по три смуги руху в кожному напрямку.",
    "timestamp": "2017-08-18T17:18:49Z"
  },
  {
    "id": 1282376,
    "title": "Вітторіо Меано",
    "text": "Вітторіо Меано (Template:lang-it; 1860, Суза, Італія — 1 червня 1904, Буенос-Айрес) — аргентинський архітектор італійського походження.",
    "timestamp": "2017-12-10T10:09:25Z"
  },
  {
    "id": 1282387,
    "title": "Mammillaria fittkaui",
    "text": "Mammillaria fittkaui (Template:lang-uk)Template:УБН — сукулентна рослина з роду мамілярія (Mammillaria) родини кактусових (Cactaceae). Декоративна культура.",
    "timestamp": "2017-02-20T14:31:06Z"
  },
  {
    "id": 1282388,
    "title": "Ісхаков Ільшат Алмазович",
    "text": "Ільшат Алмазович Ісхаков (Template:lang-ru; 3 лютого 1987, м. Нижньокамськ, СРСР) — російський хокеїст, нападник. Виступає за «Донбас-2» (Донецьк) у Професіональній хокейній лізі.",
    "timestamp": "2013-01-25T14:40:27Z"
  },
  {
    "id": 1282397,
    "title": "Ромбічні пітони",
    "text": "Ромбічні пітони (Morelia) — рід неотруйних змій Ромбічні пітони родини Пітони. Має 12 видів. Інша назва «килимові пітони».",
    "timestamp": "2017-05-20T11:28:57Z"
  },
  {
    "id": 1282401,
    "title": "In a Major Way",
    "text": "In a Major Way — другий студійний альбом американського репера E-40, виданий 14 березня 1995 р. лейблами Jive Records та Sick Wid It Records. Платівка містить продакшн від Кевіна Ґарднера, Майка Мослі, Сема Бостіка, Studio Ton та ін. Виконавчий продюсер: E-40. Реліз посів 2-гу сходинку чарту Top R&B/Hip-Hop Albums та 13-те місце чарту Billboard 200,[:Template:Allmusic (((In a Major Way > Charts & Awards > Billboard Albums)))]. All Media Guide, LLC. Retrieved on 2010-01-07. продавши 70 тис. копій за перший тиждень.Template:cite web У записі альбому взяли участь B-Legit, Suga-T, Тупак, Mac Shawn, Spice 1, Celly Cel, Mac Mall та ін. RIAA визнала реліз платиновим.",
    "timestamp": "2016-12-22T11:55:59Z"
  },
  {
    "id": 1282406,
    "title": "Пітон аметистовий",
    "text": "Пітон аметистовий (Morelia amethistina) — неотруйна змія з роду Ромбічні пітони родини Пітони.",
    "timestamp": "2017-05-20T11:12:33Z"
  },
  {
    "id": 1282407,
    "title": "Міфологія інків",
    "text": "Міфологія інків — набір легенд та вірувань, що виникли у часи розквіту цивілізації інків.",
    "timestamp": "2018-05-06T19:49:07Z"
  },
  {
    "id": 1282408,
    "title": "Амаду Тумані Туре",
    "text": "Амаду Тумані Туре (Template:lang-fr; народ. 4 листопада 1948, Мопті, Малі) — президент Малі з 26 березня 1991 до 8 червня 1992 і з 8 червня 2002 до 22 березня 2012, генерал.",
    "timestamp": "2017-03-07T05:35:00Z"
  },
  {
    "id": 1282414,
    "title": "Нейгофнунгська волость",
    "text": "Нейгофнунгська волость — історична адміністративно-територіальна одиниця Бердянського повіту Таврійської губернії.",
    "timestamp": "2013-09-30T17:50:24Z"
  },
  {
    "id": 1282416,
    "title": "Сем Волтон",
    "text": "Се́мюель Мур \"Сем\" Во́лтон (29 березня 1918, Кінгфішер, штат Оклахома - 5 квітня 1992) — американський бізнесмен, найбільш відомий як засновник мережі магазинів Wal-Mart.",
    "timestamp": "2017-08-04T09:40:20Z"
  },
  {
    "id": 1282417,
    "title": "Пітон строкатий",
    "text": "Пітон строкатий (Morelia spilota) — неотруйна змія з роду Ромбічні пітони родини Пітони. Має 7 підвидів.",
    "timestamp": "2017-05-20T11:12:47Z"
  },
  {
    "id": 1282418,
    "title": "Зв'язок у Маріуполі",
    "text": "Зв'язок у Маріуполі представлений провідними українськими операторами мобільного зв'язку (Київстар, Life:), МТС Україна, ТриМоб). Раніше у місті працювало 10 АТС, останнім часом  додалося 8 цифрових АТС.",
    "timestamp": "2013-03-23T20:00:28Z"
  },
  {
    "id": 1282421,
    "title": "Tha Hall of Game",
    "text": "Tha Hall of Game — третій студійний альбом американського репера E-40, виданий лейблами Jive Records та Sick Wid It Records 29 жовтня 1996 р. Виконавчий продюсер: E-40. Платівка містить продакшн від Ента Бенкса, Майка Мослі, Ріка Рока, Studio Ton, Тоуна Капоне та ін. Реліз посів 2-ге місце в чарті Top R&B/Hip-Hop Albums та 4-ї сходинки в чарті Billboard 200.[:Template:Allmusic (((Tha Hall of Game > Charts & Awards > Billboard Albums)))]. All Media Guide, LLC. Retrieved on 2009-12-30. У записі альбому взяли участь B-Legit, D-Shot, Suga-T, Тупак, Luniz, Cold 187um, Kokane, Keak da Sneak, Levitti та ін.",
    "timestamp": "2017-05-20T14:55:06Z"
  },
  {
    "id": 1282423,
    "title": "Пітон зелений",
    "text": "Пітон зелений (Morelia viridis) — неотруйна змія з роду Ромбічні пітони родини Пітони.",
    "timestamp": "2017-05-20T11:12:37Z"
  },
  {
    "id": 1282429,
    "title": "Почесні громадяни міста Слов'янська",
    "text": "Почесний громадянин Слов'янська — звання, яке присуджує Слов'янська міська рада за великий особистий внесок у соціально-економічний і культурний розвиток міста Слов'янська, людям, які своїми досягненнями в науці, техніці, культурі та спорті, у військовій і державній сферах, що сприяли росту авторитету міста в державі та за її межами.",
    "timestamp": "2017-10-29T09:46:37Z"
  },
  {
    "id": 1282431,
    "title": "Вузькочеревний удав",
    "text": "Вузькочеревний удав (Corallus) — неотруйна змія з родини Удавові. Має 7 видів. Інша назва «деревні удави».",
    "timestamp": "2018-04-03T19:42:53Z"
  },
  {
    "id": 1282432,
    "title": "Жорж Мельєс",
    "text": "Жо́рж Мельє́с (Template:lang-fr, 8 грудня 1861 — 21 січня 1938) — французький підприємець, режисер, один з засновників світового кінематографа.",
    "timestamp": "2018-09-01T05:34:25Z"
  },
  {
    "id": 1282440,
    "title": "Слов'янська міська рада",
    "text": "Слов'я́нська міська́ ра́да — адміністративно-територіальна одиниця та орган місцевого самоврядування у Донецькій області з адміністративним центром у місті обласного значення Слов'янську. Входить до складу Краматорської агломерації.",
    "timestamp": "2017-10-01T03:53:39Z"
  },
  {
    "id": 1282456,
    "title": "Обитічна Коса (заказник)",
    "text": "Обиті́чна Коса́ — ландшафтний заказник загальнодержавного значення. Розташований у Приморському районі Запорізької області, на південний захід від міста Приморська.",
    "timestamp": "2018-01-03T09:47:25Z"
  },
  {
    "id": 1282462,
    "title": "Електронний контроль стійкості",
    "text": "Електронний контроль стійкості (Template:lang-en, ESC; ЕКС) — активна система безпеки автомобіля, що дозволяє запобігти заносу за допомогою управління комп'ютером моментами сили колеса (одночасно одного чи декількох). Є допоміжною системою автомобіля.",
    "timestamp": "2017-02-12T03:57:01Z"
  },
  {
    "id": 1282463,
    "title": "Базиліка Сан-Франческо в Ассізі",
    "text": "Базиліка Сан-Франческо в Ассізі, церква Святого Франциска в монастирі Сакро-Конвенто (Template:lang-it) — головний храм ордену францисканців, розташований в місті Ассізі (Італія, адміністративний регіон Умбрія). Є однією з семи папських базилік, але не входить до переліку великих базилік Католицької церквиПерелік базилік в Італії.",
    "timestamp": "2018-08-28T05:10:00Z"
  },
  {
    "id": 1282467,
    "title": "The Element of Surprise",
    "text": "The Element of Surprise — четвертий студійний альбом американського репера E-40, виданий лейблами Jive Records та Sick Wid It Records 11 серпня 1998 р. Виконавчий продюсер: E-40. Платівка містить продакшн від Ента Бенкса, Майка Мослі, Ріка Рока, Сема Бостіка та ін. Реліз посів 4-те місце в чарті Top R&B/Hip-Hop Albums та 13-ту сходинку в чарті Billboard 200.[:Template:Allmusic (((The Element of Surprise > Charts & Awards > Billboard Albums)))]. All Media Guide, LLC. Retrieved on 2009-12-30. У записі альбому взяли участь B-Legit, D-Shot, Suga-T, Jayo Felony, C-Bo, Mack 10, WC, Busta Rhymes, Levitti, Master P та ін. RIAA врешті-решт визнала реліз золотим.",
    "timestamp": "2017-11-18T21:10:10Z"
  },
  {
    "id": 1282470,
    "title": "Анікєєв Віталій Валерійович",
    "text": "Віталій Валерійович Анікєєв (Template:lang-ru; 13 грудня 1985, м. Челябінськ, СРСР) — російський хокеїст, центральний нападник. Виступає за «Донбас-2» (Донецьк) у Професіональній хокейній лізі.",
    "timestamp": "2013-01-25T14:40:11Z"
  },
  {
    "id": 1282476,
    "title": "Церква Зоравар",
    "text": "Церква Зоравар (Єгвардський монастир Св. Теодороса) знаходиться за 3 км на північний схід від Єгварда (Котайкський марз, Вірменія) — біля підніжжя гори Аралер. Її в 661–685 рр. побудував Григорій Маміконян, який володів Аштаракськими землями.",
    "timestamp": "2014-07-11T08:54:37Z"
  },
  {
    "id": 1282479,
    "title": "Яцина Василь Григорович",
    "text": "Васи́ль Григо́рович Яци́наТак у списку розстріляних і у книгах В. Вериги і Б. Тимошенка. В анкеті — Яценко (?). (24 березня 1898, село Горби, Кременчуцький повіт, Полтавська губернія — 22 листопада 1921, містечко Базар, Базарська волость, Овруцький повіт, Волинська губернія) — козак 4-ї гарматної бригади 4-ї Київської дивізії Армії УНР, Герой Другого Зимового походу.",
    "timestamp": "2018-02-21T16:42:23Z"
  },
  {
    "id": 1282482,
    "title": "Charlie Hustle: The Blueprint of a Self-Made Millionaire",
    "text": "Charlie Hustle: The Blueprint of a Self-Made Millionaire — п'ятий студійний альбом американського репера E-40, виданий 9 листопада 1999 р. лейблами Jive Records та Sick Wid It Records. Виконавчий продюсер: E-40. Реліз посів 2-гу сходинку чарту Billboard Top R&B/Hip-Hop Albums та 28-ме місце Billboard 200.[:Template:Allmusic (((Charlie Hustle: The Blueprint of a Self-Made Millionaire > Charts & Awards > Billboard Albums)))]. All Media Guide, LLC. Retrieved on 2009-12-30. У записі альбому взяли участь B-Legit, D-Shot, Suga-T, C-Bo, Fat Joe, Celly Cel, Levitti, The Mossie, Juvenile та ін.",
    "timestamp": "2017-11-18T20:44:31Z"
  },
  {
    "id": 1282498,
    "title": "Дженніфер Лоренс",
    "text": "Дже́нніфер Шре́йдер Ло́ренс (Template:lang-en; Template:МФА), (Template:н Template:ДН, Луїсвілл, США) — американська акторка, найбільш відома за ролями у фільмах «Зимова кістка» (2010), за яку була номінована на премію «Оскар» і «Золотий глобус», «Люди Ікс: Перший клас» (2011), «Голодні ігри» (2012), «Збірка промінців надії» (2012) та «Джой» (2016). За останній вона отримала «Золотий глобус» за найкращу жіночу роль.",
    "timestamp": "2018-10-08T08:01:14Z"
  },
  {
    "id": 1282503,
    "title": "Завадський Володимир Георгійович",
    "text": "Володимир Георгійович Завадський (Template:ДН — Template:ДС)  — заступник командира ескадрильї 511-го окремого розвідувального Ясського авіаційного полку (5-а повітряна армія,2-й Український фронт), Герой Радянського Союзу (1944), старший лейтенант.",
    "timestamp": "2018-03-14T12:05:49Z"
  },
  {
    "id": 1282506,
    "title": "Comanche",
    "text": "Comanche («Кома́нч») — українська торгова марка велосипедів. На ринку України — з 1998 року.",
    "timestamp": "2017-10-13T23:06:46Z"
  },
  {
    "id": 1282507,
    "title": "Теодор Левітт",
    "text": "Теодор Левітт — американський економіст, професор Гарвардської школи бізнесу, вважається одним з засновників сучасного світознавства.",
    "timestamp": "2015-08-03T12:44:20Z"
  },
  {
    "id": 1282511,
    "title": "Грибовський Адріан Мойсейович",
    "text": "Адріан Мойсейович Грибовський — державний діяч Російської імперії (1766—1833), статс-секретар.",
    "timestamp": "2017-01-06T12:29:19Z"
  },
  {
    "id": 1282512,
    "title": "Кваша Віктор Григорович",
    "text": "Кваша Віктор Григорович — (* 22 жовтня 1937) Професор Національного університету «Львівська політехніка», доктор технічних наук, Дійсний член Львівського територіального відділення Академії будівництва України і Академії архітектури України, професор, завідувач кафедри «Мости та будівельна механіка» НУ «Львівська політехніка».",
    "timestamp": "2016-05-11T17:15:00Z"
  },
  {
    "id": 1282520,
    "title": "Loyalty and Betrayal (альбом E-40)",
    "text": "Loyalty and Betrayal — шостий студійний альбом американського репера E-40, виданий 10 жовтня 2000 р. лейблами Jive Records та Sick Wid It Records. Платівка містить продакшн від Battlecat, Bosko, Jazze Pha, Ріка Рока, Тоуна Капоне та ін. Виконавчий продюсер: E-40. Реліз посів 4-ту сходинку чарту Top R&B/Hip-Hop Albums та 18-те місце чарту Billboard 200.[:Template:Allmusic (((Loyalty and Betrayal > Charts & Awards > Billboard Albums)))]. All Media Guide, LLC. Retrieved on 2009-12-30. У записі альбому взяли участь Suga-T, Mack 10, 8Ball, Too Short, Young Mugzi, Levitti, Pimp C, Birdman та ін.",
    "timestamp": "2017-11-18T18:55:10Z"
  },
  {
    "id": 1282523,
    "title": "Галтон (боро)",
    "text": "Га́лтон (Template:lang-en) — унітарна одиниця Англії на півночі церемоніального графства Чешир.",
    "timestamp": "2018-02-11T18:48:35Z"
  },
  {
    "id": 1282524,
    "title": "Брік Осип Максимович",
    "text": "Осип Максимович (Меєрович) Брік (Template:ДН, Москва — †Template:ДС, Москва) — російський літератор, літературознавець та літературний критик. Водночас с Велимиром Хлєбниковим був Головою земної кулі.",
    "timestamp": "2018-02-20T12:56:49Z"
  },
  {
    "id": 1282526,
    "title": "Manfred Mann",
    "text": "Manfred Mann — британський музичний колектив, що утворився в Лондоні в 1962 році.",
    "timestamp": "2016-07-07T14:12:07Z"
  },
  {
    "id": 1282527,
    "title": "Лмбатаванк",
    "text": "Лмбатаванк (Template:lang-hy) розташований на північному заході Вірменії у марзі Ширак, за 105 км на північний захід від столиці, за декілька кілометрів від міста Артік поруч з кар'єрами каменоломні.",
    "timestamp": "2018-07-26T04:31:12Z"
  },
  {
    "id": 1282528,
    "title": "Mercedes-Benz C218",
    "text": "Mercedes-Benz W218 — люкс-купе, друге покоління автомобілів Mercedes-Benz CLS-класу, німецького преміум-автовиробника Mercedes-Benz. Випущений в двох варіантах: в 4-х та 5-дверному (Shooting Break) кузові, що збудовані на платформі Mercedes-Benz E-класу (212-й кузов).",
    "timestamp": "2017-06-05T00:28:49Z"
  },
  {
    "id": 1282533,
    "title": "Стренд",
    "text": "Стренд (Template:lang-en) — центральна вулиця Лондона, яка з'єднує райони Вестмінстер (центр політичного життя) і Сіті (центр ділової активності).",
    "timestamp": "2018-02-23T10:47:51Z"
  },
  {
    "id": 1282536,
    "title": "Двигун Революції (станція метро)",
    "text": "Двигу́н Револю́ції (Template:lang-ru) — станція Автозаводської лінії Нижньогородського метро, розташована між станціями «Зарічна» та «Пролетарська». Відкрита 20 листопада 1985 року в складі першої черги Автозаводської лінії.",
    "timestamp": "2018-05-21T18:48:43Z"
  },
  {
    "id": 1282543,
    "title": "Монастир Хневанк",
    "text": "Монастир Хневанк (Template:lang-hy) — монастир біля селища Куртан, марз Лорі, Вірменії. Розташований на правому березі річки Дзорагет за 40 км від Степанавана.",
    "timestamp": "2018-07-26T04:31:54Z"
  },
  {
    "id": 1282544,
    "title": "Андре Каррільйо",
    "text": "Андре Каррільйо (Template:lang-es, Template:н 14 червня 1991, Ліма) — перуанський футболіст, вінгер «Бенфіки» та національної збірної Перу.",
    "timestamp": "2018-07-04T08:40:28Z"
  },
  {
    "id": 1282547,
    "title": "Альберто Хуніор Родрігес",
    "text": "Альберто Хуніор Родрігес (Template:lang-es, Template:н 31 березня 1984, Ліма) — перуанський футболіст, центральний захисник клубу «Атлетіко Хуніор».",
    "timestamp": "2018-06-24T17:23:56Z"
  },
  {
    "id": 1282548,
    "title": "Зарічна (станція метро, Нижній Новгород)",
    "text": "Зарі́чна (Template:lang-ru) — станція Автозаводської лінії Нижньогородського метро, розташована між станціями «Ленінська» та «Двигун Революції». Відкрита 20 листопада 1985 року в складі першої черги Автозаводської лінії.",
    "timestamp": "2018-05-21T18:51:29Z"
  },
  {
    "id": 1282550,
    "title": "Оксфорд-стрит",
    "text": "Оксфорд-стрит (Template:Lang-en) — лондонська вулиця, одна з основних вулиць Вестмінстера. Найжвавіша торговельна вулиця (548 торгових точок), відома головним чином своїми фешенебельними магазинами. Починається у Вестмінстері біля Мармурової Арки (північно-східний кут Гайд-парку) і веде на схід в бік Голборн. Раніше була частиною Лондон-Оксфорд-роуд, яка починалася в Ньюгейте. Сьогодні частина шосе A40.",
    "timestamp": "2018-02-09T20:04:45Z"
  },
  {
    "id": 1282552,
    "title": "Коронель-Ов'єдо",
    "text": "Коронель-Ов'єдо (Template:lang-es) — місто в Парагваї, розташоване за 150 км на схід від Асунсьйону, столиця департаменту Кааґуасу.",
    "timestamp": "2017-03-09T12:39:11Z"
  },
  {
    "id": 1282557,
    "title": "Агуада (Пуерто-Рико)",
    "text": "Агуада (Template:lang-es, Template:МФА2) — муніципалітет Пуерто-Рико, острівної території у складі США. Заснований 1508 року.",
    "timestamp": "2018-04-24T10:23:15Z"
  },
  {
    "id": 1282559,
    "title": "Педро-Хуан-Кабальєро",
    "text": "Педро-Хуан-Кабальєро (ісп. Pedro Juan Caballero) — місто в Парагваї.",
    "timestamp": "2015-07-07T19:45:57Z"
  },
  {
    "id": 1282560,
    "title": "Адхунтас (Пуерто-Рико)",
    "text": "Адхунтас (Template:lang-es, Template:МФА2) — муніципалітет Пуерто-Рико, острівної території у складі США. Заснований 11 серпня 1815 року.",
    "timestamp": "2015-03-11T12:15:04Z"
  },
  {
    "id": 1282562,
    "title": "Агуас-Буенас (Пуерто-Рико)",
    "text": "Агуас-Буенас (Template:lang-es, Template:МФА2) — муніципалітет Пуерто-Рико, острівної території у складі США. Заснований 25 травня 1838 року.",
    "timestamp": "2015-03-11T11:33:42Z"
  },
  {
    "id": 1282564,
    "title": "Айбоніто (Пуерто-Рико)",
    "text": "Айбоніто (Template:lang-es, Template:МФА2) — муніципалітет Пуерто-Рико, острівної території у складі США. Заснований 13 березня 1824 року.",
    "timestamp": "2015-03-11T12:15:56Z"
  },
  {
    "id": 1282566,
    "title": "Аньяско (Пуерто-Рико)",
    "text": "Аньяско (Template:lang-es, Template:МФА2) — муніципалітет Пуерто-Рико, острівної території у складі США. Заснований 18 жовтня 1733 року.",
    "timestamp": "2017-03-18T17:40:41Z"
  },
  {
    "id": 1282568,
    "title": "Аресібо",
    "text": "Аресібо (Template:lang-es, Template:МФА2) — найбільший за площею муніципалітет Пуерто-Рико, острівної території у складі США. Заснований 1616 року.",
    "timestamp": "2018-10-23T00:53:27Z"
  },
  {
    "id": 1282571,
    "title": "Сантьяго Аріас",
    "text": "Сантьяго Аріас (Template:lang-es, Template:н 13 січня 1992, Медельїн) — колумбійський футболіст, півзахисник, захисник клубу ПСВ Ейндговен та національної збірної Колумбії.",
    "timestamp": "2018-06-10T07:37:08Z"
  },
  {
    "id": 1282573,
    "title": "Беларускі гай",
    "text": "Беларускі гай (Template:lang-uk) — білоруська культурно-просвітницька організація в Одесі, що діяла в грудні 1917 — лютому 1920 років.",
    "timestamp": "2018-07-18T15:57:55Z"
  },
  {
    "id": 1282576,
    "title": "Дуррані",
    "text": "Дуррані (Template:lang-ps) або Абдалі (Template:lang-ps) — назва головного пуштунського племені, що проживало на території сучасних Афганістану та Пакистану. Первинно відоме під назвою абдалі, але після утворення у 1747 році Дурранійської імперії почало йменуватись дуррані.Енциклопедія Британіка, Durrani За оцінками кількість представників цієї народності становить 16% від загальної кількості населення Афганістану або 5 мільйонів осіб.14 етнологічна доповідь Дуррані проживають на всій території Афганістану, окрім цього, значна частка цієї народності проживає на території Пакистану (в основному у західних регіонах країни).",
    "timestamp": "2017-10-24T17:03:50Z"
  },
  {
    "id": 1282578,
    "title": "Арройо (Пуерто-Рико)",
    "text": "Арройо (Template:lang-es, Template:МФА2) — муніципалітет Пуерто-Рико, острівної території у складі США. Заснований 25 грудня 1855 року.",
    "timestamp": "2017-11-05T22:40:44Z"
  },
  {
    "id": 1282580,
    "title": "Барселонета (Пуерто-Рико)",
    "text": "Барселонета (Template:lang-es, Template:МФА2) — муніципалітет Пуерто-Рико, острівної території у складі США. Заснований 1 липня 1881 року.",
    "timestamp": "2017-03-18T17:52:50Z"
  },
  {
    "id": 1282583,
    "title": "Барранкітас (Пуерто-Рико)",
    "text": "Барранкітас (Template:lang-es, Template:МФА2) — муніципалітет Пуерто-Рико, острівної території у складі США. Заснований 1803 року.",
    "timestamp": "2015-01-26T10:25:49Z"
  },
  {
    "id": 1282585,
    "title": "Баямон (Пуерто-Рико)",
    "text": "Баямон (Template:lang-es, Template:МФА2) — муніципалітет Пуерто-Рико, острівної території у складі США. Заснований 22 травня 1772 року.",
    "timestamp": "2017-03-18T17:57:16Z"
  },
  {
    "id": 1282587,
    "title": "Кабо-Рохо (Пуерто-Рико)",
    "text": "Кабо-Рохо (Template:lang-es, Template:МФА2) — муніципалітет Пуерто-Рико, острівної території у складі США. Заснований 17 грудня 1771 року.",
    "timestamp": "2013-08-13T17:07:08Z"
  },
  {
    "id": 1282589,
    "title": "Кагуас",
    "text": "Кагуас (Template:lang-es, Template:МФА2) — муніципалітет Пуерто-Рико, острівної території у складі США. Заснований 1 січня 1775 року.",
    "timestamp": "2018-10-23T00:22:06Z"
  },
  {
    "id": 1282592,
    "title": "Камуй (Пуерто-Рико)",
    "text": "Камуй (Template:lang-es, Template:МФА2) — муніципалітет Пуерто-Рико, острівної території у складі США. Заснований 1807 року.",
    "timestamp": "2013-08-13T17:07:20Z"
  },
  {
    "id": 1282594,
    "title": "Канованас (Пуерто-Рико)",
    "text": "Канованас (Template:lang-es, Template:МФА2) — муніципалітет Пуерто-Рико, острівної території у складі США. Заснований 1909 року.",
    "timestamp": "2013-08-13T17:07:24Z"
  },
  {
    "id": 1282596,
    "title": "Кароліна (Пуерто-Рико)",
    "text": "Кароліна (Template:lang-es, Template:МФА2) — муніципалітет Пуерто-Рико, острівної території у складі США.",
    "timestamp": "2013-08-13T17:07:29Z"
  },
  {
    "id": 1282599,
    "title": "Темуко",
    "text": "Темуко (Template:lang-es) — місто в Чилі. Адміністративний центр однойменної комуни, провінції Каутин та області Арауканія.",
    "timestamp": "2018-08-25T10:20:32Z"
  },
  {
    "id": 1282600,
    "title": "Катаньйо (Пуерто-Рико)",
    "text": "Катаньйо (Template:lang-es, Template:МФА2) — муніципалітет Пуерто-Рико, острівної території у складі США. Заснований 1 липня 1927 року.",
    "timestamp": "2017-11-05T22:43:29Z"
  },
  {
    "id": 1282603,
    "title": "Каєй (Пуерто-Рико)",
    "text": "Каєй (Template:lang-es, Template:МФА2) — муніципалітет Пуерто-Рико, острівної території у складі США. Заснований 17 серпня 1773 року.",
    "timestamp": "2013-08-13T17:07:40Z"
  },
  {
    "id": 1282606,
    "title": "Сейба (Пуерто-Рико)",
    "text": "Сейба (Template:lang-es, Template:МФА2) — муніципалітет Пуерто-Рико, острівної території у складі США. Заснований 7 квітня 1838 року.",
    "timestamp": "2013-08-13T17:07:46Z"
  },
  {
    "id": 1282608,
    "title": "Сіалес (Пуерто-Рико)",
    "text": "Сіалес (Template:lang-es, Template:МФА2) — муніципалітет Пуерто-Рико, острівної території у складі США. Заснований 24 червня 1820 року.",
    "timestamp": "2013-07-21T05:53:57Z"
  },
  {
    "id": 1282611,
    "title": "Сідра (Пуерто-Рико)",
    "text": "Сідра (Template:lang-es, Template:МФА2) — муніципалітет Пуерто-Рико, острівної території у складі США. Заснований 1809 року.",
    "timestamp": "2013-08-13T17:07:51Z"
  },
  {
    "id": 1282613,
    "title": "Коамо (Пуерто-Рико)",
    "text": "Коамо (Template:lang-es, Template:МФА2) — муніципалітет Пуерто-Рико, острівної території у складі США. Заснований 1579 року.",
    "timestamp": "2017-03-18T18:35:12Z"
  },
  {
    "id": 1282617,
    "title": "Комеріо (Пуерто-Рико)",
    "text": "Комеріо (Template:lang-es, Template:МФА2) — муніципалітет Пуерто-Рико, острівної території у складі США. Заснований 12 червня 1826 року.",
    "timestamp": "2013-08-13T17:08:05Z"
  },
  {
    "id": 1282619,
    "title": "Коросаль (Пуерто-Рико)",
    "text": "Коросаль (Template:lang-es, Template:МФА2) — муніципалітет Пуерто-Рико, острівної території у складі США. Заснований 1795 року.",
    "timestamp": "2015-02-21T20:24:57Z"
  },
  {
    "id": 1282622,
    "title": "Кулебра (Пуерто-Рико)",
    "text": "Кулебра (Template:lang-es, Template:МФА2) — муніципалітет Пуерто-Рико, острівної території у складі США. Заснований 27 жовтня 1880 року.",
    "timestamp": "2017-11-05T22:44:16Z"
  },
  {
    "id": 1282625,
    "title": "Дорадо (Пуерто-Рико)",
    "text": "Дорадо (Template:lang-es, Template:МФА2) — муніципалітет Пуерто-Рико, острівної території у складі США. Заснований 1842 року.",
    "timestamp": "2013-08-13T17:08:26Z"
  },
  {
    "id": 1282627,
    "title": "Фахардо",
    "text": "Фахардо (Template:lang-es, Template:МФА2) — муніципалітет Пуерто-Рико, острівної території у складі США. Заснований 1772 року.",
    "timestamp": "2018-10-23T01:06:22Z"
  },
  {
    "id": 1282629,
    "title": "Флорида (Пуерто-Рико)",
    "text": "Флорида (Template:lang-es, Template:МФА2) — муніципалітет Пуерто-Рико, острівної території у складі США. Заснований 1971 року.",
    "timestamp": "2017-11-05T22:49:25Z"
  },
  {
    "id": 1282631,
    "title": "Етнографічний музей імені Хуана Амбросетті",
    "text": "Етнографічний музей імені Хуана Амбросетті — аргентинський музей, розташований на території школи філософії Університету Буенос-Айреса.",
    "timestamp": "2017-05-20T15:24:24Z"
  },
  {
    "id": 1282633,
    "title": "Гваніка (Пуерто-Рико)",
    "text": "Гваніка (Template:lang-es, Template:МФА2) — муніципалітет Пуерто-Рико, острівної території у складі США. Заснований 1508 року.",
    "timestamp": "2013-08-13T17:08:46Z"
  },
  {
    "id": 1282638,
    "title": "Гваяма (Пуерто-Рико)",
    "text": "Гваяма (Template:lang-es, Template:МФА2) — муніципалітет Пуерто-Рико, острівної території у складі США. Заснований 29 січня 1736 року.",
    "timestamp": "2017-11-05T22:38:17Z"
  },
  {
    "id": 1282640,
    "title": "Гваянілья (Пуерто-Рико)",
    "text": "Гваянілья (Template:lang-es, Template:МФА2) — муніципалітет Пуерто-Рико, острівної території у складі США. Заснований 27 лютого 1833 року.",
    "timestamp": "2013-08-13T17:09:00Z"
  },
  {
    "id": 1282643,
    "title": "Гвайнабо (Пуерто-Рико)",
    "text": "Гвайнабо (Template:lang-es, Template:МФА2) — муніципалітет Пуерто-Рико, острівної території у складі США. Заснований 1769 року.",
    "timestamp": "2013-08-13T17:09:07Z"
  },
  {
    "id": 1282645,
    "title": "Гурабо (Пуерто-Рико)",
    "text": "Гурабо (Template:lang-es, Template:МФА2) — муніципалітет Пуерто-Рико, острівної території у складі США. Заснований 1815 року.",
    "timestamp": "2013-07-21T05:57:29Z"
  },
  {
    "id": 1282646,
    "title": "Кета",
    "text": "Кета (Oncorhynchus keta) — прохідна риба роду тихоокеанських лососів.",
    "timestamp": "2015-12-01T16:24:50Z"
  },
  {
    "id": 1282649,
    "title": "Атільйо (Пуерто-Рико)",
    "text": "Атільйо (Template:lang-es, Template:МФА2) — муніципалітет Пуерто-Рико, острівної території у складі США. Заснований 30 червня 1823 року.",
    "timestamp": "2013-08-13T17:09:14Z"
  },
  {
    "id": 1282651,
    "title": "Ормігерос (Пуерто-Рико)",
    "text": "Ормігерос (Template:lang-es, Template:МФА2) — муніципалітет Пуерто-Рико, острівної території у складі США. Заснований 1874 року.",
    "timestamp": "2013-08-13T17:09:21Z"
  },
  {
    "id": 1282656,
    "title": "Евалдо Фабіану",
    "text": "Евалдо Сантуш Фабіану (Template:lang-pt, Template:н 18 березня 1982, Ріу-Пірасікаба) — бразильський футболіст, захисник клубу «Морейренсе».",
    "timestamp": "2018-07-30T13:17:13Z"
  }
]