[
  {
    "id": 2690418,
    "title": "Айлі Кескітало",
    "text": "Айлі Кескітало (Template:lang-no, народилася 29 жовтня 1968) — норвезький саамський політичний діяч, з 2008 року — лідер Асоціації саамів Норвегії; у 2005—2007, 2013—2016 роках, а також з 16 жовтня 2017 року — президент саамського парламенту Норвегії. Її рідна мова — норвезька, однак вона вільно розмовляє і північносаамською мовою.",
    "timestamp": "2018-03-31T21:50:56Z"
  },
  {
    "id": 2690424,
    "title": "Аргинбаєв Габіт Бікмухаметович",
    "text": "Габіт Бікмухаметович Аргинбаєв (1856–1921) — сесен-імпровізатор, кураїст, збирач башкирського фольклору.",
    "timestamp": "2018-03-30T08:04:37Z"
  },
  {
    "id": 2690426,
    "title": "Зарудні",
    "text": "Зарудні — український козацький шляхетський старшинський і дворянський рід Запорізького війська та Російської імперії. Після скасування полкового устрою України злилися з загальноімперською аристократією.",
    "timestamp": "2018-04-04T07:06:09Z"
  },
  {
    "id": 2690434,
    "title": "Джон Рей (економіст)",
    "text": "Джон Рей (Template:lang-en; Template:ДН, м. Абердін, Шотландія — †Template:ДС, м. Стейтен-Айленд, штат Нью-Йорк) — був шотландсько-американським економістом.",
    "timestamp": "2018-04-19T19:03:41Z"
  },
  {
    "id": 2690437,
    "title": "Ула (річка)",
    "text": "УлаŪla // Tarybų Lietuvos enciklopedija, T. 4 (Simno-Žvorūnė). — Vilnius: Vyriausioji enciklopedijų redakcija, 1988.Template:ref-lt, у верхній течії має назву Пеляса (Template:lang-be, Template:lang-lt) — річка на північному заході Білорусі та півдні Литви. Ліва притока Мяркіса, належить до басейну Балтійського моря.",
    "timestamp": "2018-04-21T18:19:49Z"
  },
  {
    "id": 2690439,
    "title": "Том ван Арсдейл",
    "text": "Томас Артур ван Арсдейл (Template:lang-en, Template:н 22 лютого 1943, Індіанаполіс, США) — американський професіональний баскетболіст, що грав на позиціях легкого форварда і атакувального захисника за низку команд НБА. Брат-близнюк баскетболіста Діка ван Арсдейла. Ван Арсдейлу належить рекорд НБА за кількістю зіграних матчів без плей-оф (929); він також є найрезультативнішим гравцем в історії ліги, який жодного разу не зіграв у матчі плей-оф НБА (14,232 очок).",
    "timestamp": "2018-03-29T21:31:31Z"
  },
  {
    "id": 2690442,
    "title": "Lil Skies",
    "text": "Кіметріус Фуз (Template:lang-en), відомий під псевдонімом Lil Skies — американський репер з Вейнсборо, Пенсильванія. На сьогодні виконавець підписав контракт зі студією «All We Got Entertainment» за посередництвом лейблу Atlantic Records. Два з його синглів ввійшли до чартів Billboard Hot 100: «Nowadays» (№ 55) та «Red Roses» (№ 67). 10 січня 2018 року світ побачив його дебютний комерційний мікстейп «Life of a Dark Rose», який посів 10 сходинку у списку альбомів Billboard 200.",
    "timestamp": "2018-05-10T08:14:21Z"
  },
  {
    "id": 2690443,
    "title": "Дік ван Арсдейл",
    "text": "Річард Альберт ван Арсдейл (Template:lang-en, Template:н 22 лютого 1943, Індіанаполіс, США) — американський професіональний баскетболіст, що грав на позиціях легкого форварда і атакувального захисника за декілька команд НБА, зокрема за «Фінікс Санз», яка навіки закріпила за ним ігровий №5. Згодом — баскетбольний тренер. Брат-близнюк баскетболіста Тома ван Арсдейла.",
    "timestamp": "2018-08-29T05:42:05Z"
  },
  {
    "id": 2690446,
    "title": "Ватульов Владлен Микитович",
    "text": "Владлен Микитович Ватульов (нар. 20 квітня 1929 (Гола Пристань)) — український вчений-хімік, доктор хімічних наук, кандидат фізико-математичних наук, старший науковий співробітникhttp://esu.com.ua/search_articles.php?id=32487.",
    "timestamp": "2018-04-20T07:58:05Z"
  },
  {
    "id": 2690457,
    "title": "Макс Манус",
    "text": "Макс Манус (повне ім'я — Максімо Гільєрмо Манус Template:lang-no; 1914-1996) — норвезький військовик, один з найвідоміших борців руху Опору проти німецької окупації Норвегії у період Другої світової війни.",
    "timestamp": "2018-03-30T14:30:25Z"
  },
  {
    "id": 2690476,
    "title": "Медаль Модгейм",
    "text": "Медаль Модгейм — пам'ятна державна нагорода Королівства Норвегія.",
    "timestamp": "2018-03-31T09:50:29Z"
  },
  {
    "id": 2690485,
    "title": "Регіональний інформаційний портал",
    "text": "Регіональний інформаційний портал (в деяких джерелах Регіональний інформаційний сайт, або Міський сайт) — веб-сайт, який виконує функцію з'єднання різної інформації за територіальним принципом (в тому числі Горизонтальний портал — орієнтований на одну територію). Являє собою різновид Інтернет-ЗМІ, засоби масової інформації. Часто найпопулярніший сайт в місті або регіоні. Навколо регіонального порталу, часто формується Інтернет-спільнота.",
    "timestamp": "2018-04-28T12:35:42Z"
  },
  {
    "id": 2690487,
    "title": "Вікторія Террас",
    "text": "Вікторія Террас  (Template:lang-en) — це історичний будівельний комплекс, що знаходиться в Осло, Норвегія. Сьогодні в будівлях комплексу знаходяться Міністерство закордонних справ Норвегії та Національна бібліотека Норвегії.",
    "timestamp": "2018-04-16T07:42:08Z"
  },
  {
    "id": 2690493,
    "title": "Корейська медаль (Норвегія)",
    "text": "Корейська медаль — відомча пам'ятна нагорода збройних сил Королівства Норвегія.",
    "timestamp": "2018-03-29T21:37:06Z"
  },
  {
    "id": 2690508,
    "title": "Антарктична медаль",
    "text": "Антарктична медаль — пам'ятна державна нагорода Королівства Норвегія.",
    "timestamp": "2018-04-01T15:34:08Z"
  },
  {
    "id": 2690514,
    "title": "Шевирьов Валерій Володимирович",
    "text": "Валерій Володимирович Шевирьов (Template:lang-ru; Template:н 12 грудня 1974) — російський футболіст, захисник та півзахисник.",
    "timestamp": "2018-03-29T22:25:50Z"
  },
  {
    "id": 2690517,
    "title": "Боббі Крістіна Браун",
    "text": "Боббі Крістіна Браун (Template:lang-en, 4 березня 1993, Лівінгстон — 26 липня 2015, Дулуф, Гвіннетт) — американська медійна персона, співачка, спадкоємиця і дочка американської співачки Вітні Г'юстон і R&B-виконавця Боббі Брауна.",
    "timestamp": "2018-03-29T22:15:19Z"
  },
  {
    "id": 2690529,
    "title": "Інститут Нільса Бора",
    "text": "Інститут Нільса Бора (Template:lang-da) — науково-дослідний інститут, який займається проблемами астрономії, ядерної фізики, фізики елементарних частин, геофізики та інше, який входить у структуру Копенгагенського університету.",
    "timestamp": "2018-04-29T15:23:04Z"
  },
  {
    "id": 2690531,
    "title": "Вележ (гора)",
    "text": "Вележ (Template:lang-sr) — гора в Республіці Сербській. Знаходиться в Східній Герцеговині. Її висота становить 1 969 метрів над рівнем моря. Біля підніжжя гори знаходиться місто МостарBosnia and Herzegovina: The heart shaped landInterceder: About Velez Mostar. На горі пасуть худобу, хоча на її схилах, крім північного, практично немає джерел води крім витоку річки Буни. Над лісовою зоною до вершини знаходиться ряд великих глибоких ям зі снігом з яких влітку дістають сніг для водопою худоби, Північна сторона гори багата водою, там знаходиться і невелике гляціальне озеро. На захід від гори пролягає залізниця, що сполучає Сараєво з узбережжям Адріатики.",
    "timestamp": "2018-06-23T13:41:26Z"
  },
  {
    "id": 2690535,
    "title": "Лівінгстон (Нью-Джерсі)",
    "text": "Лівінґстон (Template:lang-en) — тауншип в окрузі Ессекс, штат Нью-Джерсі. Названий на честь першого губернатора Нью-Джерсі Вільяма ЛівінгстонаІсторія Лівінгстона Template:webarchive // Офіційний сайт тауншипу Template:ref-en.",
    "timestamp": "2018-08-27T11:46:18Z"
  },
  {
    "id": 2690581,
    "title": "Трагедія у Шведському будинку",
    "text": "Трагедія в шведському будинку  — смерть 17 норвежців в будинку на Шпіцбергені взимку 1872-1873 років. Довгий час вважалося, що причиною смерті була цинга, однак дослідження 2008 року показали, що, можливо, загиблі були отруєні свинцем. Будівля, в якій це відбулося є об'єктом культурної спадщини.",
    "timestamp": "2018-04-28T12:37:25Z"
  },
  {
    "id": 2690583,
    "title": "Turisas",
    "text": "Turisas — фінський метал-гурт із Хямеенлінна, що був утворений в 1997 році вокалістом Матіасом Нюгором та гітаристом Юссі Вікстрьом. Названий на честь фінського бога війни — Іку-Турсо.",
    "timestamp": "2018-06-06T10:07:42Z"
  },
  {
    "id": 2690604,
    "title": "Патрік Руст",
    "text": "Патрік Руст (Template:lang-nl) — нідерландський ковзаняр, дворазовий олімпійський медаліст, чемпіон світу, призер чемпіонатів світу. Спеціальністю Руста є дистанція 1500 метрів.",
    "timestamp": "2018-04-16T07:28:25Z"
  },
  {
    "id": 2690608,
    "title": "Тетруашвілі Джемал Джемалович",
    "text": "Джемал Джемалович Тетруашвілі (Template:lang-be, Template:нар 3 квітня 1975, Мінськ) — білоруський актор театру і кіно.",
    "timestamp": "2018-03-30T05:50:09Z"
  },
  {
    "id": 2690633,
    "title": "Гераці Мхітар",
    "text": "Мхітар Гераці (Template:Lang-hyՄխիթար Հերացի; середина XII—початок XIII століттяTemplate:БСЭМ.: «Советская энциклопедия», 1969—1978. (рос.)) — вірменський лікар XII століття, вірменський класик середньовічної медицини, автор знаменитої «Втіхи при лихоманках», трактатів, енциклопедичних робіт, в яких він досліджував хірургію, дієту та психотерапію.",
    "timestamp": "2018-06-08T20:01:44Z"
  },
  {
    "id": 2690641,
    "title": "Політичний популізм в Україні",
    "text": "Політичний популізм в Україні — явище в політичному житті України, політика та риторика, що ґрунтується на пропаганді простих рішень для вирішення складних задач і протиставленні інтересів широких мас населення інтересам політичних еліт.",
    "timestamp": "2018-06-25T08:22:46Z"
  },
  {
    "id": 2690643,
    "title": "Limnatis nilotica",
    "text": "Limnatis nilotica — вид п'явок з роду Limnatis родини Hirudinidae. Інші назви єгипетська, нільська, кінська п'явка.",
    "timestamp": "2018-03-30T06:45:51Z"
  },
  {
    "id": 2690645,
    "title": "Шабдурасулов Ігор Володимирович",
    "text": "Ігор Володимирович Шабдурасулов (Template:lang-ru; Template:н 3 жовтня 1957, Ташкент, Узбецька РСР) — російський політичний та державний діяч, науковець, кандидат географічних наук.",
    "timestamp": "2018-09-23T17:04:04Z"
  },
  {
    "id": 2690651,
    "title": "Націонал-Соціалістична робоча партія Швеції",
    "text": "Nationalsocialistiska Arbetarpartiet (українською Націонал соціалістична партія або Націонал соціалістичні збори)) була шведською політичною партією яка сповідувала Нацизм адаптувавши також ідеї Фашизму.",
    "timestamp": "2018-06-29T14:04:22Z"
  },
  {
    "id": 2690653,
    "title": "Листи і папери Імператора Петра Великого",
    "text": "«Листи і папери Імператора Петра Великого», «Письма и бумаги императора Петра Великого» — багатотомне видання документів Петра I та інших матеріалів, пов'язаних із життям та діяльністю російського монарха, різними сторонами функціонування Російської держави.",
    "timestamp": "2018-03-30T06:54:20Z"
  },
  {
    "id": 2690655,
    "title": "ГЕС Планісьє-Бандеріта",
    "text": "ГЕС Планісьє-Бандеріта (Template:lang-es) — гідроелектростанція в центральній Аргентині в провінції Неукен. Використовує ресурс річки Неукен, яка є лівим витоком Ріо-Негро (впадає в Атлантичний океан за 250 км на південь від Баїя-Бланки).",
    "timestamp": "2018-04-01T10:41:47Z"
  },
  {
    "id": 2690657,
    "title": "Haemopis sanguisuga",
    "text": "Haemopis sanguisuga — вид п'явок з роду Haemopis родини Hirudinidae. Інща назва «велика псевдокінська п'явка». Латинська назва перекладаєтсья як «кровососучий кровосос», проте не є насправді кровососом. З огляду на схожість з кінською п'явкою спочатку виникла плутанина у нелатинській назві, тому вирішено поточнити її визначення.",
    "timestamp": "2018-04-02T10:24:54Z"
  },
  {
    "id": 2690672,
    "title": "Олекса Письменний",
    "text": "Олекса (Олексій) Письменний (р. н. і р. с. невід.) — один із керівників гайдамацького повстання в Правобережній Україні 1750. За походженням — дрібний шляхтич, можливо поляк. Організував гайдамацький загін із запорожців (до 30 осіб) і від р. Інгул (притока Південного Бугу) пішов на Полісся. Гайдамаки на чолі з ним здійснили кілька нападів на маєтки шляхтичів, орендарів і лихварів, здобули м. Фастів, вступили в бій із військами київського гарнізону, які виступили їм назустріч. Незабаром під містечком Вільшана гайдамацький загін зазнав поразки від польського карального загону, після чого відомості про П. відсутні.",
    "timestamp": "2018-04-16T11:13:16Z"
  },
  {
    "id": 2690674,
    "title": "ГЕС Агва-дель-Торо",
    "text": "ГЕС Агва-дель-Торо (Template:lang-es) – гідроелектростанція в центральній Аргентині в провінції Мендоса. Знаходячись перед ГЕС Reyunos, становить верхній ступінь в каскаді на річці Діама́нте, правій притоці Десагуаде́ро, яка в свою чергу є лівою притокою Ріо-Колорадо, що впадає в Атлантичний океан за сотню кілометрів південніше від Баїя-Бланки.",
    "timestamp": "2018-03-31T14:02:30Z"
  },
  {
    "id": 2690678,
    "title": "ГЕС-ГАЕС Рейюнос",
    "text": "ГЕС-ГАЕС Рейюнос (Template:lang-es) – гідроелектростанція в центральній Аргентині в провінції Мендоса. Знаходячись між ГЕС Agua del Toro (вище по течії) та ГЕС El Tigre, входить до складу каскаду на річці Діама́нте, правій притоці Десагуаде́ро, яка в свою чергу є лівою притокою Ріо-Колорадо, що впадає в Атлантичний океан за сотню кілометрів південніше від Баїя-Бланки.",
    "timestamp": "2018-10-10T21:21:05Z"
  },
  {
    "id": 2690681,
    "title": "ГЕС Каса-де-П'єдра",
    "text": "ГЕС Каса-де-П'єдра (Template:lang-es) – гідроелектростанція в центральній Аргентині на межі провінцій Ла-Пампа та Ріо-Негро. Використовує ресурс річки Ріо-Колорадо, що тече з Анд у східному напрямку до впадіння в Атлантичний океан за сотню кілометрів південніше від Баїя-Бланки.",
    "timestamp": "2018-03-31T14:09:09Z"
  },
  {
    "id": 2690686,
    "title": "Аксель Гудбранд Блітт",
    "text": "Аксель Гудбранд Блітт (Template:lang-no; 19 травня 1843 — 18 липня 1898) — норвезький ботанік та геолог. Син ботаніка Маттіаса Нумсена Блітта.",
    "timestamp": "2018-04-06T14:42:28Z"
  },
  {
    "id": 2690694,
    "title": "Вера-Круш",
    "text": "Ве́ра-Кру́ш (Template:lang-pt, «Істинний Хрест») — португальська власна назва. Іспанський варіант — Вера-Крус.",
    "timestamp": "2018-03-30T07:24:17Z"
  },
  {
    "id": 2690702,
    "title": "Кара Мухаммед",
    "text": "Кара Мухаммед Туртуш (*д/н — 1388) — 2-й бей Кара-Коюнлу в 1378—1388 роках. Повне ім'я Кара Мухаммед Туртуш ібн Байрам Ходжа.",
    "timestamp": "2018-05-12T05:33:06Z"
  },
  {
    "id": 2690703,
    "title": "Маркітос",
    "text": "Маркос Алонсо Імас (Template:lang-es, 16 квітня 1933, Сантандер — 6 березня 2012, Сантандер), відомий за прізвиськом Маркітос (Template:lang-es) — іспанський футболіст, що грав на позиції захисника.",
    "timestamp": "2018-10-13T03:58:00Z"
  },
  {
    "id": 2690716,
    "title": "Легенди завтрашнього дня",
    "text": "«Легенди завтрашнього дня» (Template:lang-en) — американський телесеріал, створений Грегом Берланті, Ендрю Крайсбергом, Марком Гуггенхаймом, Філом Клеммером і Сарою Шечтер. Телесеріал транслюється на каналі The CW. Також телесеріал є спін-оффом телесеріалів «Стріла» і «Флеш» і його події відбуваються в тому ж вигаданому всесвіті. Прем'єра серіалу відбулася 21 січня 2016 року. 11 березня 2016 року серіал був продовжений на другий сезонThe CW Renews ALL 11 Series For Next Season, Including Veterans ‘Supernatural’ & ‘The Vampire Diaries’. 8 січня 2017 року серіал продовжили на третій сезон. 2 квітня 2018 року серіал продовжили на четвертий сезон.",
    "timestamp": "2018-09-26T17:26:54Z"
  },
  {
    "id": 2690721,
    "title": "Пишчевич Семен Степанович",
    "text": "Пишчевич Семен (Симеон) Степанович — сербський військовик, який перейшов на службу до армії Російської імперії, командир (12.1770-1776 — полковник; з 22.09.1775 бригадир) Охтирського гусарського полку; дослужився до генерал-майора. Батько Олександра Семеновича Пишчевича.",
    "timestamp": "2018-04-28T12:39:40Z"
  },
  {
    "id": 2690727,
    "title": "HMS Worcester (D96)",
    "text": "«Вустер» (D96) (Template:lang-en — військовий корабель, ескадрений міноносець «Модифікований Адміралті» типу «W» Королівського військово-морського флоту Великої Британії за часів Другої світової війни.",
    "timestamp": "2018-05-13T12:03:06Z"
  },
  {
    "id": 2690734,
    "title": "Жеймена",
    "text": "Жеймена (лит. Žeimena, пол. Żejmiana, рос. ЖемянкаTemplate:Cite web) — річка в Литві, у Швянченіському районі Вільнюського повіту на Аукшийтах. Права притока Нярісу (Вілія) (басейн Балтійського моря).",
    "timestamp": "2018-06-14T08:12:34Z"
  },
  {
    "id": 2690739,
    "title": "Кара Юсуф",
    "text": "Кара Юсуф (*бл. 1357 — 1420) — 2-й бей Кара-Коюнлу в 1388—1399 та 1405—1420 роках. Повне ім'я Абу Наср Кара Юсуф Наян ібн Кара Мухаммед.",
    "timestamp": "2018-05-12T05:33:09Z"
  },
  {
    "id": 2690748,
    "title": "Фінал Кубка Стенлі 2007",
    "text": "Фінал Кубка Стенлі 2007 (Template:lang-en) — 114-й загалом фінал Кубка Стенлі та сезону 2006–2007 у НХЛ між командами «Анагайм Дакс» та «Оттава Сенаторс». Фінальна серія стартувала 28 травня в Анагаймі, а фінішувала 6 червня перемогою «Анагайм Дакс».",
    "timestamp": "2018-07-01T15:15:02Z"
  },
  {
    "id": 2690752,
    "title": "Цебриківська селищна громада",
    "text": "Цебриківська селищна об'єднана територіальна громада — територіальна громада в Україні, у Великомихайлівському районі Одеської області, створена 2017 року в рамках адміністративно-територіальної реформи 2015 року. Населення громади становить 5,102 осіб, адміністративний центр — смт Цебрикове.",
    "timestamp": "2018-03-30T09:14:56Z"
  },
  {
    "id": 2690756,
    "title": "Ейліф Даль",
    "text": "Ейліф Даль (Template:lang-no; 7 грудня 1916 — 17 березня 1993) — норвезький ботанік, еколог, фітогеограф та політик, член Норвезької робітничої партії.",
    "timestamp": "2018-03-30T09:05:33Z"
  },
  {
    "id": 2690766,
    "title": "Сесен",
    "text": "Сесен (Template:Lang-ba) — розповідач казок у башкирів, який традиційно оповідає сказання та виконує імпровізації у формі пісенного речитативу під акомпанемент думбири — традиційного струнного інструменту.",
    "timestamp": "2018-04-16T08:11:51Z"
  },
  {
    "id": 2690767,
    "title": "Орден Афтаб",
    "text": "Орден Афтаб (за часів правління Рези Шаха — орден Сонця) — нагорода, започаткована перським шахом Насер ед-Дін Шахом у лютому 1873 року.",
    "timestamp": "2018-03-30T08:58:20Z"
  },
  {
    "id": 2690772,
    "title": "Кара Іскандер",
    "text": "Кара Іскандер (*д/н — 1436) — 3-й бей Кара-Коюнлу в 1420—1436 роках.",
    "timestamp": "2018-08-08T03:58:42Z"
  },
  {
    "id": 2690775,
    "title": "Часопис «Південна Україна»",
    "text": "Часопис Запорізького наукового товариства імені Я.Новицького «Південна Україна», до 1997 — «Південна Україна XVIII—XIX ст.: Записки Науково-дослідної лабораторії історії Південної України Запорізького державного університету» — неперіодичний збірник наукових праць, задекларований як щорічник. Заснований як видання Н.-д. лабораторії історії Південної України Запорізького державного університету наприкінці 1995. Головний редактор — А.Бойко. 1997 наступником лабораторії стало Запорізьке наукове товариство ім. Я.Новицького, котре об'єднувало дослідників із Запоріжжя, Дніпропетровщини, Донеччини, Херсонщини та ін. регіонів, які студіювали історію Півд. України. Від кінця 1990-х рр. збірник публікувався в 3-х серіях: «Південна Україна з найдавніших часів до XVII століття», «Південна Україна XVIII—XIX століття» та «Південна Україна XX століття». Видавався під грифом Запорізького відділення Інституту української археографії та джерелознавства імені М.Грушевського НАН України, Запорізького державного університету та Н.-д. лабораторії історії Півд. України. 1996—2003 вийшло 7 випусків. До основи дослідницької програми, котра об'єднувала різних учених, був покладений принцип етно- та соціокультурної локалізації історичного простору Півд. України. Структурно збірник поділявся на низку рубрик: «Статті», «Огляди», «Хроніка», «Повідомлення», «Публікації документів», «Спадщина», «Постаті» та ін. Друкувалися статті, матеріали й документи з історії Задунайської Січі, Кам'янської Січі, Нової Січі, Олешківської Сiчі, Нової Сербії, Слов'яносербії, дніпровських лоцманів, общинного ладу населення на Півдні України в останній чв. 18 ст., Азовського козацького війська, біржової торгівлі на південноукраїнських землях наприкінці 18 — у 19 ст., складання топографічних описів Півд. України кінця 18 — поч. 19 ст., Одеського товариства історії та старожитностей, заселення Півд. України в 2-й пол. 19 ст., одеської Громади кінця 19 — поч. 20 ст., катеринославських есерів-боротьбистів, а також розвідки, присвячені В.Антоновичу, Ф.Вовку, Д.Дорошенку, Б.Крупницькому, Ф.Леонтовичу, І.Манжурі, Я.Новицькому, Д.Пойді, Н.Полонській-Василенко, П.Рябкову, М.Тищенку, Д.Яворницькому та багатьом ін. На сторінках «П. У.» вміщували свої публікації С.Абросимова, А.Бойко, В.Брехуненко, М. П. Ковальський, В. В. Кравченко, І.Лиман, Ю.Мицик, С.Світленко, В.Хмарський, Г.Швидько та ін.",
    "timestamp": "2018-04-16T11:16:01Z"
  },
  {
    "id": 2690790,
    "title": "Борсаліно",
    "text": "«Борсалі́но» (Template:lang-it) — найстарша італійська компанія, що спеціалізується на виробі капелюхів класу люкс. Компанія була заснована в 1857 році та базується в місті Алессандрія. Створені засновником компанії Джузеппе Борсаліно моделі фетрових капелюхів, стали називати за назвою торгової марки.",
    "timestamp": "2018-08-28T21:54:37Z"
  },
  {
    "id": 2690799,
    "title": "Морозов Андрій Петрович",
    "text": "Андрій Петрович Морозов (Template:н 24 квітня 1979, Усохська Буда, Добруський район, Гомельська область, Білоруська РСР) — білоруський футболіст, півзахисник.",
    "timestamp": "2018-03-30T13:43:17Z"
  },
  {
    "id": 2690803,
    "title": "Аеропорт Саннефіорд, Торп",
    "text": "Аеропорт Саннефіорд, Торп, також Осло-Торп (Template:lang-no;  Template:Airport codes) — міжнародний аеропорт, розташований за 7,4 км. на північний схід  до норвезького міста Саннефіорд і за 110 кілометрів на південь від Осло. Даний аеропорт має пряме залізничне сполучення з головним аеропортом столиці Норвегії Осло-Гардермуен. Частково служить як  регіональний аеропорт Вестфоллу та Східної Норвегії. Використовує 2289-метрову злітно-посадкову смугу в напрямі  18/36. Тут базується найбільша регіональна авіакомпанія нордичних країн Widerøe, яка виконує міжнародні та внутрішні рейси. Звідси також літають Norwegian Air Shuttle (Norwegian), Ryanair, Wizzair та KLM Cityhopper. Аеропорт обслужив  1 851 181 пасажира в 2013 році.",
    "timestamp": "2018-05-06T15:11:39Z"
  },
  {
    "id": 2690808,
    "title": "Гасан Алі",
    "text": "Гасан Алі (*д/н — 1468/1469) — останній володар Кара-Коюнлу в 1467—1468 роках.",
    "timestamp": "2018-06-08T05:16:49Z"
  },
  {
    "id": 2690809,
    "title": "Карл Вільгельм Петерсен",
    "text": "Карл Вільгельм Малкус Петерсен (Template:Lang-sv; 28 березня 1884 року, Стокгольм — 3 жовтня 1973 року, Сан-Дієго) — шведський керлінгіст. Срібний призер Олімпіади у Шамоні та триразовий чемпіон Швеції.",
    "timestamp": "2018-06-26T12:38:34Z"
  },
  {
    "id": 2690810,
    "title": "Теорема Крамера про розклад нормального розподілу",
    "text": "Теорема Крамера про розклад нормального розподілу — твердження в теорії ймовірностей. Легко бачити, що якщо випадкові величини \\xi_1 та \\xi_2 незалежні та нормально розподілені, то їх сума також нормально розподілена. Виявляється, що має місце і зворотнє твердження. Цей результат був передбачений П.Леві та доведений Г.Крамером. Наслідком отримання цього результату було виникнення нового напрямку в теорії ймовірностей — теорії розкладів випадкових величин на незалежні доданки (арифметики ймовірнісних розподілів).",
    "timestamp": "2018-07-06T14:22:50Z"
  },
  {
    "id": 2690814,
    "title": "Орден Зульфікара",
    "text": "Орден Зульфікара або Орден Меча Алі — найвища військова нагорода Персії.",
    "timestamp": "2018-03-30T09:38:40Z"
  },
  {
    "id": 2690817,
    "title": "Шмуель-Лейб Бланк",
    "text": "Шмуел-Лейб Бланк (Template:Lang-he;Підписувався як ש. ל. בלנק 20 жовтня 1891,У деяких джерелах дата народження 20 листопада 1893. Дунаївці Подільської губернії — 16 жовтня 1962, Філадельфія) — американський єврейський письменник. Писав на івриті.",
    "timestamp": "2018-05-22T21:38:54Z"
  },
  {
    "id": 2690820,
    "title": "Тома Лемар",
    "text": "Тома Лемар (Template:lang-fr, Template:нар 12 листопада 1995, Баї-Мао) — французький футболіст гваделупського походження, фланговий півзахисник клубу «Монако» і національної збірної Франції.",
    "timestamp": "2018-05-24T14:31:58Z"
  },
  {
    "id": 2690824,
    "title": "Сузан Кахраманер",
    "text": "Сузан Кахраманер (21 травня 1913, Ускюдар – 22 лютого 2006, Стамбул) - одна із перших жінок-математиків Туреччини.",
    "timestamp": "2018-04-20T07:37:20Z"
  },
  {
    "id": 2690835,
    "title": "Шах Валад",
    "text": "Шах Валад (*д/н — 1411) — султан держави Джалаїридів в 1410—1411 роках. Повне ім'я Шах-Валад бен Шейх Алі Джалаїр.",
    "timestamp": "2018-05-12T05:33:14Z"
  },
  {
    "id": 2690836,
    "title": "Калінський Анатолій Миколайович",
    "text": "Калінський Анатолій Миколайович (12 липня 1946, Рибниця, Молдова — 10 січня 2018, Київ, Україна) — тренер з дзюдо. Майстер спорту з самбо (1965) та дзюдо (1974). Заслужений тренер УРСР (1986). Заслужений працівник фізичної культури і спорту України (2000)Template:УПУ. Нагороджений орденом «За заслуги» 3-го ступеня (2008)Template:УПУ.",
    "timestamp": "2018-03-30T10:59:33Z"
  },
  {
    "id": 2690841,
    "title": "Кайшядоріська дієцезія",
    "text": "Кайшядоріська дієцезія (Template:lang-la, Template:lang-lt) — одна з семи католицьких дієцезій латинського обряду в Литві з кафедрою в місті Кайшядоріс (Каунаський повіт). Входить до складу церковної провінції Вільнюса. Є суфраганною дієцезією Вільнюської архідієцезії. Латинська назва дієцезії — «Dioecesis Kaisiadorensis». Кафедральний собор Кайшядоріської дієцезії — церква Преображення Господнього.",
    "timestamp": "2018-03-30T11:08:28Z"
  },
  {
    "id": 2690845,
    "title": "Султан Махмуд Джалаїр",
    "text": "Султан Махмуд Джалаїр (*д/н — 1425) — султан Держави Джалаїрідів в 1411—1415, 1421—1425 роках.",
    "timestamp": "2018-05-12T05:33:19Z"
  },
  {
    "id": 2690846,
    "title": "Зарудний Григорій Федорович",
    "text": "Григорій Федорович Зарудний (?-1687—1708-?) — український козацький військовий та державний діяч. Полковий осавул Миргородського козацького полку у 1688–1690 роках, та полковий суддя у тому ж полку у 1690–1715 роках.",
    "timestamp": "2018-04-04T10:17:35Z"
  },
  {
    "id": 2690849,
    "title": "Бенжамен Павар",
    "text": "Бенжамен Павар (Template:lang-fr, Template:нар 28 березня 1996, Мобеж) — французький футболіст, захисник німецького клубу «Штутгарт» і національної збірної Франції, у складі якої — чемпіон світу 2018 року.",
    "timestamp": "2018-07-16T15:23:40Z"
  },
  {
    "id": 2690852,
    "title": "HMS Lookout",
    "text": "HMS Lookout - ряд кораблів Королівського військово-морського флоту Великої Британії.",
    "timestamp": "2018-03-30T10:33:29Z"
  },
  {
    "id": 2690855,
    "title": "Орден Мухаммеда Алі",
    "text": "Королівський орден Мухаммеда Алі — колишня найвища військова (нині династична) нагорода Єгипту.",
    "timestamp": "2018-03-30T10:32:52Z"
  },
  {
    "id": 2690858,
    "title": "Хусейн II Джалаїр",
    "text": "Хусейн II Джалаїр (*д/н — 1432) — останній султан Держави Джалаїрідів в 1425—1432 роках.",
    "timestamp": "2018-05-12T05:33:21Z"
  },
  {
    "id": 2690870,
    "title": "Музей природничої історії та ботанічний сад (Аґдер)",
    "text": "Музей природничої історії та ботанічний сад (Аґдер) (Template:lang-no) — колишній музей Крістіансанну — єдиний музей природничої історії на південному узбережжі Норвегії[1] About the exhibitions in Norwegian. Розташований у Крістіансанні у провінції Вест-Аґдер. Музей було засновано у 1828 році як частину соборної школи Крістіансанну, названу музеєм Крістіансанна.",
    "timestamp": "2018-07-14T15:05:23Z"
  },
  {
    "id": 2690871,
    "title": "Кобилінський Микола Андрійович",
    "text": "Микола Андрійович Кобилінський  (нар. 13 червня 1944) — пом. 30 квітня 1944) український фізик, доктор фізико-математичних наук (1984), старший науковий співробітник Інституту теоретичної фізики імені М. М. Боголюбова.",
    "timestamp": "2018-05-05T20:17:46Z"
  },
  {
    "id": 2690874,
    "title": "Сахан Досова",
    "text": "Саха́н До́сова (Template:ДН — Template:ДС, 130 років 43 дні) — казахська довгожителька, ймовірно одна з найстаріших жінок на планеті.",
    "timestamp": "2018-03-30T13:47:17Z"
  },
  {
    "id": 2690875,
    "title": "Кара Осман",
    "text": "Кара Осман (*бл. 1350 — 1435) — бей Ак-Коюнлу в 1389—1435 роках (фактично з 1396 року, повноцінно з 1403 року). Повне ім'я Баха ад-Дін Кара Юлук Осман.",
    "timestamp": "2018-05-12T05:33:24Z"
  },
  {
    "id": 2690876,
    "title": "Броньова палуба",
    "text": "Броньова палуба — елемент конструкції броньованих бойових кораблів. Являє собою горизонтальне перекриття корпусу корабля настилом з броньових плит, часто опуклим або таким, що має скоси які спрямовані вниз, призначене для захисту від влучання зверху снарядів, бомб, осколків та уламків. У важких кораблів зазвичай з'єднує між собою верхні або нижні кромки бортових поясів, але може використовуватися і в якості самостійного елементу бронювання.",
    "timestamp": "2018-03-30T11:22:24Z"
  },
  {
    "id": 2690878,
    "title": "Греков Валентин Анатолійович",
    "text": "Греков Валентин Анатолійович (Template:н 18 квітня 1976, Дніпропетровськ) — український спортсмен-дзюдоїст. Майстер спорту (1992), майстер спорту міжнародного класу (2000). Заслужений майстер спорту України (2005). Тричі чемпіон Європи з дзюдо.",
    "timestamp": "2018-03-30T11:39:32Z"
  },
  {
    "id": 2690879,
    "title": "Габорак Олег Васильович",
    "text": "Оле́г Васи́льович Габора́к (Template:ДН — Template:ДС) — солдат Збройних сил України, учасник російсько-української війни.",
    "timestamp": "2018-06-15T02:10:58Z"
  },
  {
    "id": 2690882,
    "title": "Юність (стадіон, Волочиськ)",
    "text": "«Юність» — головний стадіон міста Волочиськ Хмельницької області, домашня арена футбольного клубу «Агробізнес». Місткість — 2700 глядачів.",
    "timestamp": "2018-08-12T15:54:07Z"
  },
  {
    "id": 2690888,
    "title": "Комендор",
    "text": "Комендор — матрос-артилерист в російському військово-морському флотіБольшой словарь иностранных словОжегов С. И., Шведова Н. Ю. Толковый словарь русского языка (онлайн версия).. Слово походить від Template:Lang-en (командер)Толковый словарь Кузнецова. в його другому значенні: унтер-офіцер, який розпоряджається яким-небудь з'єднанням або технічним пристроєм (напр., gun commander — командир гармати). Колишні словники іноземних слів часто пояснювали слово комендор саме так: старший з обслуги при гарматі на військовому судні; старший артилерійський прислужник у флотіСловарь иностранных слов, відзначаючи його англійське походження. У збройних силах США, в корпусі морської піхоти, існують звання, які традиційно переводяться на українську з вживанням терміна комендор: комендор-сержант (Gunnery Sergeant) та майстер-комендор-сержант (Master Gunnery Sergeant)Звания воинскиеМастер комендор-сержант.",
    "timestamp": "2018-03-30T12:05:50Z"
  },
  {
    "id": 2690892,
    "title": "Носса-Сеньора-де-Фатіма",
    "text": "Но́сса-Сеньо́ра-де-Фа́тіма (Template:lang-pt, Template:IPA2, «Фатімська Діва Марія») — власна назва.",
    "timestamp": "2018-03-30T11:46:16Z"
  },
  {
    "id": 2690901,
    "title": "Мале Тракани",
    "text": "Мале Тракани (Template:lang-sk) — село в окрузі Требішов Кошицького краю Словаччини. Площа села 11,02 км². Станом на 31 грудня 2016 року в селі проживало 1073 жителі.",
    "timestamp": "2018-03-30T11:49:47Z"
  },
  {
    "id": 2690905,
    "title": "Муніципалітет (Данія)",
    "text": "Муніципалітет — нижча адміністративно-державна одиниця в Данії, муніципальне самоврядування якої закріплено конституцією Данії (§82).",
    "timestamp": "2018-04-28T16:01:53Z"
  },
  {
    "id": 2690908,
    "title": "Осока ячмениста",
    "text": "Осока ячменистаTemplate:Кобів, осока ячменевиднаTemplate:книга Template:ref-ruTemplate:ref-ukTemplate:книга (Carex hordeistichos) — вид трав'янистих рослин родини Осокові (Cyperaceae), поширений на півдні Європи, заході Азії, півночі Африки.",
    "timestamp": "2018-04-06T12:03:03Z"
  },
  {
    "id": 2690920,
    "title": "Хачатрян Крістіне Амаяківна",
    "text": "Крістіне Амаяківна Хачатрян (Template:Lang-hyՔրիստինե Խաչատրյան; рід. 18 листопада 1989 року, Ленінакан) — вірменська лижниця, учасниця Олімпійських ігор у Ванкувері, чемпіонка Вірменії.",
    "timestamp": "2018-04-05T13:33:21Z"
  },
  {
    "id": 2690923,
    "title": "Вілкавішкіська дієцезія",
    "text": "Вілкавішкіська дієцезія (Template:lang-la; Template:lang-lt) — одна з семи католицьких дієцезій латинського обряду в Литві з кафедрою в місті Вілкавішкіс (Маріямпільский повіт). Входить до складу церковної провінції Каунаса. Є суфраганою дієцезією Каунаської архідієцезії. Латинська назва дієцезії — «Dioecesis Vilkaviskensis». Кафедральний собор — церква Пресвятої Діви Марії у Вілкавішкісі.",
    "timestamp": "2018-03-30T12:52:14Z"
  },
  {
    "id": 2690926,
    "title": "Стевнс",
    "text": "Стевнс  – муніципалітет (комуна) на південному сході Зеландії на південно-східному узбережжі острова Зеландія,  у Данії.",
    "timestamp": "2018-07-28T00:31:37Z"
  },
  {
    "id": 2690931,
    "title": "Мкртчян Донара Миколаївна",
    "text": "Донара Миколаївна Мкртчян (Template:Lang-hyԴոնարա Մկրտչյան, уроджена Пілосян; 20 квітня 1941, Ленінакан, Вірменська РСР — 15 липня 2011, Севан, Вірменія) — вірменська радянська актриса театру і кіно, дружина народного артиста СРСР Фрунзіка Мкртчяна.",
    "timestamp": "2018-04-16T08:08:12Z"
  },
  {
    "id": 2690932,
    "title": "Мухібе Дарга",
    "text": "'Мухібе Дарга (13 червня 1921, Стамбул - 6 березня 2018, Стамбул) - одна із перших жінок-археологів Туреччини,  філолог, хеттолог.",
    "timestamp": "2018-04-24T15:00:20Z"
  },
  {
    "id": 2690939,
    "title": "Тягнієнко Михайло Іванович",
    "text": "Тягнієнко Михайло Іванович (Template:н 9 грудня 1936Михаил ТягниенкоTemplate:ref-ru, МринНосівська районна рада, Чернігівська область) — український театральний і кіноактор, провідний майстер сцени комунального закладу «Харківський академічний російський драматичний театр імені О.С.Пушкіна». Лауреат премії Національної спілки театральних діячів України «Наш родовід» (2016)У Києві вручили щорічні премії Національної спілки театральних діячів України. Заслужений артист УРСРХарківський російський драматичний театр // Template:УРЕ. Народний артист України (2018)Template:УПУ.",
    "timestamp": "2018-03-31T09:15:57Z"
  },
  {
    "id": 2690943,
    "title": "Мій дядечко (фільм, 1958)",
    "text": "«Мій дядечко» Template:lang-fr) — французька антиутопічна кінокомедія 1958 року режисера Жака Таті. Його перший кольоровий фільм.",
    "timestamp": "2018-04-06T14:57:00Z"
  },
  {
    "id": 2690944,
    "title": "Пирій бессарабський",
    "text": "Пирій бессарабськийTemplate:КобівTemplate:книга Template:ref-ruTemplate:ref-ukTemplate:книга (Elytrygia bessarabica) — вид трав'янистих рослин родини Тонконогові (Poaceae), поширений на південному сході Європи.",
    "timestamp": "2018-03-30T20:48:21Z"
  },
  {
    "id": 2690946,
    "title": "Мера (річка)",
    "text": "Мера (Template:lang-lt, Template:lang-pl) — річка в Литві, у старостві Швянченіс й Пабраде Швянченіського районі Вільнюського повіту. Ліва притока Жеймени (лит. Žeimena) (басейн Балтійського моря).",
    "timestamp": "2018-09-24T12:18:01Z"
  },
  {
    "id": 2690952,
    "title": "Тельшяйська дієцезія",
    "text": "Тельшяйська дієцезія (Template:lang-la; Template:lang-lt) — одна з семи католицьких дієцезій латинського обряду в Литві з кафедрою в місті Тельшяй (Тельшяйський повіт). Входить до складу церковної провінції Каунаса. Є суфраганною дієцезією Каунаської архідієцезії. Латинська назва дієцезії — «Dioecesis Telsensis». Кафедральний собор — церква Святого Антонія Падуанського.",
    "timestamp": "2018-03-30T13:09:10Z"
  },
  {
    "id": 2690960,
    "title": "Затриманий чекаючи судового розгляду",
    "text": "«Затриманий чекаючи судового розгляду» (Template:lang-it) — це 1971 фільм режисера Нанні Лоя з Альберто Сорді у головного ролі.",
    "timestamp": "2018-03-31T11:40:30Z"
  },
  {
    "id": 2690967,
    "title": "Лаурінас Станкявічюс",
    "text": "Лаурінас-Міндауґас Станкявічюс (Template:lang-lt; Template:нар 10 серпня 1935, Аукштадваріс, Литва — Template:† 17 березня 2017, Вільнюс) — литовський державний діяч, прем'єр-міністр Литви у 1996 році.",
    "timestamp": "2018-04-01T15:38:26Z"
  },
  {
    "id": 2690970,
    "title": "Алохтон",
    "text": "Алохто́н (Template:lang-el — інший і Template:lang-el2 — земля) — об'єкт, утворений на іншій землі, території, шарі земної кори; принесений до системи ззовні. Протилежне поняття — автохтон.",
    "timestamp": "2018-03-30T13:43:46Z"
  },
  {
    "id": 2690972,
    "title": "Грегерс Грам",
    "text": "Грегерс Вінтер Вульфсберг Грам (Template:lang-no; 15 грудня 1917, Осло — 13 листопада 1944, там же) — один з лідерів норвезького Руху Опору проти німецької окупації Норвегії у роки Другої світової війни, другий лейтенант 1-ї окремої норвезької роти. Загинув у бою.Template:cite encyclopedia.",
    "timestamp": "2018-04-03T19:23:08Z"
  },
  {
    "id": 2690974,
    "title": "Кембриджський документ",
    "text": "Кембриджський документ, Кембриджський анонім (за місцем зберігання) або Лист Шехтера (за іменем першовідкривача) — рукопис Х століття, написаний давньоєврейською мовою. У ньому міститься фрагмент листа неназваного єврея, підданого хозарського царя Йосифа (930-і — 960-і) до неназваного вельможі якоїсь середземноморської країни, ймовірно кордовського придворного, Хасдая ібн Шапрута (915—970/975). Одна з двох, поряд з листом царя Йосифа, відомих науці писемних пам'яток хозарського походження.",
    "timestamp": "2018-09-04T11:48:25Z"
  },
  {
    "id": 2690975,
    "title": "Васильківське повстання 1919",
    "text": "Васильківське повстання — організований масовий збройний виступ проти більшовицької влади у Васильківському повіті на Київщині у березні — серпні 1919 року під керівництвом Овсія Гончара за підтримки Данила Терпила. Головним гаслом повстанців було: «Геть комісарів з України!».",
    "timestamp": "2018-03-30T14:46:17Z"
  },
  {
    "id": 2690980,
    "title": "Ватсла",
    "text": "Ва́тсла (Template:lang-et) — село в Естонії, у волості Сауе повіту Гар'юмаа.",
    "timestamp": "2018-03-30T13:55:18Z"
  },
  {
    "id": 2690981,
    "title": "Валінґу",
    "text": "Ва́лінґу (Template:lang-et) — село в Естонії, у волості Сауе повіту Гар'юмаа.",
    "timestamp": "2018-03-30T13:57:14Z"
  },
  {
    "id": 2690982,
    "title": "Еесмяе",
    "text": "Е́есмяе (Template:lang-et) — село в Естонії, у волості Сауе повіту Гар'юмаа.",
    "timestamp": "2018-03-30T13:59:18Z"
  },
  {
    "id": 2690985,
    "title": "Кійа",
    "text": "Кі́йа (Template:lang-et) — село в Естонії, у волості Сауе повіту Гар'юмаа.",
    "timestamp": "2018-03-30T14:01:23Z"
  },
  {
    "id": 2690989,
    "title": "Коппелмаа",
    "text": "Ко́ппелмаа (Template:lang-et) — село в Естонії, у волості Сауе повіту Гар'юмаа.",
    "timestamp": "2018-03-30T14:03:30Z"
  },
  {
    "id": 2690990,
    "title": "Таґаметса",
    "text": "Та́ґаметса (Template:lang-et) — село в Естонії, у волості Сауе повіту Гар'юмаа.",
    "timestamp": "2018-03-30T14:07:03Z"
  },
  {
    "id": 2690994,
    "title": "Туула",
    "text": "Ту́ула (Template:lang-et) — село в Естонії, у волості Сауе повіту Гар'юмаа.",
    "timestamp": "2018-03-30T14:08:27Z"
  },
  {
    "id": 2690995,
    "title": "Пярінурме",
    "text": "Пя́рінурме (Template:lang-et) — село в Естонії, у волості Сауе повіту Гар'юмаа.",
    "timestamp": "2018-03-30T14:10:09Z"
  },
  {
    "id": 2690996,
    "title": "Волкова Аліна Іванівна",
    "text": "Волкова Аліна Іванівна, у дівоцтві — Чернітенко (Template:н 30 грудня 1930, Артемівськ (нині місто Бахмут Донецької області)) — оперна та камерна співачка (сопрано). Народна артистка УРСР (1990)Указ Президії Верховної Ради Української РСР від 11 листопада 1990 року № 449-XII «Про присвоєння творчим працівникам Київської державної філармонії почесних звань Української РСР».",
    "timestamp": "2018-03-31T09:10:57Z"
  },
  {
    "id": 2690999,
    "title": "Пюга (Сауе)",
    "text": "Пю́га (Template:lang-et) — село в Естонії, у волості Сауе повіту Гар'юмаа.",
    "timestamp": "2018-03-30T14:13:58Z"
  },
  {
    "id": 2691003,
    "title": "Пяллу (Сауе)",
    "text": "Пя́ллу (Template:lang-et) — село в Естонії, у волості Сауе повіту Гар'юмаа.",
    "timestamp": "2018-03-30T14:20:25Z"
  },
  {
    "id": 2691004,
    "title": "Майдла (Сауе)",
    "text": "Ма́йдла (Template:lang-et) — село в Естонії, у волості Сауе повіту Гар'юмаа.",
    "timestamp": "2018-03-30T14:21:59Z"
  },
  {
    "id": 2691007,
    "title": "Флатбрьо",
    "text": "Флатбрьо (Template:lang-no) — традиційний норвезький прісний хліб, який в даний час зазвичай їдять з рибою, солоним м'ясом та супами. Спочатку це була основна їжа норвезьких пастухів, селян та вікінгів.",
    "timestamp": "2018-06-16T06:04:03Z"
  },
  {
    "id": 2691009,
    "title": "Ситник голівчастий",
    "text": "Ситник голівчастийTemplate:Кобів, ситник головчастийTemplate:книга Template:ref-ruTemplate:ref-ukTemplate:книга (Juncus capitatus) — вид трав'янистих рослин родини Ситникові (Juncaceae), поширений у Європі (крім півночі), у Північній Африці, помірній і субтропічній Азії.",
    "timestamp": "2018-03-30T14:28:12Z"
  },
  {
    "id": 2691014,
    "title": "Майдла",
    "text": "Майдла (Template:lang-et) — назва географічних об'єктів Естонії.",
    "timestamp": "2018-03-30T14:32:27Z"
  },
  {
    "id": 2691016,
    "title": "Алліку (Сауе)",
    "text": "А́лліку (Template:lang-et) — село в Естонії, у волості Сауе повіту Гар'юмаа.",
    "timestamp": "2018-03-30T14:37:13Z"
  },
  {
    "id": 2691026,
    "title": "Суперкубок Харківської області з футболу",
    "text": "Суперкубок Харківської області з футболу — обласне змагання серед аматорських команд. Проводиться на регулярній основі з 2013 року під егідою Харківської обласної федерації футболу. У фінальному матчі зустрічаються чемпіон і володар кубка Харківської області. Тричі переможцем турніру ставала команда «Колос» з Зачепилівки.",
    "timestamp": "2018-04-05T13:33:26Z"
  },
  {
    "id": 2691033,
    "title": "Маріт Бергер Ресланд",
    "text": "Маріт Бергер Ресланд (Template:lang-no) — норвезький політик і юрист, член партії «Хейре», міністр європейських справ і північної кооперації Норвегії з 2017 рокуTemplate:Cite news.",
    "timestamp": "2018-03-30T15:35:19Z"
  },
  {
    "id": 2691038,
    "title": "Український інститут стратегічних досліджень Міністерства охорони здоров'я України",
    "text": "Державна установа «Український інститут стратегічних досліджень Міністерства охорони здоров'я України» — інститут сфери управління МОЗ України, основним завданням якого є розробка програм трансформації системи охорони здоров'я, нормативно-правового, інформаційного та фінансово-економічного забезпечення цієї галузіІнформація про інститут на офіційному сайті установи.",
    "timestamp": "2018-03-31T14:03:56Z"
  },
  {
    "id": 2691042,
    "title": "Національна інвестиційна рада України",
    "text": "Національна інвестиційна рада України — це консультативно-дорадчий орган при Президентові України.",
    "timestamp": "2018-10-23T07:35:51Z"
  },
  {
    "id": 2691049,
    "title": "Койду (Сауе)",
    "text": "Ко́йду (Template:lang-et) — село в Естонії, у волості Сауе повіту Гар'юмаа.",
    "timestamp": "2018-03-30T15:30:09Z"
  },
  {
    "id": 2691050,
    "title": "Литвинчук Георгій Семенович",
    "text": "Литвинчук Георгій Семенович (27 червня 1931, Ростов-на-Дону, — 9 серпня 2006, Одеса) — відомий математик. Доктор фізико-математичних наук (1969), професор (1969). Заслужений діяч науки і техніки Української РСР (1989)Указ Президії Верховної Ради Української РСР від 29 грудня 1989 року № 8596-XI «Про присвоєння тов. Літвінчуку Г. С. почесного звання „Заслужений діяч науки і техніки Української РСР“».",
    "timestamp": "2018-03-31T09:12:50Z"
  },
  {
    "id": 2691059,
    "title": "Night Visions",
    "text": "Night Visions — дебютний студійний альбом американського гурту «Imagine Dragons», представлений 4 вересня 2012 року. 12 лютого 2013 року була представлена розширена версія платівки із трьома новими композиціями, а 26 березня — британське видання. Ден Рейнольдс, фронтмен гурту, зазначив, що робота над альбомом тривала три роки; шість пісень були раніше представлені у міні-альбомах.",
    "timestamp": "2018-04-06T06:10:00Z"
  },
  {
    "id": 2691064,
    "title": "Івана",
    "text": "Івана — офшорне газове родовище у хорватському секторі Адріатичного моря.",
    "timestamp": "2018-10-18T08:51:31Z"
  },
  {
    "id": 2691075,
    "title": "Рольф Вікстрем",
    "text": "Рольф Вікстрем (Template:lang-no) (9 грудня, 1912, Крістіанія — 10 вересня 1941, Осло) — норвезький профспілковий діяч. Розстріляний німецькою окупаційною владою за організацію страйку.",
    "timestamp": "2018-03-30T21:03:19Z"
  },
  {
    "id": 2691083,
    "title": "Bellona",
    "text": "Беллона (Template:Lang-en) — міжнародне екологічне об'єднання.",
    "timestamp": "2018-03-31T20:03:06Z"
  },
  {
    "id": 2691088,
    "title": "Назарбаєва Дарига Нурсултанівна",
    "text": "Дарига Нурсултанівна Назарбаєва (Template:lang-kk, Template:ДН, Теміртау Карагандинська область, Казахська РСР) — політична і громадська діячка Республіки Казахстан, старша дочка президента Казахстану Нурсултана Назарбаєва.",
    "timestamp": "2018-10-01T12:22:45Z"
  },
  {
    "id": 2691094,
    "title": "Нізельский Юрій Миколайович",
    "text": "Юрій Миколайович Нізельский (нар. 15 травня 1939 (Дніпропетровськ) — пом. 22 грудня 2007 (Київ)) український вчений-хімік, доктор хімічних наук (1990), професор, старший науковий співробітник.",
    "timestamp": "2018-04-20T08:58:32Z"
  },
  {
    "id": 2691097,
    "title": "Лінге Мартін",
    "text": "Лінге Мартін Йенсен (Template:Lang-no; 11 грудня 1894, Лінге-Фарм — Template:Дата смерті, Молей) — норвезький кіноактор і діяч Руху Опору, капітан норвезької армії і командир 1-шої окремої норвезької роти при Управлінні спеціальних операцій Великої Британії.",
    "timestamp": "2018-05-07T14:30:53Z"
  },
  {
    "id": 2691099,
    "title": "Хардінгфеле",
    "text": "Хардінгфеле,  також хардангерфеле (Template:Lang-no, Template:Lang-en) – традиційна норвезька скрипка. Є популярним народним струнно-смичковим музичним інструментом Норвегії поряд зі скрипкою фіддл та ланглейком.Музыкальный энциклопедический словарь / Гл. ред. Г. В. Келдыш. — М.: Советская энциклопедия, 1990. — C. 596 — ISBN 5-85270-033-9.. На хардінгфеле найчастіше виконуються народні танцювальні мелодії.",
    "timestamp": "2018-05-07T19:07:54Z"
  },
  {
    "id": 2691101,
    "title": "Свідок (фільм, 1969)",
    "text": "Свідок (Template:lang-hu) — угорський сатиричний фільм режисера Петера Бачо, який вийшов 1969 року. Фільм був створений, коли політичне середовище було напружене, а розмови про Угорську революцію 1956 року були табу. Незважаючи на те, що зйомки та фінансування стрічки були схвалені комуністичною владою, фільм врешті був заборонений для виходу. Після показу фільму на Заході, угорська влада відступила та дозволила випуск фільму в Угорщині. 1981 року стрічка була продемонстрована на Каннському кінофестивалі у секції Особливий погляд. 1994 року було знято продовження фільму під назвою «Свідок знову».",
    "timestamp": "2018-03-31T21:16:03Z"
  },
  {
    "id": 2691102,
    "title": "Архітектори Раюльф Рамстад",
    "text": "Архітектори Раюльф Рамстад (скорочено АРР також з Template:lang-en назви Reiulf Ramstad Architects промовляється RRA) є незалежною у Осло архітектурною фірмою з високим рівнем експертних знань та чіткою ідеологією.",
    "timestamp": "2018-07-18T07:26:00Z"
  },
  {
    "id": 2691105,
    "title": "Ліберальна партія Норвегії",
    "text": "Ліберальна партія Норвегії (Венстре; Template:lang-no) — ліберальнаTemplate:Cite bookTemplate:Cite book і соціал-ліберальнаTemplate:Cite bookTemplate:Cite bookTemplate:Cite book партія Норвегії. Заснована 28 січня 1884 року, є найстаршою політичною партією країни. З 2010 року на чолі партії стоїть Тріне Скай Гранде.",
    "timestamp": "2018-09-07T12:02:25Z"
  },
  {
    "id": 2691106,
    "title": "Алі ібн Кара-Осман",
    "text": "Алі ібн Кара-Осман (*д/н —1438) — володар Ак-Коюнлу в 1435—1458 роках. Повне ім'я Джалал ад-Дін Алі ібн Кара Юлук Осман.",
    "timestamp": "2018-05-12T05:33:25Z"
  },
  {
    "id": 2691108,
    "title": "Національний парк Фолгефонна",
    "text": "Національний парк Фолгефонна (Template:Lang-no) — національний парк в південно-західній Норвегії. Парк створений для охорони льодовика Фолгефонна, третього по площі в континентальній Норвегії, та прилеглих до нього територій з гірськими і долинными ландшафтами. Розташований в губернії (фюльке) Гордаланн на території комун Етне, Квіннхерад, Одда, Йондаль та Улленсванг. Парк був урочисто відкритий 29 квітня 2005 року королевою Сонею.",
    "timestamp": "2018-04-05T13:36:58Z"
  },
  {
    "id": 2691109,
    "title": "Національний парк Ютунгаймен",
    "text": "Національний парк Ютунхеймен (Template:Lang-no) — національний парк в центральній частині південної Норвегії, на плоскогір'ї Ютунхеймен. Назва парку походить від назви масиву, яке, в свою чергу, було дано у 1862 році поетом Осмунном Олавссоном Він'є і сходить до Йотунхейму германо-скандинавської міфології. До цього масив називався Template:Lang-no, «гори гігантів».",
    "timestamp": "2018-04-04T20:44:28Z"
  },
  {
    "id": 2691110,
    "title": "Фрумкіна Ревека Марківна",
    "text": "Ревека Марківна Фрумкіна (нар. 28 грудня 1931, Москва) — російський лінгвіст, психолог, есеїст. Науковий співробітник Інституту мовознавства РАН. Автор понад двохсот наукових праць (шість книг російською мовою і дві — на англійській), відповідальний редактор ряду збірників з лінгвістики. Доктор філологічних наук, професор. Постійний автор газети «Троїцький варіант - Наука».",
    "timestamp": "2018-03-30T17:05:14Z"
  },
  {
    "id": 2691111,
    "title": "Зорькін Валерій Дмитрович",
    "text": "Валерій Дмитрович Зорькін  (род. 18 лютого 1943 року, Костянтинівка, Октябрський район, РРФСР) — російський суддя, юрист. Голова Конституційного суду РФ з 21 березня 2003 року. Доктор юридичних наук, професор. Заслужений юрист РФ (2000).",
    "timestamp": "2018-05-09T18:59:36Z"
  },
  {
    "id": 2691113,
    "title": "Момир Петкович",
    "text": "Момир Петкович (Template:lang-sr; Template:н 21 липня 1953, Суботиця, Воєводина, Сербія, СФРЮ) — югославський борець греко-римського стилю, триразовий срібний та бронзовий призер чемпіонатів світу, чемпіон Олімпійських ігор.",
    "timestamp": "2018-06-09T22:43:09Z"
  },
  {
    "id": 2691124,
    "title": "Хамза ібн Кара-Осман",
    "text": "Хамза ібн Кара-Осман (*д/н —1444) — бей Ак-Коюнлу у 1438—1444 роках. Повне ім'я Нур ад-Дін Хамза Баяндур ібн Кара Осман.",
    "timestamp": "2018-05-12T05:33:27Z"
  },
  {
    "id": 2691130,
    "title": "Вазген I",
    "text": "Вазген I (Template:lang-hy, Template:lang-ro, в миру Левон Абрамович Палчян, Template:ДН2 — 18 серпня 1994) — Верховний Патріарх і Католікос усіх вірмен, першоієрарх Вірменської Апостольської Церкви (1955—1994).",
    "timestamp": "2018-04-01T06:56:58Z"
  },
  {
    "id": 2691131,
    "title": "Вардересян Вардуї Карапетівна",
    "text": "Вардуї Карапетівна Вардересян (Template:Lang-hyՎարդուհի Վարդերեսյան; 1928—2015) — вірменська радянська актриса театру та кіно. Народна артистка СРСР (1988).",
    "timestamp": "2018-03-30T17:50:57Z"
  },
  {
    "id": 2691157,
    "title": "Апоян Шушанік Арутюнівна",
    "text": "Шушанік Арутюнівна Апоян (Template:Lang-hyՇուշանիկ Հարությունի Ափոյան; 17 жовтня 1923, Єреван — 9 жовтня 2015, там же) — вірменська музикознавець, піаністка та музичний педагог, Професор Єреванської державної консерваторії імені Комітаса (1987), член Спілки композиторів СРСР з 1960 року.",
    "timestamp": "2018-04-05T13:33:30Z"
  },
  {
    "id": 2691158,
    "title": "Європейська ліга з хокею на траві 2017–2018",
    "text": "Євроліга з хокею на траві 2017—2018 — одинадцятий сезон Євроліги та четвертий після оновлення формату. Розпочався на початку жовтня 2017, закінчився 27 травня 2018.",
    "timestamp": "2018-05-29T20:03:48Z"
  },
  {
    "id": 2691163,
    "title": "Центр міжнародного дослідження клімату та навколишнього середовища",
    "text": "Центр міжнародного дослідження клімату та навколишнього середовища (англ. Center for International Climate and Environmental Research, CICERO; норв. Senter for klimaforskning) – незалежна норвезька дослідницька база, що займається вивченням проблем клімату та екології у всьому світі та пов’язана з Університетом Осло. Була створена урядом Норвегії у 1990 році з метою збагачення бази знань у національній та міжнародній кліматичній політиці. З 1992 року грає активну роль у Міжурядовій групі експертів з питань змін клімату.",
    "timestamp": "2018-04-05T13:33:31Z"
  },
  {
    "id": 2691166,
    "title": "Сахарнов Святослав Володимирович",
    "text": "Святослав Володимирович Сахарнов (1923–2010Lenta.ru: О высоком: В Петербурге похоронили детского писателя Святослава Сахарнова) — радянський дитячий письменник. Книги Сахарнова неодноразово перекладалися українською мовою.",
    "timestamp": "2018-04-16T08:11:23Z"
  },
  {
    "id": 2691168,
    "title": "Касир",
    "text": "Касир — працівник, який здійснює прийом, зберігання та облік готівки та грошових коштів в іншій формі, оператор касового апарату. Зазвичай одночасно виступає продавцем.",
    "timestamp": "2018-03-30T18:44:01Z"
  },
  {
    "id": 2691172,
    "title": "Сречко Юричич",
    "text": "Сречко Юричич (Template:lang-hr, Template:нар 30 грудня 1954, Волоско) — югославський футболіст, що грав на позиції захисника. По завершенні ігрової кар'єри — югославський і хорватський тренер. Наразі працює спортивним директором клубу «Рієка».",
    "timestamp": "2018-03-30T19:33:28Z"
  },
  {
    "id": 2691180,
    "title": "Партія «капелюхів»",
    "text": "Партія «капелюхів» (Template:lang-sv) — шведська політична партія періоду  «Епохи свободи».",
    "timestamp": "2018-04-13T18:16:14Z"
  },
  {
    "id": 2691196,
    "title": "Петер Фюлеп Кочиш",
    "text": "Петер Фюлеп Кочиш (Template:lang-hu; Template:нар 13 січня 1963, Сегед, Угорщина) — угорський греко-католицький архієпископ, архієпископ-митрополит Гайдудорозький, глава Угорської греко-католицької церкви.",
    "timestamp": "2018-08-04T19:31:53Z"
  },
  {
    "id": 2691214,
    "title": "Голова Воєнного кабінету при Раді національної безпеки і оборони України",
    "text": "Голова Воєнного кабінету при Раді національної безпеки і оборони України — керівник робочого органу РНБОУ, який очолює Голова РНБОУ-Верховний Головнокомандувач Збройних сил України — Президент України.",
    "timestamp": "2018-10-20T12:11:45Z"
  }
]