[
  {
    "id": 1570142,
    "title": "Уша 2",
    "text": "Уша 2 (Template:lang-be) — село в складі Молодечненського району Мінської області, Білорусь. Село підпорядковане Олехновицькій сільській раді, розташоване в західній частині області.",
    "timestamp": "2018-10-22T15:33:45Z"
  },
  {
    "id": 1570143,
    "title": "Сисуни (Молодечненський район)",
    "text": "Сисуни (Template:lang-be) — село в складі Молодечненського району Мінської області, Білорусь. Село підпорядковане Олехновицькій сільській раді, розташоване в західній частині області.",
    "timestamp": "2018-10-22T15:31:17Z"
  },
  {
    "id": 1570147,
    "title": "Даулат Рао Скіндія",
    "text": "Даулат Рао Скіндія (*1779 — 21 березня 1827) — магараджа Гваліора у 1794—1827 роках, активний учасник Другої англо-маратхської війни.",
    "timestamp": "2018-02-22T20:50:59Z"
  },
  {
    "id": 1570149,
    "title": "Старинки (Молодечненський район)",
    "text": "Старинки (Template:lang-be) — село в складі Молодечненського району Мінської області, Білорусь. Село підпорядковане Олехновицькій сільській раді, розташоване в західній частині області.",
    "timestamp": "2018-10-22T15:32:10Z"
  },
  {
    "id": 1570152,
    "title": "Русалишки",
    "text": "Русалишки (Template:lang-be) — село в складі Молодечненського району Мінської області, Білорусь. Село підпорядковане Олехновицькій сільській раді, розташоване в західній частині області.",
    "timestamp": "2018-10-22T15:30:07Z"
  },
  {
    "id": 1570154,
    "title": "Щел1",
    "text": "ЩЕЛ1 (спочатку позначався Юе2, згодом ГЕ 1, пізніше Щ-ЕЛ-1) — один з двох перших у світі робочих магістральних тепловозів. Збудований за проектом інженера Гаккеля. Перший у світі локомотив з візковим екіпажем. Автором проекту кузова, а також детальної переробки ходової (екіпажної) частини був головний інженер Путиловського заводу професор РаєвськийБольшая Советская Энциклопедия. Гл. ред. Б. А. Введенский, 2-е изд. — Т. 35. Прокат — Раковины. — 1955. — 672с., ил. и карты; 35 л. илл. и карт.Сологубов В. Н. Развитие паровозостроения в СССР // Очерки развития железнодорожной науки и техники: Сборник статей — Template:М., 1953.Профессор А. С. Раевский. (Некролог) // «Техника и экономика путей сообщения» — 1924. — Т. 1, № 7.Копытковский Д. (и др.). А. С. Раевский. (Некролог) // «Предприятие» — 1924, № 9..",
    "timestamp": "2017-05-20T16:44:26Z"
  },
  {
    "id": 1570155,
    "title": "Олехновичі",
    "text": "Олехновичі (Template:lang-be) — село в складі Молодечненського району Мінської області, Білорусь. Село є адміністративним центром Олехновицької сільської ради, розташоване в західній частині області.",
    "timestamp": "2018-10-22T15:21:47Z"
  },
  {
    "id": 1570158,
    "title": "Новосілки 1 (Мінська область)",
    "text": "Новосілки 1 (Template:lang-be) — село в складі Молодечненського району Мінської області, Білорусь. Село підпорядковане Олехновицькій сільській раді, розташоване в західній частині області.",
    "timestamp": "2018-10-22T15:08:29Z"
  },
  {
    "id": 1570160,
    "title": "Єленка (Молодечненський район)",
    "text": "Єленка (Template:lang-be) — село в складі Молодечненського району Мінської області, Білорусь. Село підпорядковане Олехновицькій сільській раді, розташоване в західній частині області.",
    "timestamp": "2018-10-22T10:35:04Z"
  },
  {
    "id": 1570161,
    "title": "Yox!",
    "text": "Yox! (Йок!, Template:lang-uk; повна назва: «Yox!» Рух-Азербайджан) — ненасильницький демократичний молодіжний рух в Азербайджані, що створений за зразком таких рухів як Отпор!, Кмара, Пора! (чорна), Зубр і KelKel.",
    "timestamp": "2016-06-23T23:03:09Z"
  },
  {
    "id": 1570164,
    "title": "Спиське Подградє",
    "text": "Спиське Подградє, або Спиське Подградьє (Template:lang-sk) — місто в Словаччині, Левоцькому окрузі Пряшівського краю. Розташоване в східній частині Словаччини, в північно-східній частині Горнадської улоговини на південних схилах Левоцьких гір. Містечко разом з близьким могутнім Спиським замком та Спиською капитулою занесені в список ЮНЕСКО.",
    "timestamp": "2018-08-27T04:17:11Z"
  },
  {
    "id": 1570166,
    "title": "Гвінейський франк",
    "text": "Гвінейський франк — національна валюта Гвінеї; 1 франк = 100 сантимів.",
    "timestamp": "2017-03-17T08:00:03Z"
  },
  {
    "id": 1570175,
    "title": "Вишнеградський Іван Олексійович",
    "text": "Вишнегра́дський Іва́н Олексі́йович (Template:н20 грудня 1831 (1 січня 1832), Вишній Волочек — Template:†25 березня (6 квітня) 1895, Санкт-Петербург) — російський вчений, фахівець в області механіки, державний діяч. Основоположник теорії автоматичного регулювання, почесний член Петербурзької АН з 1888 року, у 1887–1892 рр. — міністр фінансів Російської імперіїTemplate:ВТ-ЭСБЕ.",
    "timestamp": "2017-04-30T13:14:09Z"
  },
  {
    "id": 1570177,
    "title": "Sterrhinae",
    "text": "Sterrhinae — підродина метеликів родини П'ядуни (Geometridae). У підродині описано понад 2800 видів.",
    "timestamp": "2013-07-17T17:33:01Z"
  },
  {
    "id": 1570178,
    "title": "Старчевіца",
    "text": "Старчевіца - поселення в окрузі Баня-Лука,Республіки Сербської, Боснія і Герцеговина. Розташоване на правому березі річки Врбас на південний схід від центру міста.",
    "timestamp": "2013-10-12T12:25:54Z"
  },
  {
    "id": 1570180,
    "title": "Курейка (річка)",
    "text": "Куре́йка (також відома як Лю́ма, Ну́ма) — річка у Середньому Сибіру, на Крайній Півночі Росії, протікає по території Евенкійського, Таймирського та Туруханського районів Красноярського краю. Права, одна із найпівнічніших великих приток річки Єнісей. Належить до водного басейну Карського моря.",
    "timestamp": "2017-08-02T10:44:12Z"
  },
  {
    "id": 1570188,
    "title": "Субсидіарне застосування законодавства",
    "text": "Субсидіарне застосування норм права (у значенні різновиду аналогії закону) — це засіб подолання прогалин у законодавстві, який полягає у вирішенні конкретної справи на підставі залучення правових норм, що регулюють подібну ситуацію з іншої, найбільш близької галузі права.",
    "timestamp": "2016-08-18T09:05:55Z"
  },
  {
    "id": 1570192,
    "title": "Людина пітьми",
    "text": "«Людина пітьми» (Template:lang-en) — американський фантастичний бойовик 1990 року режисера Сема Реймі.",
    "timestamp": "2018-06-22T13:13:23Z"
  },
  {
    "id": 1570195,
    "title": "Набемба",
    "text": "Набемба — найвища гора Республіки Конго.",
    "timestamp": "2013-08-12T12:32:06Z"
  },
  {
    "id": 1570196,
    "title": "Чемпіонат африканських націй",
    "text": "Чемпіонат африканських націй з футболу (Template:lang-en) — футбольне змагання Африки між збірними країн, контрольоване Африканською футбольною асоціацією. Засновано 11 вересня 2007 року.",
    "timestamp": "2018-06-25T08:53:41Z"
  },
  {
    "id": 1570199,
    "title": "Китайці у Великій Британії",
    "text": "Китайці у Великій Британії (китайська: традиц. 英國華僑, спрощ. 英国华侨, Yīngguó Huáqiáo) — британці китайського походження. Китайська діаспора Сполученого Королівства  — найбільша в Європі та найстаріша в Західній Європі, розпочала свою історію з початку XIX століття. Це найбільш швидкозростаюча діаспора у Великої Британії з щорічним приростом 11,2 %, більш 90 % приросту досягається за рахунок імміграції. Більшість китайців в країні неінтегровані або слабо інтегровані в британське суспільство, частково через мовний бар'єр.",
    "timestamp": "2017-05-23T16:22:20Z"
  },
  {
    "id": 1570200,
    "title": "Атака (музика)",
    "text": "Ата́ка зву́ку — одна з найважливіших динамічних характеристик художнього звуку в музично-виконавському мистецтві; початковий імпульс звуковидобування, необхідний для утворення звуків при грі на якомусь музичному інструменті або при співі вокальних партій; деякі нюанси характеристик різних способів звуковидобування, виконавських штрихів, артикуляції і фразування.",
    "timestamp": "2013-07-21T11:39:24Z"
  },
  {
    "id": 1570203,
    "title": "Андріївська сільська рада (Ічнянський район)",
    "text": "Андрі́ївська сільська́ ра́да — адміністративно-територіальна одиниця та орган місцевого самоврядування в Ічнянському районі Чернігівської області. Адміністративний центр — село Андріївка.",
    "timestamp": "2015-06-17T10:13:51Z"
  },
  {
    "id": 1570206,
    "title": "Джон Мугабі",
    "text": "Джон «Звір» Мугабі (Template:lang-en; Template:ДН) — угандійський боксер-професіонал. Чемпіон світу за версією WBC. Срібний призер Олімпійських ігор у ваговій категорії до 69 кг (1980).",
    "timestamp": "2018-04-16T09:12:34Z"
  },
  {
    "id": 1570207,
    "title": "Пам'ятник Ярославу Мудрому (Біла Церква)",
    "text": "Пам'ятник Ярославу Мудрому в Білій Церкві — князю Ярославу Мудрому, засновнику городища-фортеці Юр'їв попередника міста Білої Церкви був відкритий до 950 річчя Білої Церкви і встановлений на Замковій горі в 1983.",
    "timestamp": "2017-12-05T20:47:53Z"
  },
  {
    "id": 1570209,
    "title": "Франк Джибуті",
    "text": "Франк Джибуті (Template:lang-ar, Template:lang-fr) — національна валюта Джибуті; 1 франк = 100 сантимів.",
    "timestamp": "2017-03-17T08:53:23Z"
  },
  {
    "id": 1570215,
    "title": "Астролябія (затока)",
    "text": "Зато́ка Астроля́бія (Template:lang-en) — великий водний масив біля північно-східного узбережжя провінції Маданг, Папуа Нова Гвінея; частина моря Бісмарка в межах від мису Айріс«Мис Айріс» (Cape Iris, Papua New Guinea) на мапі Mapcarta Template:ref-en на півдні до мису Круазіль«Мис Круазіль» (Cape Croisilles, Papua New Guinea) на мапі Mapcarta Template:ref-en на півночі. На узбережжі Астролябії розташоване місто Маданг — адміністративний центр провінції Маданг.",
    "timestamp": "2018-02-17T14:04:51Z"
  },
  {
    "id": 1570217,
    "title": "ДОТ № 481 (КиУР)",
    "text": "ДОТ № 481 — довготривала оборонна точка (ДОТ) та артилерійський спостережний пункт (АСП), що входила до складу першої лінії оборони київського укріпленого району. Розташований у Мостищі (у 1930-40-х роках окремий населений пункт, а зараз — частина Гостомеля). Пам'ятка історії, науки і техніки місцевого значення.",
    "timestamp": "2018-10-08T13:37:06Z"
  },
  {
    "id": 1570222,
    "title": "Володько-Дівицька волость",
    "text": "Володько-Дівицька волость — історична адміністративно-територіальна одиниця Ніжинського повіту Чернігівської губернії з центром у селі Володькова Дівиця.",
    "timestamp": "2018-04-02T10:57:19Z"
  },
  {
    "id": 1570226,
    "title": "Каллімакі Іоанн Теодор",
    "text": "Іоа́нн Теодо́р Калліма́кі (Template:lang-ro; Template:н1690 — Template:†1780, Стамбул) — дворянин із шляхетного роду Каллімакі, господар Молдовського князівства (1758—1761). У 1761 році відправився у Стамбул, де до самої смерті був особистим перекладачем султана Селіма ІІІJ. Demel, Historia Rumunii, Wrocław 1970. Був поліглотом: досконало володів латиною, турецькою, італійською, грецькою і французькою мовамиNita Dan Danielescu. «Gavriil Callimachi, ctitorul Catedralei mitropolitane Sf. Gheorghe din Iasi» Ziarul Lumina, 2006-02-20.",
    "timestamp": "2017-05-21T06:57:14Z"
  },
  {
    "id": 1570231,
    "title": "Бакаївська сільська рада",
    "text": "Бакаї́вська сільська́ ра́да — адміністративно-територіальна одиниця та орган місцевого самоврядування в Ічнянському районі Чернігівської області. Адміністративний центр — село Бакаївка.",
    "timestamp": "2015-06-17T11:59:37Z"
  },
  {
    "id": 1570243,
    "title": "Койтени",
    "text": "Койтени (Template:lang-be) — село в складі Молодечненського району Мінської області, Білорусь. Село підпорядковане Олехновицькій сільській раді, розташоване в західній частині області.",
    "timestamp": "2018-10-22T14:41:04Z"
  },
  {
    "id": 1570248,
    "title": "Гойжево",
    "text": "Гойжево (Template:lang-be) — село в складі Молодечненського району Мінської області, Білорусь. Село підпорядковане Олехновицькій сільській раді, розташоване в західній частині області.",
    "timestamp": "2018-10-22T10:31:17Z"
  },
  {
    "id": 1570254,
    "title": "Бережівська сільська рада",
    "text": "Бережі́вська сільська́ ра́да — адміністративно-територіальна одиниця та орган місцевого самоврядування в Ічнянському районі Чернігівської області. Адміністративний центр — село Бережівка.",
    "timestamp": "2015-06-17T11:57:58Z"
  },
  {
    "id": 1570256,
    "title": "Дуброва (Молодечненський район)",
    "text": "Дуброва (Template:lang-be) — село в складі Молодечненського району Мінської області, Білорусь. Село підпорядковане Олехновицькій сільській раді, розташоване в західній частині області.",
    "timestamp": "2018-10-22T10:33:36Z"
  },
  {
    "id": 1570259,
    "title": "Чемпіонат Африки з футзалу",
    "text": "Чемпіонат Африки з футзалу (Template:lang-en) — головне футзальне змагання країн, що входять в Африканську конфедерацію футболу. Проводиться з 1996 року кожні чотири роки. За результатами турніру відбираються збірні, які представлятимуть Африку на найближчому чемпіонаті світу. Найбільш успішною командою в історії змагання є збірна Єгипту, яка виграла три чемпіонати з чотирьох.",
    "timestamp": "2016-12-05T05:19:16Z"
  },
  {
    "id": 1570261,
    "title": "Сроковський Костянтин Йосипович",
    "text": "Сроковський Костянтин Йосипович (? — після 1918) — київський архітектор, цивільний інженер, педагог.",
    "timestamp": "2018-02-01T20:12:07Z"
  },
  {
    "id": 1570264,
    "title": "Кантакузін Георгій Григорович",
    "text": "Кантаку́зін Гео́ргій Григо́рович (Template:н17 вересня 1849 — Template:†20 вересня 1899, Кишинів) — князь, представник шляхетного дворянського роду Кантакузіни, поручик (з 1873), штабс-ротмістр (з 1874), штабс-капітан, начальник Ковенського й Рязанського жандармських управлінь, ротмістр (з 1883), підполковник (з 1890), земський начальник 1-ї дільниці Белецького повіту Бессарабської губернії (з 1892). Нагороджений орденом Св. Анни 3-го стСокирянщина: Історико-краєзнавчий альманах. / Упорядкування і редагування, О. С. Мандзяк. Вип. — 3. — Мінськ–Новодністровськ, 2011. — С. 119. Батько Кантакузіна Володимира Георгійовича.",
    "timestamp": "2017-10-20T07:10:46Z"
  },
  {
    "id": 1570265,
    "title": "Кухарі (Молодечненський район)",
    "text": "Кухарі (Template:lang-be) — село в складі Молодечненського району Мінської області, Білорусь. Село підпорядковане Олехновицькій сільській раді, розташоване в західній частині області.",
    "timestamp": "2018-10-22T15:05:16Z"
  },
  {
    "id": 1570266,
    "title": "Бальцери",
    "text": "Бальцери (Template:lang-be) — село в складі Молодечненського району Мінської області, Білорусь. Село підпорядковане Олехновицькій сільській раді, розташоване в західній частині області.",
    "timestamp": "2018-10-22T10:24:52Z"
  },
  {
    "id": 1570267,
    "title": "Галицька волость",
    "text": "Галицька волость — історична адміністративно-територіальна одиниця Ніжинського повіту Чернігівської губернії з центром у селі Галиця.",
    "timestamp": "2013-07-15T16:16:35Z"
  },
  {
    "id": 1570269,
    "title": "Бортники (Молодечненський район)",
    "text": "Бортники (Template:lang-be) — село в складі Молодечненського району Мінської області, Білорусь. Село підпорядковане Олехновицькій сільській раді, розташоване в західній частині області.",
    "timestamp": "2018-10-22T10:25:41Z"
  },
  {
    "id": 1570275,
    "title": "Кривенки",
    "text": "Кривенки (Template:lang-be) — село в складі Молодечненського району Мінської області, Білорусь. Село підпорядковане Олехновицькій сільській раді, розташоване в західній частині області.",
    "timestamp": "2018-10-22T14:43:30Z"
  },
  {
    "id": 1570278,
    "title": "Більмачівська сільська рада",
    "text": "Більмачі́вська сільська́ ра́да — адміністративно-територіальна одиниця та орган місцевого самоврядування в Ічнянському районі Чернігівської області. Адміністративний центр — село Більмачівка.",
    "timestamp": "2015-06-17T11:55:13Z"
  },
  {
    "id": 1570286,
    "title": "Село-Кам'янка",
    "text": "Село-Кам'янка — пасажирський зупинний пункт Козятинської дирекції залізничних перевезень Південно-Західної залізниці (Україна), розташований на лінії між станціями Шепетівка (відстань — 6 км) і Цвітоха (5 км).",
    "timestamp": "2017-04-02T08:54:55Z"
  },
  {
    "id": 1570292,
    "title": "Єнбах",
    "text": "Єнбах (Template:lang-de) — ярмаркове містечко і громада округу Швац у землі Тіроль, Австріяwww.jenbach.at.",
    "timestamp": "2018-05-26T12:36:15Z"
  },
  {
    "id": 1570295,
    "title": "Урочище Атак",
    "text": "Ата́к (Уро́чище Ата́к) — ботанічна пам'ятка природи загальнодержавного значення в Україні. Розташована в межах Берегівського району Закарпатської області, на північ від села Квасово.",
    "timestamp": "2016-05-02T12:50:23Z"
  },
  {
    "id": 1570296,
    "title": "Майргофен",
    "text": "Майргофен (Template:lang-de) — ярмаркове містечко і громада округу Швац у землі Тіроль, Австріяwww.mayrhofen.tirol.gv.at.",
    "timestamp": "2017-05-14T20:04:43Z"
  },
  {
    "id": 1570298,
    "title": "Бошицький Юрій Ладиславович",
    "text": "Боши́цький Юрій Ладисла́вович  (* 29 вересня 1959, м. Ужгород) — український державний діяч і ректор Київського університету права НАН України, Заслужений юрист України, професор, кандидат юридичних наук.",
    "timestamp": "2017-11-03T10:27:00Z"
  },
  {
    "id": 1570302,
    "title": "Фомп",
    "text": "Фомп (Template:lang-de) — ярмаркове містечко і громада округу Швац у землі Тіроль, Австріяwww.vomp.tirol.gv.at.",
    "timestamp": "2017-05-16T12:27:26Z"
  },
  {
    "id": 1570308,
    "title": "Целль-ам-Ціллер",
    "text": "Целль-ам-Ціллер (Template:lang-de) — ярмаркове містечко і громада округу Швац у землі Тіроль, Австріяwww.gemeinde-zell.at.",
    "timestamp": "2017-05-16T13:55:01Z"
  },
  {
    "id": 1570311,
    "title": "Молодіжний (U-23) чемпіонат Африки з футболу",
    "text": "Молодіжний (U-23) чемпіонат Африки з футболу (Template:lang-en) — футбольний турнір для африканських збірних віком до 23 років, заснований 2011 року. Одночасно є кваліфікацією африканських збірних на футбольний турнір Олімпійських ігор.",
    "timestamp": "2016-12-05T05:33:07Z"
  },
  {
    "id": 1570322,
    "title": "Позняки (Молодечненський район)",
    "text": "Позняки (Template:lang-be) — село в складі Молодечненського району Мінської області, Білорусь. Село підпорядковане Олехновицькій сільській раді, розташоване в західній частині області.",
    "timestamp": "2018-10-22T15:27:10Z"
  },
  {
    "id": 1570325,
    "title": "Довгодько Іван Вікторович",
    "text": "Іва́н Ві́кторович Довгодько  (* 15 січня 1989, Київ) — український спортсмен, займається академічним веслуванням, заслужений майстер спорту України з академічного веслування.",
    "timestamp": "2018-06-09T14:03:44Z"
  },
  {
    "id": 1570327,
    "title": "Корсаковичі (Молодечненський район)",
    "text": "Корсаковичі (Template:lang-be) — село в складі Молодечненського району Мінської області, Білорусь. Село підпорядковане Олехновицькій сільській раді, розташоване в західній частині області.",
    "timestamp": "2018-10-22T14:41:51Z"
  },
  {
    "id": 1570328,
    "title": "Попівщина (Молодечненський район)",
    "text": "Попівщина (Template:lang-be) — село в складі Молодечненського району Мінської області, Білорусь. Село підпорядковане Олехновицькій сільській раді, розташоване в західній частині області.",
    "timestamp": "2018-10-22T15:28:10Z"
  },
  {
    "id": 1570329,
    "title": "Жукотки (станція)",
    "text": "Жукотки — проміжна станція 5 класу Київської дирекції залізничних перевезень Південно-Західної залізниці (Україна), розташований на лінії між станціями Чернігів (відстань — 21 км) і Славутич (17 км).",
    "timestamp": "2017-11-22T00:36:49Z"
  },
  {
    "id": 1570330,
    "title": "Канюк Сергій Іванович",
    "text": "Сергі́й Іва́нович Каню́к (Канюка) (* 15 липня 1880, Хлівище — сучасний Кіцманський район — † 15 березня 1945) — український громадський діяч, письменник, педагог, публіцист.",
    "timestamp": "2018-05-19T10:03:09Z"
  },
  {
    "id": 1570332,
    "title": "Новосілки 2 (Мінська область)",
    "text": "Новосілки 2 (Template:lang-be) — село в складі Молодечненського району Мінської області, Білорусь. Село підпорядковане Олехновицькій сільській раді, розташоване в західній частині області.",
    "timestamp": "2018-10-22T15:08:51Z"
  },
  {
    "id": 1570335,
    "title": "Манос Піроволакіс",
    "text": "Манос Піроволакіс (Template:lang-el) — сучасний грецький композитор, один з найкращих виконавців на крітської лірі, його композиції поєднують в собі поп-рок-музику з традиційними мелодіями Криту.",
    "timestamp": "2014-01-09T23:05:29Z"
  },
  {
    "id": 1570336,
    "title": "Канюк Зиновія",
    "text": "Зино́вія Каню́к (* 1837, Хлівище — сучасний Кіцманський район — † 1915, Вашківці) — буковинська письменниця, також була редактором «Променя».",
    "timestamp": "2018-05-21T19:00:17Z"
  },
  {
    "id": 1570338,
    "title": "Араби у Великій Британії",
    "text": "Британські араби (Template:lang-en) — араби, що живуть або народилися у Великій Британії.",
    "timestamp": "2017-05-23T15:50:02Z"
  },
  {
    "id": 1570341,
    "title": "Герасимович Іван",
    "text": "Іва́н Герасимо́вич (1876 —1942) — український педагог, редактор та громадський діяч, організатор українського учительства, сотник УГА.",
    "timestamp": "2018-08-24T11:09:10Z"
  },
  {
    "id": 1570343,
    "title": "Городище (станція)",
    "text": "Городище — проміжна залізнична станція лінії Миронівка — ім. Тараса Шевченка Одеської залізниці, розташована у місті Городище.",
    "timestamp": "2018-05-15T09:23:37Z"
  },
  {
    "id": 1570344,
    "title": "Дікштейн Катерина Олександрівна",
    "text": "Дікште́йн Катери́на Олекса́ндрівна (* 3 лютого 1913, Петербург — † 29 квітня 2005, Донецьк) — українська лікарка, підполковник медичної служби, 1958 — доктор медичних наук, професор. Нагороджена двома орденами Вітчизняної війни ІІ ступеня, орденом Червоної Зірки, Богдана Хмельницького, медалями «За оборону Москви», «За взяття Кенігсберга», «За перемогу над Німеччиною», «Захисник Вітчизни», «Ветеран праці».",
    "timestamp": "2015-12-18T04:59:51Z"
  },
  {
    "id": 1570345,
    "title": "Burzum (альбом)",
    "text": "Burzum — дебютний студійний альбом норвезького блек-метал-гурту Burzum. Був записаний у січні 1992 року та випущений у березні того ж року на лейблі Deathlike Silence Productions, що належав гітаристу Mayhem Євронімусу.",
    "timestamp": "2016-12-17T05:44:08Z"
  },
  {
    "id": 1570348,
    "title": "Корсунь (станція)",
    "text": "Кóрсунь — проміжна залізнична станція Шевченківської дирекції лінії Миронівка — ім. Тараса Шевченка Одеської залізниці, розташована за 3 км від міста Корсунь-Шевченківський.",
    "timestamp": "2018-04-18T15:55:08Z"
  },
  {
    "id": 1570358,
    "title": "Чемпіонат Африки з футболу серед жінок",
    "text": "Чемпіонат Африки з футболу серед жінок (Template:lang-en) — головне змагання африканських жіночих футбольних збірних. Турнір проводиться раз на два роки.",
    "timestamp": "2018-03-04T19:21:03Z"
  },
  {
    "id": 1570364,
    "title": "Рухли",
    "text": "Рухли (Template:lang-be) — село в складі Молодечненського району Мінської області, Білорусь. Село підпорядковане М'ясотській сільській раді, розташоване в західній частині області.",
    "timestamp": "2018-10-22T15:30:12Z"
  },
  {
    "id": 1570365,
    "title": "Черченове",
    "text": "Черченове (Template:lang-be) — село в складі Молодечненського району Мінської області, Білорусь. Село підпорядковане М'ясотській сільській раді, розташоване в західній частині області.",
    "timestamp": "2018-10-22T15:34:55Z"
  },
  {
    "id": 1570366,
    "title": "Плеси",
    "text": "Плеси (Template:lang-be) — село в складі Молодечненського району Мінської області, Білорусь. Село підпорядковане М'ясотській сільській раді, розташоване в західній частині області.",
    "timestamp": "2018-10-22T15:24:40Z"
  },
  {
    "id": 1570367,
    "title": "Виноград (плід)",
    "text": "Виногра́д — гроно винограду, плоди, що ростуть на виноградній лозі.",
    "timestamp": "2018-10-08T20:13:00Z"
  },
  {
    "id": 1570368,
    "title": "Хожівська сільська рада",
    "text": "Хожівська сільська рада (Template:lang-be) — адміністративно-територіальна одиниця в складі Молодечненського району розташована в Мінській області Білорусі. Адміністративний центр — Хожове.",
    "timestamp": "2018-10-23T01:22:37Z"
  },
  {
    "id": 1570370,
    "title": "Таємна мова",
    "text": "Таємна мова — штучно створена мовна підсистема, що використовується вузькими соціальними чи професійними групами як засіб замкнутого спілкування в їх межах або вияву належності до них. Таємна мова вважається різновидом соціального діалекту.",
    "timestamp": "2015-09-13T14:12:03Z"
  },
  {
    "id": 1570371,
    "title": "Друга громадянська війна в Республіці Конго",
    "text": "Друга громадянська війна в Республіці Конго — збройний конфлікт, який тривав з червня 1997 року по грудень 1999 року, вівся між прихильниками двох кандидатів в президенти й завершився вторгненням ангольських військ і встановленням влади Дені Сассу-Нгессо. У Конго ця війна відома як «Війна 5 червня» (Template:lang-fr).",
    "timestamp": "2016-08-11T19:02:34Z"
  },
  {
    "id": 1570373,
    "title": "Тюрлівська сільська рада",
    "text": "Тюрлівська сільська рада (Template:lang-be) — адміністративно-територіальна одиниця в складі Молодечненського району розташована в Мінській області Білорусі. Адміністративний центр — Тюрли.",
    "timestamp": "2018-10-23T01:21:34Z"
  },
  {
    "id": 1570378,
    "title": "Карбід титану",
    "text": "Карбі́д тита́ну — хімічна сполука елементів титан і карбон із формулою TiC. Це поширений матеріал з високою температурою плавлення, високою твердістю (9—9,5 за шкалою Мооса), низьким електроопором, високою теплопровідністю, стійкістю до агресивних середовищ і до абразивного зношування.",
    "timestamp": "2018-03-21T16:48:57Z"
  },
  {
    "id": 1570379,
    "title": "Рогози (Молодечненський район)",
    "text": "Рогози (Template:lang-be) — село в складі Молодечненського району Мінської області, Білорусь. Село підпорядковане Тюрлівській сільській раді, розташоване в західній частині області.",
    "timestamp": "2018-10-22T15:29:43Z"
  },
  {
    "id": 1570380,
    "title": "Емека Езе",
    "text": "Емека Езе (Template:lang-en, Template:н 22 грудня 1992) — нігерійський футболіст, півзахисник клубу «Енугу Рейнджерс».",
    "timestamp": "2018-06-13T11:41:09Z"
  },
  {
    "id": 1570384,
    "title": "Самюель Наньїн",
    "text": "Самюель Наньїн (Template:lang-fr, Template:н 1 березня 1984) — таїтянський футболіст, нападник клубу «Дрегон» та національної збірної Таїті.",
    "timestamp": "2013-07-16T06:25:00Z"
  },
  {
    "id": 1570390,
    "title": "Яннік Веро",
    "text": "Яннік Веро (Template:lang-fr, Template:н 28 лютого 1990) — таїтянський футболіст, захисник клубу «Дрегон» та національної збірної Таїті.",
    "timestamp": "2013-11-04T14:02:02Z"
  },
  {
    "id": 1570392,
    "title": "Латіфа (співачка)",
    "text": "Латіфа Бінт Алея Аль-Арфауї (Template:lang-ar), більш відома як Латіфа (لطيفة), нар. 14 лютого 1961, Мануба — туніська співачка та акторка. Співає арабською мовою.",
    "timestamp": "2018-06-06T09:31:03Z"
  },
  {
    "id": 1570395,
    "title": "Стефан Фаатьяро",
    "text": "Стефан Фаатьяро (Template:lang-fr, Template:н 13 березня 1990, Фаа'а) — таїтянський футболіст, захисник клубу «Тефана» та національної збірної Таїті.",
    "timestamp": "2013-07-16T06:27:39Z"
  },
  {
    "id": 1570396,
    "title": "Андрес Скотті",
    "text": "Андрес Скотті (Template:lang-es, Template:н 14 грудня 1975, Монтевідео) — уругвайський футболіст, захисник клубу «Насьйональ».",
    "timestamp": "2018-05-28T10:11:01Z"
  },
  {
    "id": 1570398,
    "title": "Ніколя Валлар",
    "text": "Ніколя Валлар (Template:lang-fr, Template:н 22 жовтня 1983, Папеете) — таїтянський футболіст, захисник клубу «Дрегон» та національної збірної Таїті.",
    "timestamp": "2014-02-25T14:40:22Z"
  },
  {
    "id": 1570401,
    "title": "Едсон Лемер",
    "text": "Едсон Лемер (Template:lang-fr, Template:н 31 жовтня 1990, Папеете) — таїтянський футболіст, захисник клубу «Дрегон» та національної збірної Таїті.",
    "timestamp": "2018-06-13T11:27:45Z"
  },
  {
    "id": 1570403,
    "title": "Жильбер Мер'єль",
    "text": "Жильбе́р Мер'є́ль (Template:lang-fr, Template:н 11 листопада 1986, Фаа'а) — таїтянський футболіст, воротар клубу «Сентраль Спорт» та національної збірної Таїті.",
    "timestamp": "2017-08-07T05:03:58Z"
  },
  {
    "id": 1570405,
    "title": "Студенець (Словаччина)",
    "text": "Студенець, або Студєнєць, Студенец (Template:lang-sk) — село в Словаччині, Левоцькому окрузі Пряшівського краю. Розташоване на півночі східної Словаччини в Горнадській котловині на південних схилах Левоцьких гір.",
    "timestamp": "2018-06-20T09:21:41Z"
  },
  {
    "id": 1570411,
    "title": "Битва на Неретві",
    "text": "Битва на Неретві (в югославській історіографії відома також, як Четвертий антипартизанський наступ (Template:lang-sr), в німецькій історіографії - «Операція Вайс» (Template:lang-de) ) — битва, яка відбулася 16 лютого — 15 березня 1943 року під час Другої світової війни між Народно-визвольною армією Югославії, з одного боку, і німецькою армією та її союзниками — італійською армією, хорватськими усташами та четниками, з другого.",
    "timestamp": "2018-04-25T08:32:36Z"
  },
  {
    "id": 1570412,
    "title": "Інформаційно-комунікаційні технології в Україні",
    "text": "Інформаційно-комунікаційні технології в Україні - уся наявна в державі інфраструктура інформаційно-комунікаційних технологій.",
    "timestamp": "2018-02-04T00:59:19Z"
  },
  {
    "id": 1570413,
    "title": "Азубуйке Егвуекве",
    "text": "Азубуйке Егвуекве (Template:lang-en, Template:н 16 липня 1989, Лафіа) — нігерійський футболіст, захисник клубу «Варрі Вулвз».",
    "timestamp": "2018-06-05T07:07:16Z"
  },
  {
    "id": 1570419,
    "title": "Уложа",
    "text": "Уложа (Template:lang-sk) — село в Словаччині, Левоцькому окрузі Пряшівського краю. Розташоване на півночі східної Словаччини на південних схилах Левоцьких гір.",
    "timestamp": "2018-10-12T19:10:56Z"
  },
  {
    "id": 1570423,
    "title": "Міста Республіки Конго",
    "text": "Список міст Республіки Конго — перелік міст, що знаходяться на території центральноафриканської держави Республіка Конго (IHPC).",
    "timestamp": "2017-11-14T15:28:51Z"
  },
  {
    "id": 1570426,
    "title": "Вишні Репаші",
    "text": "Вишні Репаші, або Вишне Репаше (Template:lang-sk) — село в Словаччині, Левоцькому окрузі Пряшівського краю. Розташоване на півночі східної Словаччини на південних схилах Левоцьких гір.",
    "timestamp": "2018-06-22T11:05:33Z"
  },
  {
    "id": 1570429,
    "title": "Міста Ліберії",
    "text": "Список міст Ліберії — список найбільших міст держави Ліберія. У списку представлено дані про населення за результатами переписів 1974 і 2008 років.",
    "timestamp": "2016-02-26T13:43:17Z"
  },
  {
    "id": 1570440,
    "title": "Вишній Славков",
    "text": "Вишній Славков, або Вишній Славків (Template:lang-sk) — село в Словаччині, Левоцькому окрузі Пряшівського краю. Розташоване на півночі східної Словаччини на межі Левоцьких гір та Браниська в долині Славковського потока.",
    "timestamp": "2018-06-22T14:50:22Z"
  },
  {
    "id": 1570441,
    "title": "Міста Малі",
    "text": "Міста Малі (Template:lang-fr) — урбанізовані населені пункти держави Малі. За даними інтернет-сайту World Gazeteer, в Малі є 34 міста з чисельністю понад 3000 осібTemplate:cite web.",
    "timestamp": "2017-01-24T04:23:28Z"
  },
  {
    "id": 1570446,
    "title": "Міста Сенегалу",
    "text": "Список міст Сенегалу (Template:lang-en) — список найбільших населених пунктів держави Сенегал. За даними інтернет-сайту World Gazeteer, в Сенегалі є 59 міст з чисельністю понад 1700 осібTemplate:cite web.",
    "timestamp": "2016-02-26T13:44:29Z"
  },
  {
    "id": 1570448,
    "title": "Т27",
    "text": "Панцирник Т27 в час Другої світової війни був розроблений для війська США.",
    "timestamp": "2015-07-05T06:24:25Z"
  },
  {
    "id": 1570449,
    "title": "Володжа (Підкарпатське воєводство)",
    "text": "Володжа (Template:lang-pl, Володжь) — село в Польщі, на українській етнічній території Надсяння.",
    "timestamp": "2018-10-19T14:47:53Z"
  },
  {
    "id": 1570453,
    "title": "Кучкарево",
    "text": "Кучкарево (Template:lang-mk) — село у Республіці Македонія, входить до складу общини Куманово Північно-Східного регіону.",
    "timestamp": "2018-02-15T10:36:55Z"
  },
  {
    "id": 1570455,
    "title": "Гордашівська електростанція",
    "text": "Гордашівська — гібридна гідро-сонячна електростанція розташована на річці Гірський Тікич в селі Гордашівка Тальнівського району на Черкащині.",
    "timestamp": "2017-09-09T16:42:00Z"
  },
  {
    "id": 1570456,
    "title": "Фегор Огуде",
    "text": "Фегор Огуде (Template:lang-en, Template:н 29 липня 1987, Лагос) — нігерійський футболіст, півзахисник російського «Амкара» та національної збірної Нігерії.",
    "timestamp": "2018-06-24T09:14:36Z"
  },
  {
    "id": 1570458,
    "title": "Носачка-листовидка",
    "text": "Носачка-листовидка, носачка звичайна (Libythea celtis Fuessly, 1782) — денний метелик, єдиний вид підродини носачки у фауні Європи й України.",
    "timestamp": "2018-10-13T17:13:48Z"
  },
  {
    "id": 1570461,
    "title": "Остін Еджиде",
    "text": "Остін Еджиде (Template:lang-en, Template:н 8 квітня 1984, Онітша) — нігерійський футболіст, воротар клубу «Хапоель» (Хадера).",
    "timestamp": "2018-08-01T07:17:57Z"
  },
  {
    "id": 1570466,
    "title": "Прання",
    "text": "Прання́ — метод чищення текстильних виробів, який полягає у гідромеханічній обробці очищуваної речі з використанням мила або мийного засобу, детергенту. Внаслідок такого чищення водний розчин мийного засобу здатний відокремлювати забруднення від поверхні текстилю при гідромеханічній обробці, переводити їх у розчин, і утримувати в ньому.",
    "timestamp": "2018-03-04T23:54:01Z"
  },
  {
    "id": 1570468,
    "title": "Сандей Мба",
    "text": "Сандей Мба (Template:lang-en, Template:н 28 листопада 1988, Аба) — нігерійський футболіст, півзахисник клубу «Енугу Рейнджерс» та національної збірної Нігерії.",
    "timestamp": "2014-08-28T03:43:57Z"
  },
  {
    "id": 1570469,
    "title": "Ліберійський долар",
    "text": "Ліберійський долар (Template:lang-en, Template:lang-fr) — національна валюта Ліберії.",
    "timestamp": "2017-03-17T08:20:46Z"
  },
  {
    "id": 1570472,
    "title": "Чигозі Агбім",
    "text": "Чігозі Агбім (Template:lang-en, Template:н 28 листопада 1984, Гомбе) — нігерійський футболіст, воротар клубу «Енугу Рейнджерс».",
    "timestamp": "2018-04-23T09:12:40Z"
  },
  {
    "id": 1570478,
    "title": "Фредерік Соренсен",
    "text": "Фредерік Соренсен (Template:lang-da, Template:н 14 квітня 1992, Роскілле) — данський футболіст, захисник клубу «Болонья».",
    "timestamp": "2017-06-25T11:09:53Z"
  },
  {
    "id": 1570480,
    "title": "Дуглас Франко Тейшейра",
    "text": "Дуглас Франко Тейшейра (Template:lang-pt, Template:н 12 січня 1988, Флоріанополіс) — бразильсько-нідерландський футболіст, захисник клубу «Спортінг» (Лісабон).",
    "timestamp": "2018-07-30T13:12:04Z"
  },
  {
    "id": 1570482,
    "title": "Денис Причиненко",
    "text": "Денис Причиненко (Template:lang-de, Template:н 17 лютого 1992, Потсдам) — німецький футболіст українського походження, півзахисник бельгійсього «Беєрсхот-Вілрейк». Молодший брат українського футболіста Станіслава Причиненка.",
    "timestamp": "2018-07-30T12:40:59Z"
  },
  {
    "id": 1570484,
    "title": "Марганія Володимир Чичинович",
    "text": "Володимир Чичинович Марганія (Template:lang-ru, Template:lang-ka, Template:н 8 лютого 1928, Очамчира — Template:† 6 вересня 1958, Азюбжа) — радянський футболіст, що грав на позиції воротаря. Заслужений майстер спорту СРСР (1952).",
    "timestamp": "2016-04-18T06:10:54Z"
  },
  {
    "id": 1570485,
    "title": "Колчин Денис Борисович",
    "text": "Ко́лчин Дени́с Бори́сович (Template:Н 13 жовтня 1977, Одеса, СРСР) — український футболіст, захисник, що відомий перш за все завдяки виступам у складі одеського «Чорноморця» та криворізького «Кривбаса». Екс-гравець юнацької та молодіжної збірної України, бронзовий призер юнацького чемпіонату Європи з футболу (1994). Вихованець СДЮШОР «Чорноморець» (Одеса).",
    "timestamp": "2018-08-05T12:39:27Z"
  },
  {
    "id": 1570487,
    "title": "Поцхверія Михайло Іванович",
    "text": "Михайло Іванович Поцхверія (Template:lang-ka, Template:lang-ru, Template:н 12 серпня 1975, Курундус) — колишній грузинський та український футболіст, що грав на позиції нападника.",
    "timestamp": "2017-04-08T09:51:35Z"
  },
  {
    "id": 1570489,
    "title": "Маріан Аліуце",
    "text": "Маріан Аліуце (Template:lang-ro, Template:н 4 лютого 1978, Бухарест) — колишній румунський футболіст, грав на позиції півзахисника. Відомий виступами за ФК «Шахтар» (Донецьк) як перший легіонер в історії клубу (за виключенням гравців з країн колишнього СРСР).",
    "timestamp": "2018-04-24T19:24:52Z"
  },
  {
    "id": 1570490,
    "title": "Абрамов Віталій Сергійович",
    "text": "Віталій Сергійович Абрамов (Template:lang-ru, Template:н 12 липня 1974, Караганда) — радянський та казахський футболіст, що грав на позиції півзахисника.",
    "timestamp": "2018-08-01T20:33:40Z"
  },
  {
    "id": 1570493,
    "title": "Панін Костянтин Юрійович",
    "text": "Костянтин Юрійович Панін (Template:н 8 грудня Нікополь, Дніпропетровська область, Українська РСР) — український футболіст, півзахисник херсонського «Кристала».",
    "timestamp": "2015-05-10T12:55:19Z"
  },
  {
    "id": 1570498,
    "title": "Стефен Мучокі",
    "text": "Стефен «Стів» Мучокі (Template:lang-en; Template:ДН) — кенійський боксер. Чемпіон світу (1978) та срібний призер чемпіонату світу з боксу серед любителів (1974) у ваговій категорії до 48 кг.",
    "timestamp": "2017-03-28T09:39:42Z"
  },
  {
    "id": 1570507,
    "title": "Фатай Аїнла",
    "text": "Фатай Аїнла-Адекунле (Template:lang-en; Template:ДН) — нігерійський боксер-важковаговик. Чемпіон Всеафриканських ігор та Ігор Співдружності. Бронзовий призер чемпіонату світу з боксу (1974).",
    "timestamp": "2018-05-27T10:12:10Z"
  },
  {
    "id": 1570513,
    "title": "Алекс Крівіль",
    "text": "А́лекс Кріві́ль Та́піас (Template:lang-es; Template:ДН, Барселона, Іспанія) — колишній іспанський мотогонщик, дворазовий чемпіон світу з шосейно-кільцевих мотогонок MotoGP: у 1989 році в класі 125сс та у 1999 — в класі 500сс. Перший іспанець, який виграв чемпіонат світу в «королівському» класі Мото Гран-Прі.",
    "timestamp": "2018-02-27T11:48:23Z"
  },
  {
    "id": 1570517,
    "title": "Зловісні мерці 2",
    "text": "Зловісні мерці 2 (Template:lang-en) — американський фільм жахів 1987 року режисера Сема Реймі. Продовження фільму «Зловісні мерці».",
    "timestamp": "2018-10-15T22:09:24Z"
  },
  {
    "id": 1570530,
    "title": "Ваттенс",
    "text": "Ваттенс (Template:lang-de) — ярмаркове містечко і громада округу Інсбрук-Ланд у землі Тіроль, Австріяwww.wattens.com.",
    "timestamp": "2018-09-06T22:42:59Z"
  },
  {
    "id": 1570537,
    "title": "Матрай-ам-Бреннер",
    "text": "Матрай-ам-Бреннер (Template:lang-de) — ярмаркове містечко і громада округу Інсбрук-Ланд у землі Тіроль, Австріяwww.matrei-brenner.tirol.gv.at.",
    "timestamp": "2018-10-14T11:18:38Z"
  },
  {
    "id": 1570541,
    "title": "Рум",
    "text": "Рум (Template:lang-de) — ярмаркове містечко і громада округу Інсбрук-Ланд у землі Тіроль, Австріяwww.rum.gv.at.",
    "timestamp": "2018-07-17T17:12:28Z"
  },
  {
    "id": 1570545,
    "title": "Тельфс",
    "text": "Тельфс (Template:lang-de) — ярмаркове містечко і громада округу Інсбрук-Ланд у землі Тіроль, Австріяwww.telfs.eu.",
    "timestamp": "2018-07-17T17:13:34Z"
  },
  {
    "id": 1570548,
    "title": "Анатомія Грея",
    "text": "Henry Gray's Anatomy of the Human Body, відомий як Gray's Anatomy — популярний англомовний підручник анатомії людини, визнаний класичним.",
    "timestamp": "2018-05-18T12:16:21Z"
  },
  {
    "id": 1570550,
    "title": "Фельс (Австрія)",
    "text": "Фельс (Template:lang-de) — ярмаркове містечко і громада округу Інсбрук-Ланд у землі Тіроль, Австріяwww.voels.at.",
    "timestamp": "2018-07-17T17:13:50Z"
  },
  {
    "id": 1570553,
    "title": "Сегмент",
    "text": "Сегмент (від Template:lang-la — відрізок, смуга; походить від Template:lang-la — ріжу, розсікаю) — у загальному значенні — відрізок, частина чого-небудь, наприклад, сегмент програми, сегмент пам'яті, сегмент слова.",
    "timestamp": "2017-12-06T14:05:18Z"
  },
  {
    "id": 1570555,
    "title": "Ясвант Рао I",
    "text": "Ясвант Рао I (*यशवंतराव होळकर, 3 грудня 1776 —28 жовтня 1811) — магараджа Індаура у 1799–1811 роках, учасник Другої англо-маратхської війни.",
    "timestamp": "2018-02-22T20:51:02Z"
  },
  {
    "id": 1570558,
    "title": "Персі Джексон: Море чудовиськ (фільм)",
    "text": "«Персі Джексон: Море чудовиськ» (Template:lang-en) — американський пригодницький фентезі фільм режисера Тора Фреденталя, який є екранізацією книги «Персі Джексон і Море чудовиськ» з серії книг «Персі Джексон і боги-олімпійці» письменника Ріка Ріордана.",
    "timestamp": "2018-06-01T18:54:37Z"
  },
  {
    "id": 1570562,
    "title": "Цірль",
    "text": "Цірль (Template:lang-de) — ярмаркове містечко і громада округу Інсбрук-Ланд у землі Тіроль, Австріяwww.mg.zirl.at.",
    "timestamp": "2018-07-17T17:14:42Z"
  },
  {
    "id": 1570565,
    "title": "Штайнах-ам-Бреннер",
    "text": "Штайнах-ам-Бреннер (Template:lang-de) — ярмаркове містечко і громада округу Інсбрук-Ланд у землі Тіроль, Австріяwww.steinach.tirol.gv.at.",
    "timestamp": "2018-07-17T20:49:22Z"
  },
  {
    "id": 1570568,
    "title": "Вовчук Іван Григорович",
    "text": "Іван Григорович Вовчук (псевдо: «Граб», «Вільха»; 13 червня 1886, c.Горішнє, Миколаївський район, Львівська область — 4 серпня 1955, смт. Явас, Мордовія) — військовий діяч, командир сотень УПА «Леви II» і «Леви III».",
    "timestamp": "2018-09-05T05:24:46Z"
  },
  {
    "id": 1570571,
    "title": "Генератор, керований напругою",
    "text": "Генера́тор, керо́ваний напру́гою (ГКН, Template:lang-en) — електронний генератор, частота коливань якого визначається керуючою напругою на вході (Template:lang-en). Частота коливань залежить від напруги, що подається, причому ГКН може живитися від модульованих сигналів, що дозволяє здійснити фазову або частотну модуляцію; для ГКН з цифровим виходом можливо модулювати частоту проходження імпульсів або реалізувати широтно-імпульсну модуляцію (ШІМ).",
    "timestamp": "2017-11-29T14:37:11Z"
  },
  {
    "id": 1570573,
    "title": "Хожове",
    "text": "Хожове (Template:lang-be) — село в складі Молодечненського району Мінської області, Білорусь. Село є адміністративним центром Хожівської сільської ради, розташоване в західній частині області.",
    "timestamp": "2018-10-22T15:33:55Z"
  },
  {
    "id": 1570575,
    "title": "Бертошки",
    "text": "Бертошки (Template:lang-be) — село в складі Молодечненського району Мінської області, Білорусь. Село підпорядковане Хожівській сільській раді, розташоване в західній частині області.",
    "timestamp": "2018-10-22T10:25:13Z"
  },
  {
    "id": 1570578,
    "title": "Брусківщина",
    "text": "Брусківщина (Template:lang-be) — село в складі Молодечненського району Мінської області, Білорусь. Село підпорядковане Хожівській сільській раді, розташоване в західній частині області.",
    "timestamp": "2018-10-22T10:28:57Z"
  },
  {
    "id": 1570581,
    "title": "Брохівщина",
    "text": "Брохівщина (Template:lang-be) — село в складі Молодечненського району Мінської області, Білорусь. Село підпорядковане Хожівській сільській раді, розташоване в західній частині області.",
    "timestamp": "2018-10-22T10:28:47Z"
  },
  {
    "id": 1570583,
    "title": "Зотов Олександр Сергійович",
    "text": "Олекса́ндр Сергі́йович Зо́тов (Template:н 23 лютого 1975, Єнакієве, Українська РСР) — колишній український футболіст, відомий насамперед завдяки виступам у складі одеського «Чорноморця», донецького «Металурга» та збірної України.",
    "timestamp": "2015-03-29T21:47:17Z"
  },
  {
    "id": 1570588,
    "title": "Мочинівщина",
    "text": "Мочинівщина (Template:lang-be) — село в складі Молодечненського району Мінської області, Білорусь. Село підпорядковане Хожівській сільській раді, розташоване в західній частині області.",
    "timestamp": "2018-10-22T15:08:19Z"
  },
  {
    "id": 1570589,
    "title": "Драни (Молодечненський район)",
    "text": "Драни (Template:lang-be) — село в складі Молодечненського району Мінської області, Білорусь. Село підпорядковане Хожівській сільській раді, розташоване в західній частині області.",
    "timestamp": "2018-10-22T10:33:08Z"
  },
  {
    "id": 1570592,
    "title": "Мойсичі",
    "text": "Мойсичі (Template:lang-be) — село в складі Молодечненського району Мінської області, Білорусь. Село підпорядковане Хожівській сільській раді, розташоване в західній частині області.",
    "timestamp": "2018-10-22T15:07:23Z"
  },
  {
    "id": 1570595,
    "title": "Гай (Молодечненський район)",
    "text": "Гай (Template:lang-be) — село в складі Молодечненського району Мінської області, Білорусь. Село підпорядковане Хожівській сільській раді, розташоване в західній частині області.",
    "timestamp": "2018-10-22T10:31:07Z"
  },
  {
    "id": 1570597,
    "title": "Жерлаки",
    "text": "Жерлаки (Template:lang-be) — село в складі Молодечненського району Мінської області, Білорусь. Село підпорядковане Хожівській сільській раді, розташоване в західній частині області.",
    "timestamp": "2018-10-22T10:35:17Z"
  },
  {
    "id": 1570598,
    "title": "Шевченко Людмила Олексіївна",
    "text": "Людми́ла Олексі́ївна Шевче́нко  (13 липня 1945 рік, Канаш) — артистка цирку (дресирувальниця). Народна артистка СРСР, Народна артистка України. З жовтня 2012 року займає посаду Генерального директора — художнього керівника Національного цирку України.",
    "timestamp": "2017-11-29T08:45:19Z"
  },
  {
    "id": 1570603,
    "title": "Bc",
    "text": "bc (basic calculator) — інтерактивний інтерпретатор Сі-подібної мови, що може виконувати обчислення із довільною заданою точністю. Часто використовується як калькулятор командного рядка у UNIX-подібних операційних системах. Традиційна реалізація bc була оболонкою до калькулятора dc, що виконував обчислення у польському інверсному записі. Вона виконувала перетворення з інфіксного запису в інверсний польський[http://www.catb.org/~esr/writings/taoup/html/ch07s02.html Taxonomy of Unix IPC Methods. Сучасна версія GNU bc є окремою програмою.",
    "timestamp": "2017-05-06T12:06:02Z"
  },
  {
    "id": 1570606,
    "title": "Поверхневі акустичні хвилі",
    "text": "Поверхне́ві акусти́чні хви́лі (ПАХ) — пружні хвилі, що поширюються уздовж поверхні твердого тіла або уздовж кордону з іншими середовищами. ПАХ поділяються на два типи: з вертикальною поляризацією і з горизонтальною поляризацією (хвилі Лява).",
    "timestamp": "2018-03-30T21:56:29Z"
  },
  {
    "id": 1570607,
    "title": "Слобідка (Молодечненський район, Хожівська сільська рада)",
    "text": "Слобідка (Template:lang-be) — село в складі Молодечненського району Мінської області, Білорусь. Село підпорядковане Хожівській сільській раді, розташоване в західній частині області.",
    "timestamp": "2018-10-22T15:31:49Z"
  },
  {
    "id": 1570614,
    "title": "Владислав Олеарчик",
    "text": "Владислав Роберт Олеарчик (Template:lang-pl, Template:н 8 червня 1898, Перемишль, Австро-Угорщина — Template:† 21 лютого 1970, Цешин, Польща) — польський футболіст, захисник.",
    "timestamp": "2018-08-06T13:19:08Z"
  },
  {
    "id": 1570615,
    "title": "Сексуальне рабство",
    "text": "Сексуальне рабство — форма організованого насильницького залучення людей (переважно жінок та дівчат) до надання сексуальних послуг. В українському законодавстві за ці злочини передбачена кримінальна відповідальність за ч. 3 ст. 149 Кримінального кодексу України (торгівля людьми або інша незаконна угода щодо людини).",
    "timestamp": "2018-06-03T04:58:35Z"
  }
]