[
  {
    "id": 1479530,
    "title": "IONIS Education Group",
    "text": "IONIS Education Group є провідним приватних вищих навчальних груп у ФранціїGroupe Ionis – 1er opérateur privé de l’enseignement supérieur. Група була створена в 1980 році і має більш ніж 20000 студентів і 62000 випускників в 2015 році в даний час працює в бізнесі, IT, авіація, енергетика, транспорт, біології, менеджменту, фінансів, маркетингу, комунікацій та дизайну. 23 шкіл є членами групиInterview de Marc SELLAM, Président et Fondateur du Groupe IONIS.",
    "timestamp": "2018-10-23T17:27:53Z"
  },
  {
    "id": 1479536,
    "title": "Філіпп Клеффель",
    "text": "Філіпп Клеффель (Template:lang-de; Template:н 9 грудня 1887, Позен, Провінція Позен — Template:† 10 жовтня 1964, Кобург, Баварія) — німецький воєначальник часів Третього Рейху, генерал кінноти Вермахту (1942). Кавалер Лицарського хреста Залізного хреста (1942).",
    "timestamp": "2018-09-15T09:41:50Z"
  },
  {
    "id": 1479549,
    "title": "ТВД (Львів)",
    "text": "ТВД (скорочено від Твій вишуканий дім) — український футзальний клуб зі Львова. Заснований в 1997 році, після сезону 2010–2011 припинив своє існування.",
    "timestamp": "2017-10-28T07:35:41Z"
  },
  {
    "id": 1479553,
    "title": "Меліпілья (провінція)",
    "text": "Провінція Меліпілья (Template:lang-es) — провінція у Чилі у складі області Сантьяго. Адміністративний центр — Меліпілья. Складається з 5 комун. Територія — 4065,7 км². Населення — 141 165 осіб. Щільність населення — 34,72 осіб/км².",
    "timestamp": "2018-02-24T15:42:38Z"
  },
  {
    "id": 1479561,
    "title": "Дощові ліси східного узбережжя Австралії",
    "text": "Дощові ліси східного узбережжя Австралії (Template:lang-en) — об'єкт Світової спадщини ЮНЕСКО. Розташований на східному узбережжі материкової частини Австралії, на межі між штатами Новий Південний Уельс і Квінсленд.",
    "timestamp": "2017-12-18T19:47:38Z"
  },
  {
    "id": 1479566,
    "title": "Buick Verano",
    "text": "Buick Verano — чотирьохдверний п'ятимісний передньоприводний компактний седан виробництва General Motors з 2011 року. Verano офіційно дебютував на Північноамериканському Міжнародному Автошоу 10 січня 2011 року. Це перша компактна модель компанії Buick в Сполучених Штатах починаючи з 1997 року після Buick Skylark.",
    "timestamp": "2018-05-19T14:41:38Z"
  },
  {
    "id": 1479567,
    "title": "Чемпіонат Англії з футболу 1999—2000: Прем'єр-ліга",
    "text": "Англійська прем'єр-ліга 1999–2000 (Template:lang-en) — восьмий сезон англійської Прем'єр-ліги, заснованої 1992 року. «Манчестер Юнайтед» захистив чемпіонський титул попереднього сезону, здобувши шосту перемогу у Прем'єр-лізі та загалом 13-е у своїй історії звання чемпіонів Англії. По ходу сезону майбутні чемпіони програли лише три матчі та відірвалися від найближчих переслідувачів, лондонського «Арсенала», на 18 турнірних очок. Незважаючи на домінування у внутрішній першості, «Манчестер Юнайтед», які на початку сезону також мали статус діючих клубних чемпіонів Європи, не змогли захистити це звання, поступившись у чвертьфіналі тогорічної Ліги чемпіонів мадридському «Реалу» (2:3).",
    "timestamp": "2017-07-11T18:41:27Z"
  },
  {
    "id": 1479568,
    "title": "60/70",
    "text": "«60/70»  — студійний альбом українського гурту «Кам'яний Гість», який було представлено 12 грудня 2012 року.",
    "timestamp": "2017-03-09T07:33:46Z"
  },
  {
    "id": 1479569,
    "title": "Гравітація Місяця",
    "text": "Гравітація Місяця вшестеро слабша від гравітації Землі. Через це Місяць навіть не здатен утримати гази, які випаровуються з його надр, і вони летять у космос. Це і є причиною того, що у Місяця немає щільної атмосфери. Гравітацію вивчали шляхом дослідження орбіт штучних супутників Місяця. Дослідження апаратів «Луна-10» і «Lunar Reconnaissance Orbiter» показали, що під поверхнею Місяця існують надлишкові маси — маскони. Вважається, що маскони утворилися внаслідок проникнення щільних речовин із надр у біляповерхневі шари. Маскони знаходяться під центрами морів. Вони мають гравітацію та притягують до супутника близькі тіла.",
    "timestamp": "2016-11-17T14:14:23Z"
  },
  {
    "id": 1479570,
    "title": "Педик Леонід Анатолійович",
    "text": "Педик Леонід Анатолійович (нар. Template:ДН, м. Ковель Волинської обл.) — заслужений тренер України, майстер спорту СРСР із самбо, дзюдо, греко-римської та вільної боротьби, суддя національної категорії.",
    "timestamp": "2015-02-03T20:15:29Z"
  },
  {
    "id": 1479572,
    "title": "Драгунський",
    "text": "Драгу́нський (Template:lang-ru) — російське та єврейське прізвище, що походить від слова \"драгун\". Жіноча форма — Драгу́нська.",
    "timestamp": "2016-10-25T04:30:31Z"
  },
  {
    "id": 1479581,
    "title": "Стокротки багаторічні",
    "text": "Стокротки багаторічні (Béllis perénnis) — розповсюджений у Європі вид стокроток, багаторічних рослин родини Айстрових (Asteraceae) або Складноцвітих (Compositae).",
    "timestamp": "2016-11-05T03:23:10Z"
  },
  {
    "id": 1479584,
    "title": "Нодді Голдер",
    "text": "Нодді Голдер (Template:lang-en; повне ім'я Невілл Джон Голдер, Template:lang-en; народ. 15 червня 1946, Волсолл, Стаффордшир, Англія) — англійський музикант і актор, колишній вокаліст і гітарист рок-групи «Slade». Разом з бас-гітаристом Джимом Лі є автором більшості пісень групи. Голдер відомий завдяки своїй особливій манері співу. У 2000 році нагороджений Орденом Британської Імперії.",
    "timestamp": "2016-06-23T15:47:44Z"
  },
  {
    "id": 1479585,
    "title": "Гудзенко Пантелеймон Петрович",
    "text": "Пантелеймон Петрович Гудзенко (Template:ДН, Дернове — 17 серпня 1994, Київ) — український архівіст, археограф, історик, доктор історичних наук (з 1966 року), професор (з 1968 року).",
    "timestamp": "2017-01-27T07:26:15Z"
  },
  {
    "id": 1479587,
    "title": "М2 (Стамбульський метрополітен)",
    "text": "М2, Єнікапи-Хаджиосман (Template:lang-tr) — історично друга лінія Стамбульського метрополітену. Прямує північ-південь під Бююкдере Авеню. M2 починається станцією Хаджиосман у Сариєр і закінчується станцією Єнікапи на півдні центру району Фатіх. Існує виделкове відгалуження Санаї Махллесі — Сейрантепе, де знаходиться Türk Telekom Arena.",
    "timestamp": "2017-12-29T13:03:57Z"
  },
  {
    "id": 1479604,
    "title": "Сльози крапали",
    "text": "«Сльози крапали» (Template:lang-ru) — російський радянський художній фільм у жанрі трагікомедії режисера Георгія Данелія, знятий у 1982 році за власним сценарієм (у співпраці з Киром Буличовим та Олександром Володіним). Прем'єра фільму відбулася 15 січня 1983 року.",
    "timestamp": "2018-06-17T07:58:53Z"
  },
  {
    "id": 1479605,
    "title": "Франк-Каменецький Давид Альбертович",
    "text": "Давид Альбертович Франк-Каменецький (Template:ДН — Template:ДС) — радянський фізик і астрофізик.",
    "timestamp": "2016-05-18T09:51:47Z"
  },
  {
    "id": 1479607,
    "title": "Кадастр детеріораційний",
    "text": "Кадастр детеріораційний — звід даних про порушення навколишнього середовища — забруднення вод, атмосфери, ґрунтів, руйнування рослинності тощо. К. д. складається на основі картографічних матеріалів для певного регіону із зазначенням усіх джерел забруднення та інших порушень, ступеня їх участі в погіршенні середовища, кумулятивної та синергічної взаємодій, метеорологічних, гідрологічних і геохімічних фонів поширення забруднень та ін. порушень, а також форм і інтенсивності їх впливу на природні комплекси і людину.",
    "timestamp": "2015-11-24T20:50:35Z"
  },
  {
    "id": 1479608,
    "title": "Записка церковна",
    "text": "Церковна записка — так званий пом'янник, що подається православними християнами в храмі, для церковної молитви за тих людей, чиї імена написані в записці. У Православній Церкві в Україні існують два види записок: «за здоров'я» і «за упокій».",
    "timestamp": "2017-02-27T09:42:36Z"
  },
  {
    "id": 1479610,
    "title": "Ґросглокнер",
    "text": "Ґросґлокнер (Template:lang-de або просто Glockner, Template:lang-sl) — найвища гора Австрії, 3798 м. Розташована на кордоні Каринтії і Східного Тіролю. Пірамідальна гора фактично складається з двох вершин: Ґросґлокнер і Кляйнґлокнер (3770 м, з німецької: klein — «малий»), розділених сідловидною структурою, відомою як Glocknerscharte. У її підніжжя розташований найбільший льодовик Австрії — Пастерце.",
    "timestamp": "2018-04-24T15:35:13Z"
  },
  {
    "id": 1479615,
    "title": "Горбань сріблястий",
    "text": "Горбань сріблястийTemplate:cite web (Argyrosomus regius) — риба родини Горбаневі (Sciaenidae). Зовнішні подібний до лаврака, має перлиново-сріблясте забарвлення і жовтий рот. Довжина в межах 40-50 см, максимальна 2 м, при вазі до 55 кг. Хижа риба, що заселяє пелагічну прибережну зону, на глибинах від 15 до 300 м.",
    "timestamp": "2017-09-03T14:29:30Z"
  },
  {
    "id": 1479620,
    "title": "Левадний провулок (Київ)",
    "text": "Лева́дний прову́лок — вулиця в Дарницькому районі м. Києва, селище Бортничі. Простягається від Левадної вулиці (двічі, утворюючи півколо).",
    "timestamp": "2015-10-10T16:30:09Z"
  },
  {
    "id": 1479622,
    "title": "Боровська Надія Іванівна",
    "text": "Наді́я Іва́нівна Боро́вська (дівоче прізвище Прокопук; Template:н Template:ДН, с. Згорани Любомльського р-ну Волинської обл.) — українська спортсменка (спортивна ходьба), учасниця ХХІХ Літніх Олімпійських ігор в Пекіні (Китай), XXX літніх Олімпійських ігор в Лондоні (Велика Британія) та XXXI літніх Олімпійських ігор в Ріо-де-Жанейро (Бразилія). П'ятиразова чемпіонка України, майстер спорту міжнародного класу. Одружена - виховує сина. Є діючим членом національної збірної команди України. Представляє фізкультурно-спортивне товариство \"Спартак\".",
    "timestamp": "2018-06-22T20:04:52Z"
  },
  {
    "id": 1479623,
    "title": "ArcelorMittal",
    "text": "ArcelorMittal (Template:IPA-fr) — найбільша металургійна компанія світу, на кінець 2008 року контролювала 10% світового ринку сталіВектор // Ведомости, № 245 (2267), 25 декабря 2008. Зареєстрована у Люксембурзі, має представництва в 60 країнах світу.  АрселорМіттал займає провідні позиції на основних світових ринках збуту металу, включаючи такі галузі як автомобілебудування, будівництво, виробництво побутової техніки та упаковки. Також компанія володіє великими запасами сировини та ефективною системою збуту.",
    "timestamp": "2018-09-07T08:52:09Z"
  },
  {
    "id": 1479625,
    "title": "QFP",
    "text": "QFP (Template:lang-en) — різновиди корпусів мікросхем з планарними виводами по всіх чотирьох сторонах. Мікросхеми в таких корпусах призначені тільки для монтажу на поверхню; установка в панельку або монтаж в отвори штатно не передбачені, хоча перехідні комутаційні пристрої існують. Кількість виводів QFP мікросхем зазвичай не перевищує 200, з кроком від 0,4 до 1,0 мм.",
    "timestamp": "2013-08-06T09:05:41Z"
  },
  {
    "id": 1479626,
    "title": "Млинна вулиця (Київ)",
    "text": "Мли́нна ву́лиця — вулиця в Дарницькому районі міста Києва, селище Бортничі. Пролягає від вулиці Гоголя та вулиці Франка до вулиці Льва Толстого.",
    "timestamp": "2016-11-14T14:42:10Z"
  },
  {
    "id": 1479627,
    "title": "Пастерце",
    "text": "Пастерце (Template:lang-de) — найбільший льодовик Австрії. Довжина становить близько 8,4 км (2002), товщина — 120 м, площа — 18,5 км² (2002). Знаходиться на висоті від 3463 до 2100 м над рівнем моря. Розташований в Східних Альпах (хребет Високий Тауерн) у підніжжі найвищої гори Австрії Ґросглокнер.",
    "timestamp": "2015-06-04T20:49:06Z"
  },
  {
    "id": 1479631,
    "title": "Битва під Монастирищем",
    "text": "Бій під Монастирищем — битва в ході повстання Хмельницького, яке відбулося 20-21 березня 1653 під містечком Монастирище. Козацькому загону під проводом Івана Богуна вдалося зупинити наступ польсько-шляхетського війська на чолі зі Стефаном Чарнецьким, який здіснював новий каральний похід на Гетьманщину.",
    "timestamp": "2018-05-13T06:11:09Z"
  },
  {
    "id": 1479632,
    "title": "M4 (Стамбульський метрополітен)",
    "text": "M4 — лінія стамбульського метрополітену, одна з двох ліній метро на анатолійській стороні Стамбула (друга — M5).",
    "timestamp": "2018-04-30T13:51:03Z"
  },
  {
    "id": 1479636,
    "title": "1-й провулок Чехова (Київ)",
    "text": "1-й прову́лок Че́хова — провулок у Дарницькому районі м. Києва, місцевість Бортничі.",
    "timestamp": "2017-07-14T10:01:40Z"
  },
  {
    "id": 1479637,
    "title": "Партія «Об'єднання „Самопоміч“»",
    "text": "Па́ртія \"Об'єднання «Самопо́міч» — українська політична партія, лідером якої є міський голова Львова Андрій Садовий. Зареєстрована 29 грудня 2012 року, реєстраційне свідоцтво № 214-п.п.. Своєю ідеологією партія визначає як «християнську мораль та здоровий глузд». Її назва перегукується з громадським об'єднанням «Самопоміч», створеним Андрієм Садовим у жовтні 2004 року.",
    "timestamp": "2018-09-20T20:26:30Z"
  },
  {
    "id": 1479638,
    "title": "Бугаєнко Ігор Никонович",
    "text": "І́гор Ни́конович Бугає́нко (Template:н 3 січня 1939 року в селі Стави Київської області) — український мистецтвознавець і живописець.",
    "timestamp": "2018-10-05T15:43:09Z"
  },
  {
    "id": 1479639,
    "title": "2-й провулок Чехова (Київ)",
    "text": "2-й прову́лок Че́хова — провулок у Дарницькому районі м. Києва, місцевість Бортничі.",
    "timestamp": "2017-07-14T10:00:31Z"
  },
  {
    "id": 1479641,
    "title": "Процак Ярослав Михайлович",
    "text": "Яросла́в Миха́йлович Про́цак — український архітектор, член Національної спілки архітекторів України.",
    "timestamp": "2017-12-31T08:29:53Z"
  },
  {
    "id": 1479642,
    "title": "Another Green World",
    "text": "Another Green World — третій студійний альбом британського музиканта Браяна Іно.",
    "timestamp": "2017-08-20T14:37:06Z"
  },
  {
    "id": 1479644,
    "title": "Риба-качечка товсторила",
    "text": "Риба-качечка товсторила або Риба-присосок товсторила (Lepadogaster candolii) — риба родини Присоскоперові (Gobiesocidae). Один з 4-х видів роду; один з 2-х видів роду у фауні України.",
    "timestamp": "2017-05-04T03:10:19Z"
  },
  {
    "id": 1479646,
    "title": "Мероїтська писемність",
    "text": "Мероїтська писемність — алфавіт із 23 знаків, що використовувався приблизно з II століття до н. е. до V століття н. е. у Нубії і північному Судані для запису мероїтської мови.",
    "timestamp": "2017-02-01T23:05:54Z"
  },
  {
    "id": 1479647,
    "title": "1-й Садовий провулок (Київ)",
    "text": "Садовий 1-й прову́лок — провулок у Дарницькому районі міста Києва, місцевість Бортничі. Простягається від вулиці Садової до тупика.",
    "timestamp": "2017-07-16T13:07:16Z"
  },
  {
    "id": 1479651,
    "title": "Мероїтська мова",
    "text": "Мероїтська мова — зникла мова стародавньої держави Мерое, поширена у долині Нілу між Асуаном і Хартумом на території сучасного Єгипту та Судану протягом VIII ст. до н. е.. - IV ст. н. е.. Для її запису існувала особлива мероїтська писемність (алфавіт з 23 знаків), створена за зразком єгипетських одноприголосних знаків з староєгипетських ієрогліфів.",
    "timestamp": "2018-03-08T20:58:59Z"
  },
  {
    "id": 1479656,
    "title": "Андрюс Появіс",
    "text": "А́ндрюс Поя́віс (Template:lang-lt) — литовський співак, який з піснею «Something» представляв Литву на пісенному конкурсі Євробачення 2013 у Мальме.Template:cite web Template:ref-en. Зайняв 22 місце.",
    "timestamp": "2017-05-27T22:34:56Z"
  },
  {
    "id": 1479657,
    "title": "Риба-качечка двоплямиста",
    "text": "Риба-качечка двоплямистаTemplate:cite web (Diplecogaster bimaculata) — риба родини Присоскоперові (Gobiesocidae). Морська демерсальна риба, до 6 см довжиною. Поширена у східній Атлантиці від Норвегії до Гібралтару, зокрема в західній частині Середземного моря та в Адріатичному моріTemplate:FishBase. У Чорному морі зустрічається біля всіх берегів; в Україні в Криму та Одеській затоціМовчан Ю. В. Риби України. — Київ, 2011. — 444 с..",
    "timestamp": "2016-09-16T21:46:49Z"
  },
  {
    "id": 1479659,
    "title": "Авлошенко Вадим Сергійович",
    "text": "Вади́м Сергі́йович Авло́шенко (Template:н 3 червня 1940, Самара, Російська РФСР — Template:† 19 травня 2014, Москва, Росія) — радянський, український і російський кінооператор, кіносценарист. Заслужений діяч мистецтв УРСР (1989).",
    "timestamp": "2018-06-16T16:31:11Z"
  },
  {
    "id": 1479665,
    "title": "Давньонубійська мова",
    "text": "Древньонубійська мова - вимерла мова нубійської підгрупи тама-нубійської групи східносуданської сім'ї ніло-сахарської макросім'ї. Була поширена у середньовічній Нубії (територія сучасних Судану та Ефіопії). Засвідчена написами 8 - 15 століть, зробленими особливим різновидом коптського алфавіту. Сучасний нащадок - мова нобіїн у Судані (зникає, усі носії активно володіють арабською).",
    "timestamp": "2014-06-22T10:48:41Z"
  },
  {
    "id": 1479667,
    "title": "Підлаштовний резистор",
    "text": "Підлаштовний резистор — різновид змінного резистора, що зазвичай не має продовгувастого осердя для можливості встановлення ручки задля здійснення безпосереднього регулювання вручну, а замість того обов'язково має шліц під викрутку. Встановлюється як елемент моношассі або електронного компонента, за допомогою якого здійснюється післямонтажне налагоджування пристрою. Особливо важливе місце підлаштовний резистор посідає у приладах, що потребують перед-експлуатаційного та посеред-експлуатаційного юстування в схемах, де необхідна точна підгонка режимів роботи елементів кіл, параметри компонентів яких змінюються внаслідок старіння та зносу.",
    "timestamp": "2018-03-08T00:24:53Z"
  },
  {
    "id": 1479673,
    "title": "Федоришин Остап Васильович",
    "text": "Оста́п Васи́льович Федори́шин (3 січня 1946, Кнісело, Жидачівський район, Львівська область — 29 грудня 2017, Львів) — український режисер, заслужений діяч мистецтв України, депутат Львівської обласної ради V скликання, директор Львівського естрадного театру «Не журись».",
    "timestamp": "2018-09-13T11:58:04Z"
  },
  {
    "id": 1479674,
    "title": "Готвіль",
    "text": "Готвіль (Отвіль) (Template:lang-fr, Template:lang-it) — династія норманського походження, що правила в Сицилійському королівстві до 1194 року.",
    "timestamp": "2017-09-25T05:10:35Z"
  },
  {
    "id": 1479676,
    "title": "Баррі Стендер",
    "text": "Баррі Стендер, (Template:lang-en, 16 вересня 1987, Порт Шепстон, ПАР — 3 січня 2013, Шеллі Біч, ПАР) — південно-африканський маунтбайкер у категорії крос-кантрі, володар Кубку світу у категорії до 23 років у 2009 році, срібний призер Кубку світу у 2012 році.",
    "timestamp": "2018-06-09T13:47:53Z"
  },
  {
    "id": 1479677,
    "title": "Православна енциклопедія",
    "text": "«Правосла́вна енциклопе́дія» (Template:lang-ru) — спеціалізована енциклопедія, що видається церковно-науковим центром Російської православної церквиЦерковно-науковий центр РПЦ «Православна енциклопедія». Керівник центру «Православна енциклопедія» — Сергій Кравець.",
    "timestamp": "2017-06-15T13:44:03Z"
  },
  {
    "id": 1479681,
    "title": "Битва під Леньяно",
    "text": "Битва під Леньяно — битва 29 травня 1176 року, під час якої ополчення Ломбардської ліги розгромили війська імператора Священної Римської імперії Фрідріха Барбаросси.",
    "timestamp": "2016-06-23T15:12:27Z"
  },
  {
    "id": 1479682,
    "title": "Єзавель",
    "text": "Єзавель (Template:lang-he) — дружина ізраїльського царя Ахава, дочка сидонського царя Етбаала1 Цар. 16:31, який посів престол шляхом братовбивства.",
    "timestamp": "2018-08-03T07:21:52Z"
  },
  {
    "id": 1479688,
    "title": "Філіп Рот",
    "text": "Філіп Мілтон Рот (Template:lang-en; 19 березня 1933 — 22 травня 2018Template:cite web) — американський письменник, автор 31 роману, лауреат Пулітцерівської премії.",
    "timestamp": "2018-05-24T19:54:31Z"
  },
  {
    "id": 1479691,
    "title": "Кубок світу з маунтбайку",
    "text": "Кубок світу з маунтбайку (Template:lang-en) — багатоетапні перегони з маунтбайку під егідою Міжнародного союзу велосипедистів. Перші змагання із крос-кантрі відбулися 1989. Кубок світу з даунхілу розпочався два роки згодом, а подвійний слалом — у 1998. Подвійний слалом розвинувся у Template:нп у 2002 році.",
    "timestamp": "2018-10-02T05:59:23Z"
  },
  {
    "id": 1479693,
    "title": "Pteroglossus",
    "text": "Арасарі (Pteroglossus) — рід птахів родини Туканові (Ramphastidae). Включає 14 видів.",
    "timestamp": "2013-03-21T23:25:13Z"
  },
  {
    "id": 1479694,
    "title": "Хатійя",
    "text": "Хатійя (Template:lang-egy, Template:lang-grc) — посада управителя нома в Стародавньому Єгипті династичного періоду.",
    "timestamp": "2013-01-04T13:34:15Z"
  },
  {
    "id": 1479702,
    "title": "Вікіпедія:Кнайпа (політики)/Архів 4",
    "text": "Роз'яснення: Або навішується ярлик на увесь список, або ярлик не використовується у списку зовсім. Наприклад, маємо список мед. препаратів в якому є перевірені засоби та неперевірені. В такому випадку мед. попередження буде ставитись на увесь список. Або, наприклад, маємо список обсцентної лексики. В такому випадку попередження буде ставитись на увесь список, а не на окремі слова. Аналогічно і з нашим випадком.",
    "timestamp": "2013-01-03T21:27:09Z"
  },
  {
    "id": 1479703,
    "title": "Вікіпедія:Кнайпа (політики)/Архів 5",
    "text": "Варіант: 2 — вводиться чітка процедура колегіального рішення адмінів, щодо тривалих блокувань нормальних користувачів у випадках відмінних від блокування за образи.",
    "timestamp": "2013-01-14T20:41:05Z"
  },
  {
    "id": 1479728,
    "title": "Едвін Еббот",
    "text": "Едвін Еббот Еббот (Template:lang-en, 20 грудня 1838 р. — 12 жовтня 1926 р.) — британський вчитель і богослов, визнання отримав за сатиричну повість «Флатландія» («Flatland») (1884). Доктор (Dr.), член Британської академії від 1913 рокуDeceased Fellows: British Academy Fellows // The British Academy.Template:ref-en.",
    "timestamp": "2018-10-04T18:13:31Z"
  },
  {
    "id": 1479731,
    "title": "Кен Генслі",
    "text": "Кеннет Вільям Девід Генслі (Template:lang-en; 24 серпня 1945, Лондон, Англія) — британський рок-музикант; клавішник, гітарист, співак, автор пісень і продюсер, найбільшу популярність отримав як учасник «Uriah Heep» (1969—1980 роки).",
    "timestamp": "2018-10-01T19:05:31Z"
  },
  {
    "id": 1479735,
    "title": "Лебединський Ігор Леонідович",
    "text": "Ігор Леонідович Лебединський (Template:н Template:Дата народження, Ленінград) — російський і український перекладач і мистецтвознавець. Доктор економічних наук, професор. Працює в Інституті кіно та телебачення (Санкт-Петербург). Член Національної спілки письменників України.",
    "timestamp": "2016-07-28T10:12:01Z"
  },
  {
    "id": 1479741,
    "title": "Лебідь Сергій Якимович",
    "text": "Сергій Якимович Лебідь (Template:н Template:Дата народження, Дніпропетровськ) — український прозаїк-гуморист. Член Національної спілки письменників України.",
    "timestamp": "2018-10-12T10:32:22Z"
  },
  {
    "id": 1479742,
    "title": "Левенко Валерій Якович",
    "text": "Валерій Якович Левенко (Template:н Template:Дата народження, м. Керч, Крим) — український російськомовний поет, журналіст, публіцист. Член Національної спілки письменників України.",
    "timestamp": "2018-01-14T08:08:28Z"
  },
  {
    "id": 1479745,
    "title": "Трав'яне борошно",
    "text": "Трав’яне борошно — штучно висушений зелений корм для всіх видів сільськогосподарських тварин. Його використовують з метою підвищення поживності комбікормів і раціонів для свиней, птиці, молодняку великої рогатої худоби та високопродуктивних корів.",
    "timestamp": "2015-05-16T03:49:42Z"
  },
  {
    "id": 1479748,
    "title": "Marichka",
    "text": "\"Marichka \" — третій інтеренет-сингл з дебютного, повноформатного альбому гурту «VITER» - \"Springtime\". Сингл був опублікований в мережі 14 червня 2012 року. У грудні цього ж року сингл був доповнений українською та альтернативною (піано) версією пісні.",
    "timestamp": "2015-12-12T17:11:41Z"
  },
  {
    "id": 1479754,
    "title": "Lady in Black",
    "text": "«Lady in Black» — пісня британського рок-гурту Uriah Heep, четвертий трек її другого альбому Salisbury, що вийшов в лютому 1971 року. Автор пісні, клавішник Кен Хенслі, в студії і на концертах сам виконував у пісні партію провідного вокалу.",
    "timestamp": "2017-11-15T22:06:49Z"
  },
  {
    "id": 1479755,
    "title": "Кров'яне борошно",
    "text": "Кров’яне борошно — високоцінний корм тваринного походження, який виробляють на м’ясокомбінатах з крові, фібрину та кісткового борошна (додають не більше 5%). Склад і поживність продукту залежать від технології його приготування.",
    "timestamp": "2013-03-31T23:49:51Z"
  },
  {
    "id": 1479757,
    "title": "Сокен",
    "text": "Сокен, сокіну (фінік. 12px|שְ12px|ק12px|נ, Template:lang-he) — термін, яким у семітських народів позначали намісників або ж уповноважених осіб, які керували міською громадою за дорученням правителяGeoffrey W. Bromiley. The International Standard Bible Encyclopedia: A-D. Cambridge, 1995, с.106.",
    "timestamp": "2013-01-03T23:01:13Z"
  },
  {
    "id": 1479759,
    "title": "Фріц Цвіккі",
    "text": "Фріц Цвіккі (Template:lang-de; Template:ДН — Template:ДС) — американський астроном швейцарського походження.",
    "timestamp": "2015-02-05T03:53:48Z"
  },
  {
    "id": 1479766,
    "title": "Плаза (готель)",
    "text": "Готель «Пла́за» (Template:lang-en) — п'ятизірковий 20-поверховий розкішний готель у Нью-Йорку, заввишки 76 метрів і довжиною 120 метрів; знаходиться у західній частині Grand Army Plaza, від чого і отримав свою назву; один з найстаріших в місті і найбільш впізнаваних у світі. Розташований на Великій армійській площі на перетині п'ятого авеню та 59-ою вулицями в серединній частині Мангеттена. Фасад будинку виходить на південно-східний кут Центрального парка.",
    "timestamp": "2017-10-03T04:37:14Z"
  },
  {
    "id": 1479767,
    "title": "Кісткове борошно",
    "text": "Кісткове борошно — корм тваринного походження, який виготовляють шляхом переробки кісток тварин. Колір його білий із сіруватим відтінком. Запах специфічний, ледь відчутний, (сторонній, гнильний не допускається). Домішок у ньому також не повинно бути. Вміст металевих домішок допускається не більше 0,02 % із розміром часток не більше 2 мм. Цей продукт має бути сухим, без грудок, тонкого помелу і проходити крізь сито з отворами діаметром 0,4 мм. Залишок на ситі допускається не більше 3 %.",
    "timestamp": "2017-06-30T04:30:51Z"
  },
  {
    "id": 1479770,
    "title": "Рибне борошно",
    "text": "Ри́бне бо́рошно — один з найкращих протеїнових кормів тваринного походження, якщо має низький вміст жиру, кухонної солі та фосфорнокислого кальцію.",
    "timestamp": "2016-09-27T12:50:19Z"
  },
  {
    "id": 1479772,
    "title": "Влатко Лозаноскі",
    "text": "Вла́тко Лозано́скі-Лоза́но (Template:lang-mk) — македонський співак, який разом з Есмою Реджеповою представляв Македонію на пісенному конкурсі Євробачення 2013 у Мальме.Template:cite web Template:ref-en У другому півфіналі дует посів 16-те місце та не пройшов до фіналу.",
    "timestamp": "2015-09-17T08:36:40Z"
  },
  {
    "id": 1479777,
    "title": "М-118 (підводний човен СРСР)",
    "text": "М-118 — радянський підводний човен типу Малютка, серія XII.",
    "timestamp": "2018-09-15T12:26:02Z"
  },
  {
    "id": 1479780,
    "title": "Стойчо Панчев",
    "text": "Сто́йчо Па́нчев Ви́лчев (Template:lang-bg, *6 березня 1933, Лисець, область Ловеч, Болгарія - 30 серпня 2014, Софія, Болгарія) — болгарський метеоролог, математик і фізик, член Болгарської академій наук (БАН).",
    "timestamp": "2018-10-22T06:59:58Z"
  },
  {
    "id": 1479788,
    "title": "Панчев",
    "text": "Па́нчев (Template:lang-bg), Template:lang-mk) — болгарське і македонське прізвище.",
    "timestamp": "2018-07-24T04:13:40Z"
  },
  {
    "id": 1479793,
    "title": "Феодосія (станція)",
    "text": "Феодо́сія (до 1907 — Феодо́сія-Порт) — пасажирська залізнична станція 1 класу Кримської дирекції Придніпровської залізниці на лінії Владиславівка — Феодосія. Розташована в центрі Феодосії Автономна Республіка Крим, остання станція на лінії, що веде до Феодосійського морського порту. Найближча станція Айвазовська (3 км).",
    "timestamp": "2018-09-11T21:36:00Z"
  },
  {
    "id": 1479805,
    "title": "Алма-Атинська (станція метро)",
    "text": "«Алма-Атинська»Template:cite web — кінцева станція південного радіусу Замоскворецької лінії Московського метрополітену, розташована за «Красногвардійською» в районі Братєєво.",
    "timestamp": "2018-09-06T18:12:10Z"
  },
  {
    "id": 1479806,
    "title": "Хміль Михайло Михайлович",
    "text": "Михайло Михайлович Хміль (Template:нар 11 травня 1973 р., с. Брюховичі, Перемишлянського району, Львівській області;) — народний депутат України. Член партії Народний_фронт_(Україна).",
    "timestamp": "2018-09-06T09:25:19Z"
  },
  {
    "id": 1479807,
    "title": "Дубневич Ярослав Васильович",
    "text": "Ярослав Васильович Дубневич (* 7 серпня 1969 р., с. Зубра Пустомитівського району Львівської області;) — народний депутат Верховної Ради України VII та VIII cкликань. Входить до фракції Блоку Петра Порошенка. Голова Комітету з питань транспортуОфіційний сайт Верховної Ради України.",
    "timestamp": "2018-10-06T18:41:22Z"
  },
  {
    "id": 1479808,
    "title": "Чень Цзіжу",
    "text": "Чень Цзіжу (陳繼儒, 1558 —1639) — китайський художник, письменник, каліграф часів династії Мін.",
    "timestamp": "2016-09-30T09:54:50Z"
  },
  {
    "id": 1479809,
    "title": "Ворожейкін Арсеній Васильович",
    "text": "Вороже́йкін Арсе́ній Васи́льович (Template:н Template:ДН — Template:пом Template:ДС) — один з найрезультативніших радянських льотчиків-винищувачів німецько-радянської війни. Двічі Герой Радянського Союзу (1944), генерал-майор авіації (1954).",
    "timestamp": "2016-07-24T14:17:11Z"
  },
  {
    "id": 1479810,
    "title": "Crew Resource Management",
    "text": "Crew Resource Management (або Cockpit Resource Management) або CRM (Керування можливостями команди (екіпажу)) — методика навчання персоналу у сферах діяльності, де людський фактор здатний призвести до катастрофи. CRM орієнтована не на технічні знання, а на стосунки членів команди або екіпажу в кабіні, у тому числі керівництво та прийняття рішень. Спершу ця методика застосовувалася в авіації; згодом її впровадили і в інших службах, зокрема пожежній і морській (Bridge Resource Management або Maritime Resource Management).",
    "timestamp": "2017-11-03T22:44:33Z"
  },
  {
    "id": 1479811,
    "title": "Mercedes-Benz W222",
    "text": "Mercedes-Benz W222 — модель великого (повнорозмірного) автомобіля класу люкс автомобільної преміум-марки Mercedes; шосте покоління S-класу, який прийшов на зміну Mercedes-Benz W221. Офіційна презентація відбулася 15 травня 2013 в Гамбурзі, поточне виробництво з 12 червня, продаж на авторинку з 20 липня 2013.",
    "timestamp": "2018-09-23T17:04:31Z"
  },
  {
    "id": 1479813,
    "title": "Межа (роман)",
    "text": "«Межа» (оригінальна назва — Template:lang-ru) — роман із розповідей, що написаний українськими письменниками Мариною та Сергієм Дяченками у співавторстві з Андрієм Валентиновим та Г. Л. Олді та вперше опублікувався у видавництві «Terra Fantastica» 1999 року.",
    "timestamp": "2017-07-13T10:57:14Z"
  },
  {
    "id": 1479814,
    "title": "Сорока Микола Петрович",
    "text": "Сорока Микола Петрович (* 5 серпня 1952 р., с. Повчине Новоград-Волинського району Житомирської області;) — Народний депутат України, член Партії регіонів. З 2012 року президент Національного університету водного господарства та природокористування.",
    "timestamp": "2018-08-29T08:07:04Z"
  },
  {
    "id": 1479818,
    "title": "Чень Іфей",
    "text": "Чень Іфей (陈逸飞, 12 квітня 1946 —10 квітня 2005) — китайський художник, дизайнер, режисер часів КНР.",
    "timestamp": "2015-02-03T20:15:38Z"
  },
  {
    "id": 1479820,
    "title": "Добрянська сільська рада (Стрийський район)",
    "text": "Добрянська сільська рада — орган місцевого самоврядування у Стрийському районі Львівської області. Адміністративний центр — село Добряни.",
    "timestamp": "2015-04-09T12:37:57Z"
  },
  {
    "id": 1479821,
    "title": "Мураєв Євгеній Володимирович",
    "text": "Євге́ній Володи́мирович Мураєв (Template:н Template:ДН, Зміїв, Харківська область, Українська РСР) — український політик, депутат Харківської обласної ради двох скликань, народний депутат України VII і VIII скликань.",
    "timestamp": "2018-09-27T19:37:02Z"
  },
  {
    "id": 1479823,
    "title": "Boeing 377",
    "text": "Боїнг 377 Стратокруізер (англійська мова  — Boeing 377 Stratocruiser)  — чотиримоторний далекомагістральний  пасажирський літак.",
    "timestamp": "2018-06-04T09:51:33Z"
  },
  {
    "id": 1479825,
    "title": "Маґура (Покутсько-Буковинські Карпати)",
    "text": "Ма́ґура — гора в Українських Карпатах, у масиві Покутсько-Буковинські Карпати. Розташована на хребті Довгий Грунь, у межах Вижницького району Чернівецької області, на південь від села Долішній Шепіт.",
    "timestamp": "2018-09-15T11:18:12Z"
  },
  {
    "id": 1479831,
    "title": "Вікіпедія:Стиль/Структура статті",
    "text": "Вміст: маркований список, зазвичай, у хронологічному порядку, робіт, створених суб'єктом статті.",
    "timestamp": "2017-05-16T11:16:33Z"
  },
  {
    "id": 1479832,
    "title": "Довголуцька сільська рада",
    "text": "Довголуцька сільська рада — орган місцевого самоврядування у Стрийському районі Львівської області. Адміністративний центр — село Довголука.",
    "timestamp": "2015-04-09T13:11:35Z"
  },
  {
    "id": 1479833,
    "title": "Ван Фу",
    "text": "Ван Фу (王紱, 1362 — 6 лютого 1416) — китайський художник та каліграф часів династії Мін, представник течії веньжень (художників-інтелектуалів).",
    "timestamp": "2016-07-12T16:23:55Z"
  },
  {
    "id": 1479838,
    "title": "Долішненська сільська рада",
    "text": "Долішненська сільська рада — орган місцевого самоврядування у Стрийському районі Львівської області. Адміністративний центр — село Долішнє.",
    "timestamp": "2016-12-27T17:40:55Z"
  },
  {
    "id": 1479842,
    "title": "Фісташка справжня",
    "text": "Фісташка справжня, Фісташкове дерево (Template:lang-la) — багатостовбурне дерево, часто кущ, вид роду Template:bt-ruslat родини Template:bt-ruslat.",
    "timestamp": "2018-02-27T12:19:45Z"
  },
  {
    "id": 1479846,
    "title": "Джунглі (фільм, 2012)",
    "text": "«Джунглі» — російський комедійний фільм Олександра Войтинського. Дата виходу — 29 листопада 2012Template:cite web Template:ref-ru.",
    "timestamp": "2018-04-17T11:45:33Z"
  },
  {
    "id": 1479848,
    "title": "Сіачен",
    "text": "Сіачен або Сіячен (सियाचिन ग्लेशियर, سیاچن گلیشیر) — найбільший льодовик Каракоруму. Територія льодовика контролюється Індією.",
    "timestamp": "2017-09-04T18:57:05Z"
  },
  {
    "id": 1479849,
    "title": "Тоніно Бенаквіста",
    "text": "Тоніно Бенаквіста (Template:lang-fr; нар. 1 вересня 1961, Шуазі-ле-Руа) — французький письменник та сценарист.",
    "timestamp": "2015-03-03T11:31:20Z"
  },
  {
    "id": 1479853,
    "title": "Національна асоціація сільськогосподарських дорадчих служб України",
    "text": "Всеукраїнська громадська організація «Національна асоціація сільськогосподарських дорадчих служб України» (НАСДСУ, Template:lang-en) - неприбуткова організація, створена 11 березня 2003 року.",
    "timestamp": "2018-07-23T16:02:09Z"
  },
  {
    "id": 1479854,
    "title": "Лу Чжи",
    "text": "Лу Чжи (陸治, 1496 —1576) — китайський художник часів династії Мін, представник школи У.",
    "timestamp": "2017-12-28T15:33:23Z"
  },
  {
    "id": 1479870,
    "title": "Китайські паперові ліхтарики (картина)",
    "text": "Китайськ паперові ліхтарики (картина) — безсюжетне полотно, яке створив російський художник Костянтин Коровін (1861—1939).",
    "timestamp": "2015-12-22T20:11:52Z"
  },
  {
    "id": 1479874,
    "title": "Маґура (слов'янська міфологія)",
    "text": "Маґура — дочка громовержця Перуна, хмарна діва, у слов'янській міфології прекрасна, крилата, войовнича. Маґура те ж саме, що скандинавська валькірія. Серце її навіки віддане славним ратникам і богатирям.",
    "timestamp": "2013-01-05T06:31:17Z"
  },
  {
    "id": 1479877,
    "title": "Готорнський ефект",
    "text": "Го́торнський ефе́кт (Template:lang-en, за назвою заводу Hawthorne Works, або впли́в спостерігача́Monahan, Torin; Fisher, Jill A. (June 1, 2010). «Benefits of 'Observer Effects': Lessons from the Field». U.S. National Library of Medicine, National Institutes of Health.) — це тип реактивності, коли люди змінюють поведінку, діють інакше, більш ретельно, ніж зазвичай тільки завдяки усвідомленню того, що вони знають про спостереження за нимиTemplate:cite journalTemplate:cite journal.",
    "timestamp": "2018-09-07T06:22:09Z"
  },
  {
    "id": 1479879,
    "title": "Страта (роман)",
    "text": "«Страта» (оригінальна назва — Template:lang-ru) — роман, що написаний українськими письменниками Мариною та Сергієм Дяченками та вперше опублікувався у видавництві «АСТ» 1999 року.",
    "timestamp": "2018-06-19T05:30:42Z"
  },
  {
    "id": 1479885,
    "title": "Нетто-ставка",
    "text": "Нетто-ставка - це основна частина страхових тарифів, що призначається для формування ресурсів страхових органів на виплату страхового відшкодування (у майновому страхуванні) і страхових сум (в особистому страхуванні). За основу Н-с. береться середня за ряд років збитковість страхової суми.",
    "timestamp": "2015-09-29T13:15:29Z"
  },
  {
    "id": 1479887,
    "title": "Арись-поле",
    "text": "Арись-поле — один з найдавніших образів слов'янської міфології. Казковий сюжет про матір-рись був навіть більш поширений, ніж мотив утоплення красуні і перетворення її на рибу або русалку.",
    "timestamp": "2018-06-11T12:29:20Z"
  },
  {
    "id": 1479889,
    "title": "Натс (покер)",
    "text": "Натс (Template:lang-en) — розмовний, жаргонний вираз серед гравців у покер, що позначає найсильнішу можливу руку у даній роздачі і впевненість гравця у домінуючій силі цієї руки. Прикладом натсу може бути сет королів, складений з кишенькової пари карт K♦ K♠ на флопі K♥ 4♠ 3♠. Проте наявність натсу на флопі не означає однозначну перемогу на шоудауні, оскільки на наступних вулицях (тьорн і рівер) ситуація може змінитись і у супротивника може скластися каре, фул-хаус, флаш, стріт і навіть флаш-стріт і флаш-рояль.",
    "timestamp": "2014-09-06T06:50:53Z"
  },
  {
    "id": 1479897,
    "title": "Аум Сінрікьо",
    "text": "Аум Сінрікьо (Template:lang-ja) — японська релігійна секта. Вона була заснована в 1987 році японцем Сьоко Асахара. Доктринально поєднувала християнство та буддізм. Секта стала відомою після заринової атаки у токійському метро. Назва Аум Сінрікьо походить від санскритського слова АУМ, що означає всесвіт.",
    "timestamp": "2018-07-09T17:55:10Z"
  },
  {
    "id": 1479898,
    "title": "Савчук Анатолій Якович",
    "text": "Анато́лій Я́кович Савчу́к (Template:ДН, с. Бохоники, Вінницька область) — радянський та український політик, народний депутат України I скликання.",
    "timestamp": "2017-03-06T06:42:51Z"
  },
  {
    "id": 1479901,
    "title": "Різдвяне оповідання",
    "text": "Різдвя́не чи свя́точне оповіда́ння — літературний жанр, що відноситься до категорії календарної літератури і характеризується певною специфікою в порівнянні з традиційним жанром оповідання.",
    "timestamp": "2017-01-19T14:54:51Z"
  },
  {
    "id": 1479903,
    "title": "Дівана",
    "text": "Дівана або Зівана, Дзівана, у слов'янській міфології богиня полювання, дружина бога лісів Святобора. Дівану давні слов'яни представляли в образі красуні, одягненої в багатий з куниці кожух, облямований білкою; з натягнутим луком і стрілами. Замість опанчі (верхнього одягу) накинута ведмежа шкура, а голова звіра служила шапкою. Біля ніг прекрасної богині Дівани лежала рогатина, з якою ходять на ведмедя і ніж. Вона опікала лісових звірів, вчила їх уникати небезпеки, переносити суворі зими.",
    "timestamp": "2018-09-18T13:18:38Z"
  },
  {
    "id": 1479904,
    "title": "Документний фонд",
    "text": "Документний фонд — це систематизоване зібрання документів, підібраних згідно із задачами, завданнями документно-інформаційної комунікації і потребами користувачів.",
    "timestamp": "2018-06-13T11:00:00Z"
  },
  {
    "id": 1479906,
    "title": "Гриценко Денис",
    "text": "Денис Гриценко — український музикант.",
    "timestamp": "2018-02-08T16:56:07Z"
  },
  {
    "id": 1479909,
    "title": "Українська авіаційна група",
    "text": "Українська авіаційна група — стратегічний альянс, який здійснює чартерні та регулярні авіаперевезення по Україні, країнах Європи, Азії та Північній Америці. Також члени авіаальянсу здійснюють розвиток аеропортів в Україні. УАГ була створена в 2007 році авіакомпаніями «Аеросвіт» і «Донбасаеро». У 2010 році до групи приєдналася «Дніпроавіа» та почала інтеграцію в альянс «Роза Вітрів».",
    "timestamp": "2017-07-02T18:53:42Z"
  },
  {
    "id": 1479911,
    "title": "Фельден (Фільс)",
    "text": "Фе́льден (Template:lang-de) — громада в Німеччині, знаходиться в землі Баварія. Підпорядковується адміністративному округу Нижня Баварія. Входить до складу району Ландсгут. Складова частина об'єднання громад Фельден.",
    "timestamp": "2018-08-01T17:56:15Z"
  },
  {
    "id": 1479916,
    "title": "Nissan Fuga",
    "text": "Nissan Fuga - повнорозмірний розкішний седан компанії Nissan. У жовтні 2004 року була запущена лінія повнорозмірних люксових автомобілів для внутрішнього ринку Японії. На зовнішніх ринку модель вийшла з під бренду Nissan і перейшла в люксове відділення Infiniti та отримала ім'я Infiniti М35/М45. Вперше ж машина була показана як Fuga concept в 2003 році на Токійському автосалоні, це готувалася заміна для двох модельних лінійок Nissan Cedric і Nissan Gloria. А з припиненням виробництва Nissan Cima і Nissan President в 2010 році, Fuga стала флагманською моделлю Nissan. На отримання імені Фуга розробників надихнули музичні форми автомобіля. Fuga об'єднала чотири моделі з багатою історією - Cedric, Gloria, Cima і President.",
    "timestamp": "2018-07-27T21:01:15Z"
  },
  {
    "id": 1479918,
    "title": "Коефіцієнт потужності",
    "text": "Коефіціє́нт поту́жності — безрозмірна фізична величина, що характеризує споживача змінного електричного струму з точки зору наявності в навантаженні реактивної складової. Коефіцієнт потужності показує, наскільки зсувається по фазі змінний струм, що протікає через навантаження, щодо прикладеної до нього напруги.",
    "timestamp": "2018-04-24T09:22:34Z"
  },
  {
    "id": 1479923,
    "title": "Німеччина. Зимова казка",
    "text": "«Німеччина. Зимова казка» — поема Генріха Гейне, сюжетом якої послужила мандрівка письменника Німеччиною. З їдкою іронією, сарказмом і ненавистю Гайне накидується на католицьку церкву, романтичну школу і німецьке філістерство.",
    "timestamp": "2017-01-22T13:46:09Z"
  },
  {
    "id": 1479924,
    "title": "Мечник великий литовський",
    "text": "Мечник великий литовський — державна посада у Великому князівству Литовському наприкінці 15-го — на початку 18-го століть. Створена на подобу Великого мечника коронного.",
    "timestamp": "2017-08-14T14:58:23Z"
  },
  {
    "id": 1479926,
    "title": "Георг Штумме",
    "text": "Георг Штумме (Template:lang-de; Template:н 24 липня 1886, Хальберштадт, Саксонія — Template:† 24 жовтня 1942, Ель-Аламейн, Єгипет) — німецький воєначальник часів Третього Рейху, генерал танкових військ (1940) Вермахту. Кавалер Лицарського хреста (1940).",
    "timestamp": "2017-07-22T19:40:32Z"
  },
  {
    "id": 1479928,
    "title": "Готфрід Гофман",
    "text": "Ян Ґотфрід Гофман (Jan Gottfried Hoffman, також Template:lang-plBarącz S. Pamiątki buczackie. — Lwów : Drukarnia «Gazety narodowej», 1882. — S. 58. Template:ref-pl р. нар. та см. невідомі) — сілезькийHornung Z. Polejowski Piotr (zm. przed r. 1780) // Polski Słownik Biograficzny. — Wrocław — Warszawa — Kraków — Gdańsk — Łódź : Zakład Narodowy Imienia Ossolińskich, Wydawnictwo Polskiej Akademii Nauk, 1982. — T. XXVII/2. — Zeszyt 113. — S. 292. Template:ref-pl архітектор XVIII ст.",
    "timestamp": "2018-09-01T18:16:12Z"
  },
  {
    "id": 1479938,
    "title": "Талаганте (провінція)",
    "text": "Провінція Талаганте (Template:lang-es) — провінція у Чилі у складі області Сантьяго. Адміністративний центр — Талаганте. Складається з 5 комун. Територія — 581,8 км². Населення — 217 449 осіб. Щільність населення — 373,75 осіб/км².",
    "timestamp": "2018-02-24T15:42:40Z"
  },
  {
    "id": 1479940,
    "title": "Системна екологія",
    "text": "Систе́мна еколо́гія — сукупність принципів і концепцій системного аналізу стосовно до екології. Системна екологія як формалізований цілісний підхід стала самостійним розділом загальної екології в результаті розвитку сучасних формальних математичних методів, кібернетики, обробки даних на ЕОМ, інформатики тощо, а також формального спрощення складних екосистем. Системна екологія відкриває реальний шлях до вирішення проблем, пов'язаних із середовищем проживання людини.",
    "timestamp": "2017-10-07T21:32:10Z"
  },
  {
    "id": 1479942,
    "title": "Мацей Ратай",
    "text": "Мацей Ратай (Template:lang-pl; 19 лютого 1884, Хлопи поблизу Львова — 21 червня 1940, Пальміри) — польський політик, член Селянської партії. Виконувач обов'язків президента Польської республіки у 1922 та 1926 роках, Міністр духовних справ і народної освіти Польщі в 1920–1921 роках, маршалек польського сейму у 1922–1928 роках.",
    "timestamp": "2018-08-30T18:21:53Z"
  },
  {
    "id": 1479943,
    "title": "Четвертинна геологія",
    "text": "Четверти́нна геоло́гія — розділ геології, що вивчає систему четвертинних відкладів і відповідний їм період історії Землі, що почався приблизно 2,6 млн років тому і триває досі.",
    "timestamp": "2015-11-08T09:40:56Z"
  },
  {
    "id": 1479947,
    "title": "Кристалохімія мінералів",
    "text": "Кристалохімія мінералів — розділ кристалографії, який вивчає закономірності зв'язків між хімічним складом, структурою, властивостями і морфологією кристалічних речовин, а також процеси і закони їх утворення.",
    "timestamp": "2016-11-08T22:06:17Z"
  },
  {
    "id": 1479951,
    "title": "DS4",
    "text": "Citroën DS4 (Template:lang-uk) - автомобіль першого середнього класу французької компанії Citroën, що входить в концерн PSA Peugeot Citroën. З 2015 року модель називається DS4, а припіднята модель називається DS4 Crossback.",
    "timestamp": "2018-03-24T20:26:16Z"
  },
  {
    "id": 1479952,
    "title": "Онейроїд (гурт)",
    "text": "Онейроїд (група) — альтернативна група, утворена в Полтаві 25 грудня 1992 року з ініціативи медиків Андрія Боркунова (вокал, гітара) та Анатолія Воліка (тексти, бас).",
    "timestamp": "2018-05-09T08:52:08Z"
  },
  {
    "id": 1479971,
    "title": "Анрі Піто",
    "text": "Анрі Піто (Template:lang-fr, *3 травня 1695, Арамон (Гар), Франція — †27 грудня 1771, там само) — французький математик та інженер-гідравлік, член Французької АН (1724) і Лондонського королівського товариства (1740).",
    "timestamp": "2016-10-21T20:08:24Z"
  },
  {
    "id": 1479972,
    "title": "Список персонажів серіалу «Пуститися берега»",
    "text": "Волтер Хартвел «Волт» Вайт (Template:lang-en, актор — Браян Кренстон) — Волтер Вайт проживає в Альбукерке, штат Нью-Мексико. Він працює вчителем хімії в середній школі, живе зі своєю дружиною Скайлер і сином Волтером молодшим, який хворий на дитячий параліч. Його життя сильно змінюється після того як у нього виявляють рак легень. Волтер вирішує зайнятися виробництвом наркотиків, для того щоб залишити достатній спадок своїй сім'ї. Він використовує свої знання для того щоб разом зі своїм колишнім учнем, Джессі Пінкменом, варити метамфетамін. Наукові знання Волта та його постійна тяга до кращої якості привели до того, що йому вдалось виготовити найчистіший та «найпотужніший» метамфетамін, ніж будь кому іншому. Під час варіння він використовує метиламін, який надає його продукту фірмового блакитного кольору. Його «мет», який на вулицях отримує назву «блакитне небо», домінує на ринку. Джессі постійно називає його «Містер Вайт» (Template:lang-en), чим викликає асоціації з фільмом Квентіна Тарантіно «Скажені пси»Template:cite webTemplate:cite web.",
    "timestamp": "2017-11-11T23:56:47Z"
  },
  {
    "id": 1479974,
    "title": "Збірна Бангладеш із футболу",
    "text": "Збірна Бангладеш з футболу  — представляє Бангладеш на міжнародних футбольних змаганнях. Контролюється Футбольною федерацією Бангладеш. Вона ніколи не потрапляла на чемпіонат світу з футболу. У 1980 році збірна вийшла в 1-й тур Кубка Азії з футболу і завоювала чемпіонський титул на чемпіонаті Південної Азії в 2003 році. Збірна була створена в 1972 році (після здобуття незалежності Бангладеш) і вступила в ФІФА в 1974 році.",
    "timestamp": "2017-02-06T14:18:51Z"
  },
  {
    "id": 1479983,
    "title": "Жозеїт",
    "text": "Жозеї́т — мінерал класу сульфосолей, сульфотелурид бісмуту із групи тетрадиміту.",
    "timestamp": "2018-02-27T11:05:00Z"
  },
  {
    "id": 1479984,
    "title": "Інгулецький степ (заказник)",
    "text": "Інгуле́цький степ — ландшафтний заказник загальнодержавного значення. Розташований у межах Криворізького району Дніпропетровської області, на північний захід від села Недайвода.",
    "timestamp": "2016-06-04T08:37:37Z"
  },
  {
    "id": 1479987,
    "title": "Вірменська Географія",
    "text": "Ашхарацуйц (Template:lang-hy, букв. «Показ світу») — пам'ятка географії і картографії стародавньої Вірменії. Довгий час автором твору вважався Мовсес Хоренаці, проте зараз більшість істориків схильні вважати автором Ашхарацуйця Ананія Ширакаці, мислителя VII століття.",
    "timestamp": "2018-07-30T11:26:04Z"
  },
  {
    "id": 1479988,
    "title": "Битва на Рогах Хаттіна",
    "text": "Битва на Рогах Хаттіна — битва, що відбулась 4 липня 1187 року між Єрусалимським королівством хрестоносців та силами династії Айюбідів. Хрестоносців було розгромлено мусульманськими арміями під проводом Саладіна.",
    "timestamp": "2018-09-25T15:55:26Z"
  },
  {
    "id": 1479994,
    "title": "Всесвітня хокейна асоціація",
    "text": "Всесвітня хокейна асоціація (ВХА; Template:lang-en; Template:lang-fr) — професійна хокейна ліга, що існувала у 1972—1979 рік і об'єднувала клуби США та Канади.",
    "timestamp": "2018-09-01T06:53:38Z"
  },
  {
    "id": 1480007,
    "title": "Вологі тропіки Квінсленду",
    "text": "Дощові ліси східного узбережжя Австралії (Template:lang-en) — об'єкт Світової спадщини ЮНЕСКО. Розташований на північно-східному узбережжі материкової частини Австралії, на території штату Квінсленд. Об'єкт є районом дикої місцевості, покритий вологими тропічними лісами і відрізняється великою різноманітністю рельєфу (річки, ущелини, водоспади, гори). Розташований у долині річки Дейнтрі, займаючи площу 8940 км². Включений до списку Всесвітньої спадщини у 1988 році.",
    "timestamp": "2016-05-05T09:47:03Z"
  },
  {
    "id": 1480008,
    "title": "Хаббард (льодовик)",
    "text": "Льодовик Хаббард (Template:lang-en) — долинний деревовидний льодовик, найбільший на узбережжі Аляски (США).",
    "timestamp": "2013-05-13T15:44:42Z"
  },
  {
    "id": 1480009,
    "title": "Audita tremendi",
    "text": "Audita tremendi (Template:lang-lat) — булла папи Григорія VIII, датована 29 жовтня 1187 року, яка закликала західних християн до Третього хрестового походу.",
    "timestamp": "2017-11-01T10:00:54Z"
  },
  {
    "id": 1480012,
    "title": "Ту-214СР",
    "text": "Ту-214СР — літак-ретранслятор, який був розроблений спеціально для адміністрації президента Російської Федерації.",
    "timestamp": "2016-02-14T14:46:01Z"
  },
  {
    "id": 1480014,
    "title": "Ту−214Р",
    "text": "Ту-214Р (виріб 411) — літак радіотехнічної та оптико-електронної розвідки, розроблений наприкінці 2000-х років на базі пасажирського Ту-214 для заміни Іл-20. Прийняття на озброєння планується в 2013http://russianplanes.net/reginfo/211. Розроблений конструкторським бюро «Туполєв» вже понад 10 років. Базою літака спецпризначення є літак пасажирської серії Ту-214. Виробництво нових літаків доручили казанському ВАТ «КАПО ім. Горбунова».",
    "timestamp": "2016-09-30T14:32:10Z"
  },
  {
    "id": 1480016,
    "title": "Запоріжжя-Ліве",
    "text": "Запорі́жжя-Лі́ве — вузлова сортувальна залізнична станція Запорізької дирекції Придніпровської залізниці. Розташована на перетині ліній Вільнянськ — Імені Анатолія Алімова та Запоріжжя-Ліве — Запоріжжя II.",
    "timestamp": "2018-10-07T17:54:42Z"
  },
  {
    "id": 1480020,
    "title": "Тетраетилсвинець",
    "text": "Тетраетилсвинець Pb(CH3CH2)4 — отруйна металорганічна сполука. Застосовувався в основному як антидетонувальна присадка до моторного палива, для підвищення його октанового числа.",
    "timestamp": "2017-04-16T19:13:25Z"
  },
  {
    "id": 1480021,
    "title": "Ту-214ОН",
    "text": "Ту-214ОН — літак авіаційного спостереження, розроблений в ВАТ «Туполєв» на базі пасажирського літака Ту-214. Літак створений спеціально для виконання польотів в рамках Договору з відкритого неба над територіями країн-учасниць договору.",
    "timestamp": "2016-02-14T14:48:48Z"
  },
  {
    "id": 1480022,
    "title": "Йосафат",
    "text": "Йосафат — чоловіче ім'я.",
    "timestamp": "2017-09-12T12:27:52Z"
  },
  {
    "id": 1480028,
    "title": "Патрік де Гайардон",
    "text": "Патрік де Гайардон (23 січня 1960 — 13 квітня 1998) — французький парашутист, винахідник сучасного вінгсьюту.",
    "timestamp": "2017-09-11T19:23:40Z"
  },
  {
    "id": 1480030,
    "title": "Попков Віктор Юхимович",
    "text": "Попков Віктор Юхимович (Template:lang-ru 1932–1974) — російський художник і графік. Робив картини в стилістиці суворого стилю. Лауреат Державної премії СРСР (1975, посмертно).",
    "timestamp": "2015-01-10T17:13:44Z"
  },
  {
    "id": 1480035,
    "title": "Марія-Крістіна Австрійська (1983)",
    "text": "Марія-Крістіна Австрійська (Template:lang-fr, Template:lang-de), повне ім'я Марія-Крістіна Анна Астрід Зіта Шарлотта (Template:н 31 липня 1983) — представниця бельгійської та люксембурзької знаті з Габсбург-Лотаринзької династії, донька ерцгерцога Астрійського Карла Крістіана та люксембурзької принцеси Марії-Астрід, дружина графа Лімбург-Штірум Рудольфа, небога правлячого великого герцога Люксембургу Анрі.",
    "timestamp": "2018-07-08T17:01:03Z"
  },
  {
    "id": 1480039,
    "title": "Охтирська міська рада",
    "text": "Охти́рська міська́ ра́да — орган місцевого самоврядування в Сумській області. Адміністративний центр — місто обласного значення Охтирка.",
    "timestamp": "2017-10-05T17:52:38Z"
  },
  {
    "id": 1480041,
    "title": "Wegelin",
    "text": "Wegelin & Co — найстарішийНайстаріший банк Швейцарії закривається після штрафу США банк Швейцарії, історія якого відраховується з 1466 року. Основний напрямок фінансової діяльності Wegelin — управління капіталом і активами.",
    "timestamp": "2018-04-14T07:37:42Z"
  },
  {
    "id": 1480045,
    "title": "Анджей Піліп'юк",
    "text": "Анджей Піліп'юк (Андрій Пилип'юк; Template:lang-pl); нар. 20 березня 1974 — польський письменник-фантаст та журналіст польсько-українського походження. За освітою археолог.",
    "timestamp": "2017-06-26T13:01:05Z"
  },
  {
    "id": 1480046,
    "title": "Вор'єма (мис)",
    "text": "Вор'є́ма (Template:lang-ru) — мис на крайньому північному заході узбережжя Мурманської області в Росії, знаходиться в південній частині затоки Варангер-Фьорд Баренцевого моря.",
    "timestamp": "2016-07-17T14:19:28Z"
  }
]