[
  {
    "id": 2228083,
    "title": "Темплатний термодинамічний ефект",
    "text": "Темплатний термодинамічний ефект (Template:lang-ru, Template:lang-en) — темплатний ефект, коли йон металу змiщує рiвновагу за рахунок зв'язування продукту реакцiї (макроциклу), утворюючи з ним стабiльну сполуку.",
    "timestamp": "2016-08-09T13:47:11Z"
  },
  {
    "id": 2228091,
    "title": "Етідзен-Такефу",
    "text": "Станція Етідзен-Такефу (越前武生駅 Етідзен-Такефу-екі) — залізнична станція Залізниці Фукуй на лінії Фукубу, розташована в місті Етідзен, префектура Фукуй, Японія.",
    "timestamp": "2017-05-23T16:01:07Z"
  },
  {
    "id": 2228093,
    "title": "Теорема Яна — Теллера",
    "text": "Теоpема Яна — Теллеpа (Template:lang-en) — відома в різних формулюваннях.",
    "timestamp": "2016-08-24T17:58:39Z"
  },
  {
    "id": 2228098,
    "title": "Теорія відштовхування електронних пар валентних оболонок (ВЕПВО)",
    "text": "Теорія ВЕПВО (Template:lang-en) — теорія відштовхування електронних пар валентних оболонок (ВЕПВО), що використовується для передбачення молекулярної структури. Основна ідея — електронні пари (зв'язуючі і вільні) валентної оболонки атома розташовуються якнайдалі одна від одної. Модель, що лежить у її основі, пояснює будову молекул, виходячи з припущення, що електронні пари розташовуються на атомах таким чином, щоб мінімізувати електрон-електронне відштовхування. В її основі лежать такі положення.",
    "timestamp": "2016-09-01T18:55:23Z"
  },
  {
    "id": 2228099,
    "title": "Гупало Кость Карпович",
    "text": "Кость Карпович Гупало (Template:нар жовтень 1907, с. Гупалівка, Дніпропетровщина — Template:пом лютий 1942, Київ) — український драматург, професор російської філології.",
    "timestamp": "2018-06-19T21:18:44Z"
  },
  {
    "id": 2228102,
    "title": "Тавараматі (станція)",
    "text": "Станція Тавараматі (田原町駅 Тавараматі-екі) — залізнична станція Залізниці Фукуй лінії Фукубу та Мікуні Авара залізниці Етідзен, розташована у місті Фукуй, префектура Фукуй, Японія.",
    "timestamp": "2017-05-23T16:44:00Z"
  },
  {
    "id": 2228103,
    "title": "Андреас Цюлов",
    "text": "Андре́ас Цю́лов (Template:lang-de; Template:н. 23 жовтня 1965, Людвіґслуст, Німеччина) — німецький боксер-любитель, олімпійський чемпіон 1988 року, призер чемпіонатів світу та Європи.",
    "timestamp": "2017-01-14T13:15:23Z"
  },
  {
    "id": 2228106,
    "title": "ГУМ (Севастополь)",
    "text": "Головний універмаг Севастополя (ГУМ)  — універсальний магазин непродовольчих товарів у Севастополі. Знаходиться у центрі міста, за адресою вулиця Маяковського, 8. Будівля ГУМу є пам'яткою архітектури.",
    "timestamp": "2016-08-01T05:44:10Z"
  },
  {
    "id": 2228119,
    "title": "Чопівський Юрій Юрійович",
    "text": "Юрій Юрійович Чопівський — американський бізнесмен, український меценат.Украинский «Полещук» мирового масштаба. Оплачував утримання офісу для українського посольства у Вашингтоні впродовж півтора року, бо у перші роки незалежності держава не мала достатньо коштівРабота посольства Украины в США начиналась с трех комнат. Вспоминает ветеран украинской внешней разведки Игорь Дунайский, которого распад СССР застал в Вашингтоне в резидентуре советской разведки.",
    "timestamp": "2018-07-31T13:52:41Z"
  },
  {
    "id": 2228122,
    "title": "Спортивна гімнастика на літніх Олімпійських іграх 2016 — кваліфікаційний раунд (жінки)",
    "text": "Кваліфікаційний раунд у змаганнях зі спортивної гімнастики серед жінок на літніх Олімпійських іграх 2016 року пройшов 7 серпня. Взяли участь 98 спортсменок з 49 країн. У рамках цього раунду пройшов відбір до фіналів у всіх дисциплінах, представлених на іграх. У фінал командних змагань вийшли 6 країн, які набрали найбільшу кількість балів. На кожному зі снарядів виступили по 4 спортсменки, а підсумкова сума розраховувалась за результатами виступу трьох найкращих гімнасток на кожному снаряді. У фінал індивідуального багатоборства пройшли 28 спортсменок. Якщо будь-яка учасниця відмовиться від участі у фіналі, то її замінить наступна за набраними очками спортсменка. У фінали індивідуальних змагань вийшло по 8 гімнасток, які показали найкращий результат на цих снарядах. Змагання поділялись на п'ять підгруп.",
    "timestamp": "2017-05-08T13:40:25Z"
  },
  {
    "id": 2228128,
    "title": "Сонце-хрест Шевченкової правди",
    "text": "С́онце-Хр́ест Шевч́енкової пр́авди — пам'ятний знак на Набережному шосе в Києві, за 200 м на північ від мосту Метро. Встановлений 1989 до 175-річчя від дня народження Тараса Шевченка на місці, де в 1861 році під час перепоховання Кобзаря труну з його тілом заносили з набережної на борт пароплава «Кременчук», що прямував до Канева. Автор пам'ятного знака — львівський скульптор Роман Петрук.",
    "timestamp": "2017-09-13T18:35:25Z"
  },
  {
    "id": 2228131,
    "title": "Quand la bouteille est vide",
    "text": "Quand la bouteille est vide (Template:Lang-uk) — Outro-трек Жан-Жака Ґольдмана, дописаний в 1982 році. Завершаюча студійна композиція в другому студійному альбомі «Minoritaire».",
    "timestamp": "2016-11-15T22:21:08Z"
  },
  {
    "id": 2228132,
    "title": "Пам'ятник Тарасові Шевченку (Курівці)",
    "text": "Пам'ятник Тарасові Шевченку в Курівцях — погруддя українського поета Тараса Григоровича Шевченка в селі Курівцях Зборівського району на Тернопільщині.",
    "timestamp": "2017-12-23T14:07:47Z"
  },
  {
    "id": 2228134,
    "title": "Кулик Сергій Володимирович",
    "text": "Сергій Володимирович Кулик (5 серпня 1958) — український дипломат. Тимчасовий повірений у справах України в Сполучених Штатах Америки.",
    "timestamp": "2017-03-20T09:08:16Z"
  },
  {
    "id": 2228139,
    "title": "Minoritaire",
    "text": "Minoritaire (Template:Lang-uk) — пісня Жан-Жака Гольдмана, написана 1982 році. Вийшла в рамках вже його сольного проекту, в другому студійному альбомі «Minoritaire».",
    "timestamp": "2016-08-10T15:52:36Z"
  },
  {
    "id": 2228140,
    "title": "Кості (гра)",
    "text": "Ко́сті — одна з найдавніших ігор. Інструментом для гри є кубики (костіTemplate:СУМ-11 (див. п. 2), кісточкиTemplate:СУМ-11 (див. п. 3)) в кількості від одного до п'яти залежно від виду гри. При правильній розмітці протилежні грані кісточок повинні в сумі становити 7 (6 проти 1, 5 проти 2, 4 проти 3). Суть гри полягає в викиданні кубиків і наступному підрахунку очок, кількість яких і визначає переможця. Різновиди гри припускають різний підрахунок очок.",
    "timestamp": "2017-11-07T17:07:40Z"
  },
  {
    "id": 2228141,
    "title": "Вільне радіо і телебачення тисячі пагорбів",
    "text": "Ві́льне ра́діо і телеба́чення ти́сячі па́горбів (Template:lang-fr, RTLMC, RTLM) було руандійською радіостанцією, яка вела мовлення з 8 липня 1993 по 31 липня 1994 року і зіграла значну роль у геноциді в Руанді впродовж квітня-липня 1994 року.",
    "timestamp": "2017-08-03T11:00:15Z"
  },
  {
    "id": 2228145,
    "title": "Сюллі-сюр-Луар (замок)",
    "text": "Сюллі-сюр-Луар (Template:lang-fr) — середньовічний луарський замок (шато), що до 1962 року належав знатній родині де Бетюн, найвідомішим представником якої був перший герцог Сюллі. Спочатку замок мав велике оборонне значення. Під час Фронди в нім переховувалися Анна Австрійська і кардинал Мазаріні. На початку XVIII століття Вольтер, переслідуваний через свої сатиричні твори, знайшов тут притулок від гніву Регента.",
    "timestamp": "2018-03-25T13:06:21Z"
  },
  {
    "id": 2228148,
    "title": "Лупійчук Володимир Васильович",
    "text": "Володимир Васильович Лупійчук (22 грудня 1929, м. Волочиськ Хмельницької області, Україна — 27 квітня 2006, м. Тернопіль, похований у Волочиську) — український скульптор, різьбяр, громадсько-політичний діяч. Член Національної спілки майстрів народного мистецтва України (1990). Заслужений майстер народної творчості України (2002). Батько Віктора Лупійчука.",
    "timestamp": "2018-01-14T17:18:47Z"
  },
  {
    "id": 2228151,
    "title": "Мартін Поллак",
    "text": "Ма́ртін По́ллак (Template:lang-de; Template:н 1944) — австрійський письменник, журналіст та перекладач. Займається проблематикою Центральної та Східної Європи, спеціалізується на східноєвропейській історії.",
    "timestamp": "2017-12-16T09:51:49Z"
  },
  {
    "id": 2228156,
    "title": "Генрі Маске",
    "text": "Генрі Маске (Template:lang-de; Template:н. 6 січня 1964, Тройєнбріцен, Бранденбург, Німеччина) — німецький боксер, олімпійський чемпіон 1988 року, чемпіон світу та Європи серед любителів. Чемпіон світу в напівважкій вазі за версією IBF (1993 — 1996).",
    "timestamp": "2016-07-31T11:23:45Z"
  },
  {
    "id": 2228158,
    "title": "Лупійчук",
    "text": "Лупійчук — українське прізвище.",
    "timestamp": "2016-12-28T09:40:06Z"
  },
  {
    "id": 2228170,
    "title": "Лупікс Яніс Модрисович",
    "text": "Я́ніс Модрисович Лупікс (27 червня 1971 — 17 листопада 2014) — молодший сержант Збройних сил України.",
    "timestamp": "2018-06-16T20:12:26Z"
  },
  {
    "id": 2228175,
    "title": "Алжирське космічне агентство",
    "text": "Алжирське космічне агентство (ASAL) засновано 16 січня 2002 року. Штаб-квартира розташована в столиці Алжиру. Агентство відповідає за алжирську космічну програму.",
    "timestamp": "2017-07-07T11:03:47Z"
  },
  {
    "id": 2228184,
    "title": "Кракеб",
    "text": "Кракеб (Template:lang-ar) або каркабу (Алжирський діалект: قَرْقَابُو) — магрибський національний музичний інструмент. Назва іноді вимовляється як Каракіб, Кркіб або Каркаба  (Template:lang-ar).",
    "timestamp": "2017-03-18T17:26:12Z"
  },
  {
    "id": 2228185,
    "title": "Луцик Леонід Петрович",
    "text": "Леоні́д Петро́вич Лу́цик (28 серпня 1984 — 19 грудня 2014) — солдат Збройних сил України.",
    "timestamp": "2018-06-24T09:24:25Z"
  },
  {
    "id": 2228186,
    "title": "Устя-Руське (Горлицьке)",
    "text": "Устя-Руське (Template:lang-pl) — лемківське село у сучасній Польщі у Малопольському воєводстві, Горлицький повіт, ґміна Устя Горлицьке. Адміністративний центр ґміни Устя-Горлицьке і солтиства Устя-Руське.",
    "timestamp": "2016-10-20T18:50:04Z"
  },
  {
    "id": 2228187,
    "title": "Шевченкіана",
    "text": "Шевченкіана — зібрання, сукупність творів літератури і мистецтва, пов'язаних із життям і творчістю Тараса Григорович Шевченка, а також усі видання його творів.",
    "timestamp": "2017-01-05T18:38:50Z"
  },
  {
    "id": 2228189,
    "title": "Алжирський метрополітен",
    "text": "Алжирський метрополітен (Template:lang-ar) — великий транспортний проект у м. Алжир (місто) — столиці Алжиру, запроваджений, щоб задовольнити потребу в масовому транспорті, викликану зростанням міста, у кінці 1970-х — середині 1980-х рр. та відновлений в 1990-х роках з відкриттям першої лінії метрополітену у 2011 році.",
    "timestamp": "2018-06-07T05:56:49Z"
  },
  {
    "id": 2228191,
    "title": "Мажуга Микола Анатолійович",
    "text": "Мико́ла Анато́лійович Мажу́га (25 червня 1981 — 3 лютого 2015) — солдат Збройних сил України.",
    "timestamp": "2018-06-16T20:12:31Z"
  },
  {
    "id": 2228198,
    "title": "Малянівський Василь Іванович",
    "text": "Васи́ль Іва́нович Маляні́вський (6 січня 1991 — 31 серпня 2014) — старший солдат Збройних сил України.",
    "timestamp": "2018-06-16T20:12:33Z"
  },
  {
    "id": 2228200,
    "title": "Константіна (футбольний клуб)",
    "text": "Клуб Спортіф Константіна або просто «Константіна» (Template:lang-ar) — професіональний алжирський футбольний клуб з міста Константіна, який виступає в Алжирській Професіональній Лізі 1. Заснований в 1898 році. Домашній стадіон — «Стадіон імені Мохамеда Хамлауї».",
    "timestamp": "2018-05-16T12:14:32Z"
  },
  {
    "id": 2228201,
    "title": "Бабкіна Надія Георгіївна",
    "text": "Надія Георгіївна Бабкіна (у першому заміжжі — Заседатєлєва; 19 березня 1950, Чорний Яр, Астраханська область, Російська РФСР) — радянська і російська народна і естрадна співачка, дослідник народної пісні, педагог. Засновник і художній керівник ансамблю «Російська пісня» (з 1974 року) і театру «Російська пісня». Народна артистка РРФСР (1992)Указ Президента РСФСР от 03.01.1992 N 242-н \"О присвоении почётного звания «Народный артист РСФСР» Заседателевой (Бабкиной) Н.. Лауреат премії Ленінського комсомолу (1978). Член партії «Єдина Росія» з 2001 року.",
    "timestamp": "2018-04-23T18:09:29Z"
  },
  {
    "id": 2228207,
    "title": "Мелвін Лейрд",
    "text": "Мелвін Роберт Лейрд (Template:lang-en; 1 вересня 1922, Омаха, Небраска, США — 16 листопада 2016, Форт-Маєрс) — американський політичний діяч, член Республіканської партії.",
    "timestamp": "2018-02-28T11:52:18Z"
  },
  {
    "id": 2228211,
    "title": "Кірьяк Аркадій Генадійович",
    "text": "Арка́дій Генадійович Кірьяк — солдат Збройних сил України.",
    "timestamp": "2018-06-16T20:12:34Z"
  },
  {
    "id": 2228212,
    "title": "Ковальчук Володимир Михайлович",
    "text": "Володи́мир Миха́йлович Ковальчу́к — молодший сержант Збройних сил України.",
    "timestamp": "2018-06-16T20:12:36Z"
  },
  {
    "id": 2228213,
    "title": "Стенін Володимир Пилипович",
    "text": "Володи́мир Пили́пович Сте́нін (Template:н 1899 — Template:† 1952) — радянський воєначальник, гвардії генерал-майор (1942). Герой Радянського Союзу (1945).",
    "timestamp": "2016-11-02T18:55:51Z"
  },
  {
    "id": 2228214,
    "title": "Козяровський Сергій Володимирович",
    "text": "Сергі́й Володи́мирович Козяро́вський — солдат Збройних сил України, розвідник.",
    "timestamp": "2018-06-16T20:12:37Z"
  },
  {
    "id": 2228215,
    "title": "Ґіркалніс",
    "text": "Ґіркалніс (Girkalnis) — містечко у Литві, Расейняйський район, Ґіркалніське староство. 2001 року в містечку проживало 997 людей. Неподалік знаходяться хутори Вегенай, Волай, Кєчяй, Наукаіміс, село Білюнай, за 9 км від міста Расейняй, 8 км — село Норгелай, 10 км західніше — Калнуяй, 18 км східніше — Аріогала, 6 км південніше — Прамеджява.",
    "timestamp": "2018-02-21T07:24:59Z"
  },
  {
    "id": 2228217,
    "title": "Юйя",
    "text": "Юйя (*між 1439 до н. е. та 1424 до н. е. —між 1379 до н. е. та 1374 до н. е.) — давньоєгипетський державний діяч часів XVIII династії. Інші варіанти імені Йуйя, Іуйя, Йаа.",
    "timestamp": "2018-02-23T15:18:52Z"
  },
  {
    "id": 2228221,
    "title": "Спортивна гімнастика на літніх Олімпійських іграх 2016 — кваліфікаційний раунд (чоловіки)",
    "text": "Кваліфікаційний раунд у змаганнях зі спортивної гімнастики серед чоловіків на літніх Олімпійських іграх 2016 року пройшов 7 серпня. Взяли участь 98 спортсменів з 44-х країн. У рамках цього раунду пройшов відбір до фіналів у всіх дисциплінах, представлених на іграх. У фінал командних змагань вийшли 6 країн, які набрали найбільшу кількість балів. На кожному зі снарядів виступили по 4 спортсмени, а підсумкову суму розраховано за результатами виступу трьох найкращих гімнастів на кожному снаряді. У фінал індивідуального багатоборства пройшли 28 спортсменів. Якщо б будь-який учасник відмовився від участі у фіналі, то його замінив би наступний за набраними очками спортсмен. У фінали індивідуальних змагань вийшло по 8 гімнастів, які показали найкращий результат на цих снарядах. Змагання поділялись на три підгрупи.",
    "timestamp": "2017-10-18T12:33:23Z"
  },
  {
    "id": 2228222,
    "title": "Ancient Conquest",
    "text": "Ancient Conquest або ж Ancient Conquest: Quest for the Golden Fleece (спочатку Admiral: Ancient Ships) — стратегія в реальному часі для персональних комп'ютерів на базі Microsoft Windows, розроблена вихідцями з луганської студії Meridian'93. У продажу гра з’явилася навесні 1999 року.",
    "timestamp": "2017-02-27T12:05:29Z"
  },
  {
    "id": 2228223,
    "title": "Квітонь",
    "text": "Кві́тонь, польська назва Квя́тонь (Template:lang-pl) — українське лемківське село у сучасній Польщі у Малопольському воєводстві, Горлицький повіт, ґміна Устя Горлицьке. Адміністративний центр солтиства Квятонь.",
    "timestamp": "2018-09-20T22:13:13Z"
  },
  {
    "id": 2228225,
    "title": "Свято-Миколаївська церква (Роздільна)",
    "text": "Свято-Миколаївська церква у Роздільній — православний храм Одеської єпархії Української православної церкви (Московського патріархату).",
    "timestamp": "2017-06-21T22:01:23Z"
  },
  {
    "id": 2228230,
    "title": "Люк Айкінс",
    "text": "Люк Айкінс (Template:lang-en; Template:Дата народження, Корпус-Крісті, Техас) — американський каскадер, парашутист, відомий тим, що першим в історії стрибнув без парашута з висоти 7600 м (25 тис. футів) і безпечно приземлився.",
    "timestamp": "2018-05-30T04:44:07Z"
  },
  {
    "id": 2228237,
    "title": "SIG Sauer GSR",
    "text": "SIG Sauer GSR (Granite Series Rail) — самозарядний пістолет, який був вперше випущений американським підрозділом швейцарсько-німецької компанії SIG Sauer — SIG Arms.",
    "timestamp": "2017-01-20T11:29:52Z"
  },
  {
    "id": 2228238,
    "title": "Team17",
    "text": "Team17 Software — приватна компанія, яка займається розробкою відеоігор. Засновником Team17 є колишні співробітники 17 Bit Software і Amiga PD/Demo user-group. Компанія в даний час базується в Західному Йоркширі, Велика Британія. Найбільш відомими і популярними іграми компанії є серія ігор «Worms», але фірма створила й інші ігри, а саме Superfrog і серію ігор Alien Breed. Більшість їх ранніх релізів було призначено для домашніх персональних комп'ютерів Amiga. Також компанія має свою торгову марку та свої особливості в іграх, такі як гладка прокрутка (Template:Lang-en) і деталізовані піксельні картинки (Template:Lang-en). Тепер компанія створює проекти для PC Windows і всіх популярних ігрових консолей.",
    "timestamp": "2017-05-14T21:07:56Z"
  },
  {
    "id": 2228272,
    "title": "Хапусенеб",
    "text": "Хапусенеб (*д/н —бл. 1462 до н. е.) — давньоєгипетський політичний діяч XVIII династії, архітектор, верховний жрець Амона у Фівах у 1478—1462 роках до н. е.",
    "timestamp": "2018-02-23T15:18:54Z"
  },
  {
    "id": 2228280,
    "title": "Сургутнафтогаз",
    "text": "«Сургутнафтогаз» (Template:lang-ru) — одна з найбільших російських нафтових і газодобувних компаній. За даними журналу «Експерт» займала 7 місце за обсягами виручки в 2008 році серед російських компаній. Компанія займає 496 місце в Fortune Global 500 (2011 рік).http://money.cnn.com/magazines/fortune/global500/2011/full_list/401_500.html Повне найменування - Товариство з обмеженою відповідальністю «Сургутнефтегаз». Компанія зареєстрована в Сургуті (найбільше підприємство міста), де знаходиться її штаб-квартира.",
    "timestamp": "2016-09-26T19:09:55Z"
  },
  {
    "id": 2228286,
    "title": "Ксипамід",
    "text": "Ксипамід (Template:lang-en, Template:lang-lat) — синтетичний препарат, що відноситься до групи діуретиків, і по хімічному складу відноситься до похідних хлорбензамідуСравнительная характеристика Template:ref-ru. За принципом фармакологічної дії ксипамід відноситься до групи тіазидоподібних сульфонамідних діуретиків.Ксипамид Template:ref-ru Ксипамід розроблений у Німеччині, проте подальший маркетинг препарату проводить американська фірма «Eli Lilly» під торговельними назвами «Аквафор» і «Аквафорил».",
    "timestamp": "2016-09-03T13:12:45Z"
  },
  {
    "id": 2228302,
    "title": "Паулі тема («перпетуум мобіле» близнюки)",
    "text": "Те́ма Паулі — тема в шаховій композиції. Суть теми — продовжена задача-блок з вічним продовженням гри.",
    "timestamp": "2018-03-17T14:46:01Z"
  },
  {
    "id": 2228305,
    "title": "Намібія на літніх Олімпійських іграх 2016",
    "text": "Намібія на літніх Олімпійських іграх 2016 була представлена 10 спортсменами в 4 видах спорту. Жодної медалі олімпійці Намібії не завоювали.",
    "timestamp": "2016-09-30T18:21:09Z"
  },
  {
    "id": 2228316,
    "title": "Зімбабве на літніх Олімпійських іграх 2016",
    "text": "Зімбабве на літніх Олімпійських іграх 2016 представляли 31 спортсмен у 7 видах спорту. Жодної медалі олімпійці Зімбабве не завоювали.",
    "timestamp": "2017-04-06T17:27:42Z"
  },
  {
    "id": 2228322,
    "title": "Українські футбольні клуби в єврокубках (1980—1990)",
    "text": "Українські футбольні клуби в єврокубках (1980—1990) — результати матчів українських футбольних команд у європейських клубних турнірах, які проводилися під егідою УЄФА в 1980—1990 роках. На той момент — це Кубок європейських чемпіонів УЄФА, Кубок володарів кубків УЄФА, Кубок УЄФА та Суперкубок УЄФА.",
    "timestamp": "2018-09-23T13:24:41Z"
  },
  {
    "id": 2228331,
    "title": "ПАР на літніх Олімпійських іграх 2016",
    "text": "ПАР на літніх Олімпійських іграх 2016 представляли 137 спортсменів у 15 видах спорту.",
    "timestamp": "2018-07-29T08:31:02Z"
  },
  {
    "id": 2228333,
    "title": "Іван Гудец",
    "text": "Іван Гудец (Template:lang-sk; *10 липня 1947, Нітра) — словацький письменник, драматург, автор літературних творів для дітей та юнацтва. З 13 грудня 1994 по 30 жовтня 1998 був міністром культури Словаччини. Був членом партії «Рух за демократичну Словаччину» (партія більше не існує).",
    "timestamp": "2018-09-07T10:14:54Z"
  },
  {
    "id": 2228338,
    "title": "Девонське вимирання",
    "text": "Девонське вимирання — масове вимирання видів наприкінці девону, одне з найбільших в історії Землі вимирань флори і фауни. Перший (і найсильніший) пік вимирання стався на початку фаменського століття — останнього століття девонського періоду, близько 374 млн років тому, коли несподівано зникли майже усі безщелепні. Другий імпульс завершив девонський період (близько 359 млн років тому). Всього вимерло 19 % родин і 50 % родівextinction.",
    "timestamp": "2018-08-29T11:58:15Z"
  },
  {
    "id": 2228339,
    "title": "Три століття французької афіші",
    "text": "Три століття французької афіші (Template:lang-ru ) — виставка у музеї Ермітаж, що відбулася у період 15 березня-13квітня 1977 рокуСообщения Государственного Эрмитажа, № 44, Ленинград, «Аврора», 1979, с. 82.",
    "timestamp": "2018-04-18T11:15:58Z"
  },
  {
    "id": 2228355,
    "title": "Портал:Алжир/Африка",
    "text": "Алжир (Template:lang-ar; Template:lang-ber; Template:lang-fr, офіційно Алжи́рська Наро́дна Демократи́чна Респу́бліка (Template:lang-ar — Аль-Джумхурія аль-Джезаірія Демократія аш-Шаабія) — незалежна держава на північному заході Африки. Член ООН з 1962 року. Площа: 2,381 млн км² (10-е місце в світі), найбільша за площею країна Африки.180px|left Населення — 32,9 млн осіб (оцінка 2006 року) (37-е місце в світі). Столиця — Алжир. Офіційна мова — арабська. Грошова одиниця — алжирський динар.",
    "timestamp": "2016-07-31T17:35:11Z"
  },
  {
    "id": 2228362,
    "title": "Портал:Алжир/Вибрана особистість/1",
    "text": "Абд аль-Ка́дір (Абд аль-Кадер, Насір ад-Дін ібн Мухіддін аль-Хасані; *6 вересня 1808 — Template:†26 травня †1883) — керівник повстання алжирців проти французьких колонізаторів у 1832-47 роках, національний герой Алжиру. Поет, оратор, знавець арабо-мусульманської культури, збирач рідкісних книг та рукописів.",
    "timestamp": "2016-07-31T17:38:03Z"
  },
  {
    "id": 2228364,
    "title": "Еліяш Ладівер",
    "text": "Еліяш Ладівер (Template:lang-sk; *1633, Жиліна — †2 квітня 1686, Прешов) — словацький професор Пряшівської школи, філософ і драматург.",
    "timestamp": "2018-08-31T15:59:29Z"
  },
  {
    "id": 2228365,
    "title": "Портал:Алжир/Варто",
    "text": "Напад на Мерс-ель-Кебір (Template:lang-fr, Template:lang-en) — напад англійської ескадри на французькі військові кораблі, які перебували на військово-морській базі (ВМБ) Мерс-ель-Кебір, поблизу Орана (Алжир) у Північній Африці, що стався 3 липня 1940 року, під час Другої світової війни. Напад був частиною операції «Катапульта», спланованої, щоб запобігти захопленню кораблів французьких ВМС Німеччиною та Італією після Комп'єнського перемир'я.",
    "timestamp": "2016-07-31T17:43:11Z"
  },
  {
    "id": 2228385,
    "title": "Свазіленд на літніх Олімпійських іграх 2016",
    "text": "Свазіленд на літніх Олімпійських іграх 2016 був представляний 2 спортсменами в одному виду спорту. Жодної медалі олімпійці Свазіленду не завоювали.",
    "timestamp": "2016-09-30T19:14:53Z"
  },
  {
    "id": 2228389,
    "title": "Пупхьон",
    "text": "Станція Пупьон — станція метро, рошташована в районі Пупьон, місто Інчхон, Республіка Корея. Станція належить до першої лінії сеульського метрополітену, а також до першої лінії метрополітену міста Інчхон. Через розташування у центрі, а також сполучення із сеульською лінією, станція є однією з найбільш завантажених на інчхонській лінії.",
    "timestamp": "2017-05-23T16:36:37Z"
  },
  {
    "id": 2228393,
    "title": "Сенегал на літніх Олімпійських іграх 2016",
    "text": "Сенегал на літніх Олімпійських іграх 2016 представляли 22 спортсмени в 7 видах спорту. Жодної медалі олімпійці Сенегалу не завоювали.",
    "timestamp": "2017-04-06T17:38:34Z"
  },
  {
    "id": 2228397,
    "title": "Станіслав Штепка",
    "text": "Станіслав Штепка (Template:lang-sk *26 липня 1944, Радошина, Перша словацька республіка) — словацький письменник, драматург, режисер, сценарист, актор, поет, керівник Радошінського наївного театру.",
    "timestamp": "2018-03-03T13:02:56Z"
  },
  {
    "id": 2228398,
    "title": "Судан на літніх Олімпійських іграх 2016",
    "text": "Судан на літніх Олімпійських іграх 2016 був представлений 6 спортсменами у 3 видах спорту. Жодної медалі олімпійці Судану не завоювали.",
    "timestamp": "2016-09-30T19:39:38Z"
  },
  {
    "id": 2228400,
    "title": "Лотте Март",
    "text": "Лотте Март (Lotte Mart) — східноазійський гіпермаркет, в котрому продають продукти харчування, одяг, іграшки, електроніку та інші товари. Штаб-квартира знаходиться в Японії та Південній Кореї. Лотте Март є підрозділом компанії Lotte Co., Ltd., котра займається продажем продуктів та торговельним обслуговуванням у Південній Кореї та Японії. Лотте Март, частина корейського конгломерату Лотте, відкрила першу філію в Куий-донг (Ганбьон, Сеул, Корея) 1 квітня 1998 року. В 2006 році Лотте Март відкрив першу закордонну філію. Станом на 8 серпня 2011року Лотте Март мав 199 філій (92 у Кореї, 82 у Китаї, 23 в Індонезії та 11 у В'єтнамі). Серед брендів, створених Лотте, такі: Herbon, Wiselect, Withone, Basicicon, Tasse Tasse та Gerard Darel.",
    "timestamp": "2016-08-05T23:49:36Z"
  },
  {
    "id": 2228401,
    "title": "Жерар Морено Балаґеро",
    "text": "Жерар Морено Балаґеро (Template:lang-es, Template:н 7 квітня 1992, Санта-Парпетуа-да-Мугоза,  Іспанія) — іспанський футболіст, нападник команди «Еспаньйол».",
    "timestamp": "2017-10-03T23:10:13Z"
  },
  {
    "id": 2228405,
    "title": "Танзанія на літніх Олімпійських іграх 2016",
    "text": "На XXXI літніх Олімпійських іграх, що проходили в Ріо-де-Жанейро у 2016 році, Танзанія була представлена 7 спортсменами (5 чоловіками та 2 жінками) у трьох видах спорту — легка атлетика, дзюдо та плавання. Прапороносцем на церемонії відкриття був дзюдоїст Ендрю Томас Млугу, а на церемонії закриття — бігун Альфонс Сімбу.",
    "timestamp": "2018-08-26T22:58:06Z"
  },
  {
    "id": 2228408,
    "title": "Військові звання Литви",
    "text": "Військові звання та знаки розрізнення Литви складаються з переліку різних військових звань для офіцерів, підофіцерського та рядового складу сучасних збройних сил Литви. Звання візуально представлено знаками розрізнення до одностроїв.",
    "timestamp": "2018-01-15T16:13:08Z"
  },
  {
    "id": 2228411,
    "title": "Того на літніх Олімпійських іграх 2016",
    "text": "Того на літніх Олімпійських іграх 2016 був представлений 5 спортсменами в 3 видах спорту. Жодної медалі олімпійці Того не завоювали.",
    "timestamp": "2018-01-09T11:17:32Z"
  },
  {
    "id": 2228413,
    "title": "Пам'ятник Тарасові Шевченку (Настасів)",
    "text": "Пам'ятник Тарасові Шевченку в Настасові — погруддя українського поета Тараса Григоровича Шевченка в селі Настасові Тернопільського району на Тернопільщині.",
    "timestamp": "2017-12-23T14:19:21Z"
  },
  {
    "id": 2228419,
    "title": "Іван Стодола",
    "text": "Іван Стодола (Template:lang-sk; *10 березня 1888, Ліптовський Мікулаш, Австро-Угорщина — †26 березня 1977, П'єштяни) — словацький лікар, письменник і драматург. Один з найбільш відомих представників словацької драматургії міжвоєнного періоду.",
    "timestamp": "2018-02-18T17:47:08Z"
  },
  {
    "id": 2228422,
    "title": "Туніс на літніх Олімпійських іграх 2016",
    "text": "Туніс на літніх Олімпійських іграх 2016 представляли 61 спортсмен у 17 видах спорту. Було завойовано три бронзові медалі.",
    "timestamp": "2016-09-30T19:45:22Z"
  },
  {
    "id": 2228425,
    "title": "Яновський В'ячеслав Євгенійович",
    "text": "В'ячеслав Євгенійович Яновський (Template:lang-be; Template:н. 24 серпня 1957, Вітебськ, БРСР) — білоруський та радянський боксер, олімпійський чемпіон 1988 року, призер чемпіонатів Європи.",
    "timestamp": "2016-07-31T19:36:34Z"
  },
  {
    "id": 2228428,
    "title": "Уганда на літніх Олімпійських іграх 2016",
    "text": "Уганда на літніх Олімпійських іграх 2016 була представлена 21 спортсменом в 3 видах спорту. Жодної медалі олімпійці Уганди не завоювали.",
    "timestamp": "2016-09-30T19:48:23Z"
  },
  {
    "id": 2228432,
    "title": "Арсеніо Еріко",
    "text": "Арсеніо Еріко (Template:lang-es, Template:н 30 березня 1915, Асунсьйон — Template:† 23 липня 1977, Буенос-Айрес) — парагвайський футболіст, що грав на позиції нападника.",
    "timestamp": "2018-07-04T08:45:55Z"
  },
  {
    "id": 2228435,
    "title": "Нігерія на літніх Олімпійських іграх 2016",
    "text": "Нігерія на літніх Олімпійських іграх 2016 була представлена 75 спортсменами в 10 видах спорту.",
    "timestamp": "2018-01-14T19:49:30Z"
  },
  {
    "id": 2228443,
    "title": "Хресна хода УПЦ КП (Київ, 2016)",
    "text": "Хресна хода УПЦ КП — урочисті заходи, богослужіння та Хресна хода вірних Української православної церкви Київського патріархату в місті Києві 28 липня 2016 року, з нагоди Дня Хрещення Київської Русі — України.",
    "timestamp": "2018-07-28T09:52:01Z"
  },
  {
    "id": 2228447,
    "title": "Івайло Марінов",
    "text": "Івайло Марінов (Template:lang-bg; Template:н. 12 липня 1960, Варна, Болгарія, також відомий як Ісмаїл Мустафов, Ісмаїл Гусейнов і Івайло Хрістов) — болгарський боксер-любитель, олімпійський чемпіон 1988 року, бронзовий призер Олімпійських ігор 1980, чемпіон світу (1982) та Європи (1981, 1983, 1989, 1991).",
    "timestamp": "2016-07-31T20:16:02Z"
  },
  {
    "id": 2228454,
    "title": "Пітука тема",
    "text": "Те́ма Пітука — тема в шаховій композиції. Суть теми — в початковій позиції чорний король має три вільних поля, в грі у трьох варіантах циклічно чергуються стратегічні моменти: блокування чорними одного з полів, включення білої фігури на друге поле і пряма атака третього поля.",
    "timestamp": "2018-03-17T17:27:18Z"
  },
  {
    "id": 2228456,
    "title": "Мохамед Бахарі",
    "text": "Мохамед Бахарі (Template:Lang-ar, 29 червня 1976, Сіді-Бель-Аббес) — алжирський боксер, бронзовий призер Олімпійських ігор 1996 року у вазі до 75 кг.",
    "timestamp": "2017-01-01T10:27:28Z"
  },
  {
    "id": 2228458,
    "title": "Заїкин Дмитро Станіславович",
    "text": "Дмитро́ Станісла́вович Заї́кин (Template:н 6 квітня 1997, Київ, Україна) — український футболіст, нападник рівненського «Вереса».",
    "timestamp": "2018-10-19T09:36:24Z"
  },
  {
    "id": 2228467,
    "title": "Ликшин Василь Сергійович",
    "text": "Ликшин Василь СергійовичНа сайті RUSactors.ru помилково вказано «Александрович» (Template:lang-ru27 січня 1987, Горки-2, Одинцовський район, Московська область, Російська Федерація — 18 жовтня 2009, Template:Місце смерті, Російська Федерація) — російський актор, який здобув популярність після виходу серіалу «Громови» і фільму «Сволота».",
    "timestamp": "2017-09-08T20:55:23Z"
  },
  {
    "id": 2228482,
    "title": "Карімов Ігор Андрійович",
    "text": "Ігор Андрійович Карімов (Template:нар 1 червня 1969, Львів) — радянський та український футболіст, що грав на позиції захисника. Відомий за виступами у низці українських команд різних ліг, нетривалий час грав також у Молдові за нижчоліговий клуб. Натепер працює дитячим тренером у Львові.",
    "timestamp": "2018-05-27T06:11:02Z"
  },
  {
    "id": 2228483,
    "title": "Шаблон:Події серпня ПХім",
    "text": "1 серпня 1774 року британський науковець Джозеф Прістлі, нагріваючи за допомогою лінзи оксид HgO, вперше отримав чистий кисень.",
    "timestamp": "2017-02-02T11:41:01Z"
  },
  {
    "id": 2228500,
    "title": "Анрі Мішель",
    "text": "Анрі Мішель (Template:lang-fr, 28 жовтня 1947, Екс-ан-Прованс — 24 квітня 2018, там само) — французький футболіст, що грав на позиції півзахисника. Виступав, зокрема, за клуб «Нант», а також національну збірну Франції. По завершенні ігрової кар'єри — футбольний тренер. Значною мірою працював із збірними.",
    "timestamp": "2018-10-21T16:51:17Z"
  },
  {
    "id": 2228507,
    "title": "Юсупов Артур Римович",
    "text": "Артур Римович Юсупов (Template:lang-ru, Template:н 1 вересня 1989, Куйбишев) — російський футболіст, півзахисник клубу «Зеніт».",
    "timestamp": "2017-02-09T03:16:43Z"
  },
  {
    "id": 2228514,
    "title": "Серозні мансонельози",
    "text": "Серо́зні мансонельо́зи — антропонозні гельмінтози з клінічної підгрупи серозних філяріїдозів, групи філяріїдозів. Їх спричинюють гельмінти Mansonella perstans та Mansonella ozzardi. Часто у медичній літературі їх об'єднують в одне поняття «мансонельоз» (Template:lang-en), що не є правильним, адже це дві різні хвороби, що мають певні спільні риси. але їх спричинюють абсолютно різні види гельмінтів, а схожість уражень обумовлена виключно конвергентною еволюцією. Тому доцільним є їх поки що об'єднувати під загальною назвою в множині — серозні мансонельози, ще й підкреслюючи їх патогенетичну особливість, а саме ураження серозних порожнин тіла.",
    "timestamp": "2017-09-10T19:10:53Z"
  },
  {
    "id": 2228520,
    "title": "Академія футболу імені Юрія Конопльова",
    "text": "Академія футболу імені Юрія Конопльова (Template:lang-ru) — центр підготовки футболістів в місті Тольятті, Росія, створений в 2003 році.",
    "timestamp": "2016-07-31T23:23:16Z"
  },
  {
    "id": 2228522,
    "title": "Гордон (озеро)",
    "text": "Гордон (Template:lang-en) — рукотворне водосховище, створений Template:Не перекладено, розташоване у верхній течії річки Гордон в Template:Не перекладено регіоні Тасманії, що в Австралії.",
    "timestamp": "2017-02-23T22:47:30Z"
  },
  {
    "id": 2228526,
    "title": "Джоан Умарі",
    "text": "Джоан Умарі (Template:lang-ar, Template:н 19 серпня 1988, Берлін) — ліванський футболіст, захисник клубу «Сівасспор» та національної збірної Лівану.",
    "timestamp": "2018-06-05T10:52:08Z"
  },
  {
    "id": 2228527,
    "title": "Сезон ФК «Динамо» (Київ) 2016—2017",
    "text": "Сезон «Динамо» (Київ) 2016—2017 — 26-й сезон київського «Динамо» у чемпіонатах України. Єврокубковий сезон «Динамо» розпочне з групової стадіїОфіційний сайт «УЄФА»: Список учасників Ліги чемпіонів УЄФА 2016/17Template:ref-ruОфіційний сайт «Динамо (Київ)»:«Динамо» Київ у жеребкуванні Ліги чемпіонів отримає місце в 3-му кошику, з групового етапу Ліги чемпіонів УЄФА 2016–2017, де намагатиметься пройти якомога далі у змаганнях турніру.",
    "timestamp": "2018-10-13T18:44:56Z"
  },
  {
    "id": 2228530,
    "title": "П'єр-Мішель Ласогга",
    "text": "П'єр-Мішель Ласогга (Template:lang-de, Template:н 15 грудня 1991, Гладбек) — німецький футболіст, нападник клубу «Гамбург».",
    "timestamp": "2016-08-01T09:31:07Z"
  },
  {
    "id": 2228533,
    "title": "Франсіско Арсе",
    "text": "Франсіско Арсе (Template:lang-es, Template:н 2 квітня 1971, Параґуарі) — парагвайський футболіст, що грав на позиції захисника. Виступав, зокрема, за клуби «Серро Портеньйо», «Греміо» та «Палмейрас», а також національну збірну Парагваю, брав участь в її складі у двох чемпіонатах світу, в трьох Кубках Америки, а також на літніх Олімпійських іграх 1992. Один з найвидатніших захисників Південної Америки 1990-х років.",
    "timestamp": "2018-02-18T23:02:43Z"
  },
  {
    "id": 2228537,
    "title": "Сезон ФК «Динамо» (Київ) 2015—2016",
    "text": "Сезон «Динамо» (Київ) 2015–2016 — 25-й сезон київського «Динамо» у чемпіонатах України. Єврокубковий сезон «Динамо» розпочне з групової стадіїОфіційний сайт «УЄФА»: Список учасників Ліги чемпіонів УЄФА 2015/16Template:ref-ru Ліги чемпіонів УЄФА 2015–2016, де намагатиметься пройти якомога далі у змаганнях турніру.",
    "timestamp": "2018-10-14T09:48:42Z"
  },
  {
    "id": 2228541,
    "title": "Борщівська",
    "text": "Борщівська слобода — колишнє село в Україні, в Радомишльському районі Житомирської області.",
    "timestamp": "2018-08-29T13:23:33Z"
  },
  {
    "id": 2228552,
    "title": "Payback (2016)",
    "text": "Payback (2016) — щорічне pay-per-view шоу «Payback», що проводиться федерацією реслінгу WWE. Шоу відбулося 1 травня 2016 року у Олстейт-арені в місті Роузмонт (штат Іллінойс, США). Це було четверте шоу в історії Payback. Вісім матчів відбулися під час шоу, два з них перед показом.",
    "timestamp": "2018-05-30T05:43:54Z"
  },
  {
    "id": 2228554,
    "title": "Аралколь",
    "text": "Аралко́ль (Template:Lang-kk) — село у складі Камистинського району Костанайської області Казахстану. Адміністративний центр та єдиний населений пункт Аралкольського сільського округу.",
    "timestamp": "2018-08-05T13:33:14Z"
  },
  {
    "id": 2228556,
    "title": "Вікіпедія:Віківісник/2016-09",
    "text": "2044 користувачів здійснили якусь дію протягом 30 минулих днів. Це на 3,6 % більше за відповідний період минулого року.",
    "timestamp": "2016-10-03T08:32:13Z"
  },
  {
    "id": 2228558,
    "title": "Дружба (Камистинський район)",
    "text": "Дру́жба (Template:Lang-kk) — село у складі Камистинського району Костанайської області Казахстану. Адміністративний центр та єдиний населений пункт Дружбинського сільського округу.",
    "timestamp": "2018-08-05T13:55:27Z"
  },
  {
    "id": 2228559,
    "title": "Уркаш",
    "text": "Урка́ш (Template:Lang-kk) — село у складі Камистинського району Костанайської області Казахстану. Адміністративний центр та єдиний населений пункт Уркаського сільського округу.",
    "timestamp": "2018-08-05T15:34:28Z"
  },
  {
    "id": 2228561,
    "title": "Свободне (Камистинський район)",
    "text": "Свобо́дне (Template:Lang-kk) — село у складі Камистинського району Костанайської області Казахстану. Адміністративний центр та єдиний населений пункт Свободненського сільського округу.",
    "timestamp": "2018-08-05T15:17:13Z"
  },
  {
    "id": 2228562,
    "title": "Филипчук Михайло Андрійович",
    "text": "Филипчу́к Миха́йло Андрі́йович (19 грудня 1955, Потічок — 31 липня 2016, Хишевичі) — український археолог, багаторічний дослідник Пліснеська, керівник багатьох археологічних експедицій, директор Інституту археології Львівського національного університету імені Івана Франка.",
    "timestamp": "2018-10-06T10:19:46Z"
  },
  {
    "id": 2228563,
    "title": "Алтинсаріно (Камистинський район)",
    "text": "Алтинса́ріно (Template:Lang-kk) — село у складі Камистинського району Костанайської області Казахстану. Адміністративний центр та єдиний населений пункт Алтинсарінського сільського округу.",
    "timestamp": "2018-08-05T13:31:11Z"
  },
  {
    "id": 2228564,
    "title": "Клочково",
    "text": "Клочко́во (Template:Lang-kk) — село у складі Камистинського району Костанайської області Казахстану. Адміністративний центр та єдиний населений пункт Клочковського сільського округу.",
    "timestamp": "2018-08-05T14:33:24Z"
  },
  {
    "id": 2228565,
    "title": "Jean-Jacques Goldman (альбом, 1981)",
    "text": "«Jean-Jacques Goldman, 1981» або «Démodé» — перший студійний альбом французького співака Жан-Жака Ґольдмана, випущений 1981 році лейблом «Epic Records».",
    "timestamp": "2017-05-17T14:15:18Z"
  },
  {
    "id": 2228566,
    "title": "Талдиколь (Камистинський район)",
    "text": "Талдико́ль (Template:Lang-kk) — село у складі Камистинського району Костанайської області Казахстану. Адміністративний центр та єдиний населений пункт Талдикольського сільського округу.",
    "timestamp": "2018-08-05T15:23:25Z"
  },
  {
    "id": 2228568,
    "title": "Пушкіно (Камистинський район)",
    "text": "Пу́шкіно (Template:Lang-kk) — село у складі Камистинського району Костанайської області Казахстану. Адміністративний центр та єдиний населений пункт Пушкінського сільського округу.",
    "timestamp": "2018-08-05T15:09:20Z"
  },
  {
    "id": 2228569,
    "title": "Жаїлма",
    "text": "Жаїлма́ (Template:Lang-kk) — село у складі Камистинського району Костанайської області Казахстану. Адміністративний центр Жаїлминського сільського округу.",
    "timestamp": "2018-08-05T13:59:58Z"
  },
  {
    "id": 2228570,
    "title": "Juste un petit moment",
    "text": "Juste un petit moment (Template:Lang-uk) — Outro-трек Жан-Жака Гольдмана, дописаний в 1981 році. Завершаюча студійна композиція в першому студійному альбомі «Démodé».",
    "timestamp": "2016-11-15T22:19:07Z"
  },
  {
    "id": 2228571,
    "title": "Сахаровка",
    "text": "Са́харовка (Template:Lang-kk) — село у складі Камистинського району Костанайської області Казахстану. Входить до складу Жаїлминського сільського округу.",
    "timestamp": "2018-08-05T15:16:58Z"
  },
  {
    "id": 2228573,
    "title": "Фрунзе (Камистинський район)",
    "text": "Фру́нзе (Template:Lang-kk) — село у складі Камистинського району Костанайської області Казахстану. Адміністративний центр та єдиний населений пункт Фрунзенського сільського округу.",
    "timestamp": "2018-09-20T12:50:32Z"
  },
  {
    "id": 2228576,
    "title": "Мечетне (Казахстан)",
    "text": "Мече́тне (Template:Lang-kk) — село у складі Камистинського району Костанайської області Казахстану. Входить до складу Свердловського сільського округу.",
    "timestamp": "2018-08-05T14:53:50Z"
  },
  {
    "id": 2228578,
    "title": "Камисти (Камистинський район)",
    "text": "Камисти́ (Template:Lang-kk) — село, центр Камистинського району Костанайської області Казахстану. Адміністративний центр Свердловського сільського округу.",
    "timestamp": "2018-08-05T14:19:12Z"
  },
  {
    "id": 2228579,
    "title": "Лівановка",
    "text": "Лівано́вка (Template:Lang-kk) — село у складі Камистинського району Костанайської області Казахстану. Адміністративний центр та єдиний населений пункт Лівановського сільського округу.",
    "timestamp": "2018-08-05T14:49:01Z"
  },
  {
    "id": 2228580,
    "title": "Дилатон",
    "text": "Дилатон - у фізиці елементарних частинок - гіпотетична елементарна частинка, що виникає у багатовимірних теоріях поля, у яких об'єм компактифікованих вимірів змінюється. Вперше дилатон був введений у теорії компактифікації додаткових вимірів Калуци-Клейна. Це частинка скалярного поля Ф, що супроводжує гравітаційне. Дана фізична величина відповідає константі Ньютона або планківській масі у загальній теорії відносності. Дилатон є результатом узагальнення цієї константи на випадок динамічного поля.",
    "timestamp": "2018-04-21T09:58:10Z"
  },
  {
    "id": 2228581,
    "title": "Suma1L",
    "text": "Саїд Сумаїл Хасан (Template:lang-ar, Template:нар 13 лютого 1999) — пакистано-американський професійний гравець команди Evil Geniuses у дисципліні Dota 2, відомий під своїм ніком Suma1L. Suma1L був переможцем турніру The International 2015.",
    "timestamp": "2018-04-30T13:55:14Z"
  },
  {
    "id": 2228582,
    "title": "Карабатир",
    "text": "Карабати́р (Template:Lang-kk) — село у складі Камистинського району Костанайської області Казахстану. Адміністративний центр та єдиний населений пункт Карабатирського сільського округу.",
    "timestamp": "2018-08-05T14:20:29Z"
  },
  {
    "id": 2228583,
    "title": "Рікардо Гарека",
    "text": "Рікардо Гарека (Template:lang-es, Template:н 10 лютого 1958) — аргентинський футболіст, що грав на позиції нападника. По завершенні ігрової кар'єри — футбольний тренер. Наразі очолює тренерський штаб команди національної збірної Перу.",
    "timestamp": "2018-06-08T16:06:16Z"
  },
  {
    "id": 2228587,
    "title": "Арка (село)",
    "text": "А́рка (Template:Lang-kk) — село у складі Камистинського району Костанайської області Казахстану. Адміністративний центр та єдиний населений пункт Аркинський сільського округу.",
    "timestamp": "2018-08-05T13:33:51Z"
  },
  {
    "id": 2228589,
    "title": "Хамун",
    "text": "Хамун — велика група озер різного ступеня солоності (від прісних до солоних) по обидва боки кордону Ірану й Афганістану. Є устяними розливами дельти річок Гільменд, Фарахруд і Хашруд в межах Сістанської западини.",
    "timestamp": "2018-08-29T06:37:09Z"
  },
  {
    "id": 2228590,
    "title": "Бестобе (Камистинський район)",
    "text": "Бестобе́ (Template:Lang-kk) — село у складі Камистинського району Костанайської області Казахстану. Адміністративний центр та єдиний населений пункт Бестобинського сільського округу.",
    "timestamp": "2018-08-05T13:42:51Z"
  },
  {
    "id": 2228591,
    "title": "Адаєвка",
    "text": "Ада́євка (Template:Lang-kk) — село у складі Камистинського району Костанайської області Казахстану. Адміністративний центр та єдиний населений пункт Адаєвського сільського округу.",
    "timestamp": "2018-08-05T13:18:47Z"
  },
  {
    "id": 2228593,
    "title": "Хуан Родріго Рохас",
    "text": "Хуан Родріго Рохас (Template:lang-es, Template:н 9 квітня 1988, Фернандо-де-ла-Мора) — парагвайський футболіст, півзахисник клубу «Серро Портеньйо».",
    "timestamp": "2016-08-01T07:46:41Z"
  },
  {
    "id": 2228594,
    "title": "Фарахруд",
    "text": "Фарахруд — річка на сході Іранського нагір'я, в західній частині Афганістану.",
    "timestamp": "2016-08-01T07:51:26Z"
  },
  {
    "id": 2228596,
    "title": "Відріг",
    "text": "Відріг — відносно короткий і вузький гірський хребет, який відходить від великого гірського ланцюга та знижується до його периферії. Відроги виникають внаслідок ерозійного розчленування гір. Наприклад, Верхоянський хребет — відріг Станового хребта, поряд з алданським хребтом, алазейськими та колимськими горами, Російським хребтом.",
    "timestamp": "2016-08-01T07:55:06Z"
  },
  {
    "id": 2228598,
    "title": "Російський хребет",
    "text": "Російський хребет — гірський хребет в КНР. Відноситься до гірської системи Куньлунь на півночі Тибетського нагір'я. Простягається від долини річки Керія до долини річки Карамуран, складається з 3-6 паралельних хребтів. Довжина хребта — близько 400 км. Найвища точка — 6 705 м (гора Актаг). Складається головним чином з гранітів, гнейсів і кристалічних сланців. Схили хребта майже позбавлені рослинності. Північний схил межує з Таримською западиною, уздовж його підніжжя розташована смуга оазисів.",
    "timestamp": "2016-08-01T08:02:06Z"
  },
  {
    "id": 2228599,
    "title": "Альдо Корсо",
    "text": "Альдо Корсо (Template:lang-es, Template:н 20 травня 1989, Ліма) — перуанський футболіст, захисник клубу «Універсітаріо де Депортес».",
    "timestamp": "2018-07-04T08:36:46Z"
  },
  {
    "id": 2228602,
    "title": "Середньоафганські гори",
    "text": "Середньоафганські гори (Хазараджат) — гори в східній частині Іранського нагір'я в Афганістані, головним чином в басейні річок Геріруд і Фарахруд.",
    "timestamp": "2017-05-18T15:58:18Z"
  },
  {
    "id": 2228605,
    "title": "Арахозія",
    "text": "Арахозія (Арахосія, Template:lang-grc) — еллінська назва території сучасного південно-східного Афганістану та північного Пакистану — авестійська Харахваті. В I столітті до н. е. — окрема держава.",
    "timestamp": "2018-05-12T21:54:28Z"
  },
  {
    "id": 2228606,
    "title": "Ренсо Реворедо",
    "text": "Ренсо Реворедо (Template:lang-es, Template:н 11 травня 1986, Ліма) — перуанський футболіст, захисник клубу «Спортінг Крістал».",
    "timestamp": "2016-08-01T08:24:27Z"
  },
  {
    "id": 2228612,
    "title": "Чарльз Банністер",
    "text": "Чарльз Банністер (англ. Charles Bannister; 1738 — 26 жовтня 1804) — англійський актор і співак.",
    "timestamp": "2017-01-09T07:32:25Z"
  },
  {
    "id": 2228619,
    "title": "Атака на Церкву в Сент-Етьєнн-дю-Рувре",
    "text": "Атака на Церкву в Сент-Етьєнн-дю-Рувре — це терористичний акт антихристиянської спрямованості, що був здійснений біля церкви у французькому містечку Сент-Етьєнн-дю-Рувре 26 липня 2016. Теракт важливий ще й тим, що це - перше в історії Франції убивство священика. Унаслідок теракту загинув священик отець Жак Амель.",
    "timestamp": "2018-06-29T08:28:39Z"
  },
  {
    "id": 2228620,
    "title": "Жак Амель",
    "text": "Жак Амель (30 листопада 1930, Дарнеталь — 26 липня 2016, Сент-Етьєнн-дю-Рувре — католицький священик, французький Архієпископ Руана.",
    "timestamp": "2018-03-19T18:36:19Z"
  },
  {
    "id": 2228621,
    "title": "Шлараффенланд",
    "text": "Шлараффенланд (Template:lang-de, Template:Lang-nl) — вигадана земля в німецьких казках, де живуть ледарі, буквально країна ледачих мавп, від ( середньоверхньонім.) sluraff — ледар, Affe — мавпа та Land — земля.",
    "timestamp": "2017-06-15T13:19:11Z"
  },
  {
    "id": 2228623,
    "title": "Забаба",
    "text": "Забаба, Замаза — головний бог Кіша (Шумер), син Енліля, зображувався у вигляді орла. Був богом щасливої війни, богатир богів. Часто ототожнювався з Нінуртою. Головний храм в Кіші називався Епатутіла (Еметеурсаг).",
    "timestamp": "2017-07-06T12:27:25Z"
  },
  {
    "id": 2228626,
    "title": "Нінурта",
    "text": "Нінурта (Нініб, Марутташ) — в шумеро-аккадській міфології син Енліля, бог щасливої війни, богатир богів. Нінурта ототожнювався з планетою Сатурн. Символом бога був скіпетр, увінчаний двома левиними головами. Нінурта тотожний богу Нінгірсу.",
    "timestamp": "2017-07-07T09:06:13Z"
  },
  {
    "id": 2228634,
    "title": "Гула",
    "text": "Гула — богиня лікування в шумеро-аккадській міфології. Тотожна богині Бау (Нінсун, Нінтінуггі), дружина Нінурти.",
    "timestamp": "2017-07-06T10:41:34Z"
  },
  {
    "id": 2228635,
    "title": "Антоніо Санабрія",
    "text": "Антоніо Санабрія (Template:lang-es, Template:н 4 березня 1996, Сан-Лоренсо) — парагвайський футболіст, нападник клубу «Реал Бетіс».",
    "timestamp": "2018-07-04T08:42:48Z"
  },
  {
    "id": 2228643,
    "title": "Ніназу",
    "text": "Ніназу (шум. «Пані-знання» Template:sfn, або «пізнаю воду» Template:sfn) — шумерське божество.",
    "timestamp": "2017-07-06T10:31:48Z"
  },
  {
    "id": 2228650,
    "title": "Нінурта-кудуррі-уцур I",
    "text": "Нінурта-кудуррі-уцур I (Template:lang-akk; букв. «Нінурта, кордони бережи») — цар Вавилонії, правив приблизно в 987-984 до н. е. Брат Еулмаш-шакін-шумі.",
    "timestamp": "2018-02-20T13:52:06Z"
  },
  {
    "id": 2228651,
    "title": "Еулмаш-шакін-шумі",
    "text": "Еулмаш-шакін-шумі (Eulmaš-šākin-šumi) — цар Вавилонії, правив приблизно в 1004-987 до н. е..",
    "timestamp": "2017-07-14T11:26:25Z"
  },
  {
    "id": 2228656,
    "title": "Нінгішзіда",
    "text": "Нінгішзіда — в шумерській міфології хтонічне божество, син бога підземного царства Ніназу. Нінгішзіда названий «паном стійкого дерева», можливо через те, що коріння, завдяки яким дерева підтримують своє існування, ростуть в підземному царстві. Він сторож злих демонів, засланих в підземний світ (аккадське заклинання), страж (разом з Думузі) небесних воріт бога Ану (аккадський міф про Адапе).",
    "timestamp": "2017-10-22T12:05:35Z"
  },
  {
    "id": 2228663,
    "title": "Замок Юссе",
    "text": "Замок Юссе (Template:lang-fr) — середньовічний замок на річці Ендр, розташований в долині Луари, у французькому департаменті Ендр і Луара.",
    "timestamp": "2018-10-07T07:40:37Z"
  },
  {
    "id": 2228674,
    "title": "Нінурта-кудуррі-уцур II",
    "text": "Нінурта-кудуррі-уцур II (букв. «Нінурта кордони бережи», Template:lang-sum) — цар Вавилонії, правив приблизно в 942 до н. е..",
    "timestamp": "2018-02-20T13:52:09Z"
  },
  {
    "id": 2228677,
    "title": "Кудурру",
    "text": "Кудурру — межовий прикордонний знак в Вавилонії, за часів каситських царів і в наступні періоди.",
    "timestamp": "2018-10-22T17:11:30Z"
  },
  {
    "id": 2228684,
    "title": "Колумбус (Індіана)",
    "text": "Колумбус (Template:lang-en) — місто на півдні штату Індіана в США, окружний центр округу Бартолом'ю. За даними перепису 2010 року, в місті проживають 44 061 осіб.",
    "timestamp": "2018-09-11T17:45:29Z"
  },
  {
    "id": 2228694,
    "title": "Нергал",
    "text": "Нергал (Template:lang-la) — шумерське ім'я; спочатку, можливо, Ен-уру-гал, «Владика великого житла») — хтонічне божество шумеро-аккадської міфології, уособлювало різноманітні негативні явища. Син Енліля спочатку вважався уособленням руйнівної, згубної сили палючого Сонця — Шамаша, асоціювався з небом. Пізніше придбав виразні риси бога смерті і війни. Відповідно, Нергалу приписувалося розв'язання несправедливих воєн, а сам бог зображувався як такий, що насилає небезпечні хвороби, в тому числі різноманітні гарячки і чуму. Назва «рука Нергала» поширювалася на чуму та інші інфекційні хвороби.",
    "timestamp": "2018-07-18T23:40:36Z"
  },
  {
    "id": 2228702,
    "title": "Струминні промивні машини",
    "text": "Струминні промивні машини застосовуються при промивці легко-, середньо- і важкопромивних матеріалів крупністю до 150 мм. Струминна машина складається з прямокутної камери різання 2, що з'єднана з циліндричною промивною ванною 5 перехідним патрубком 4. У верхній частині камери різання установлено два ряди сопел 3, такі ж сопла в шаховому порядку установлені в промивній ванні.",
    "timestamp": "2016-08-09T11:15:17Z"
  }
]