[
  {
    "id": 2500702,
    "title": "Гольдін Павло Євгенович",
    "text": "Павло Євгенович Гольдін (Template:ДН) — український зоолог, палеонтолог, еколог і поет, фахівець з сучасних і викопних морських ссавців, доцент (2013), кандидат біологічних наук (2006), провідний науковий співробітник відділу еволюційної морфології Інституту зоології імені І. І. Шмальгаузена НАН України. Автор понад 50 наукових праць, більшість з яких опублікована у провідних міжнародних виданнях, зокрема таких як «PLOS One», «Journal of Paleontology», «Biological Journal of the Linnean Society», «Template:не перекладено» тощо, а також трьох поетичних збірок (2006, 2009, 2012). Описав 3 нових для науки види і декілька надвидових таксонів викопних вимерлих китів.",
    "timestamp": "2018-08-27T10:21:46Z"
  },
  {
    "id": 2500706,
    "title": "Гаррісон Бержерон",
    "text": "«Гаррісон Бержерон» (Template:lang-en) — сатиричне і антиутопічне оповідання Курта Воннеґута вперше опубліковане в жовтні 1961 року, в журналі «Fantasy & Science Fiction».",
    "timestamp": "2018-09-14T15:32:15Z"
  },
  {
    "id": 2500707,
    "title": "Ковалівська сільська громада",
    "text": "Ковалівська сільська об'єднана територіальна громада — об'єднана територіальна громада в Україні, в Немирівському районі Вінницької області. Адміністративний центр — село Ковалівка.",
    "timestamp": "2018-08-07T21:46:32Z"
  },
  {
    "id": 2500710,
    "title": "Мельниківська сільська громада",
    "text": "Мельниківська сільська об'єднана територіальна громада — об'єднана територіальна громада в Україні, в Немирівському районі Вінницької області. Адміністративний центр — село Мельниківці.",
    "timestamp": "2018-08-07T21:47:54Z"
  },
  {
    "id": 2500711,
    "title": "Райгородська сільська громада",
    "text": "Райгородська сільська об'єднана територіальна громада — об'єднана територіальна громада в Україні, в Немирівському районі Вінницької області. Адміністративний центр — село Райгород.",
    "timestamp": "2018-08-07T21:48:39Z"
  },
  {
    "id": 2500714,
    "title": "Насосна експлуатація свердловин",
    "text": "Насосна експлуатація свердловин. Це система відбирання рідини зі свердловини, за якої її підіймання на поверхню здійснюється за рахунок енергії, котру передає рідині насос. При насосному способі експлуатації підйом нафти зі свердловин на поверхню здійснюється штанговими свердловинними і безштанговими відцентровими насосами. У нафтовидобувній галузі також застосовуються гвинтові, гідропоршневі, струминні, гідроімпульсні та діафрагмові насоси.",
    "timestamp": "2017-10-31T05:44:25Z"
  },
  {
    "id": 2500718,
    "title": "Евфрузина Янушівна Острозька",
    "text": "Евфрузина Янушівна Острозька (Template:lang-pl, Template:lang-lt; між 1582 та 1596 — 1628) — польсько-литовська шляхтянка XVI сторіччя з роду князів Острозьких, донька князя Януша Острозького та його дружини Зузанни Шередій, дружина князя Олександра Заславського, урядника Українських земель Речі Посполитої.",
    "timestamp": "2017-10-12T11:51:10Z"
  },
  {
    "id": 2500725,
    "title": "Мутсу (село)",
    "text": "Мутсу (Template:lang-et) — село в Естонії, входить до складу волості Вастселійна, повіту Вирумаа.",
    "timestamp": "2018-02-21T07:31:54Z"
  },
  {
    "id": 2500727,
    "title": "Мяе-Киокюла",
    "text": "Мяе-Киокюла (Template:lang-et) — село в Естонії, входить до складу волості Вастселійна, повіту Вирумаа.",
    "timestamp": "2018-02-21T07:31:56Z"
  },
  {
    "id": 2500728,
    "title": "Джона Фелкон",
    "text": "Джона Адам Фелкон (Template:Lang-en; нар. 1970) — американський актор, шоумен і сценарист.",
    "timestamp": "2017-12-17T20:47:42Z"
  },
  {
    "id": 2500735,
    "title": "Монети Булгарського улусу Золотої Орди",
    "text": "Монети Булгарського улуса Золотої Орди почали карбувалися на різних монетних дворах з 60-х років XIII ст. і припинилися в 90-х роках XIV ст. Виготовлялися зі срібла 1 та ½ динари, диргеми (З 1310 року данги) та їх фракції, також мідні пули. 1 динар розмінювався 6 дирхамів та 96 пулів.",
    "timestamp": "2018-06-20T18:03:40Z"
  },
  {
    "id": 2500813,
    "title": "Sankt Petersburger Herold",
    "text": "Sankt Petersburger Herold — німецькомовна газета, що виходила в Петербурзі в 1871—1914 роках, а з 2008 відновлена як онлайн-видання.",
    "timestamp": "2017-09-04T04:37:12Z"
  },
  {
    "id": 2500814,
    "title": "Левкіпп (міфологія)",
    "text": "Левкі́пп (Template:lang-grc) — персонаж давньогрецької міфології, мессенський цар, син Перієра і Горгофони, брат Афарея.",
    "timestamp": "2018-05-19T20:57:07Z"
  },
  {
    "id": 2500820,
    "title": "Феба (дочка Левкіппа)",
    "text": "Феба (Template:lang-grc) — персонаж давньогрецької міфології, царівна, дочка Левкіппа і Філодіки, сестра Гілаейри, Арсіної, жриця Артеміди і Афіни.",
    "timestamp": "2017-09-04T20:22:57Z"
  },
  {
    "id": 2500822,
    "title": "Лінкей (аргонавт)",
    "text": "Лінке́й (Template:lang-grc) — персонаж давньогрецької міфології, царевич, син Афарея і Арени, брат Іда, аргонавт.",
    "timestamp": "2018-01-13T01:21:08Z"
  },
  {
    "id": 2500823,
    "title": "100 ВЕЛОwatt",
    "text": "Веломарафон «100 ВЕЛОwatt» — відкрита першість Рівненської АЕС з велоспортуTemplate:Cite news, яка вперше пройшла у Володимирецькому районі Рівненської області 12 серпня 2017 року. Протяжність дистанції — 100 кілометрів.",
    "timestamp": "2017-09-06T10:01:23Z"
  },
  {
    "id": 2500845,
    "title": "Ланська діоцезія",
    "text": "Ла́нська діоце́зія (Template:lang-la; Template:lang-fr) — у 487—1790 роках єпископство (діоцезія) Римо-Католицької Церкви у Франції, в Пікардії, з центром у місті Лан. За переказом, заснована святим Ремігієм шляхом відділення її від Реймського архієпископства. Головним храмом був Ланський катедральний собор Діви Марії (Ланський Нотр-Дам). Очолювалася єпископами Ланськими, що мали титул герцогів і були перами Франції; брали участь у церемонії коронації французького короля, несучи Cвяту ампулу. Першим єпископом був святий Генебальд. На півночі межувала з архідіоцезією Камбре, на сході й південному сході — з Реймською архідіоцезією, на південному заході — з Суассонською діоцезією, й на заході — з Науйонською діоцезією. Фактично припинила існування 1790 року внаслідок Французької революції, згідно з Цивільним устроєм духовенства. Інкорпорована до складу департаменту Ена. Формально скасована 29 листопада 1801 року рішенням Пія VII й не відновлювалася. Від 13 червня 1828 року титул ланських єпископів наданий єпископам Суассонським. Також — Ланське єпископство.",
    "timestamp": "2017-10-31T23:22:59Z"
  },
  {
    "id": 2500848,
    "title": "Стівен Гілборн",
    "text": "Стівен Нейл Гілборн (Template:lang-en; 15 липня 1936, Нью-Рошелл, штат Нью-Йорк — 2 січня 2009, Template:нп, Нью-Гемпшир) — американський актор.",
    "timestamp": "2017-12-17T20:07:55Z"
  },
  {
    "id": 2500857,
    "title": "Свята ампула",
    "text": "Свята́ а́мпула (Template:lang-fr), або Ре́ймська а́мпула (Template:lang-la) — у середньовіччі та ранньому новому часі клейнод і реліквія французьких королів, яка використовувалася під час коронації. Скляна ампула зі священною олією, необхідною для помазання на трон. За легендою, вперше вжита у V столітті в ході хрещення франкського короля Хлодвіга. Перше документально засвідчене використання ампули — 1131 рік, коронація Людовіка VII. Під час коронації ампулу тримав ланський єпископ. Зберігалася в Базиліці святого Ремігія в Реймсі (коронаційна олія так само зберігалася у Реймському архієпископстві). Востаннє використана 1774 року на коронації Людовіка XVI. Знищена французьким плебсом 7 жовтня 1793 року під час Французької революції. Уламок розбитої ампули, виявлений 1821 року і визнаний автентичним, був прироблений до нової ампули, яку виготовили для коронації Карла X в 1825 році.",
    "timestamp": "2017-09-04T03:04:55Z"
  },
  {
    "id": 2500865,
    "title": "Козариха",
    "text": "Козариха, Тиманівка — річка  в Україні, у Тульчинському  районі  Вінницької області, права притока Кільцівки  (басейн Південного Бугу).",
    "timestamp": "2018-08-28T19:53:44Z"
  },
  {
    "id": 2500868,
    "title": "Бовеська діоцезія",
    "text": "Бове́ська діоце́зія (Template:lang-la; Template:lang-fr) — єпископство (діоцезія) Римо-Католицької Церкви у Франції, в Пікардії, з центром у місті Бове. За переказом, заснована святим Лукіаном Бельгійським в ІІІ столітті. Головним храмом є Бовеський катедральний собор святого Петра. Очолювалася єпископами Бовеськими, що мали титул графів і були перами Франції; брали участь у церемонії коронації французького короля, несучи королівську мантію. Першим єпископом вважається Лукіан. Фактично припинила існування 1790 року внаслідок Французької революції, згідно з Цивільним устроєм духовенства. Інкорпорована до складу департаменту Уаза. 1802 року увійшла до складу Ам'єнської діоцезії, але 1822 року відновлена. 1851 року розширена за рахунок приєднання теренів колишніх єпископств Нуайону й Санлісу; стала називатися Бове-Нуайон-Санліська діоцезія (Template:lang-la; Template:lang-fr). Єпископ Бове, Нуайрна і Санліса є суфраганом Реймського архієпископа. Інша назва — Бовеське єпископство.",
    "timestamp": "2017-11-02T14:02:11Z"
  },
  {
    "id": 2500878,
    "title": "Акіньшин Михайло Васильович",
    "text": "Акіньшин Михайло Васильович (18 лютого 1927 — 22 липня 1982) — запорізький художник, майстер колористичного пейзажуTemplate:Cite web. Працював в галузі станкового живописуЄвро Арт. Акіньшин Михайло Васильович (1927-1982).",
    "timestamp": "2018-04-16T17:20:11Z"
  },
  {
    "id": 2500880,
    "title": "Една Сент-Вінсент Міллей",
    "text": "Една Сент-Вінсент Міллей (Template:lang-en; 22 лютого 1892, Рокленд, штат Мен — 19 жовтня 1950, Остерліц, штат Нью-Йорк) — американська поетеса і драматург, перша жінка, яка отримала Пулітцерівську премію за поезією, одна з найвідоміших поетес США XX століття.",
    "timestamp": "2018-07-27T19:25:17Z"
  },
  {
    "id": 2500884,
    "title": "Тіджей ван Гардерен",
    "text": "Тіджей ван Гардерен (Template:н 12 серпня 1988, Такома, США) — американський професійний шосейний велогонщик, який починаючи з 2012 року виступає за команду світового туру BMC Racing TeamTemplate:cite news. Чемпіон світу в командній гонці з роздільним стартом 2014 року. Під час сезону живе в Ніцці (Франція)Cafe Chat: Tejay Van Garderen, HTC's Young American, PodiumCafe, April 26, 2010.",
    "timestamp": "2018-02-07T17:26:51Z"
  },
  {
    "id": 2500885,
    "title": "Серчист",
    "text": "Серчист — річка  в Україні, у Тульчинському  районі  Вінницької області, ліва притока  Сільниці (басейнПівденного Бугу ).",
    "timestamp": "2018-08-29T17:36:46Z"
  },
  {
    "id": 2500888,
    "title": "Шалонська діоцезія",
    "text": "Шало́нська діоце́зія (Template:lang-la; Template:lang-fr) — єпископство (діоцезія) Римо-Католицької Церкви у Франції, в Шампані, з центром у місті Шалон-в-Шампані. За переказом, заснована в ІV столітті. Головним храмом є Шалонський катедральний собор святого Стефана. Очолювалася єпископами Шалонськими, що мали титул графів і були перами Франції; брали участь у церемонії коронації французького короля, несучи королівський перстень. Першим єпископом вважається святий Меммій. Фактично припинила існування 1790 року внаслідок Французької революції, згідно з Цивільним устроєм духовенства. 1802 року увійшла до складу Моської діоцезії, але 1822 року відновлена. Єпископ Шалона є суфраганом Реймського архієпископа. Інша назва — Шалонське єпископство.",
    "timestamp": "2017-11-02T11:43:15Z"
  },
  {
    "id": 2500895,
    "title": "Шевчук Олексій Анатолійович",
    "text": "Олексій Анатолійович Шевчук (нар. 13 липня 1985, Київ) — український адвокат, журналіст, керуючий партнер адвокатського об'єднання «Barristers». Відомий участю в резонансних кримінальних справах Геннадія КорбанаTemplate:cite webTemplate:cite web, Ярослава КашубиКашуба став жертвою провокації при реформуванні Служби зайнятості, — адвокат//112.uahttps://day.kyiv.ua/ru/article/podrobnosti/advokat-korbana, Іллі КивиКіва вирішив покарати Саакашвілі за «кримінального авторитета», Віктора РазвадовськогоНардеп Развадовський придбав дві елітні автівки за 2,5 мільйони гривень, Олександра Онищенка«газовій справі Онищенка» для затягування часу застосували схему «зникнення» адвокатівПо справам Онищенка і Насірова підозрюваних захищають одні й ті ж адвокатиУКРАЇНА ВІДПОВІСТЬ В ЄСПЛ ЗА СУДОВЕ СВАВІЛЛЯ СТОСОВНО АДВОКАТА У «СПРАВІ ОНИЩЕНКА», Борислава РозенблатаРозенблата затримали в Жулянах під час спроби вилетіти у ФРН. ДОКУМЕНТ (оновлено)Співробітники НАБУ увірвалися в літак, відібрали в Розенблата паспорти й утримують його вже чотири години – адвокат та інших.",
    "timestamp": "2018-10-12T19:43:12Z"
  },
  {
    "id": 2500904,
    "title": "Биня",
    "text": "Биня — річка в Україні, у Тульчинському районі Вінницької області, ліва притока Сільниці (басейн Південного Бугу).",
    "timestamp": "2018-08-28T00:06:54Z"
  },
  {
    "id": 2500908,
    "title": "Гучвиці",
    "text": "Гучвиці Template:lang-pl) — колишнє село на перетині етнічних українських територій Лемківщини і Бойківщини. Зараз знаходиться в ґміні Балигород, Ліського повіту в Підкарпатському воєводстві. Розташоване в пасмі гір Західних Бескидів, біля підніжжя гори Хрещата, недалеко від кордону зі Словаччиною та Україною.",
    "timestamp": "2018-10-23T16:18:17Z"
  },
  {
    "id": 2500909,
    "title": "Лангрська діоцезія",
    "text": "Ла́нгрська діоце́зія (Template:lang-la; Template:lang-fr) — єпископство (діоцезія) Римо-Католицької Церкви у Франції, в Шампані, з центром у місті Лангр. За переказом, заснована святим Дезидерієм в ІІІ столітті. Головним храмом є Лангрський катедральний собор святого Маманта. Очолювалася єпископами Лангрськими, що мали титул герцогів і були перами Франції; брали участь у церемонії коронації французького короля, несучи королівській скіпетр. Першим єпископом вважається Дезидерій. Фактично припинила існування 1790 року внаслідок Французької революції, згідно з Цивільним устроєм духовенства. 1801 року увійшла до складу Діжонської діоцезії, але 1822 року відновлена. Єпископ Лангра є суфраганом Реймського архієпископа. Інша назва — Лангрське єпископство.",
    "timestamp": "2017-10-31T22:27:45Z"
  },
  {
    "id": 2500917,
    "title": "Люсьєн Гітрі",
    "text": "Люсьє́н Гітрі́ (Template:lang-fr; 13 грудня 1860, Париж, Франція — 1 червня 1925, там же) — французький актор і драматург. Найпопулярніший актор своєї епохи. Був партнером по театру Сари Бернар, творець видатних образів, що принесли йому низку міжнародних тріумфів.",
    "timestamp": "2018-01-01T10:23:15Z"
  },
  {
    "id": 2500918,
    "title": "Гідравлічний візок",
    "text": "Гідравлічний візок (нормативно неусталено рокла, іноді рохла: від Template:lang-fi — марки поширених візків фінського виробництва; Template:lang-en) — гідравлічний візок для ручного транспортування вантажів на палетах в межах вантажорозподільчих терміналів, складів, підприємств.",
    "timestamp": "2018-07-14T09:04:00Z"
  },
  {
    "id": 2500933,
    "title": "Нуайонська діоцезія",
    "text": "Нуайо́нська діоце́зія (Template:lang-la; Template:lang-fr) — колишнє єпископство (діоцезія) Римо-Католицької Церкви у Франції, в Пікардії, з центром у місті Нуайон. За переказом, заснована в VІ столітті. Головним храмом є Нуайонський катедральний собор Діви Марії. Очолювалася єпископами Нуайонськими, що мали титул графів і були перами Франції; брали участь у церемонії коронації французького короля, несучи королівський ремінь. Фактично припинила існування 1790 року внаслідок Французької революції, згідно з Цивільним устроєм духовенства. 1802 року скасована офіційно, увійшла до складу Ам'єнської діоцезії. 1851 року увійшла до складу новоутовреної Бове-Нуайон-Санліської діоцезії. Інша назва — Нуайонське єпископство.",
    "timestamp": "2018-05-18T15:35:00Z"
  },
  {
    "id": 2500948,
    "title": "Йоган II (маркграф Бранденбургу)",
    "text": "Йоган II (*Johann II, 1237 — 10 вересня 1281) — маркграф Бранденбург-Штендаля у 1266—1281 роках.",
    "timestamp": "2018-02-23T18:25:54Z"
  },
  {
    "id": 2500951,
    "title": "Nature Nanotechnology",
    "text": "Nature Nanotechnology — рецензований науковий журнал, видаваний Nature Publishing Group з 2006 року і присвячений останнім досягненням в нанотехнологіях.",
    "timestamp": "2017-09-04T07:44:23Z"
  },
  {
    "id": 2500952,
    "title": "Ікони Революції",
    "text": "«Ікони Революції» — графіті у Києві на фасаді будинку на вул. Грушевського, 4, створені під час Революції Гідності. Пам'ятка історії.",
    "timestamp": "2017-12-17T19:07:21Z"
  },
  {
    "id": 2500955,
    "title": "Горянка (Ліський повіт)",
    "text": "Горянка Template:lang-pl) — село на перетині етнічних українських територій Лемківщини і Бойківщини. Зараз знаходиться в ґміні Солина, Ліського повіту в Підкарпатському воєводстві. Розташоване в пасмі гір Західних Бескидів, недалеко від кордону зі Словаччиною та Україною.",
    "timestamp": "2018-10-23T03:59:58Z"
  },
  {
    "id": 2500956,
    "title": "Джордж Гінкепі",
    "text": "Джордж Гінкепі (Template:Lang-en) — єдиний в історії американський велогонщик, який взяв участь у п'яти Олімпійських іграх. Єдиний, хто був співавтором всіх семи перемог Ленса Армстронга. Він один з двох гонщиків, який вісім разів входив до складу команди, яка виграла Тур де Франс, що також є рекордом. Він сам фінішував на Тур де Франс 17 разів (з 1996 по 2012 роки)Template:cite news.",
    "timestamp": "2018-07-02T12:53:06Z"
  },
  {
    "id": 2500958,
    "title": "Радіостанція імені Євгена Коновальця",
    "text": "Радіостанція імені Євгена Коновальця — радіостанція Української держави, що існувала з 30 червня по 2 липня 1941 року у Львові в ході Німецько-радянської війни. Названа в честь першого провідника ОУН Євгена Коновальця.",
    "timestamp": "2018-05-11T14:35:45Z"
  },
  {
    "id": 2500966,
    "title": "Воля Горянська",
    "text": "Воля Горянська Template:lang-pl) — село на перетині етнічних українських територій Лемківщини і Бойківщини. Зараз знаходиться в ґміні Солина, Ліського повіту в Підкарпатському воєводстві. Розташоване в пасмі гір Західних Бескидів, недалеко від кордону зі Словаччиною та Україною.",
    "timestamp": "2018-09-06T23:37:55Z"
  },
  {
    "id": 2500972,
    "title": "Суперкубок Італії з футболу 2010",
    "text": "Суперкубок Італії з футболу 2010 — 23-й розіграш турніру. Матч відбувся 21 серпня 2010 року між чемпіоном та володарем кубку Італії «Інтернаціонале» та фіналістом кубку Італії «Ромою».",
    "timestamp": "2018-08-16T10:50:56Z"
  },
  {
    "id": 2500974,
    "title": "Конрад I (маркграф Бранденбургу)",
    "text": "Конард I (*Konrad I von Brandenburg, бл. 1240 — 1304) — маркграф Бранденбург-Штендаля у 1266—1304 роках.",
    "timestamp": "2018-02-23T18:25:55Z"
  },
  {
    "id": 2500976,
    "title": "Гранд-Кассе",
    "text": "Гранд-Кассе (Template:lang-fr) — гора в Європі, висотою — 3855 метрів. Найвища вершина Вануазького масиву у Грайських Альпах, департамент Савойя, Франція.",
    "timestamp": "2018-09-28T11:10:58Z"
  },
  {
    "id": 2500978,
    "title": "Жуайоз",
    "text": "Жуайо́з (Template:lang-fr, «Радісний») — європейський середньовічний меч. Традиційно вважається мечем франкського короля Карла Великого, що, однак, заперечується дослідниками. Згадується в «Пісні про Роланда». Даються по-різному — від ІХ до ХІІІ століття. Меч композитний: клинок і руків'я виготовлені в Х—ХІ століттях, гарда-перехрестя — ХІІ столітті, піхви — ХІІІ столтітті, прикраси — XIV ст. За класифікацією Оукшотта належить до середньовічних мечів типу XII. Був клейнодом і реліквією французьких королів, що використовувався під час коронації. Щонайменше з 1505 року зберігався у абатстві Сен-Дені. Вперше використовувався на коронації Філіппа ІІІ 1270 року; востаннє — 1824 року, на коронації Карла Х. З 1793 року, після Французької революції, перенесений на зберігання до Лувра. В популярній літературі — меч Карла Великого.",
    "timestamp": "2017-09-04T08:25:23Z"
  },
  {
    "id": 2500980,
    "title": "Nature Genetics",
    "text": "Nature Genetics — біологічний науковий журнал в галузі генетики, видаваний Nature Publishing Group з 1992 року.",
    "timestamp": "2017-09-04T08:24:11Z"
  },
  {
    "id": 2500983,
    "title": "Радева",
    "text": "Радева Template:lang-pl) — колишнє село на перетині етнічних українських територій Лемківщини і Бойківщини. Зараз знаходиться в ґміні Солина, Ліського повіту в Підкарпатському воєводстві. Розташоване в пасмі гір Західних Бескидів, недалеко від кордону зі Словаччиною та Україною.",
    "timestamp": "2018-10-23T07:34:57Z"
  },
  {
    "id": 2500984,
    "title": "Генріх I (маркграф Бранденбургу)",
    "text": "Генріх I Безземельний (*Heinrich ohne Land, 21 березня 1256 — 14 лютого 1318) — маркграф Бранденбург-Штендаля у 1266—1318 роках, маркграф Ландсбергу у 1294—1318 роках.",
    "timestamp": "2018-02-23T18:25:58Z"
  },
  {
    "id": 2500986,
    "title": "Рада з міжнародної торгівлі",
    "text": "Рада з міжнародної торгівлі — дорадчий орган при Кабінеті міністрів України.",
    "timestamp": "2018-10-20T02:42:32Z"
  },
  {
    "id": 2500987,
    "title": "Товстенська селищна громада",
    "text": "Товстенська селищна об'єднана територіальна громада — об'єднана територіальна громада в Україні, в Заліщицькому районі Тернопільської області. Адміністративний центр — смт Товсте.",
    "timestamp": "2018-03-05T21:24:01Z"
  },
  {
    "id": 2500998,
    "title": "Бад-Бельциг",
    "text": "Бад-Бельциг (Template:lang-de) — місто в Німеччині, розташоване в землі Бранденбург. Входить до складу району Потсдам-Міттельмарк.",
    "timestamp": "2017-09-04T09:28:51Z"
  },
  {
    "id": 2501000,
    "title": "Беліц",
    "text": "Беліц (Template:lang-de) — місто в Німеччині, розташоване в землі Бранденбург. Входить до складу району Потсдам-Міттельмарк.",
    "timestamp": "2017-09-04T09:41:35Z"
  },
  {
    "id": 2501003,
    "title": "Бенсдорф",
    "text": "Бенсдорф (Template:lang-de) — громада в Німеччині, розташована в землі Бранденбург. Входить до складу району Потсдам-Міттельмарк. Складова частина об'єднання громад Вустервіц.",
    "timestamp": "2017-09-04T09:43:31Z"
  },
  {
    "id": 2501005,
    "title": "Бецзе (громада)",
    "text": "Бецзе (Template:lang-de) — громада в Німеччині, розташована в землі Бранденбург. Входить до складу району Потсдам-Міттельмарк. Центр об'єднання громад Бецзе.",
    "timestamp": "2017-09-04T09:44:18Z"
  },
  {
    "id": 2501008,
    "title": "Борквальде",
    "text": "Борквальде (Template:lang-de) — громада в Німеччині, розташована в землі Бранденбург. Входить до складу району Потсдам-Міттельмарк. Складова частина об'єднання громад Брюк.",
    "timestamp": "2017-09-04T09:31:46Z"
  },
  {
    "id": 2501010,
    "title": "Боркгайде",
    "text": "Боркгайде (Template:lang-de) — громада в Німеччині, розташована в землі Бранденбург. Входить до складу району Потсдам-Міттельмарк. Складова частина об'єднання громад Брюк.",
    "timestamp": "2017-09-04T09:46:18Z"
  },
  {
    "id": 2501012,
    "title": "Брюк",
    "text": "Брюк (Template:lang-de) — місто в Німеччині, розташоване в землі Бранденбург. Входить до складу району Потсдам-Міттельмарк. Центр об'єднання громад Брюк.",
    "timestamp": "2017-09-04T09:47:14Z"
  },
  {
    "id": 2501013,
    "title": "Бистрицький Юрій Володимирович",
    "text": "Юрій Володимирович Бистрицький (Template:lang-ru, Template:н 31 липня 1944, Москва, РРФСР) — радянський футболіст, півзахисник, радянський та російський футбольний тренер.",
    "timestamp": "2017-09-06T10:01:28Z"
  },
  {
    "id": 2501015,
    "title": "Букауталь",
    "text": "Букауталь (Template:lang-de) — громада в Німеччині, розташована в землі Бранденбург. Входить до складу району Потсдам-Міттельмарк. Складова частина об'єднання громад Цизар.",
    "timestamp": "2017-09-04T09:50:18Z"
  },
  {
    "id": 2501017,
    "title": "Венцлов",
    "text": "Венцлов (Template:lang-de) — громада в Німеччині, розташована в землі Бранденбург. Входить до складу району Потсдам-Міттельмарк. Складова частина об'єднання громад Цизар.",
    "timestamp": "2017-09-04T09:51:45Z"
  },
  {
    "id": 2501019,
    "title": "Візенбург",
    "text": "Візенбург (Template:lang-de) — громада в Німеччині, розташована в землі Бранденбург. Входить до складу району Потсдам-Міттельмарк.",
    "timestamp": "2017-09-04T09:53:16Z"
  },
  {
    "id": 2501028,
    "title": "Чемпіонат Кіпру з футболу 2010—2011",
    "text": "Чемпіонат Кіпру з футболу 2010—2011 — 72-й сезон найвищого рівня футбольних дивізіонів Кіпру. Чемпіоном в 21-й раз став АПОЕЛ.",
    "timestamp": "2018-08-22T14:02:38Z"
  },
  {
    "id": 2501043,
    "title": "Historical Biology",
    "text": "Historical Biology — рецензований науковий журнал з проблем палеобіології. Заснований у 1988 році, публікується видавництвом Taylor & Francis. Відповідальний редактор Gareth J. Dyke (National Oceanography Centre).",
    "timestamp": "2017-09-06T10:01:28Z"
  },
  {
    "id": 2501045,
    "title": "Воллін (Бранденбург)",
    "text": "Воллін (Template:lang-de) — громада в Німеччині, розташована в землі Бранденбург. Входить до складу району Потсдам-Міттельмарк. Складова частина об'єднання громад Цизар.",
    "timestamp": "2017-09-04T10:27:35Z"
  },
  {
    "id": 2501048,
    "title": "Вустервіц",
    "text": "Вустервіц (Template:lang-de) — громада в Німеччині, розташована в землі Бранденбург. Входить до складу району Потсдам-Міттельмарк. Центр об'єднання громад Вустервіц.",
    "timestamp": "2017-09-04T10:28:57Z"
  },
  {
    "id": 2501049,
    "title": "Полоцькі унійні архієпископи",
    "text": "Полоцькі унійні архієпископи — архієпископи Полоцької унійної архієпархії Руської Унійної Церкви від підписання Берестейської унії до 1838 року.",
    "timestamp": "2017-09-04T17:51:44Z"
  },
  {
    "id": 2501053,
    "title": "Гафельзе",
    "text": "Гафельзе (Template:lang-de) — місто в Німеччині, розташоване в землі Бранденбург. Входить до складу району Потсдам-Міттельмарк. Складова частина об'єднання громад Бецзе.",
    "timestamp": "2017-09-04T10:30:08Z"
  },
  {
    "id": 2501055,
    "title": "Монети Криму",
    "text": "Монети Криму почали карбувати у перших роках утворення Золотої орди і закінчилися після анексії півострова Російською імперією. За весь період карбування відомо більше 25 грошових одиниць від мідних пулів до золотих алтунів. В часи середньовіччя також в обігу знаходилися монети іноземного карбування переважно великих номіналів.",
    "timestamp": "2018-09-07T12:40:24Z"
  },
  {
    "id": 2501056,
    "title": "Герцке",
    "text": "Герцке (Template:lang-de) — громада в Німеччині, розташована в землі Бранденбург. Входить до складу району Потсдам-Міттельмарк. Складова частина об'єднання громад Цизар.",
    "timestamp": "2017-09-04T10:31:19Z"
  },
  {
    "id": 2501059,
    "title": "Гребен",
    "text": "Гребен (Template:lang-de) — громада в Німеччині, розташована в землі Бранденбург. Входить до складу району Потсдам-Міттельмарк. Складова частина об'єднання громад Цизар.",
    "timestamp": "2017-09-04T10:33:58Z"
  },
  {
    "id": 2501061,
    "title": "Грос-Кройц",
    "text": "Грос-Кройц (Template:lang-de) — громада в Німеччині, розташована в землі Бранденбург. Входить до складу району Потсдам-Міттельмарк.",
    "timestamp": "2018-08-11T22:52:05Z"
  },
  {
    "id": 2501063,
    "title": "Kaleo",
    "text": "Kaleo — ісландський блюз-рок гурт, створений Template:Рум року. До складу входять: Йокуль Юліуссон, Давид Антонссон, Даніль Крістьянсон, Рубін Поллок.",
    "timestamp": "2018-09-19T06:54:27Z"
  },
  {
    "id": 2501064,
    "title": "Зеддінер-Зе",
    "text": "Зеддінер-Зе (Template:lang-de) — громада в Німеччині, розташована в землі Бранденбург. Входить до складу району Потсдам-Міттельмарк.",
    "timestamp": "2017-09-04T10:36:25Z"
  },
  {
    "id": 2501066,
    "title": "Клостер-Ленін",
    "text": "Клостер-Ленін (Template:lang-de) — громада в Німеччині, розташована в землі Бранденбург. Входить до складу району Потсдам-Міттельмарк.",
    "timestamp": "2017-09-04T10:36:57Z"
  },
  {
    "id": 2501068,
    "title": "Міхендорф",
    "text": "Міхендорф (Template:lang-de) — громада в Німеччині, розташована в землі Бранденбург. Входить до складу району Потсдам-Міттельмарк.",
    "timestamp": "2017-09-04T10:38:44Z"
  },
  {
    "id": 2501070,
    "title": "Мюленфліс",
    "text": "Мюленфліс (Template:lang-de) — громада в Німеччині, розташована в землі Бранденбург. Входить до складу району Потсдам-Міттельмарк. Складова частина об'єднання громад Німегк.",
    "timestamp": "2017-09-04T10:39:40Z"
  },
  {
    "id": 2501081,
    "title": "Нутеталь",
    "text": "Нутеталь (Template:lang-de) — громада в Німеччині, розташована в землі Бранденбург. Входить до складу району Потсдам-Міттельмарк.",
    "timestamp": "2017-09-04T10:49:09Z"
  },
  {
    "id": 2501083,
    "title": "Певезін",
    "text": "Певезін (Template:lang-de) — громада в Німеччині, розташована в землі Бранденбург. Входить до складу району Потсдам-Міттельмарк. Складова частина об'єднання громад Бецзе.",
    "timestamp": "2017-09-04T10:50:46Z"
  },
  {
    "id": 2501086,
    "title": "Планебрух",
    "text": "Планебрух (Template:lang-de) — громада в Німеччині, розташована в землі Бранденбург. Входить до складу району Потсдам-Міттельмарк. Складова частина об'єднання громад Брюк.",
    "timestamp": "2017-09-04T10:51:22Z"
  },
  {
    "id": 2501088,
    "title": "Планеталь",
    "text": "Планеталь (Template:lang-de) — громада в Німеччині, розташована в землі Бранденбург. Входить до складу району Потсдам-Міттельмарк. Складова частина об'єднання громад Німегк.",
    "timestamp": "2017-09-04T10:52:07Z"
  },
  {
    "id": 2501090,
    "title": "Рабенштайн",
    "text": "Рабенштайн (Template:lang-de) — громада в Німеччині, розташована в землі Бранденбург. Входить до складу району Потсдам-Міттельмарк. Складова частина об'єднання громад Німегк.",
    "timestamp": "2017-09-04T10:52:35Z"
  },
  {
    "id": 2501092,
    "title": "Розенау (Бранденбург)",
    "text": "Розенау (Template:lang-de) — громада в Німеччині, розташована в землі Бранденбург. Входить до складу району Потсдам-Міттельмарк. Складова частина об'єднання громад Вустервіц.",
    "timestamp": "2017-09-04T10:54:08Z"
  },
  {
    "id": 2501094,
    "title": "Росков",
    "text": "Росков (Template:lang-de) — громада в Німеччині, розташована в землі Бранденбург. Входить до складу району Потсдам-Міттельмарк. Складова частина об'єднання громад Бецзе.",
    "timestamp": "2017-09-04T10:55:17Z"
  },
  {
    "id": 2501095,
    "title": "Ям-Тьосовське сільське поселення",
    "text": "Ям–Тьосовське сільське поселення — муніципальне утворення у складі Лузького району, Російської Федерації. Адміністративний центр — присілок Ям–Тьосово.",
    "timestamp": "2018-01-12T05:48:57Z"
  },
  {
    "id": 2501097,
    "title": "Троєнбрітцен",
    "text": "Троєнбрітцен (Template:lang-de) — місто в Німеччині, розташоване в землі Бранденбург. Входить до складу району Потсдам-Міттельмарк.",
    "timestamp": "2017-09-04T10:53:14Z"
  },
  {
    "id": 2501100,
    "title": "Цизар",
    "text": "Цизар (Template:lang-de) — місто в Німеччині, розташоване в землі Бранденбург. Входить до складу району Потсдам-Міттельмарк. Центр об'єднання громад Цизар.",
    "timestamp": "2017-09-04T10:56:17Z"
  },
  {
    "id": 2501102,
    "title": "Швіловзе (громада)",
    "text": "Швіловзе (Template:lang-de) — громада в Німеччині, розташована в землі Бранденбург. Входить до складу району Потсдам-Міттельмарк.",
    "timestamp": "2017-09-04T11:02:05Z"
  },
  {
    "id": 2501107,
    "title": "Кубок Кіпру з футболу 2010—2011",
    "text": "Кубок Кіпру з футболу 2010–2011 — 69-й розіграш кубкового футбольного турніру на Кіпрі. Титул здобула Омонія.",
    "timestamp": "2018-08-22T13:59:27Z"
  },
  {
    "id": 2501108,
    "title": "Національний мистецький фестиваль «Кропивницький»",
    "text": "Націона́льний мисте́цький фестива́ль «Кропивни́цький» або Kropfest — всеукраїнське масове святкове дійство, яке включає огляд і демонстрацію досягнень у певних видах мистецтва, таких як музика, театр, кіно, література тощо, і проводиться у місті Кропивницький, починаючи з 2017 року. Головна мета фестивалю — об'єднання різних напрямків мистецтв через створення спільного мистецького простору.",
    "timestamp": "2018-09-01T16:50:39Z"
  },
  {
    "id": 2501119,
    "title": "Азіатський форум парламентарів з народонаселення і розвитку",
    "text": "Азіатський форум парламентаріїв з народонаселення і розвитку (Template:lang-en) – це регіональна неурядова міжпарламентська організація зі штаб-квартирою в Бангкоку, Таїланд. Форум координує діяльність 29 Національних комітетів парламентарів з народонаселення і розвитку.",
    "timestamp": "2017-09-30T10:34:21Z"
  },
  {
    "id": 2501127,
    "title": "Крижанський Володимир Олексійович",
    "text": "Володи́мир Олексі́йович Крижа́нський (Template:н Template:ДН, с. Червоний Кут, Жашківський район, Черкаська область, Українська РСР — Template:пом Template:ДС, м. Авдіївка, Донецька область, Україна) — український військовослужбовець, сержант Збройних сил України. Загинув під час російсько-української війни.",
    "timestamp": "2017-10-04T09:56:25Z"
  },
  {
    "id": 2501128,
    "title": "Естадіо Рікардо Сапрісса Айма",
    "text": "«Естадіо Рікардо Сапрісса Айма» (Template:lang-es) — футбольний стадіон у місті Сан-Хосе, Коста-Рика, домашня арена «Депортіво Сапрісса».",
    "timestamp": "2018-06-11T12:31:35Z"
  },
  {
    "id": 2501130,
    "title": "Клондайк (річка)",
    "text": "Клондайк (англ. Klondike River) — річка, права притока річки Юкон на північному заході Канади. Річка бере свій початок з гір Огілві і впадає в річку Юкон поблизу міста Доусон. Довжина річки 160 км.",
    "timestamp": "2018-08-23T21:27:22Z"
  },
  {
    "id": 2501143,
    "title": "Пунгері (ядерний полігон)",
    "text": "Пунгері, або Пхунгері (Template:lang-ko2) — єдиний відомий північнокорейський ядерний випробувальний полігон, який розташований в окрузі Template:нп, провінція Хамгьон-Північ. На основі відомих на сьогоднішній день супутникових знімків, він розташований за координатами. Полігон є місцем проведення шести ядерних випробувань Північної Кореї, які відбулися в 2006, 2009, 2013, 2016 і 2017 роках.",
    "timestamp": "2018-07-09T23:59:14Z"
  },
  {
    "id": 2501145,
    "title": "Палеонтологический журнал",
    "text": "Палеонтологический журнал — науковий журнал для публікації оригінальних досліджень в різних галузях палеонтології, по анатомії, морфології і таксономії викопних організмів, їх еволюції і поширенню, розвитку угруповань і біосфери, біостратиграфії, а також включаючи історію палеонтологічних досліджень, інформацію про конференції, огляди нових книгlib.html Відділ комплектування інформаційних видань — Палеонтологический журнал Template:ref-ru.",
    "timestamp": "2017-09-04T18:04:12Z"
  },
  {
    "id": 2501146,
    "title": "Алі Соуе",
    "text": "Алі Соуе (Template:lang-en, Template:нар 14 червня 1994, Банжул, Гамбія) — гамбійський футболіст, нападник клубу «Скендербеу».",
    "timestamp": "2018-10-05T18:44:13Z"
  },
  {
    "id": 2501149,
    "title": "Античний міст через Гвадіану",
    "text": "Римський міст у Мéриді (Template:lang-es) - арковий міст з тесаного граніту , перекинутий за часів Траяна, на початку II століття, через річку Гвадіана у колонії Емеріта-Августа (нині місто Мéрида в Іспанії).",
    "timestamp": "2017-09-12T08:44:39Z"
  },
  {
    "id": 2501156,
    "title": "Бурець Олег Васильович",
    "text": "Оле́г Васи́льович Буре́ць (Template:н Template:ДН, м. П'ятихатки, Дніпропетровська область, Українська РСР — Template:пом Template:ДС, м. Авдіївка, Донецька область, Україна) — український військовослужбовець, солдат Збройних сил України. Загинув під час російсько-української війни.",
    "timestamp": "2017-10-04T09:56:26Z"
  },
  {
    "id": 2501157,
    "title": "Вулиця Лісопаркова (Харків)",
    "text": "Лісопаркова вулиця- вулиця у Київському районі Харкова. Довжина вулиці близько 760 метрів.",
    "timestamp": "2017-10-04T09:56:26Z"
  },
  {
    "id": 2501159,
    "title": "Маріенфліс",
    "text": "Маріенфліс (Template:lang-de) — громада в Німеччині, розташована в землі Бранденбург. Входить до складу району Прігніц. Складова частина об'єднання громад Маєнбург.",
    "timestamp": "2018-03-10T01:12:42Z"
  },
  {
    "id": 2501160,
    "title": "Молчанов Антон Вікторович",
    "text": "Антон Вікторович Молчанов (псевдо — Ант Скаландіс; 1 вересня 1960, Москва) — російський публіцист, прозаїк, редактор і сценарист. Секретар Спілки письменників Москви, співголова Ради з фантастичною і пригодницької літератури і Міжнародної асоціації письменників-фантастів, член правління Літфонду.",
    "timestamp": "2018-09-29T14:49:37Z"
  },
  {
    "id": 2501166,
    "title": "Латвійська футбольна Вища ліга 2010",
    "text": "Латвійська футбольна Вища ліга 2010 — 36-й сезон найвищого рівня футбольних дивізіонів Латвії. Титул чемпіона здобув Вентспілс.",
    "timestamp": "2017-10-20T14:56:59Z"
  },
  {
    "id": 2501169,
    "title": "Герілович Антон Павлович",
    "text": "Герілович Антон Павлович (Template:нар Template:ДН, Template:МН) — український біолог, доктор ветеринарних наук, лауреат Державної премії України в галузі науки і техніки 2009 року.",
    "timestamp": "2018-08-11T19:10:31Z"
  },
  {
    "id": 2501172,
    "title": "Естадіо Алехандро Морера Сото",
    "text": "«Естадіо Алехандро Морера Сото» (Template:lang-es) — футбольний стадіон у місті Алахуела, Коста-Рика, домашня арена футбольних клубів «Алахуеленсе» та «Кармеліта».",
    "timestamp": "2017-09-06T10:01:33Z"
  },
  {
    "id": 2501175,
    "title": "Антонівецьке гетто",
    "text": "Антонівецьке гетто – єврейське гетто в період Другої світової війни, створене нацистською Німеччиною в часи Другої світової війни в селі Антонівка на Волині.",
    "timestamp": "2018-08-08T22:24:37Z"
  },
  {
    "id": 2501176,
    "title": "Аеродром Київ-Південний",
    "text": "Київ-Південний (Template:lang-en) — спортивний аеродром у Київській області, розташований біля населених пунктів Ксаверівка, Пінчуки та Гребінки Васильківського району Київської області. На аеродромі базується парашутний спортивний клуб 5й океанДЗ «5 Океан» [[:Template:ref-ru]].",
    "timestamp": "2018-10-08T12:09:56Z"
  },
  {
    "id": 2501182,
    "title": "Кубок Латвії з футболу 2010—2011",
    "text": "Кубок Латвії з футболу 2010–2011 — 69-й розіграш кубкового футбольного турніру в Латвії. Титул всьоме здобув Вентспілс.",
    "timestamp": "2018-08-17T11:47:18Z"
  },
  {
    "id": 2501183,
    "title": "Джек Девід Фішер",
    "text": "Джек Девід Фішер (Template:Lang-en; народ. 23 січня 1974, Луісвілл, округ Боулдер, штат Колорадо, США) — американський астронавт, військовий льотчик. Полковник ВПС США.",
    "timestamp": "2017-09-28T17:20:21Z"
  },
  {
    "id": 2501200,
    "title": "Йоахім I Нестор (курфюрст Бранденбургу)",
    "text": "Йоахім I Нестор (*Joachim I Nestor, 21 лютого 1484  — 11 липня 1535) — курфюрст Бранденбургу у 1499—1535 роках.",
    "timestamp": "2018-02-23T18:26:00Z"
  },
  {
    "id": 2501205,
    "title": "Керон Батлер",
    "text": "Джеймс Керон Батлер (Template:lang-en, Template:н 13 березня 1980, Расін, Вісконсин, США) — американський професіональний баскетболіст, що грав на позиції легкого форварда за низку команд НБА. Гравець національної збірної США. Чемпіон НБА 2011 року.",
    "timestamp": "2018-10-16T16:34:34Z"
  },
  {
    "id": 2501208,
    "title": "Ложечниця піренейська",
    "text": "Ложечниця піренейськаЧервона книга України (Cochlearia pyrenaica) — вид трав'янистих рослин родини Капустяні (Brassicaceae). Етимологія: Template:lang-la — «піренейський»Template:Cite web.",
    "timestamp": "2018-05-15T15:39:31Z"
  },
  {
    "id": 2501222,
    "title": "Берт Гардінер",
    "text": "Берт Гардінер (Template:lang-en, 25 березня 1913, Саскатун — 28 серпня 2001, Лос-Анджелес) — канадський хокеїст, що грав на позиції воротаря.",
    "timestamp": "2018-09-17T00:20:37Z"
  },
  {
    "id": 2501223,
    "title": "Пеньков Валентин Іванович",
    "text": "Валенти́н Іва́нович Пенько́в (Template:ДН — Template:ДС) — солдат Збройних сил України.",
    "timestamp": "2018-06-17T06:03:17Z"
  },
  {
    "id": 2501229,
    "title": "Девід Емма",
    "text": "Девід Емма (Template:lang-en, Template:н 14 січня 1969, Кренстон) — американський хокеїст, що грав на позиції крайнього нападника. Грав за збірну команду США.",
    "timestamp": "2017-11-12T18:15:36Z"
  },
  {
    "id": 2501230,
    "title": "Буорка",
    "text": "Буорка (Template:lang-sk) — село в окрузі Рожнява Кошицького краю Словаччини. Площа села 23,74 км². Станом на 31 грудня 2016 року в селі проживало 565 жителів.",
    "timestamp": "2018-10-04T22:56:02Z"
  },
  {
    "id": 2501234,
    "title": "Корбут Анатолій Миколайович",
    "text": "Анато́лій Микола́йович Ко́рбут — український господарник, заслужений будівельник України.",
    "timestamp": "2017-09-04T16:04:12Z"
  },
  {
    "id": 2501236,
    "title": "Мюррей Гендерсон (хокеїст)",
    "text": "Мюррей Гендерсон (Template:lang-en, 5 вересня 1921, Торонто — 4 січня 2013, Торонто) — канадський хокеїст, що грав на позиції захисника.",
    "timestamp": "2017-11-12T18:15:37Z"
  },
  {
    "id": 2501238,
    "title": "Шамрай Віталій Володимирович",
    "text": "Віта́лій Володи́мирович Шамра́й (Template:н Template:ДН, м. Монастирище, Черкаська область, Українська РСР — Template:пом Template:ДС, м. Авдіївка, Донецька область, Україна) — український військовослужбовець, солдат Збройних сил України. Загинув під час російсько-української війни.",
    "timestamp": "2017-10-18T16:24:19Z"
  },
  {
    "id": 2501243,
    "title": "Франческо Нуті",
    "text": "Франче́ско Ну́ті (Template:lang-it; 17 травня 1955, Прато, Італія) — італійський актор, сценарист, кінорежисер та продюсер. Лауреат кінопремій «Давид ді Донателло» та «Срібна стрічка» у категоріях «Найкращий актор» та низки інших професійних та фестивальних нагород та номінацій Template:перехід.",
    "timestamp": "2017-09-04T18:37:18Z"
  },
  {
    "id": 2501259,
    "title": "Майк Конноллі (хокеїст)",
    "text": "Майк Конноллі (Template:lang-en, Template:н 3 липня 1989, Калгарі) — канадський хокеїст, центральний нападник клубу ДХЛ «Штраубінг Тайгерс».",
    "timestamp": "2017-11-12T18:15:37Z"
  },
  {
    "id": 2501268,
    "title": "Дікембе Мутомбо",
    "text": "Дікембе Мутомбо (Template:lang-en, Template:н 25 червня 1966, Кіншаса) — конголезький і американський професіональний баскетболіст, що грав на позиції центрового за низку команд НБА, зокрема за «Денвер Наггетс» та «Атланта Гокс», кожна з яких навіки закріпила за ним ігровий №55.",
    "timestamp": "2018-10-20T06:43:35Z"
  },
  {
    "id": 2501274,
    "title": "Йоахім II Гектор (курфюрст Бранденбургу)",
    "text": "Йоахім II Гектор (*Joachim II Hector, 13 січня 1505 — 3 січня 1571) — курфюрст Бранденбургу у 1535—1571 роках.",
    "timestamp": "2018-02-23T18:26:03Z"
  },
  {
    "id": 2501275,
    "title": "Сферичний пояс",
    "text": "Сфери́чний по́яс (Template:lang-en) або кульови́й по́ясTemplate:БСЭ Template:ref-ru — частини поверхні сфери (кулі), яка розташована між двома взаємопаралельними площинами, що перетинають цю сферу (кулю). Відстань між цими площинами називається висотою сферичного пояса. Якщо одна з площин є дотичною до сфери, то відрізана поверхня сфери між площинами перетвориться на сферичний сегмент.",
    "timestamp": "2017-09-04T15:33:45Z"
  },
  {
    "id": 2501283,
    "title": "Вікіпедія:Вікізустрічі/253",
    "text": "VII Міжнародна конференція Вікіпедії, Вікіконференція 2017, Вікізустріч-253 — Вікіконференція української Вікіпедії у Центральній міській бібліотеці імені Лесі Українки, що пройшла у м. Херсон. Заявили про свою участь та були присутніми понад 50 дописувачів Вікіпедії. Зазначена подія тривала 25-26 серпня 2015 року.",
    "timestamp": "2017-09-04T15:58:58Z"
  },
  {
    "id": 2501293,
    "title": "Бірбхум (округ)",
    "text": "Бірбхум (Template:Lang-bn) — округ в індійському штаті Західний Бенгал. Адміністративним центром округу є місто СуріTemplate:cite webTemplate:cite web.",
    "timestamp": "2017-09-04T16:10:46Z"
  },
  {
    "id": 2501306,
    "title": "Мурзалар",
    "text": "Мурзалар (Template:lang-ba) — плем'я у складі айлинської групи башкирів. Інша назва мурзаларських башкирів — Улеште (Template:lang-ba).Кузеев Р.Г. Происхождение башкирского народа. Этнический состав и история расселения. М., Наука, 1974, С. 290. Нащадки мурзаларців проживають у Салаватському районі.",
    "timestamp": "2017-09-04T19:59:45Z"
  },
  {
    "id": 2501311,
    "title": "Лінь Цюань",
    "text": "Лінь Цюань (Template:zh) — економіст і політик Тайваню, колишній прем'єр Республіки Китай. Колишній міністр бюджету, обліку та статистики та міністр фінансів за часів президентства Чень Шуйбянь.",
    "timestamp": "2017-09-13T12:03:58Z"
  },
  {
    "id": 2501318,
    "title": "Зубець P",
    "text": "Зубець P в нормі — перший зубець на електрокардіограмі, що виникає після періоду електричного спокою міокарду (діастоли).",
    "timestamp": "2018-05-26T13:42:40Z"
  },
  {
    "id": 2501324,
    "title": "Сем Кверрі",
    "text": "Сем Остін Кверрі (Template:lang-en) — американський професійний тенісист.",
    "timestamp": "2017-09-04T18:12:18Z"
  },
  {
    "id": 2501331,
    "title": "Список міністрів закордонних справ Індії",
    "text": "Міністр закордонних справ Індії — посада в індійському уряді, керівник міністерства закордонних справ Індії. Відповідає за представлення Індії та її уряду на міжнародному рівні.",
    "timestamp": "2017-09-06T14:40:05Z"
  },
  {
    "id": 2501333,
    "title": "Арко-ді-Травертіно (станція метро)",
    "text": "Арко-ді-Травертіно (Template:lang-it) - станція лінії А Римського метрополітену. Відкрита 16 лютого 1980 році у першій черзі лінії А (від Ананьїна до Оттавіано). Розташована під вулицею Арко-ді-Травертіно, що з'єднує Аппіа-Нуова з вулицею Тоскалана.",
    "timestamp": "2017-09-05T09:57:02Z"
  },
  {
    "id": 2501335,
    "title": "Наливні естакади",
    "text": "Наливні естакади — залізничною нафтовою естакадою умовно називається сукупність споруд, за допомогою яких здійснюється наливання нафтопродуктів або сирої нафти з нафтосховищ у залізничні цистерни.",
    "timestamp": "2018-06-23T12:20:08Z"
  },
  {
    "id": 2501341,
    "title": "Порта-Фурба — Куадраро (станція метро)",
    "text": "Порта-Фурба — Куадраро (Template:lang-it) - станція лінії А Римського метрополітену. Відкрита 16 лютого 1980 році у першій черзі лінії А (від Ананьїна до Оттавіано). Розташована під вулицею Віа-Тусколана, неподалік від площі П'яцца-дей-Трібуні та вулиці Монте-дель-Грано.",
    "timestamp": "2018-03-04T16:53:27Z"
  },
  {
    "id": 2501346,
    "title": "Ніккі Блонскі",
    "text": "Ніккі Блонскі (Template:lang-en; Template:н Template:ДН, Нью-Йорк, США) — американська акторка, співачка, танцівниця, найбільш відома роллю Трейсі Тернблад у музичному фільмі «Лак для волосся», яка принесла акторці номінацію на премію «Золотий глобус».",
    "timestamp": "2017-11-12T06:30:51Z"
  },
  {
    "id": 2501347,
    "title": "Нумідо-Куадрато (станція метро)",
    "text": "Нумідо-Куадрато (Template:lang-it) - станція лінії А Римського метрополітену. Відкрита 16 лютого 1980 році у першій черзі лінії А (від Ананьїна до Оттавіано). Розташована під рогом Віа-Тусколана та Віа-Скрібоніо-Куріоне.",
    "timestamp": "2017-09-05T09:59:27Z"
  },
  {
    "id": 2501349,
    "title": "Трофимчук Микола Антонович",
    "text": "Мико́ла Анто́нович Трофимчу́к (Template:ДН, с. Біловіж, Рівненської області, УРСР, СРСР — Template:ДС, Москва, РосіяКончины // Журнал биографий «Российский Кто есть кто» № 3(30) 2002) — відомийTemplate:Книга радянський і російський релігієзнавець, фахівець з державно-церковних відносин та новітніх релігійних рухів.",
    "timestamp": "2018-03-19T08:26:58Z"
  },
  {
    "id": 2501354,
    "title": "Лючіо-Сестіо (станція метро)",
    "text": "Лючіо-Сестіо (Template:lang-it) - станція лінії А Римського метрополітену. Відкрита 16 лютого 1980 році у першій черзі лінії А (від Ананьїна до Оттавіано). Розташована під рогом вулиць Лучо-Сестіо та Понціо-Комініо.",
    "timestamp": "2017-09-05T10:00:33Z"
  },
  {
    "id": 2501363,
    "title": "Яничанське лісництво",
    "text": "Янича́нське лісництво — структурний підрозділ Чигиринського лісового господарства Черкаського обласного управління лісового та мисливського господарства.",
    "timestamp": "2018-08-09T09:03:21Z"
  },
  {
    "id": 2501370,
    "title": "Вінницький Андрій Васильович",
    "text": "Андрі́й Васи́льович Ві́нницький (Template:ДН — Template:ДС) — російський і український радянський кінорежисер науково-популярних фільмів, біолог. Його фільм «Сонячне плем'я» став одним з переможців Каннського кінофестивалю 1946 року.",
    "timestamp": "2018-05-19T06:36:05Z"
  },
  {
    "id": 2501381,
    "title": "Джеррі Джерен",
    "text": "Джеррі Джерен (Template:lang-en, 3 серпня 1896, Голіок — 8 вересня 1981, Бруклін) — американський хокеїст, що грав на позиції центрального нападника. Грав за збірну команду США.",
    "timestamp": "2018-06-13T10:29:06Z"
  },
  {
    "id": 2501386,
    "title": "Субаугуста (станція метро)",
    "text": "Субаугуста (Template:lang-it) - станція лінії А Римського метрополітену. Відкрита 16 лютого 1980 році у першій черзі лінії А (від Ананьїна до Оттавіано). Станція розташована під площею Чінечітта, поруч розташовані перетин вулиць Віа-Тусколана з Тітус-Лаб'єнус та Віа-Ораціо-Пульвілло.",
    "timestamp": "2018-03-03T22:10:35Z"
  },
  {
    "id": 2501391,
    "title": "Метт Герр",
    "text": "Метт Герр (Template:lang-en, Template:н 26 травня 1976, Хакенсак, Нью-Джерсі) — американський хокеїст, що грав на позиції центрального нападника. Грав за збірну команду США.",
    "timestamp": "2017-11-12T18:15:38Z"
  },
  {
    "id": 2501394,
    "title": "Олеся Фурс",
    "text": "Олеся Фурс (Умпіровіч) (Template:ДНTemplate:Cite web, Азярава (нині Браславський район, Вітебська область, Білорусь) — Template:ДС) — член Глибоцької групи молодіжної підпільної організації Союз білоруських патріотів (СБП). В'язень радянських концентраційних таборів з 1947 по 1956 рік.",
    "timestamp": "2018-04-12T21:25:08Z"
  },
  {
    "id": 2501402,
    "title": "Ерік Годар",
    "text": "Ерік Годар (Template:lang-en, Template:н 7 березня 1980, Вернон) — канадський хокеїст, що грав на позиції крайнього нападника.",
    "timestamp": "2017-11-11T20:31:02Z"
  },
  {
    "id": 2501403,
    "title": "Китятки гіркуваті",
    "text": "Китятки́ гіркува́ті (Polygala amarella)Template:СУНННСР — багаторічна рослина родини Китяткових, близька до китяток гірких. Низенька трава із дрібними синіми або білими квітками. Вирізняється гірким смаком та здатністю милитися у воді. Поширена у помірній зоні Європи. Регіонально рідкісний вид, взятий під охорону в Україні, РосіїTemplate:cite web, Чехії, Австрії, СловаччиніTemplate:cite web. Маловідома декоративна і лікарська рослина.",
    "timestamp": "2018-07-17T11:21:08Z"
  },
  {
    "id": 2501409,
    "title": "Стоматологічне протезування",
    "text": "Стоматологічне протезування — розділ стоматології, який займається відновленням тканин зуба, заміщенням втрачених зубів, відновленням структури і функції жувального апарату.",
    "timestamp": "2018-06-20T14:58:19Z"
  },
  {
    "id": 2501419,
    "title": "Ананьїна (станція метро)",
    "text": "Ананьїна (Template:lang-it) - кінцева станція лінії А Римського метрополітену. Відкрита 16 лютого 1980 році у першій черзі лінії А (від Ананьїна до Оттавіано). Розташована під рогом вулиць Тусколана та Ананьїна.",
    "timestamp": "2017-09-05T10:02:19Z"
  },
  {
    "id": 2501430,
    "title": "Парнов Єремій Іудович",
    "text": "Єремій Іудович Парнов (Template:lang-ru, Template:ДН, Харків — Template:†18 березня 2009, Москва) — радянський та російський письменник-фантаст та автор детективів, журналіст та критик.",
    "timestamp": "2018-06-10T16:24:34Z"
  },
  {
    "id": 2501434,
    "title": "Каштібан",
    "text": "Каштібан (Template:lang-fa) — село в Ірані, входить до складу дехестану Бакешлучай у Центральному бахші шахрестану Урмія провінції Західний Азербайджан.",
    "timestamp": "2018-02-21T07:31:59Z"
  },
  {
    "id": 2501435,
    "title": "Кордлар (Урмія)",
    "text": "Кордлар (Template:lang-fa) — село в Ірані, входить до складу дехестану Бакешлучай у Центральному бахші шахрестану Урмія провінції Західний Азербайджан.",
    "timestamp": "2018-02-21T07:32:00Z"
  },
  {
    "id": 2501437,
    "title": "Мікамі Сіндзі",
    "text": "Шіндзі Мікамі (Template:н 11 серпня 1965, Івакуні) — японський геймдизайнер. Найбільш відомий як творець серії «Resident Evil». Опісля полишення Capcom у 2010 році заснував власну студію Tango Gameworks.",
    "timestamp": "2018-09-30T19:56:23Z"
  },
  {
    "id": 2501439,
    "title": "Мьолдрі (Вастселійна)",
    "text": "Мьолдрі (Template:lang-et) — село в Естонії, входить до складу волості Вастселійна, повіту Вирумаа.",
    "timestamp": "2018-02-21T07:32:02Z"
  }
]