[
  {
    "id": 1543468,
    "title": "Івотка (зупинний пункт)",
    "text": "Іво́тка — пасажирська зупинна платформа Конотопського напрямку Конотопської дирекції залізничних перевезень Південно-Західної залізниці. Розташована у райцентрі Ямпіль. Платформа розташована між станціями Янпіль та Неплюєве. Відстань від станції Київ-Пасажирський — 322 км.",
    "timestamp": "2017-07-30T11:55:40Z"
  },
  {
    "id": 1543470,
    "title": "Пиротчине (зупинний пункт)",
    "text": "Пиро́тчине — пасажирська зупинна платформа Конотопського напрямку Конотопської дирекції залізничних перевезень Південно-Західної залізниці. Розташована біля села Пиротчине. Платформа розташована між станціями Брюловецький та Терещенська. Відстань від станції Київ-Пасажирський — 294 км.",
    "timestamp": "2017-07-30T11:54:37Z"
  },
  {
    "id": 1543471,
    "title": "Riot Act",
    "text": "Riot Act — сьомий студійний альбом американського гурту Pearl Jam виконаний у стилі гранж, виданий 12 листопада 2002 року на Epic Records.",
    "timestamp": "2017-11-18T19:45:09Z"
  },
  {
    "id": 1543473,
    "title": "Адріанова дорога",
    "text": "Адріанова дорога (Template:lang-la) — римська дорога в Єгипті, будівництво якої було завершене в 137 році за правління імператора Адріана (звідки й отримала свою назву).",
    "timestamp": "2013-05-15T20:04:54Z"
  },
  {
    "id": 1543474,
    "title": "Фломастер",
    "text": "Флома́стер — писальний прилад для писання та малювання за допомогою чорнила, що витікає з резервуара до наконечника з пористого матеріалу (нейлон чи повсть). Фломастери бувають різних видів залежно від типу чорнил та призначення.",
    "timestamp": "2017-12-13T23:26:56Z"
  },
  {
    "id": 1543476,
    "title": "Pearl Jam (альбом)",
    "text": "Pearl Jam (іноді цей альбом називають The Avocado Album) — восьмий студійний альбом американського гурту Pearl Jam виконаний у стилі гранж, який був виданий 2 травня 2006 на J Records. Це був перший реліз гурту на чотири роки з часів альбому Riot Act (2002). Платівка була дебютною на лейблі J Records та останньою на Sony Music. Це був перший альбом колективу, що не дебютував на першому місці у будь-якому чарті у світі.",
    "timestamp": "2017-11-18T20:10:31Z"
  },
  {
    "id": 1543478,
    "title": "Гурани (народ Сибіру)",
    "text": "Гура́ни — корінні забайкальці, нащадки від змішаних шлюбів росіян з бурятами, тунгусами, евенками, монголами, маньчжурами. Варто зауважити, що слово «гуран» запозичене росіянами з бурятського мови і означає самець козулі. Але не усі вчені погоджуються з цією гіпотезою і в свою чергу висувають ще один варіант походження слова «гурани». Багато забайкальців мають змішану кров. Європеоїдна і монголоїдна раси зустрілися в межах сибірських кордонів — Західного і Східного Забайкалля. Цим пояснюється поява в пласті побутової лексики місцевого населення особливого слова «гуран», яке позначає певне поняття: людина змішаної крові в четвертому поколінні, увібрав у себе риси російських першопрохідників і корінного населення — тунгусо.",
    "timestamp": "2017-08-22T03:28:59Z"
  },
  {
    "id": 1543488,
    "title": "Затвор (електрод)",
    "text": "Затвор — конструктивний елемент, один з електродів польового транзистора, призначений для подачі напруги, яка використовується для керування струмом на витоку і стоку транзистора.",
    "timestamp": "2018-01-02T22:20:44Z"
  },
  {
    "id": 1543489,
    "title": "Криж Йосип",
    "text": "Йосип Криж (Template:lang-hu, Template:н 190?, Австро-Угорщина) — колишній чехословацький та угорський футболіст, згодом — радянський і український футбольний тренер та громадський спортивний діяч. Грав на позиції нападника. Чотирьохразовий срібний призер (1929, 1930, 1931, 1935) та дворазовий абсолютний чемпіон Словаччини (1933, 1936). Декількаразовий член другої збірної команди Чехословаччини з футболу (1935 — 1937).",
    "timestamp": "2018-08-08T08:18:10Z"
  },
  {
    "id": 1543490,
    "title": "Сорти картоплі",
    "text": "Сорт картоплі (також, культивар) — це відокремлена група культурних рослин у межах найнижчого ботанічного таксономічного рангу, що в результаті селекції отримали певний набір корисних характеристик, які відрізняють цю групу рослин від інших рослин того ж виду.",
    "timestamp": "2017-10-18T16:43:46Z"
  },
  {
    "id": 1543493,
    "title": "Міжнародна річка",
    "text": "Міжнародна річка або прикордонна річка — річка, яка перетинає території двох або більше держав або є кордоном між ними і має судноплавне сполучення з морем. До таких річок належать Амазонка, Дніпро, Дунай, Ельба, Конго, Ла-Плата, Нігер, Одер, Рейн та інші.",
    "timestamp": "2017-10-05T10:02:06Z"
  },
  {
    "id": 1543500,
    "title": "Ворст (гурт)",
    "text": "Ворст — рок-гурт із міста Рівного.",
    "timestamp": "2016-05-27T17:09:42Z"
  },
  {
    "id": 1543505,
    "title": "Лобода біла",
    "text": "Лобода біла (Chenopodium album) — вид багаторічних трав'янистих сіро-зелених, вкритих сіруватим порошком рослин родини лободових.",
    "timestamp": "2016-11-22T16:21:49Z"
  },
  {
    "id": 1543507,
    "title": "Лобода доброго Генріха",
    "text": "Лобода доброго Генріха[[Довідник назв рослин України] від Наукового товариства імені Шевченка, Лісівничої академії наук України, за участю працівників Державного природознавчого музею НАН України та студентів і викладачів Прикарпатського лісогосподарського коледжу; розробка веб-ресурсу: Третяк Платон Романович]Template:Кобів (Chenopodium bonus-henricus) — вид багаторічних трав'янистих рослин родини лободових.",
    "timestamp": "2016-12-19T11:30:44Z"
  },
  {
    "id": 1543514,
    "title": "Тиха гавань (фільм)",
    "text": "«Тиха Гавань» (Template:lang-en) — американський фільм-драма. Режисер фільму Лассе Халльстрьом, екранізація однойменного роману Ніколаса Спаркса. Світова прем'єра фільму відбулась 13 лютого 2013 року. В Україні фільм вийшов в прокат 14 лютого 2013 року.",
    "timestamp": "2018-06-01T19:10:25Z"
  },
  {
    "id": 1543543,
    "title": "Myrmarachne plataleoides",
    "text": "Myrmarachne plataleoides — павук-скакун з роду Myrmarachne. Наслідує зовнішнім виглядом та поведінкою мурах-шевців. Поширені у Південно-Східній Азії від Індії до Китаю. Безпечний для людини.",
    "timestamp": "2016-05-11T17:28:04Z"
  },
  {
    "id": 1543546,
    "title": "Тобі Кеббелл",
    "text": "Тобі Кеббелл (Template:lang-en) (Template:н 9 липня 1982, Понтефракт, Велика Британія) — англійський кіно- та телеактор, відомий за ролями у фільмах «Александр», «Рок-н-рольник», «Принц Персії: Піски часу», «Учень чаклуна»,«Бойовий кінь» та «Бен-Гур».",
    "timestamp": "2018-02-25T05:34:13Z"
  },
  {
    "id": 1543547,
    "title": "Ріо Мавюба",
    "text": "Ріо Мавюба (Template:lang-fr, Template:н 8 березня 1984, море неподалік від Анголи) — французький футболіст ангольсько-конголезького походження, півзахисник клубу «Спарта».",
    "timestamp": "2018-07-12T17:15:22Z"
  },
  {
    "id": 1543548,
    "title": "Орельєн Шеджу",
    "text": "Орельєн Шеджу (Template:lang-fr, Template:н 20 червня 1985, Дуала) — камерунський футболіст, захисник клубу «Істанбул Башакшехір».",
    "timestamp": "2017-11-22T21:09:13Z"
  },
  {
    "id": 1543552,
    "title": "Лоурі Сміт",
    "text": "Лоурі Сміт  (Template:lang-en, 19 лютого 1956) — британський яхтсмен, олімпійський медаліст.",
    "timestamp": "2018-06-09T14:00:11Z"
  },
  {
    "id": 1543553,
    "title": "Капітал (газета)",
    "text": "«Деловая газета «Капитал» (Template:lang-uk) — всеукраїнська ділова щоденна газета, український партнер The Financial Times.",
    "timestamp": "2016-10-07T03:50:46Z"
  },
  {
    "id": 1543554,
    "title": "Роберт Крукшенк",
    "text": "Роберт Крукшенк  (Template:lang-en, 19 лютого 1963) — британський яхтсмен, олімпійський медаліст.",
    "timestamp": "2018-06-09T14:00:13Z"
  },
  {
    "id": 1543556,
    "title": "Оззі Стюарт",
    "text": "Оззі Стюарт  (Template:lang-en, 31 січня 1954) — британський яхтсмен, олімпійський медаліст.",
    "timestamp": "2018-06-09T14:00:14Z"
  },
  {
    "id": 1543557,
    "title": "Соф'ян Шахед",
    "text": "Соф'ян Шахед (Template:lang-ar, *нар. 18 квітня 1983, Західний Берлін) — туніський футболіст, захисник клубу «Ганновер 96».",
    "timestamp": "2016-05-13T12:39:39Z"
  },
  {
    "id": 1543562,
    "title": "Бердинських Олександр Анатолійович",
    "text": "Бердинських Олександр Анатолійович (16 лютого 1971) — український журналіст, редактор. Станом на 2013 рік — шеф-редактор ділової щоденної газети «Капітал».",
    "timestamp": "2018-07-03T21:20:01Z"
  },
  {
    "id": 1543564,
    "title": "Nortel Networks",
    "text": "Nortel Networks Corporation - канадський виробник телекомунікаційного устаткування. Штаб-квартира - в Торонто.",
    "timestamp": "2018-02-01T03:07:02Z"
  },
  {
    "id": 1543571,
    "title": "Девід Трамп",
    "text": "Девід Х. Трамп (Template:lang-en) — британський археолог з Кембриджського університету. Спеціалізувався в археології Середземномор'я, і зокрема — на доісторичній та ранньоримській епосі Італії (Сардинія, Сицилія, південь Італії) та Мальти.",
    "timestamp": "2017-07-12T21:12:18Z"
  },
  {
    "id": 1543574,
    "title": "Прокляття мертвого озера",
    "text": "«Прокляття мертвого озера», досл. «Змійоголовий жах» (Template:lang-en) — американський фантастичний телефільм жаху 2004 р. Це один з двох фільмів телеканалу Syfy, створений на реальних подіях про змійоголову рибу у ставку Крофтоні, Меріленд. Інший фільм — Риба-Франкенштейн. Змійоголовий рій — незалежна комедія про істоту, заснована на тому ж інциденті у Крофтоні, і лише один фільм з трьох насправді знятий у штаті Меріленд.",
    "timestamp": "2016-01-04T13:03:22Z"
  },
  {
    "id": 1543575,
    "title": "Операція «Абстеншіон»",
    "text": "Операція «Абстеншіон» (Template:lang-en) — невдала спільна морська десантна операція Королівських військово-морських флотів Великої Британії та Австралії, що мали за мету висадку морського десанту на італійський острів Кастелорізо під час Другої світової світової війни.",
    "timestamp": "2018-07-29T20:47:12Z"
  },
  {
    "id": 1543582,
    "title": "Пустище (фільм)",
    "text": "«Пустище» (Template:lang-en) — американський фільм жахів режисера Даррена Лінн Босмана (був також сценаристом й продюсером), що вийшов 2012 року. У головних ролях Стівен Мойер, Міа Кіршнер.",
    "timestamp": "2015-05-17T06:02:59Z"
  },
  {
    "id": 1543583,
    "title": "Handspring",
    "text": "Handspring — компанія-виробник кишенькових комп'ютерів (КПК) і комунікаторів під управлінням операційної системи Palm OS.",
    "timestamp": "2014-02-17T16:35:25Z"
  },
  {
    "id": 1543585,
    "title": "Темістоклес Замміт",
    "text": "Сер Темістоклес (Темі) Замміт (Template:lang-mt, 30 вересня 1864 — 2 листопада 1935) — мальтійський археолог, історик, письменник, професор хімії та лікар. У 1920—1926 роках — ректор Мальтійського університету та перший директор Національного музею археології Мальти у місті Валлетта.",
    "timestamp": "2018-03-29T21:25:11Z"
  },
  {
    "id": 1543586,
    "title": "Бевз Микола Валентинович",
    "text": "Мико́ла Валенти́нович Бе́вз (Template:нар Template:ДН, с. Нагірянка, нині в межах м. Бучача, Тернопільська область) — український вчений в галузі архітектури, педагог, громадський діяч. Доктор архітектури, доктор технічних наук, Заслужений архітектор України.",
    "timestamp": "2018-05-14T12:32:29Z"
  },
  {
    "id": 1543589,
    "title": "Palm",
    "text": "Palm, Inc. — Американська компанія-виробник кишенькових персональних комп'ютерів і смартфонів на основі Palm OS — лінійок продуктів Zire, Tungsten, Treo і аксесуарів до них. У минулому також випускала продукти сімейства Palm. У 2010 році придбана корпорацією Hewlett-Packard.",
    "timestamp": "2015-01-24T22:29:31Z"
  },
  {
    "id": 1543591,
    "title": "Непомнящий Олексій Сергійович",
    "text": "Олексій Сергійович Непомнящий ( Template:н 2 січня 1980) — російський та український журналіст і редактор. Головний редактор української ділової щоденної газети «Капітал»Газету «Капитал» очолив російський журналіст Олексій Непомнящий.",
    "timestamp": "2015-02-03T20:57:34Z"
  },
  {
    "id": 1543592,
    "title": "Думенко Костянтин Миколайович",
    "text": "Костянтин Миколайович Думенко (Template:н 25 січня 1980 року, село Одрадокам'янка Бериславський район Херсонська область) — український вчений в галузі техніки і технологій виділення насіння овоче-баштанних культур та надійності складних технічних систем, доктор технічних наук, доцент.",
    "timestamp": "2017-07-23T19:46:57Z"
  },
  {
    "id": 1543594,
    "title": "Стелс (фільм)",
    "text": "«Стелс» (Template:lang-en) — американський науково-фантастичний бойовик 2005 р. режисера Роба Коена з Джошом Лукасом, Джессікою Біл, Джеймі Фоксом, Семом Шепардом, Джо Мортоном і Річардом Роксбургом у головних ролях.",
    "timestamp": "2018-07-11T03:36:49Z"
  },
  {
    "id": 1543595,
    "title": "Zgard",
    "text": "Zgard — студійний сольний проект лідера гурту Говерла Яромисла.",
    "timestamp": "2017-11-14T18:13:53Z"
  },
  {
    "id": 1543601,
    "title": "Походження родини, приватної власності та держави",
    "text": "«Походження родини, приватної власності та держави» (Template:lang-de; варіант перекладу українською мовою — Початок родини, приватної власности і держави) — твір німецького мислителя Фрідріха Енгельса (1820–1895), присвячений основним проблемам первісної історії, еволюції родинно-шлюбних відносин, аналізу процесів розкладання родового суспільства, становлення приватної власності, суспільних класів і держави.",
    "timestamp": "2018-07-31T04:36:01Z"
  },
  {
    "id": 1543602,
    "title": "Дубове (Хмельницький)",
    "text": "Ду́бове (Template:lang-ru) — мікрорайон у південній частині міста Хмельницького.",
    "timestamp": "2018-08-29T16:08:56Z"
  },
  {
    "id": 1543606,
    "title": "Проєхидна волохата",
    "text": "Проєхидна волохата (Zaglossus bruijni) — вид ссавців з роду Проєхидна родини єхиднових.",
    "timestamp": "2018-09-16T13:10:22Z"
  },
  {
    "id": 1543607,
    "title": "Соломон Кейн (фільм)",
    "text": "«Соломон Кейн» (Template:lang-en) — французько-британсько-чеський темнофентезійний  епічний бойовик 2009 р. режисера Майкла Дж. Бассета на основі журнального персонажа, створеного в 1928 р. Робертом Говардом. У головній ролі — Джеймс Пюрфой. Попри придбання прав у 1997 р., зйомки не починалися до січня 2008 р. У фільмі є історія походження для персонажа Кейна і лінія, щоб бути першою з трилогії. Зав'язка сюжету у наступному: Кейну необхідно викупити свою душу через спасіння, рятуючи дівчину-пуританку, що стало б початком його життя як супротивника диявольских сил. Фільм підготовлений консорціумом французьких, чеських і британських компаній, здебільшого знятий у Чеській Республіці. Уперше показаний в 2009 р. на кінофестивалі в Торонто.",
    "timestamp": "2017-08-20T01:02:46Z"
  },
  {
    "id": 1543608,
    "title": "Островерха Михайло",
    "text": "Михайло Острове́рха (псевдонім: Михайло Осика, 7 жовтня 1897, м. Бучач, нині Тернопільської області — 17 квітня 1979, Бруклін) — український письменник, перекладач, фольклорист, мистецтвознавець, співак, громадсько-просвітній діяч, військовик. Вояк Легіону УСС, УГА, Дієвої Армії УНР.",
    "timestamp": "2018-10-11T14:17:13Z"
  },
  {
    "id": 1543610,
    "title": "Паспорт громадянина Тунісу",
    "text": "Паспорт громадянина Тунісу використовується виключно для міжнародних поїздок.",
    "timestamp": "2017-08-22T15:47:42Z"
  },
  {
    "id": 1543611,
    "title": "Gesang der Jünglinge",
    "text": "Gesang der Jünglinge (букв. «Спів юнаків») — електронний музичний твір Карлгайнца Штокгаузена, створений протягом 1955–1956 рр. та позначений № 8 у каталозі творів композитораTemplate:StockhausenWorkList.",
    "timestamp": "2013-06-20T17:59:00Z"
  },
  {
    "id": 1543612,
    "title": "Спуск 2",
    "text": "«Спуск 2» (Template:lang-en) — британський фільм жахів 2009 року, продовження однойменного фільму 2005 р. Фільм випущений у кінотеатрах Великої Британії 2 грудня 2009-го і прямо на DVD 27 квітня 2010-го в США. Продюсер — Хрістіан Колсон і сопродюсери Пол Річі і Ніл Маршалл, продюсер і режисер оригінального фільму.",
    "timestamp": "2017-06-30T17:22:05Z"
  },
  {
    "id": 1543615,
    "title": "Łucka City",
    "text": "Łucka City — хмарочос в Варшаві, Польща, збудований фірмою «J.W.Construction Holding S.A.» у 2000–2004 роках. Назва будівлі походить від вулиці Луцької, на які вона розташована.",
    "timestamp": "2017-05-06T15:45:47Z"
  },
  {
    "id": 1543618,
    "title": "Туніська затока",
    "text": "Туні́ська зато́ка — велика затока Середземного моря біля північного узбережжя Африки, омиває територію Тунісу. На південному березі затоки, де раніше знаходилася столиця Карфагена, зараз розташоване місто Туніс. У глибині затоки розташована штучна бухта Мандракій, створена за часів античності.",
    "timestamp": "2016-11-20T01:49:45Z"
  },
  {
    "id": 1543619,
    "title": "Ділова преса країни",
    "text": "Ділова преса країни — українське видавництво, що спеціалізується на випуску ділової друкованої та онлайн періодики.",
    "timestamp": "2017-04-10T15:43:48Z"
  },
  {
    "id": 1543622,
    "title": "Телекомунікаційна палата України",
    "text": "Асоціація «Телекомунікаційна палата України» (ТелПУ) — об'єднання легальних учасників індустрії послуг Digital Communication, що виступають за створення рівних умов та сприятливого середовища для ведення чесного бізнесу в сфері Інтернет-комунікацій.",
    "timestamp": "2018-05-04T10:43:30Z"
  },
  {
    "id": 1543625,
    "title": "Сан-Марино на літніх Олімпійських іграх 1984",
    "text": "Сан-Марино брало участь у Літніх Олімпійських іграх 1984 року у Лос-Анджелесі (США), але не завоювало жодної медалі.",
    "timestamp": "2018-01-14T06:40:33Z"
  },
  {
    "id": 1543630,
    "title": "Сан-Марино на літніх Олімпійських іграх 1980",
    "text": "Сан-Марино брало участь у Літніх Олімпійських іграх 1980 року у Москві (СРСР), але не завоювало жодної медалі. Частково приєднавшись до оголошеному Сполученими Штатами бойкоту Московської Олімпіади, команда Сан-Марино виступала не під національним прапором, а під олімпійським.",
    "timestamp": "2018-01-14T06:40:20Z"
  },
  {
    "id": 1543632,
    "title": "Заббар",
    "text": "Заббар (Template:lang-mt) — місто на Мальті. Заббар — п'яте за кількістю населення місто Мальти (15002 осіб на 2011 рік). Спершу поселення було частиною міста Зейтун. Та пізніше останній Великий магістр Мальтійського ордену Фердинанд фон Гомпеш дав поселенню назву міста свого імені — Città Hompesch.",
    "timestamp": "2018-09-01T17:30:43Z"
  },
  {
    "id": 1543634,
    "title": "Алєксєєв Микола Миколайович",
    "text": "Алєксєєв Микола Миколайович (1 листопада 1893, Ржев, Тверська губернія — 9 грудня 1937, Москва) — політичний діяч, член ВУЦВК.",
    "timestamp": "2018-05-05T21:39:52Z"
  },
  {
    "id": 1543636,
    "title": "Тонконогий стрибунець",
    "text": "Тонконогий стрибунець (Afrixalus quadrivittatus) — вид земноводних з роду Afrixalus родини Жаби-стрибунці. Інша назва «чотирисмугий стрибунець».",
    "timestamp": "2017-05-20T13:39:36Z"
  },
  {
    "id": 1543640,
    "title": "Колезький секретар",
    "text": "Коле́зький секрета́р — в Російській імперії статський (цивільний) чин X класу в Табелі про ранги. Чиновники, які мали цей чин, займали незначні керівні посади. Припинив існування 1917 року, як й інші чини Російської імперії.",
    "timestamp": "2017-11-15T05:51:57Z"
  },
  {
    "id": 1543643,
    "title": "Кручинський (Стромілов) Михайло Олександрович",
    "text": "Кручинський (Стромілов) Михайло Олександрович (1894-1978, Москва), комуністичний діяч, полковник Червоної армії, доктор сільськогосподарських наук, член ВУЦВК.",
    "timestamp": "2013-05-26T22:53:22Z"
  },
  {
    "id": 1543645,
    "title": "Колезький асесор",
    "text": "Колезький асесор — з 1717 рік по 1917 в Російській імперії цивільний класний чин, який зайняв з 1722 року VIII ранг в Табелі про ранги.",
    "timestamp": "2017-11-29T07:23:58Z"
  },
  {
    "id": 1543646,
    "title": "Агрегатне виймання вугілля",
    "text": "Агрегатне виймання вугілля — видобування вугілля в довгому очисному вибої шахти за допомогою комплексу машин і механізмів (агрегатів) без постійної присутності людини. При А. в. в. комплексно механізованими й автоматизованими є процеси виймання, навалювання та доставляння вугілля до штреку, пересування вибійного конвейєра, кріплення привибійного простору, керування покрівлею, укладання силових кабелів і шлангів для зрошування, зачищування підошви пласта, дегазації пласта, а також монтажні й демонтажні роботи.",
    "timestamp": "2015-10-07T14:37:51Z"
  },
  {
    "id": 1543648,
    "title": "Листолаз жахливий",
    "text": "Листолаз жахливий (Phyllobates terribilis) — вид земноводних з роду Листолаз родини Дереволази.",
    "timestamp": "2017-05-20T10:21:56Z"
  },
  {
    "id": 1543656,
    "title": "Операція «Бревіті»",
    "text": "Операція «Бревіті» (Template:lang-en) — короткочасна битва між британськими військами та італійсько-німецьким угрупованням корпусу «Африка» генерал-лейтенанта Е.Роммеля в ході кампанії в Лівійській пустелі поблизу лівійсько-єгипетського кордону.",
    "timestamp": "2017-04-19T23:22:19Z"
  },
  {
    "id": 1543658,
    "title": "Новосельський Микола Олександрович",
    "text": "Микола Олександрович Новосельський (Template:н 1818 — Template:† 24 вересня 1898) — підприємець, державний діяч, дійсний статський радник, одеський міський голова з 1867 року до 1878 року.",
    "timestamp": "2017-03-04T13:34:52Z"
  },
  {
    "id": 1543661,
    "title": "Тищенко Федір Антонович",
    "text": "Тищенко Федір Антонович (1897, Черкаси - (5 листопада 1935 року, Київ) — член ВУЦВК.",
    "timestamp": "2016-04-20T19:13:04Z"
  },
  {
    "id": 1543663,
    "title": "Балто-Чорноморська вісь",
    "text": "«Ба́лто-Чорномо́рська вісь» (Балто-Чорноморський союз) — геополітичний проект, теоретизований багатьма політиками і громадськими діячами з України, Білорусі і Литви. «Балто-Чорноморська вісь» передбачає створення свого геополітичного регіону впливу між так званим «Західним світом» (США, Канада, Франція, Велика Британія, Західна Європа, Австралія) і «Пострадянським сходом», який динамічно обертається навколо Росії (Росія, Казахстан, Білорусь, деякі країни Середньої Азії). Проект створення Балто-Чорноморської осі почав розроблятися українською інтелігенцією на початку 20-го століттяСтворення Балто-Чорноморської осі — це шанс України стати регіональним лідером у Центрально-Східній та Південній Європі.. Зокрема, участь у розробці брали президент УНР Михайло Грушевський, ідеолог українського націоналізму 1930-х Юрій Липа. Екзильний уряд УНР покладав великі надії на антиросійський союз разом з Кубанню, Доном, Тереком, народами Кавказу. Юрій Липа розвинув геополітичну доктрину («Чорноморська доктрина»), вказавши на історичну тяглість орієнтації за віссю Північ — Південь — від Скандинавії та балтійських країн до Чорного моря, Малої Азії та Близького Сходу. З часів Київської Русі, що сформувалась уздовж торговельного шляху «із варяг у греки», через дипломатичні взаємини Хмельницького і Мазепи зі Швецією та Туреччиною, ця ідея не втрачає актуальності і сьогодні.",
    "timestamp": "2018-09-10T19:44:49Z"
  },
  {
    "id": 1543664,
    "title": "Зеленогорськ (Санкт-Петербург)",
    "text": "Зеленогорськ (до 1948 — Терійокі, Template:lang-fi) — місто в Російській федерації, муніципальне утворення в складі Курортного району Санкт-Петербурга, кліматичний курорт на північному березі Фінської затоки Балтійського моря.",
    "timestamp": "2018-09-29T05:11:48Z"
  },
  {
    "id": 1543673,
    "title": "Джон Вінчестер (Надприродне)",
    "text": "Джон Ерік Вінчестер (Template:lang-en; Template:дн — Template:дс) — вигаданий другорядний (спочатку один із центральних) персонаж драматично-містичного т/с Надприродне мережі The CW Television Network і головний герой серії спін-офф коміксів Supernatural: Origins. Творець і розробник — Ерік Кріпке, зображували Джеффрі Дін Морган і Метт Коен. Мисливець, батько Діна та Сема Вінчестерів й Адама Міллігана, чоловік Мері Вінчестер, син Генрі Вінчестера.",
    "timestamp": "2018-10-19T18:49:59Z"
  },
  {
    "id": 1543678,
    "title": "Сан-Марино на літніх Олімпійських іграх 1976",
    "text": "Сан-Марино брало участь у Літніх Олімпійських іграх 1976 року у Монреалі (Канада), але не завоювало жодної медалі.",
    "timestamp": "2018-01-14T06:40:07Z"
  },
  {
    "id": 1543682,
    "title": "Гра слів (Зона сутінків)",
    "text": "Гра слів (Template:lang-en) — третій епізод першого сезону телевізійного серіалу «Зона сутінків».",
    "timestamp": "2017-11-30T14:04:46Z"
  },
  {
    "id": 1543683,
    "title": "Городоцький музей",
    "text": "Городоцький музей Волинської губернії — приватний місцевий музей змішаного історичного, археологічного й етнографічного спрямування. Перший відкритий у Волинській губернії світський музей. Був, водночас, першим сільським музеєм на теренах сучасної України.",
    "timestamp": "2018-07-11T12:34:52Z"
  },
  {
    "id": 1543688,
    "title": "Мочалов Павло Степанович",
    "text": "Павло Степанович Мочалов (15 листопада 1800 — 28 березня 1848) — один із величніших російських акторів епохи романтизму. Служив у московському Малому театрі.",
    "timestamp": "2018-02-20T13:07:42Z"
  },
  {
    "id": 1543690,
    "title": "Олександр Пархоменко (фільм)",
    "text": "«Олександр Пархоменко» (Template:lang-ru) — український радянський художній фільм 1942 року, знятий Леонідом Луковим. У 1962 році вийшла нова режисерська редакція фільму.",
    "timestamp": "2018-01-17T12:41:48Z"
  },
  {
    "id": 1543692,
    "title": "Мунтіян Валерій Іванович",
    "text": "Мунті́ян Вал́ерій Ів́анович (*3 серпня 1960, Одеса) — український вчений, фахівець у галузі економіки, національної безпеки, екології та інформаціології, військовий та державний діяч.",
    "timestamp": "2018-03-28T15:41:05Z"
  },
  {
    "id": 1543698,
    "title": "Шкода Вадим Григорович",
    "text": "Вади́м Григо́рович Шко́да (30 вересня 1934, Хабаровськ) — український поет, що пише російською мовою. Член Національної спілки письменників України (від 14 жовтня 1963 року). Лауреат премії імені Миколи Ушакова (1995) для українських поетів, що пишуть російською мовою.",
    "timestamp": "2018-01-05T01:25:19Z"
  },
  {
    "id": 1543708,
    "title": "Дудченко",
    "text": "Дудченко — українське прізвище.",
    "timestamp": "2017-11-17T18:34:13Z"
  },
  {
    "id": 1543709,
    "title": "Список найвищих будівель Варшави",
    "text": "Найвищі будівлі Варшави — це близько 40 існуючих будівель (хмарочосів) у Варшаві, які мають висоту, більшу ніж 65 м (у томи числі дві споруди висотою понад 200 м), і майже 55 нових (висотою від 70 м до 350 м) на різних стадіях реалізації.",
    "timestamp": "2016-03-03T12:44:03Z"
  },
  {
    "id": 1543716,
    "title": "Максюта Анатолій Аркадійович",
    "text": "Анато́лій Арка́дійович Максю́та (* 15 червня 1963, с. Козачки, Летичівський район, Хмельницька область, Українська РСР, СРСР) — український державний діяч. Перший заступник міністра економічного розвитку і торгівлі України (з 5 квітня 2012). Координатор діяльності України в реалізації Стратегії Європейського Союзу для Дунайського регіону.",
    "timestamp": "2018-06-28T12:09:21Z"
  },
  {
    "id": 1543723,
    "title": "Арнульф Баварський",
    "text": "Арнульф Баварський (Template:lang-de), повне ім'я Франц Йозеф Арнульф Адальберт Марія Баварський (Template:н 6 липня 1852 — Template:† 12 листопада 1907) — баварський принц з династії Віттельсбахів, син принца-регента Баварії Луїтпольда та австрійської принцеси Августи, генерал.",
    "timestamp": "2017-05-24T15:31:41Z"
  },
  {
    "id": 1543727,
    "title": "Кирилюк Григорій Васильович",
    "text": "Кирилю́к Григо́рій Васи́льович (* 16 травня 1912, Тетіїв — † 1993) — український письменник публіцистичного напряму. Член Спілки письменників України, лауреат Івано-Франківської обласної літературної премії Мирослава Ірчана.",
    "timestamp": "2015-02-28T06:13:48Z"
  },
  {
    "id": 1543733,
    "title": "Парламентські вибори в Монако 2013",
    "text": "Парламентські вибори в Монако пройшли 10 лютого 2013 рокуElections nationales le 10 février 2013|Nice-Matin. На них на п'ятирічний термін було обрано 24 депутати депутати однопалатного парламенту країни Національної ради. Опозиційна коаліція Горизонт Монако переконливо перемогла правлячий альянс Союз за Монако, отримавши 20 місць.",
    "timestamp": "2017-05-24T15:50:54Z"
  },
  {
    "id": 1543742,
    "title": "Baeriidae",
    "text": "Baeriidae — ряд морських тварин класу Вапнякові губки (Calcarea).",
    "timestamp": "2014-09-11T18:54:38Z"
  },
  {
    "id": 1543744,
    "title": "Super Junior",
    "text": "Súper Júnior — південнокорейський музичний гурт. Заснований музичною агенцією SM Entertainmant у 2005 році, у той період гурт складався з дванадцяти учасників, лідером гурту став Ітик, а іншими участниками Хічоль, Ханген, Йесон, Канін, Шиндон, Сонмін, Інхек, Донхе, Шивон, Реук та Кібум. Кюхен приєднався до гурту у 2006 році.",
    "timestamp": "2018-07-02T15:57:30Z"
  },
  {
    "id": 1543749,
    "title": "Коломієць Ростислав Григорович",
    "text": "Ростисла́в Григо́рович Коломі́єць (Template:Нар 16 травня 1942, Кустанай) — український драматург, режисер, театральний діяч, історик театру та критик, педагог та перекладач.",
    "timestamp": "2018-08-22T08:23:25Z"
  },
  {
    "id": 1543750,
    "title": "Кучер Володимир Іванович",
    "text": "Володимир Іванович Кучер (5 квітня 1939, Зінці, Полтавська область, УРСР) — український історик, спеціаліст із соціально-політичної історії, а також історії України 1920-1930-х років та років Другої світової війни; доктор історичних наук (з 1987 року), професор (з 2004 року).",
    "timestamp": "2018-03-06T16:14:03Z"
  },
  {
    "id": 1543753,
    "title": "Мінський вагоноремонтний завод",
    "text": "ВАТ\"Мінський вагоноремонтний завод\" — підприємство з ремонту пасажирських вагонів для потреб залізниць, розташоване в місті Мінськ, Білорусь. Входить до складу Білоруської залізниці.",
    "timestamp": "2018-06-18T23:23:08Z"
  },
  {
    "id": 1543758,
    "title": "Білинський Іван Григорович",
    "text": "Іва́н Григо́рович Біли́нський (* 16 травня 1811, Дегова — † 10 липня 1882, Долиняни) — український фольклорист.",
    "timestamp": "2018-07-08T14:54:01Z"
  },
  {
    "id": 1543760,
    "title": "Вулиця М'ясникова",
    "text": "Вулиця М'ясникова — вулиця у Мінську.",
    "timestamp": "2018-03-12T09:38:33Z"
  },
  {
    "id": 1543763,
    "title": "Високе Мито (місто)",
    "text": "Високе Мито (Template:lang-cs) — місто в східній Чехії, на річці Лучна в Пардубіцькому краї.",
    "timestamp": "2015-05-16T15:54:37Z"
  },
  {
    "id": 1543768,
    "title": "Грох Микола Никифорович",
    "text": "Мико́ла Ники́форович Гро́х (* 16 травня 1936, Ленінград) — український графік, 1970 — член Національної спілки художників України, 1982 — заслужений художник УРСР, народний художник України (2013).",
    "timestamp": "2018-08-21T18:09:29Z"
  },
  {
    "id": 1543783,
    "title": "Грехем Д. Джон (Іван Домбровський)",
    "text": "Джон Д. Грехем (англ. John D. Graham), він же Іван Домбровський (1886–1961) – американський художник-модерніст українського походження.",
    "timestamp": "2016-06-24T00:00:46Z"
  },
  {
    "id": 1543785,
    "title": "Тамбовський державний університет",
    "text": "Тамбовський державний університет імені Г. Р. Державіна — вищий навчальний заклад в Тамбові, що має понад 17000 студентів, найсильніший професорсько-викладацький колектив (понад 160 докторів наук і професорів), багатюща матеріально-технічна база і новітні наукові дослідження в регіоніhttp://www.tsutmb.ru/about.",
    "timestamp": "2016-12-22T19:36:22Z"
  },
  {
    "id": 1543790,
    "title": "Кремницька Єлизавета Людвігівна",
    "text": "Кремницька Єлизавета Людвігівна (1925, Ужгород — 1978, Ужгород) — відомий закарпатський художник.",
    "timestamp": "2018-04-11T11:47:04Z"
  },
  {
    "id": 1543794,
    "title": "Теракт в Рейханли (2013)",
    "text": "Теракт в Рейханли — терористичний акт, що відбувся пообіді 11 травня 2013 року в місті Рейханли на півдні Туреччини, неподалік від турецько-сирійського кордону. В наслідок двох вибухів замінованих автомобілів біля будівлі мерії і в промисловому районі міста, що відбулись з інтервалом в 15 хвилин загинула 51 людина, ще 155 отримали пораненняУряд Сирії засудив теракт у Рейханли, спростувавши свою причетністьDeath toll rises to 50 as explosions hit Turkish town on border with SyriaЭрдоган отверг совместное расследование взрывов в Турции, також зазнали руйнування кілька будівельYoutube / Взрывы на турецко-сирийской границе: 40 человек погибли. Того ж дня в місті відбувся ще один вибух, але він був кваліфікований як вибух паливного баку автомобіля.",
    "timestamp": "2016-10-27T10:28:37Z"
  },
  {
    "id": 1543795,
    "title": "М'ясниковський район",
    "text": "М'яснико́вський райо́н — адміністративна одиниця у складі Ростовської області, територія якого безпосередньо примикає до обласного центру — міста Ростова-на-Дону.",
    "timestamp": "2018-09-15T18:04:38Z"
  },
  {
    "id": 1543802,
    "title": "Амбарцумян Саркіс Саакович",
    "text": "Амбарцумян Саркіс Саакович — вірменський державний діяч, голова Ради народних комісарів Вірменської РСР у 1926—1928 роках.",
    "timestamp": "2018-07-08T14:37:24Z"
  },
  {
    "id": 1543804,
    "title": "Біловус (значення)",
    "text": "Біловус — українське прізвище.",
    "timestamp": "2017-01-08T13:17:15Z"
  },
  {
    "id": 1543805,
    "title": "Білоусенко",
    "text": "Білоусенко — українське прізвище.",
    "timestamp": "2016-12-28T06:25:14Z"
  },
  {
    "id": 1543806,
    "title": "Діармайт мак Кербайлл",
    "text": "Діармайт мак Кербайлл — (ірл. — Diarmait mac Cerbaill) — верховний король Ірландії. Час правління: 539—558 роки. За іншими даними помер у 565 році. Згідно історичних переказів він був останнім верховним королем Ірландії який при сходженні на трон дотримувався давніх язичницьких ритуалів посвячення, зокрема ритуалу «шлюбу з богинею Землі» та здійснив язичницьке «свято Тари». На відміну від багатьох його попередників вважається історичним верховним королем Ірландії — у його історичності історики не сумніваються. Його нащадки відіграли величезну роль в історії Ірландії. За деякими джерелами вважається першим християнським королем Ірландії (всі попередні верховні королі, відповідно, вважаються язичниками — що сумнівно). Разом зі святим Кіараном заснував монастир Клонмакнойс (ірл. — Cluain Mhic Nóis — Клуайн Мік Нойс), особисто заклав першу дерев'яну церкву з багатьох, що були там збудовані пізніше у 545 році.",
    "timestamp": "2018-10-03T21:02:01Z"
  },
  {
    "id": 1543814,
    "title": "Тер-Габріелян Саак Мірзоєвич",
    "text": "Саак Мірзоєвич Тер-Габріелян (15 лютого 1886 — 19 серпня 1937) — радянський партійний, державний і політичний діяч.",
    "timestamp": "2018-07-08T14:37:41Z"
  },
  {
    "id": 1543816,
    "title": "Каннський кінофестиваль 2013",
    "text": "66-й Каннський кінофестиваль проходив з 15 до 26 травня 2013 року. Головою журі був відомий кінорежисер Стівен Спілберг. Фестиваль був відкритий переглядом екранізації роману Френсіса Скотта Фіцджеральда «Великий Гетсбі». Фільмом закриття фестивалю став «Зулу» французького кінорежисера Жерома Салле.",
    "timestamp": "2017-06-23T12:37:06Z"
  },
  {
    "id": 1543818,
    "title": "Риба-шабля хвостата",
    "text": "Риба-шабля хвостата (Lepidopus caudatus) — риба родини волосохвостові.",
    "timestamp": "2016-06-05T08:52:45Z"
  },
  {
    "id": 1543820,
    "title": "Прохоров Віктор Олексійович",
    "text": "Прохоров Віктор Олексійович (* 8 січня 1843, Санкт-Петербург— † 24 жовтня 1896) — російський військовий інженер, київський міський архітектор.",
    "timestamp": "2017-09-12T19:04:59Z"
  },
  {
    "id": 1543822,
    "title": "Боднар Володимир Євгенович",
    "text": "Володи́мир Євге́нович Бо́днар (20 березня 1915, Никловичі — 8 квітня 2002, Пармі) — український письменник-мемуарист, журналіст, співак.",
    "timestamp": "2018-08-24T07:28:31Z"
  },
  {
    "id": 1543826,
    "title": "Залойло Володимир Васильович",
    "text": "Володи́мир Васи́льович Залойло (нар. 4 червня 1953, Київ) — український тренер з футболу, футзалу і пляжного футболу . Неодноразово входив у тренерський штаб футзальних національної збірної України, молодіжної збірної України і студентської збірної України. Заслужений тренер УкраїниЛегенды и гордость футзала Украины Template:ref-ru.",
    "timestamp": "2018-01-29T10:46:47Z"
  },
  {
    "id": 1543828,
    "title": "Мурадян Бадал Амаякович",
    "text": "Мурадян Бадал Амаякович — радянський політичний та партійний діяч, голова Ради міністрів Вірменської РСР у 1966–1972 роках.",
    "timestamp": "2018-07-08T14:38:11Z"
  },
  {
    "id": 1543832,
    "title": "Арзуманян Григорій Агафонович",
    "text": "Арзуманян Григорій Агафонович (22 квітня 1919 — 28 листопада 1976) — радянський державний, партійний та політичний діяч, голова Ради міністрів Вірменської РСР у 1972–1976 роках.",
    "timestamp": "2018-07-08T14:38:36Z"
  },
  {
    "id": 1543838,
    "title": "Керкенна",
    "text": "Керкенна або Керкенські острови (Template:lang-ar) — група островів у Середземному морі, на східному узбережжі Тунісу в затоці Габес. Площа архіпелагу — 160 км². Складається з двох великих островів Гарбі (Західний) та Шергі (Східний) та ряду малих незаселених островів.",
    "timestamp": "2016-11-05T09:43:22Z"
  },
  {
    "id": 1543841,
    "title": "Саркісян Тадей Тачатович",
    "text": "Тадей Тачатович Саркісян (Template:lang-hy; 18 вересня 1923 — 10 січня 2010) — радянський та вірменський вчений, державний діяч.",
    "timestamp": "2018-07-08T14:38:56Z"
  },
  {
    "id": 1543844,
    "title": "Крихітка Дорріт",
    "text": "«Крихітка Дорріт» (англ. Little Dorrit) — одинадцятий роман англійського письменника Чарлза Діккенса, вперше публікувався в журналі «Домашнє читання» з грудня 1855 по червень 1857Людина і влада в романі Чарлза Діккенса «Крихітка Дорріт» Template:ref-ru. Разом з творами «Холодний дім» і «Важкі часи» Входить до трійки соціально значущих робіт автораБіографія Чарлза Діккенса на сайті Бібліотека української літератури. Роман розділений на дві книги: першу книгу: «Бідність» і другу книгу «Багатство». Дії відбуваються в Англії початку XIX століттяДжордж Оруелл «Чарлз Діккенс», розділ IV, 1940. Діккенс оповідає про долі людей в їх складному переплетенні, паралельно розкриваючи пороки державної системи, що душить все прогресивне в країніСинопсис книги «Крихітка Дорріт» у перекладі Євгенії Калашникової, 1896. Після публікації роман був розкритикований сучасниками. В першу чергу через іронічне і навіть саркастичне зображення сучасної Англії і складний заплутаний сюжетPaul Schlicke «Oxford Reader's Companion to Dickens». Видано 13 травня 1999 року. Видавництво Оксфордського університету, США. ISBN 978-0-19-866253-2. Template:ref-en. Визнання і славу книга отримала набагато пізніше, коли такі відомі літературознавці та письменники, як ДостоєвськийPaul Davis. Charles Dickens from A to Z. — New York: Checkmark Books, 1999. — С. 215. — ISBN 0-8160-4087-7 Template:ref-en, Бернард Шоу та Лайонел ТріллінгCharles Dickens, Little Dorrit, Oxford, Oxford University Press, coll. «New Oxford Illustrated Dickens», 1953. ISBN 0-19-254512-4. — ISBN 978-0-19-254512-1 Template:ref-en висловили ряд позитивних відгуків про цей твір.",
    "timestamp": "2017-10-19T20:39:38Z"
  },
  {
    "id": 1543850,
    "title": "Алі Бумніжель",
    "text": "Алі Бумніжель (Template:lang-ar, нар. 13 квітня 1966, Мензель-Джеміль) — колишній туніський футболіст, що грав на позиції воротаря.",
    "timestamp": "2017-03-25T10:08:08Z"
  },
  {
    "id": 1543859,
    "title": "Хорхе Гонсалес Камарена",
    "text": "Хорхе Гонсалес Камарена (Template:lang-es 24 березня, 1908 — 24 травня, 1980) — мексиканський художник і скульптор 20 ст.",
    "timestamp": "2017-03-19T21:23:49Z"
  },
  {
    "id": 1543861,
    "title": "Ліхтенштейн на зимових Олімпійських іграх 1936",
    "text": "Ліхтенштейн брав участь у Зимових Олімпійських іграх 1936 року в Гарміш-Партенкірхені (Німеччина) — вперше в історії країни, — але не завоював жодної медалі. Князівство представляли 4 спортсмени.",
    "timestamp": "2018-01-13T06:06:38Z"
  },
  {
    "id": 1543867,
    "title": "Домнал мак Муйрхертах",
    "text": "Домналл мак Муйрхертайг – він же: Домналл Багатьох Обманів, Домналл Ілхелгах, Домналл мак Макь Ерке (ірл. - Domnall mac Muirchertaig, Domnall Ilchelgach, Domnall mac Maic Ercae) – верховний король Ірландії. Час правління: 559 – 561 роки. За іншими датуваннями – помер у 566 році.",
    "timestamp": "2018-04-28T17:52:11Z"
  },
  {
    "id": 1543869,
    "title": "Центральний банк Сан-Марино",
    "text": "Центральний банк Сан-Марино (Template:lang-it) — центральний банк республіки Сан-Марино.",
    "timestamp": "2018-05-07T20:31:16Z"
  },
  {
    "id": 1543870,
    "title": "Маразлі",
    "text": "Маразлі́ (Template:lang-gr) — грецький рід, який найбільше розквіт у XIX — на початку XX століття в Одесі з часів Російській імперії. Родина Маразлі переселилася в Одесу з міста Філіппополя (нині Пловдив, Болгарія) за часів панування на тих землях Османської імперії. найвідомішим з представників роду є Григорій Маразлі — одеський міський голова.",
    "timestamp": "2017-02-02T07:32:13Z"
  },
  {
    "id": 1543872,
    "title": "Сни на продаж",
    "text": "Сни на продаж (Template:lang-en) — четвертий епізод першого сезону телевізійного серіалу «Зона сутінків».",
    "timestamp": "2016-10-09T20:16:39Z"
  },
  {
    "id": 1543875,
    "title": "Джоенн Томпсон",
    "text": "Джо́енн То́мпсон  (Template:lang-en, 13 травня 1965) — британська хокеїстка на траві, олімпійська медалістка.",
    "timestamp": "2018-07-30T12:52:22Z"
  },
  {
    "id": 1543878,
    "title": "Томпсон",
    "text": "То́мпсон (Template:lang-en) — англійське прізвище, також топонім. Означає «син Тома (Томаса)».",
    "timestamp": "2018-10-10T17:41:02Z"
  },
  {
    "id": 1543883,
    "title": "Гелен Морган",
    "text": "Гелен Морган  (Template:lang-en, 20 липня 1966) — британська хокеїстка на траві, олімпійська медалістка.",
    "timestamp": "2018-07-30T10:46:43Z"
  },
  {
    "id": 1543884,
    "title": "Лайза Бейлісс",
    "text": "Лайза Бейлісс  (Template:lang-en, 27 листопада 1966) — британська хокеїстка на траві, олімпійська медалістка.",
    "timestamp": "2018-06-09T14:00:18Z"
  },
  {
    "id": 1543887,
    "title": "Карен Браун",
    "text": "Карен Браун  (Template:lang-en, 9 січня 1963) — британська хокеїстка на траві, олімпійська медалістка.",
    "timestamp": "2018-06-09T14:00:19Z"
  },
  {
    "id": 1543888,
    "title": "Мері Невілл",
    "text": "Мері Невілл  (Template:lang-en, 12 березня 1961) — британська хокеїстка на траві, олімпійська медалістка.",
    "timestamp": "2018-06-09T14:00:20Z"
  },
  {
    "id": 1543889,
    "title": "Невілл",
    "text": "Не́вілл (Template:lang-en) — англійське чоловіче ім'я і прізвище.",
    "timestamp": "2018-07-24T07:15:25Z"
  },
  {
    "id": 1543890,
    "title": "Джилл Еткінс",
    "text": "Джилл Еткінс  (Template:lang-en, 30 травня 1963) — британська хокеїстка на траві, олімпійська медалістка.",
    "timestamp": "2018-07-30T12:50:16Z"
  },
  {
    "id": 1543892,
    "title": "Аткінс",
    "text": "А́ткінс або Е́ткінс (Template:lang-en) — прізвище англійського походження.",
    "timestamp": "2015-03-16T03:55:28Z"
  },
  {
    "id": 1543894,
    "title": "Вікі Діксон",
    "text": "Вікі Діксон  (Template:lang-en, 5 серпня 1959) — британська хокеїстка на траві, олімпійська медалістка.",
    "timestamp": "2018-07-30T10:25:14Z"
  },
  {
    "id": 1543895,
    "title": "Венді Фрейзер",
    "text": "Венді Фрейзер  (Template:lang-en, 23 квітня 1963) — британська хокеїстка на траві, олімпійська медалістка.",
    "timestamp": "2018-07-30T10:21:57Z"
  },
  {
    "id": 1543896,
    "title": "Фрейзер",
    "text": "Фрейзер (Template:lang-en, читається — «Фрейжер») — прізвище шотландського походженняTemplate:cite web.",
    "timestamp": "2017-03-26T05:11:19Z"
  },
  {
    "id": 1543897,
    "title": "Сьюзанна Фрейзер (хокеїстка)",
    "text": "Сьюзанна Фрейзер  (Template:lang-en, 15 липня 1966) — британська хокеїстка на траві, олімпійська медалістка.",
    "timestamp": "2018-06-09T14:00:25Z"
  },
  {
    "id": 1543900,
    "title": "Сенді Лістер",
    "text": "Сенді Лістер  (Template:lang-en, 16 серпня 1961) — британська хокеїстка на траві, олімпійська медалістка.",
    "timestamp": "2018-06-09T14:00:27Z"
  },
  {
    "id": 1543901,
    "title": "Лістер",
    "text": "Лістер (Template:lang-en) — англійське прізвище.",
    "timestamp": "2018-08-02T06:31:40Z"
  },
  {
    "id": 1543902,
    "title": "Джейн Сіксміт",
    "text": "Джейн Сіксміт  (Template:lang-en, 5 вересня 1967) — британська хокеїстка на траві, олімпійська медалістка.",
    "timestamp": "2018-07-30T12:47:00Z"
  },
  {
    "id": 1543903,
    "title": "Елісон Ремзі",
    "text": "Елісон Ремзі  (Template:lang-en, 16 квітня 1959) — колишня британська хокеїстка на траві, олімпійська медалістка.",
    "timestamp": "2018-06-09T14:00:29Z"
  },
  {
    "id": 1543904,
    "title": "Ремзі",
    "text": "Ремзі або Рамсей (Template:lang-en) — британське прізвище. Написання Ремзі ближче до вимови, Рамсей — історична форма.",
    "timestamp": "2018-07-30T04:15:10Z"
  },
  {
    "id": 1543908,
    "title": "Джекі Маквільямс",
    "text": "Джекі Маквільямс  (Template:lang-en, 18 лютого 1964) — британська хокеїстка на траві, олімпійська медалістка.",
    "timestamp": "2018-07-30T12:47:49Z"
  },
  {
    "id": 1543909,
    "title": "NetXMS",
    "text": "NetXMS — вільна система управління та моніторингу великих корпоративних комп'ютерних мереж, яка може бути використана для моніторингу всього ІТ-комплексу, починаючи з мережевих пристроїв і закінчуючи програмами на серверах. Програма поширюється під ліцензією GPLv2.",
    "timestamp": "2013-05-17T12:20:48Z"
  },
  {
    "id": 1543911,
    "title": "Бутаков Борис Іванович",
    "text": "Бутаков Борис Іванович (Template:н 26 вересня 1938, селище Єртарка, Тугулимський район, Свердловська область, Росія) — український вчений у галузі технології обробки твердого і рідкого металу, що кристалізується, доктор технічних наук (1993), професор.",
    "timestamp": "2017-04-27T11:32:43Z"
  },
  {
    "id": 1543914,
    "title": "Теммі Міллер",
    "text": "Теммі Міллер  (Template:lang-en, 21 червня 1967) — британська хокеїстка на траві, олімпійська медалістка.",
    "timestamp": "2018-06-09T14:00:32Z"
  },
  {
    "id": 1543916,
    "title": "Менді Ніколсон",
    "text": "Ме́нді Ні́колсон (Template:lang-en, уроджена Ніколлс, Template:lang-en; Template:н 28 лютого 1968) — британська хокеїстка на траві, олімпійська медалістка.",
    "timestamp": "2018-08-16T05:05:42Z"
  },
  {
    "id": 1543919,
    "title": "Кетрін Джонсон (хокеїстка)",
    "text": "Кетрін Джонсон  (Template:lang-en, Template:н21 січня 1967) — британська хокеїстка на траві, олімпійська медалістка.",
    "timestamp": "2018-08-23T09:44:07Z"
  },
  {
    "id": 1543920,
    "title": "Нем'ятий Василь Миколайович",
    "text": "Василь Миколайович Нем'ятий (8 жовтня 1926, Новогеоргіївка — 25 лютого 1990, Київ) — український радянський історик, дослідник історії німецько-радянської війни, доктор історичних наук (з 1983 року), професор.",
    "timestamp": "2016-10-07T09:17:54Z"
  },
  {
    "id": 1543922,
    "title": "Джонатан Едвардс",
    "text": "Джонатан Едвардс  (Template:lang-en, 10 травня 1966) — британський легкоатлет, олімпійський чемпіон, рекордсмен світу в потрійному стрибку.",
    "timestamp": "2018-08-19T05:27:12Z"
  },
  {
    "id": 1543923,
    "title": "Азійська струмкова жаба",
    "text": "Азійська струмкова жаба (Odorrana) — рід земноводних родини Жаб'ячі ряду Безхвості. Має 54 види.",
    "timestamp": "2013-05-17T16:56:49Z"
  },
  {
    "id": 1543924,
    "title": "Гавриш Валерій Іванович",
    "text": "Гавриш Валерій Іванович (Template:н 22 січня 1965, Чирчик, Ташкентська область, Узбецька РСР) — український вчений у галузі ефективного використання енергетичних ресурсів у сільському господарстві, доктор економічних наук (2009), професор.",
    "timestamp": "2016-06-14T20:17:27Z"
  },
  {
    "id": 1543926,
    "title": "Тимофєєв-Ресовський Микола Володимирович",
    "text": "Мико́ла Володи́мирович Тимофє́єв-Ресо́вський (Template:ДН, Москва, Російська імперія —28 березня 1981, Обнінськ, СРСР) — видатний радянський генетик, біофізик, дослідник радіобіології, еволюційної біології.",
    "timestamp": "2017-11-21T21:48:33Z"
  },
  {
    "id": 1543927,
    "title": "Котикова Олена Іванівна",
    "text": "Котикова Олена Іванівна (Template:н 18 серпня 1977, село Широколанівка, Веселинівський район, Миколаївська область) — українська вчена у галузі стійкого розвитку сільськогосподарського землекористування, доктор економічних наук (2011), професор (2013).",
    "timestamp": "2018-07-03T12:14:12Z"
  },
  {
    "id": 1543933,
    "title": "Підпала Тетяна Василівна",
    "text": "Підпала Тетяна Василівна (Template:н 24 лютого 1955, село Нова Збур'ївка, Голопристанський район, Херсонська область) — український вчений у галузі тваринництва, доктор сільськогосподарських наук (2002), професор (2004).",
    "timestamp": "2018-09-05T20:53:08Z"
  },
  {
    "id": 1543935,
    "title": "Жаба увігнутовуха",
    "text": "Жаба увігнутовуха (Odorrana tormota) — вид земноводних з роду Азійська струмкова жаба родини Жаб'ячі.",
    "timestamp": "2017-05-20T08:39:59Z"
  },
  {
    "id": 1543939,
    "title": "Антипова Лідія Климівна",
    "text": "Антипова Лідія Климівна (Template:н 28 січня 1950, Корсунівка, Сенчанський район, Полтавська область) — український вчений у галузі рослинництва, доктор сільськогосподарських наук (2010), доцент, старший науковий співробітник.",
    "timestamp": "2016-07-18T21:08:10Z"
  },
  {
    "id": 1543940,
    "title": "Чорний Сергій Григорович",
    "text": "Чорний Сергій Григорович (Template:н 2 лютого 1957, селище Нововоронцовка, Херсонська область) — український учений у галузі ґрунтознавства, охорони ґрунтів та агроекології, доктор сільськогосподарських наук (1997), старший науковий співробітник (1998), доцент (2002), професор (2003).",
    "timestamp": "2016-11-26T14:17:10Z"
  },
  {
    "id": 1543942,
    "title": "Noblella",
    "text": "Noblella — рід земноводних підродини Holoadeninae родини Strabomantidae ряду Безхвості. Має 10 видів. Отримала назву на честь американського вченого Гледвіна Нобле.",
    "timestamp": "2017-05-20T06:55:02Z"
  },
  {
    "id": 1543943,
    "title": "Цивілізаційна криза",
    "text": "Цивілізаці́йна  кри́за - всесвітньо-історичний процес зміни світових цивілізацій, що  означає, з одного боку, глибоку перебудову всієї структури суспільства (жодна з його сфер не залишиться поза корінних змін), а з іншого боку - трансформацію локальних цивілізацій, висування нових лідерів, нестійкість глобального цивілізаційного поля.",
    "timestamp": "2014-02-08T22:39:26Z"
  }
]