[
  {
    "id": 2073172,
    "title": "Англо-єгипетський договір (1936)",
    "text": "Англо-єгипетський договір був підписаний 1936 року та визначав відносини між Сполученим Королівством і королівством Єгипет. Офіційно був відомий як «договір про союз Його Величності зі Сполученого Королівства і Його Величності Короля Єгипту».",
    "timestamp": "2017-05-15T11:24:14Z"
  },
  {
    "id": 2073178,
    "title": "Том Джонсон",
    "text": "Том Джонсон (Template:lang-en, Template:н 18 лютого 1928, Балдур, Манітоба — Template:† 21 листопада 2007 Фалмут, Массачусетс) — канадський хокеїст, що грав на позиції захисника. Згодом — хокейний тренер.",
    "timestamp": "2015-12-08T19:37:03Z"
  },
  {
    "id": 2073180,
    "title": "Польський узвіз",
    "text": "Польський узвіз — одна із вулиць Одеси, розташована в історичному центрі. Бере початок від Митної площі і тягнеться до перетину вулиць Качинського, Буніна і Польської. Пролягає схилом Карантинної балки.",
    "timestamp": "2018-10-06T21:13:37Z"
  },
  {
    "id": 2073183,
    "title": "58-ма окрема мотопіхотна бригада (Україна)",
    "text": "58-ма окрема мотопіхотна бригада Template:вчс — мотопіхотна бригада у складі Збройних сил України.",
    "timestamp": "2018-09-19T07:52:18Z"
  },
  {
    "id": 2073189,
    "title": "Polychaos dubium",
    "text": "Polychaos dubium — вид найпростіших-амебозоїв родини Amoebidae. Polychaos dubium був раніше відомий як Amoeba dubia.",
    "timestamp": "2015-12-06T20:11:59Z"
  },
  {
    "id": 2073192,
    "title": "П'єр Пільот",
    "text": "П'єр Пільот (Template:lang-fr, Template:н 11 грудня 1931, Жонкьєр) — канадський хокеїст, що грав на позиції захисника.",
    "timestamp": "2017-04-11T06:09:29Z"
  },
  {
    "id": 2073199,
    "title": "Вишняцький Леонід Борисович",
    "text": "Леоні́д Бори́сович Вишняцький (Template:lang-ru, Template:нар1960 р.) — російський археолог, доктор історичних наук, провідний науковий співробітник відділу археології палеоліту Інституту історії матеріальної культури РАН (м. Санкт-Петербург).",
    "timestamp": "2016-10-10T13:14:18Z"
  },
  {
    "id": 2073200,
    "title": "Ометекутлі",
    "text": "Ометекутлі (Ometecuhtli) — бог-творець, вогню в ацтекській міфології. Перекладається як «Пан подвійності», «Подвійний бог». на думку низки дослідників його культ ацтеки могли перейняти у тольтеків.",
    "timestamp": "2015-12-07T06:45:00Z"
  },
  {
    "id": 2073232,
    "title": "Патрік Ротфусс",
    "text": "Патрік Ротфусс (Template:lang-en; 6 червня 1973) — американський письменник-фантаст і викладач в коледжі. Славу йому приніс опублікований в 2007 році дебютний роман «Ім'я вітру», який почав трилогію «Хроніки вбивці Короля».",
    "timestamp": "2018-04-12T19:54:50Z"
  },
  {
    "id": 2073239,
    "title": "Сан-Лоренцо-Дорсіно",
    "text": "Сан-Лоренцо-Дорсіно (Template:lang-it) — муніципалітет в Італії, у регіоні Трентіно-Альто-Адідже,  провінція Тренто. Муніципалітет з'явився 1 січня 2015 як результат об'єднання муніципалітетів Сан-Лоренцо-ін-Банале і Дорсіно.",
    "timestamp": "2018-08-26T15:27:03Z"
  },
  {
    "id": 2073240,
    "title": "Тонакакіуатль",
    "text": "Тонакакіуатль (Tonacacíhuatl) — богиня-творець, формально очолювала разом із своїм чоловіком Тонакатекутлі пантеон ацтекських богів. Її ім'я перекладається «Володарка нашого буття».",
    "timestamp": "2015-12-07T06:47:05Z"
  },
  {
    "id": 2073264,
    "title": "Золотий кубок КОНКАКАФ (U-20, дівчата)",
    "text": "Золотий кубок КОНКАКАФ (U-20, дівчата) (Template:lang-en, Template:lang-es) — головний футбольний турнір серед дівочих футбольних збірних країн, що входять до зони КОНКАКАФ, футбольної конфедерації регіону Північної та Центральної Америки.",
    "timestamp": "2016-01-30T12:07:24Z"
  },
  {
    "id": 2073269,
    "title": "Монтуан",
    "text": "Монтуан (Template:lang-en) —  сорт яблук. Розповсюджений в Україні, Польщі, Молдові, Чехії та інших країнах.",
    "timestamp": "2017-03-09T10:55:53Z"
  },
  {
    "id": 2073270,
    "title": "Деденцова Олена Григорівна",
    "text": "Олена Григорівна Деденцова (Template:н. Template:ДН, село Мірча, тепер Радомишльського району Житомирської області) — українська радянська діячка, регулювальниця радіоапаратури Київського виробничого об'єднання «Електронмаш» імені Леніна. Депутат Верховної Ради УРСР 11-го скликання.",
    "timestamp": "2015-12-06T20:47:00Z"
  },
  {
    "id": 2073276,
    "title": "Дещинська Галина Сафонівна",
    "text": "Галина Сафонівна Дещинська (Template:н. Template:ДН, село Травневе, тепер Дубенського району Рівненської області) — українська радянська діячка, оператор по вирощуванню поросят колгоспу «Перемога» Дубенського району Рівненської області. Депутат Верховної Ради УРСР 11-го скликання.",
    "timestamp": "2015-12-06T20:54:14Z"
  },
  {
    "id": 2073280,
    "title": "Дмитревич Валентина Степанівна",
    "text": "Валентина Степанівна Дмитревич (Template:н. Template:ДН, село Волиця-Дружкопільська, тепер Горохівського району Волинської області) — українська радянська діячка, доярка колгоспу «Зоря комунізму» Горохівського району Волинської області. Депутат Верховної Ради УРСР 11-го скликання.",
    "timestamp": "2015-12-06T20:59:05Z"
  },
  {
    "id": 2073287,
    "title": "Уеуекойотль",
    "text": "Уеуекойотль (Huehuecoyotl) — бог веселощів, танців, співаків, сексу, брехні в ацтекській міфології. Його ім'я перекладається як «Старий, старий койот». Був божеством дня Куецпаллін (Ящірка), 4 трецени (1 Квітка — 13 Трава) тональпоуаллі. Часто представлявся іпостасю Макуільшочітля.",
    "timestamp": "2016-11-13T11:18:32Z"
  },
  {
    "id": 2073313,
    "title": "Зінкевич Олексій Валерійович",
    "text": "Олексі́й Вале́рійович Зінке́вич (Template:н 12 травня 1997, Володимир-ВолинськийВолинський футболіст — один з наймолодших у прем'єр лізі) — український футболіст, що грає на позиції півзахисника у клубі української Прем'єр-ліги «Шахтар» (Донецьк) та юнацькій збірній України. До 2 березня 2016 року грав у команді української Прем'єр-ліги «Волинь» (Луцьк).",
    "timestamp": "2018-07-30T11:48:10Z"
  },
  {
    "id": 2073319,
    "title": "Клюшники (зупинний пункт)",
    "text": "Клюшники — зупинна платформа Полтавської дирекції Південної залізниці, розташована у селі Клюшники Полтавської області на лінії Полтава — Кременчук.",
    "timestamp": "2018-06-07T16:45:23Z"
  },
  {
    "id": 2073327,
    "title": "Лукіан Священномученик",
    "text": "Лукіан Священномученик (Лукіан Печерський; ? — † 1243; пам'ять 28 жовтня) — пресвітер Києво-Печерської обителі.",
    "timestamp": "2017-07-28T10:45:38Z"
  },
  {
    "id": 2073333,
    "title": "Каармізе",
    "text": "Ка́армізе (Template:lang-et) — село в Естонії, у волості Ляене-Сааре повіту Сааремаа.",
    "timestamp": "2015-12-09T13:42:03Z"
  },
  {
    "id": 2073335,
    "title": "Міа Гемм",
    "text": "Міа Гемм (Template:lang-en, 17 березня 1972, Сельма) — колишня американська футболістка. Дворазова олімпійська чемпіонка (1996, 2004), дворазова чемпіонка світу (1991, 1999), двічі визнавалась футболісткою року ФІФА (2001, 2002). У 1997 році журнал «People» включив спортсменку в список 50-ти найкрасивіших людей.",
    "timestamp": "2018-06-09T14:22:14Z"
  },
  {
    "id": 2073344,
    "title": "Гетерогенність",
    "text": "Гетерогенність — (від грец. έτερος — інший + γένω — рід) — різнорідність, інородність; наявність неоднакових частин в структурі, в складі чого-небудь.",
    "timestamp": "2016-07-30T07:58:29Z"
  },
  {
    "id": 2073345,
    "title": "Вінсо",
    "text": "Вінсо (Template:lang-et) — село в Естонії, входить до складу волості Веріора, повіту Пилвамаа.",
    "timestamp": "2018-02-21T07:08:50Z"
  },
  {
    "id": 2073347,
    "title": "Вийка",
    "text": "Вийка (Template:lang-et) — село в Естонії, входить до складу волості Веріора, повіту Пилвамаа.",
    "timestamp": "2018-02-21T07:08:52Z"
  },
  {
    "id": 2073355,
    "title": "Йиемпа",
    "text": "Йи́емпа (Template:lang-et) — село в Естонії, у волості Ляене-Сааре повіту Сааремаа.",
    "timestamp": "2016-01-31T22:24:26Z"
  },
  {
    "id": 2073358,
    "title": "Хурито-урартські мови",
    "text": "Хурито-урартські мови (хуррито-урартські) — вимерла родина мов, носії яких проживали на Близькому Сході, Закавказзі, півночі Месопотамії та південному сході Малої Азії. Родина складалася з двох мов: хуритської та урартської. Також припускають належність до родини касситської мови.",
    "timestamp": "2018-04-05T17:27:31Z"
  },
  {
    "id": 2073365,
    "title": "Кескранна",
    "text": "Ке́скранна (Template:lang-et) — село в Естонії, у волості Ляене-Сааре повіту Сааремаа.",
    "timestamp": "2015-12-11T12:03:07Z"
  },
  {
    "id": 2073369,
    "title": "Пам'ятник Тарасові Шевченку (Луганськ)",
    "text": "Пам'ятник Тарасові Шевченку — пам'ятка монументального мистецтва місцевого значення у Луганську на площі Героїв Великої Вітчизняної війни у центрі містаПамятник Тарасу ШевченкоTemplate:ref-ru. Автор пам'ятника — скульптор Іван Чумак. Пам'ятник вважався традиційним місцем проведення акцій луганських патріотів.",
    "timestamp": "2017-09-27T12:07:52Z"
  },
  {
    "id": 2073373,
    "title": "Volvo 900 Серії",
    "text": "Volvo 900 — сімейство повнорозмірних задньоприводних автомобілів виробництва компанії Volvo. Випускалося з 1990 по 1998 роки. Дизайн розроблений Яном Вільсгардом. З'явилася як заміна моделі Volvo 700 Серії. Замінено у виробництві в 1998 роках моделлю Volvo S80. Всього було випущено 668,046 автомобілів в різних модифікаціях.",
    "timestamp": "2018-03-04T11:08:03Z"
  },
  {
    "id": 2073376,
    "title": "Volvo S90",
    "text": "Volvo S90 — автомобіль бізнес-класу виробництва компанії Volvo. Перше покоління Volvo S90 випускалося з 1997 по квітень 1998 року. Відноситься до європейського сегменту E. Випускалося в кузовах седан і універсал. На момент виробництва це була найпрестижніша і найдорожча модель Volvo. Всього було випущено 26 269 седанів і 9 067 універсалів.",
    "timestamp": "2018-07-03T10:51:05Z"
  },
  {
    "id": 2073380,
    "title": "Вуглекислий газ в атмосфері Землі",
    "text": "Вуглекислий газ в атмосфері Землі, станом на 2013 рік, коливався в межах від 393 ppm (0,0393 %) до 397 ppm (0,0397 %)Template:ref-en Template:cite web. Роль вуглекислого газу (CO2, двоокис або діоксид вуглецю ) в життєдіяльності біосфери полягає насамперед у підтриманні процесу фотосинтезу, який здійснюється рослинами. Оскільки двоокис вуглецю є парниковим газом, то він впливає на теплообмін планети з навколишнім простором, ефективно блокуючи відбите інфрачервоне випромінювання на низці частот, і таким чином бере участь у формуванні клімату планетиTemplate:ref-en Petty, G.W.: A First Course in Atmospheric Radiation, pages 229—251, Sundog Publishing, 2004.",
    "timestamp": "2018-02-28T13:14:15Z"
  },
  {
    "id": 2073385,
    "title": "Урартська мова",
    "text": "Ура́ртська мо́ва (ваннська, халдейськаЗастаріла і помилкова назва, оскільки халдеї були семітським народом., халдська) — загальноприйнята назва для мови, якою говорили жителі давнього царства Урарту, яке знаходилося у районі озера Ван зі столицею поруч з місцерозташуванням сучасного міста Ван на Вірменському нагір'ї, у сучасній Східній Анатолії в ТуреччиніPeople of Ancient Assyria: Their Inscriptions and Correspondence — Page 89 by Jørgen Laessøe.. Цією мовою вірогідно говорила переважна більшість населення навколо озера Ван та у районі долини Заб.",
    "timestamp": "2018-03-08T21:21:59Z"
  },
  {
    "id": 2073395,
    "title": "Вірусні повідомлення (масова комунікація)",
    "text": "Медіавіруси – це меми та мемокомплекси, які поширюються інфосферою, та інформація від яких впливає на сприйняття людьми локальних та глобальних подій. Вони вводять в інформаційний простір певні завуальовані ідеї, які, є, по суті, ідеологічними кодами. Їх носіями можуть стати події, скандали, чутки.  Наукова дисципліна, що вивчає віруси та впливові меми, називавається меметика.",
    "timestamp": "2017-05-23T19:30:14Z"
  },
  {
    "id": 2073396,
    "title": "Аннурка",
    "text": "Аннурка, італійською промовляється як «аннурче» — стародавній сорт яблуні домашньої, батьківщиною якого є Південна Італія. Вважають, що саме про цей сорт згадував Пліній Старший у своїй праці «Природнича історія», а також у 16-му столітті Жан Батіста делла Порта. Однак під такою назвою про цей сорт вперше згадує Джузеппе Антоніо Паскуале.",
    "timestamp": "2017-03-09T10:55:54Z"
  },
  {
    "id": 2073411,
    "title": "Пожарський Дмитро Павлович",
    "text": "Дмитро́ Па́влович Пожа́рський — старший солдат Збройних сил України.",
    "timestamp": "2018-06-16T20:01:25Z"
  },
  {
    "id": 2073414,
    "title": "Скрипниченко",
    "text": "Скрипниче́нко — українське прізвище.",
    "timestamp": "2016-12-02T06:43:40Z"
  },
  {
    "id": 2073415,
    "title": "Гацько-Федусова Ганна Володимирівна",
    "text": "Га́нна Гацько́-Феду́сова — українська легкоатлетка, метальниця списа. Представляє Запорізьку область.",
    "timestamp": "2018-06-05T09:11:15Z"
  },
  {
    "id": 2073416,
    "title": "Гнатенко Віталій Вікторович",
    "text": "Віта́лій Ві́кторович Гнате́нко — старшина Збройних сил України.",
    "timestamp": "2018-02-06T18:46:54Z"
  },
  {
    "id": 2073417,
    "title": "Антупічяй",
    "text": "Антупічяй — село у Литві, Расейняйський район, бетиґальське староство, знаходиться за 4 км від села Бетиґала. 2001 року в селі проживало 42 людей.",
    "timestamp": "2018-02-21T07:08:54Z"
  },
  {
    "id": 2073424,
    "title": "Газель Гранта",
    "text": "Газе́ль Гранта (Nanger granti) — вид парнокопитних ссавців родини бикових (Bovidae).",
    "timestamp": "2018-03-03T10:43:07Z"
  },
  {
    "id": 2073440,
    "title": "Тарасюк Оксана Борисівна",
    "text": "Оксана Борисівна Тарасюк (Template:н 23 лютого 1972, Київ) — український дипломат. Генеральний консул України в Гамбурзі (Німеччина) (з 2015).",
    "timestamp": "2018-09-23T08:28:51Z"
  },
  {
    "id": 2073450,
    "title": "Дмитрієвка (Мраковська сільська рада)",
    "text": "Дми́трієвка (Template:lang-ru, Template:lang-ba) — присілок у складі Гафурійського району Башкортостану, Росія. Входить до складу Мраковської сільської ради.",
    "timestamp": "2015-12-07T07:24:29Z"
  },
  {
    "id": 2073452,
    "title": "Карли",
    "text": "Карли́ (Template:lang-ru, Template:lang-ba) — присілок у складі Гафурійського району Башкортостану, Росія. Входить до складу Мраковської сільської ради.",
    "timestamp": "2015-12-07T07:31:53Z"
  },
  {
    "id": 2073453,
    "title": "Мраково (Гафурійський район)",
    "text": "Мра́ково (Template:lang-ru, Template:lang-ba) — село у складі Гафурійського району Башкортостану, Росія. Адміністративний центр Мраковської сільської ради.",
    "timestamp": "2015-12-07T07:34:36Z"
  },
  {
    "id": 2073454,
    "title": "Юнусободська лінія",
    "text": "Юнусободська лінія  (Template:lang-uz) — лінія Ташкентського метрополітену. Введена в експлуатацію 26 жовтня 2001.",
    "timestamp": "2015-12-07T07:36:32Z"
  },
  {
    "id": 2073455,
    "title": "Янгіскаїн",
    "text": "Янгіскаї́н (Template:lang-ru, Template:lang-ba) — село у складі Гафурійського району Башкортостану, Росія. Адміністративний центр Янгіскаїнської сільської ради.",
    "timestamp": "2017-03-19T13:28:11Z"
  },
  {
    "id": 2073457,
    "title": "Марта Вецька",
    "text": "Марта Анна ВєцкаПаломництво мощей блаженної Марти Вєцкої до Маріуполя (Template:lang-pl; 12 січня 1874, Новий Вєц; Template:lang-pl — 30 травня 1904, Снятин) — римо-католицька релігійна діячка, блаженна РКЦ. Етнічна полька.",
    "timestamp": "2018-02-23T04:38:47Z"
  },
  {
    "id": 2073458,
    "title": "Ноябревка",
    "text": "Ноя́бревка (Template:lang-ru, Template:lang-ba) — присілок у складі Гафурійського району Башкортостану, Росія. Входить до складу Янгіскаїнської сільської ради.",
    "timestamp": "2015-12-07T07:41:14Z"
  },
  {
    "id": 2073460,
    "title": "Урал (Гафурійський район)",
    "text": "Ура́л (Template:lang-ru, Template:lang-ba) — присілок у складі Гафурійського району Башкортостану, Росія. Входить до складу Янгіскаїнської сільської ради.",
    "timestamp": "2015-12-07T07:43:05Z"
  },
  {
    "id": 2073461,
    "title": "Тугаєво (Гафурійський район)",
    "text": "Туга́єво (Template:lang-ru, Template:lang-ba) — присілок у складі Гафурійського району Башкортостану, Росія. Входить до складу Утяковської сільської ради.",
    "timestamp": "2015-12-07T07:46:52Z"
  },
  {
    "id": 2073464,
    "title": "Ігенчеляр (Гафурійський район)",
    "text": "Ігенчеля́р (Template:lang-ru, Template:lang-ba) — присілок у складі Гафурійського району Башкортостану, Росія. Входить до складу Утяковської сільської ради.",
    "timestamp": "2015-12-07T07:53:02Z"
  },
  {
    "id": 2073467,
    "title": "Іктісад",
    "text": "Іктіса́д (Template:lang-ru, Template:lang-ba) — присілок у складі Гафурійського району Башкортостану, Росія. Входить до складу Утяковської сільської ради.",
    "timestamp": "2015-12-07T07:57:23Z"
  },
  {
    "id": 2073468,
    "title": "Утяково (Гафурійський район)",
    "text": "Утя́ково (Template:lang-ru, Template:lang-ba) — село у складі Гафурійського району Башкортостану, Росія. Адміністративний центр Утяковської сільської ради.",
    "timestamp": "2017-03-13T21:51:00Z"
  },
  {
    "id": 2073470,
    "title": "Майкл Ллойд Коутс",
    "text": "Майкл Л. Коутс (Template:lang-en) — астронавт США. Здійснив три космічні польоти на шатлі «Діскавері» : STS-41-D (1984) — як пілот, а як командир корабля — під час STS-29 (1989) і STS-39 (1991), полковник.",
    "timestamp": "2017-07-01T05:53:04Z"
  },
  {
    "id": 2073473,
    "title": "Нижній Ташбукан",
    "text": "Нижній Ташбука́н (Template:lang-ru, Template:lang-ba) — село у складі Гафурійського району Башкортостану, Росія. Адміністративний центр Ташбуканівської сільської ради.",
    "timestamp": "2015-12-07T08:07:30Z"
  },
  {
    "id": 2073476,
    "title": "Верхній Ташбукан",
    "text": "Верхній Ташбука́н (Template:lang-ru, Template:lang-ba) — присілок у складі Гафурійського району Башкортостану, Росія. Входить до складу Ташбуканівської сільської ради.",
    "timestamp": "2015-12-07T08:07:47Z"
  },
  {
    "id": 2073478,
    "title": "Кургашла",
    "text": "Кургашла́ (Template:lang-ru, Template:lang-ba) — присілок у складі Гафурійського району Башкортостану, Росія. Входить до складу Ташбуканівської сільської ради.",
    "timestamp": "2015-12-07T08:14:15Z"
  },
  {
    "id": 2073480,
    "title": "Красноусольський",
    "text": "Красноусо́льський (Template:lang-ru, Template:lang-ba) — село, центр Гафурійського району Башкортостану, Росія. Адміністративний центр Красноусольської сільської ради.",
    "timestamp": "2015-12-07T08:17:17Z"
  },
  {
    "id": 2073482,
    "title": "Курорта",
    "text": "Куро́рта (Template:lang-ru, Template:lang-ba) — село у складі Гафурійського району Башкортостану, Росія. Входить до складу Красноусольської сільської ради.",
    "timestamp": "2015-12-07T08:20:52Z"
  },
  {
    "id": 2073483,
    "title": "Пчолосовхоза",
    "text": "Пчолосовхо́за (Template:lang-ru, Template:lang-ba) — присілок у складі Гафурійського району Башкортостану, Росія. Входить до складу Красноусольської сільської ради.",
    "timestamp": "2015-12-07T08:24:33Z"
  },
  {
    "id": 2073485,
    "title": "Білий Камінь (Гафурійський район)",
    "text": "Білий Камінь (Template:lang-ru, Template:lang-ba) — присілок у складі Гафурійського району Башкортостану, Росія. Входить до складу Красноусольської сільської ради.",
    "timestamp": "2015-12-07T08:28:17Z"
  },
  {
    "id": 2073486,
    "title": "Зарічний (Гафурійський район)",
    "text": "Зарі́чний (Template:lang-ru, Template:lang-ba) — присілок у складі Гафурійського району Башкортостану, Росія. Входить до складу Красноусольської сільської ради.",
    "timestamp": "2015-12-07T08:33:31Z"
  },
  {
    "id": 2073487,
    "title": "Краснодубровськ",
    "text": "Краснодубро́вськ (Template:lang-ru, Template:lang-ba) — присілок у складі Гафурійського району Башкортостану, Росія. Входить до складу Більської сільської ради.",
    "timestamp": "2015-12-07T08:37:42Z"
  },
  {
    "id": 2073488,
    "title": "Цапаловка",
    "text": "Цапа́ловка (Template:lang-ru, Template:lang-ba) — присілок у складі Гафурійського району Башкортостану, Росія. Входить до складу Більської сільської ради.",
    "timestamp": "2015-12-07T08:39:43Z"
  },
  {
    "id": 2073489,
    "title": "Новокарамишево",
    "text": "Новокара́мишево (Template:lang-ru, Template:lang-ba) — присілок у складі Гафурійського району Башкортостану, Росія. Входить до складу Більської сільської ради.",
    "timestamp": "2015-12-07T08:42:02Z"
  },
  {
    "id": 2073490,
    "title": "Кутлугуза",
    "text": "Кутлугу́за (Template:lang-ru, Template:lang-ba) — присілок у складі Гафурійського району Башкортостану, Росія. Входить до складу Більської сільської ради.",
    "timestamp": "2015-12-07T08:44:46Z"
  },
  {
    "id": 2073491,
    "title": "Інзелга",
    "text": "Інзелга́ (Template:lang-ru, Template:lang-ba) — село у складі Гафурійського району Башкортостану, Росія. Адміністративний центр Більської сільської ради.",
    "timestamp": "2015-12-07T08:46:44Z"
  },
  {
    "id": 2073493,
    "title": "Руський Саскуль",
    "text": "Ру́ський Саску́ль (Template:lang-ru, Template:lang-ba) — присілок у складі Гафурійського району Башкортостану, Росія. Входить до складу Білоозерської сільської ради.",
    "timestamp": "2015-12-07T08:49:56Z"
  },
  {
    "id": 2073496,
    "title": "Татарський Саскуль",
    "text": "Тата́рський Саску́ль (Template:lang-ru, Template:lang-ba) — присілок у складі Гафурійського району Башкортостану, Росія. Входить до складу Білоозерської сільської ради.",
    "timestamp": "2015-12-07T08:53:15Z"
  },
  {
    "id": 2073497,
    "title": "Лугова (Гафурійський район)",
    "text": "Лугова́ (Template:lang-ru, Template:lang-ba) — присілок у складі Гафурійського району Башкортостану, Росія. Входить до складу Білоозерської сільської ради.",
    "timestamp": "2015-12-07T08:56:29Z"
  },
  {
    "id": 2073499,
    "title": "Воїновка",
    "text": "Вої́новка (Template:lang-ru, Template:lang-ba) — присілок у складі Гафурійського району Башкортостану, Росія. Входить до складу Білоозерської сільської ради.",
    "timestamp": "2015-12-07T09:01:05Z"
  },
  {
    "id": 2073501,
    "title": "Уваровка (Гафурійський район)",
    "text": "Ува́ровка (Template:lang-ru, Template:lang-ba) — присілок у складі Гафурійського району Башкортостану, Росія. Входить до складу Білоозерської сільської ради.",
    "timestamp": "2015-12-07T09:03:21Z"
  },
  {
    "id": 2073503,
    "title": "Виключення СРСР з Ліги Націй",
    "text": "Виключення СРСР з Ліги Націй — резолюція Асамблеї та постанова Ради Ліги Націй про виключення Радянського Союзу з цієї міжнародної організації з осудом «дій СРСР, спрямованих проти Фінляндської держави», а саме: за розв'язування війни з Фінляндією. Виключення відбулося 14 грудня 1939 у Палаці Націй, штаб-квартирі Ліги в Женеві (Швейцарія).",
    "timestamp": "2017-08-25T15:26:30Z"
  },
  {
    "id": 2073507,
    "title": "Дар'їно (Гафурійський район)",
    "text": "Да́р'їно (Template:lang-ru, Template:lang-ba) — присілок у складі Гафурійського району Башкортостану, Росія. Входить до складу Білоозерської сільської ради.",
    "timestamp": "2015-12-07T09:07:07Z"
  },
  {
    "id": 2073511,
    "title": "Івановка (Гафурійський район)",
    "text": "Іва́новка (Template:lang-ru, Template:lang-ba) — село у складі Гафурійського району Башкортостану, Росія. Входить до складу Білоозерської сільської ради.",
    "timestamp": "2015-12-07T09:09:09Z"
  },
  {
    "id": 2073513,
    "title": "Антоновка (Гафурійський район)",
    "text": "Анто́новка (Template:lang-ru, Template:lang-ba) — село у складі Гафурійського району Башкортостану, Росія. Входить до складу Білоозерської сільської ради.",
    "timestamp": "2015-12-07T09:12:43Z"
  },
  {
    "id": 2073517,
    "title": "Біле Озеро (Гафурійський район)",
    "text": "Біле Озеро (Template:lang-ru, Template:lang-ba) — село у складі Гафурійського району Башкортостану, Росія. Адміністративний центр Білоозерської сільської ради.",
    "timestamp": "2015-12-07T09:16:46Z"
  },
  {
    "id": 2073521,
    "title": "Білоозеровка",
    "text": "Білоозе́ровка (Template:lang-ru, Template:lang-ba) — присілок у складі Гафурійського району Башкортостану, Росія. Входить до складу Білоозерської сільської ради.",
    "timestamp": "2015-12-07T09:32:00Z"
  },
  {
    "id": 2073522,
    "title": "Мізантроп (п'єса)",
    "text": "«Мізантроп» (Template:lang-fr) — віршована вистава Мольєра, прем'єра якої відбулась 4 червня 1666 року в театрі Пале-Рояль.",
    "timestamp": "2017-10-11T09:17:08Z"
  },
  {
    "id": 2073524,
    "title": "Соф'їно (Гафурійський район)",
    "text": "Со́ф'їно (Template:lang-ru, Template:lang-ba) — присілок у складі Гафурійського району Башкортостану, Росія. Входить до складу Білоозерської сільської ради.",
    "timestamp": "2015-12-07T09:24:13Z"
  },
  {
    "id": 2073525,
    "title": "Гіґенбах",
    "text": "Гіґенбах — підводний вулкан, розташований у Тихому океані на північний захід від вулкану Маколей в 800 км на північний схід від Нової Зеландії, в районі островів Кермадек, вища точка якого знаходиться на глибині 65 м. Названий на честь геохіміка Вернера Гіґенбаха (Template:lang-en). Максимальні глибини досягають 1600 м.",
    "timestamp": "2016-05-12T12:32:04Z"
  },
  {
    "id": 2073530,
    "title": "Дмитрієвка (Білоозерська сільська рада)",
    "text": "Дми́трієвка (Template:lang-ru, Template:lang-ba) — присілок у складі Гафурійського району Башкортостану, Росія. Входить до складу Білоозерської сільської ради.",
    "timestamp": "2015-12-07T09:30:59Z"
  },
  {
    "id": 2073538,
    "title": "Подорож ученого доктора Леонардо і його майбутньої коханки прекрасної Альчести у Слобожанську Швайцарію",
    "text": "Подорож ученого доктора Леонардо і його майбутньої коханки прекрасної Альчести у Слобожанську Швайцарію - другий роман Майка Йогансена. На думку Олега Коцарева, цей твір разом з «Голяндією» Дмитра Бузька є найдовершенішим зразком «формалістичного роману» [1].",
    "timestamp": "2018-01-27T06:18:06Z"
  },
  {
    "id": 2073539,
    "title": "Трамвай у Теміртау",
    "text": "Трамвай у Теміртау -діюча трамвайна мережа у місті Теміртау, Казахстан, відкрита у 1959 році.",
    "timestamp": "2015-12-09T08:17:42Z"
  },
  {
    "id": 2073540,
    "title": "Єтцендорф",
    "text": "Єтцендорф (Template:lang-de) — громада в Німеччині, розташована в землі Баварія. Підпорядковується адміністративному округу Верхня Баварія. Входить до складу району Пфаффенгофен.",
    "timestamp": "2015-12-07T10:01:56Z"
  },
  {
    "id": 2073542,
    "title": "Баар-Ебенгаузен",
    "text": "Баар-Ебенгаузен (Template:lang-de) — громада в Німеччині, розташована в землі Баварія. Підпорядковується адміністративному округу Верхня Баварія. Входить до складу району Пфаффенгофен.",
    "timestamp": "2016-01-08T22:48:36Z"
  },
  {
    "id": 2073544,
    "title": "Вольнцах",
    "text": "Вольнцах (Template:lang-de) — громада в Німеччині, розташована в землі Баварія. Підпорядковується адміністративному округу Верхня Баварія. Входить до складу району Пфаффенгофен.",
    "timestamp": "2017-08-28T08:28:37Z"
  },
  {
    "id": 2073546,
    "title": "Гайзенфельд",
    "text": "Гайзенфельд (Template:lang-de) — місто в Німеччині, розташоване в землі Баварія. Підпорядковується адміністративному округу Верхня Баварія. Входить до складу району Пфаффенгофен. Центр об'єднання громад Гайзенфельд.",
    "timestamp": "2015-12-07T10:06:43Z"
  },
  {
    "id": 2073549,
    "title": "Герольсбах",
    "text": "Герольсбах (Template:lang-de) — громада в Німеччині, розташована в землі Баварія. Підпорядковується адміністративному округу Верхня Баварія. Входить до складу району Пфаффенгофен.",
    "timestamp": "2015-12-07T10:04:16Z"
  },
  {
    "id": 2073551,
    "title": "Геттенсгаузен",
    "text": "Геттенсгаузен (Template:lang-de) — громада в Німеччині, розташована в землі Баварія. Підпорядковується адміністративному округу Верхня Баварія. Входить до складу району Пфаффенгофен. Складова частина об'єднання громад Ільммюнстер.",
    "timestamp": "2015-12-07T10:08:26Z"
  },
  {
    "id": 2073555,
    "title": "Гоенварт",
    "text": "Гоенварт (Template:lang-de) — громада в Німеччині, розташована в землі Баварія. Підпорядковується адміністративному округу Верхня Баварія. Входить до складу району Пфаффенгофен.",
    "timestamp": "2015-12-07T10:09:18Z"
  },
  {
    "id": 2073558,
    "title": "Ернсгаден",
    "text": "Ернсгаден (Template:lang-de) — громада в Німеччині, розташована в землі Баварія. Підпорядковується адміністративному округу Верхня Баварія. Входить до складу району Пфаффенгофен. Складова частина об'єднання громад Гайзенфельд.",
    "timestamp": "2015-12-07T10:10:05Z"
  },
  {
    "id": 2073560,
    "title": "Ільммюнстер",
    "text": "Ільммюнстер (Template:lang-de) — громада в Німеччині, розташована в землі Баварія. Підпорядковується адміністративному округу Верхня Баварія. Входить до складу району Пфаффенгофен. Центр об'єднання громад Ільммюнстер.",
    "timestamp": "2018-01-12T14:53:39Z"
  },
  {
    "id": 2073562,
    "title": "Манхінг",
    "text": "Манхінг (Template:lang-de) — громада в Німеччині, розташована в землі Баварія. Підпорядковується адміністративному округу Верхня Баварія. Входить до складу району Пфаффенгофен.",
    "timestamp": "2015-12-07T10:12:00Z"
  },
  {
    "id": 2073564,
    "title": "Мюнксмюнстер",
    "text": "Мюнксмюнстер (Template:lang-de) — громада в Німеччині, розташована в землі Баварія. Підпорядковується адміністративному округу Верхня Баварія. Входить до складу району Пфаффенгофен.",
    "timestamp": "2015-12-07T10:12:44Z"
  },
  {
    "id": 2073566,
    "title": "Пернбах",
    "text": "Пернбах (Template:lang-de) — громада в Німеччині, розташована в землі Баварія. Підпорядковується адміністративному округу Верхня Баварія. Входить до складу району Пфаффенгофен. Складова частина об'єднання громад Райхертсгофен.",
    "timestamp": "2015-12-07T10:14:20Z"
  },
  {
    "id": 2073569,
    "title": "Пфаффенгофен-ан-дер-Ільм",
    "text": "Пфаффенгофен-ан-дер-Ільм (Template:lang-de) — місто в Німеччині, розташоване в землі Баварія. Підпорядковується адміністративному округу Верхня Баварія. Адміністративний центр району Пфаффенгофен.",
    "timestamp": "2015-12-07T10:15:45Z"
  },
  {
    "id": 2073571,
    "title": "Райхертсгаузен",
    "text": "Райхертсгаузен (Template:lang-de) — громада в Німеччині, розташована в землі Баварія. Підпорядковується адміністративному округу Верхня Баварія. Входить до складу району Пфаффенгофен.",
    "timestamp": "2015-12-07T10:16:54Z"
  },
  {
    "id": 2073573,
    "title": "Райхертсгофен",
    "text": "Райхертсгофен (Template:lang-de) — громада в Німеччині, розташована в землі Баварія. Підпорядковується адміністративному округу Верхня Баварія. Входить до складу району Пфаффенгофен. Центр об'єднання громад Райхертсгофен.",
    "timestamp": "2015-12-07T10:17:30Z"
  },
  {
    "id": 2073575,
    "title": "Рорбах (Баварія)",
    "text": "Рорбах (Template:lang-de) — громада в Німеччині, розташована в землі Баварія. Підпорядковується адміністративному округу Верхня Баварія. Входить до складу району Пфаффенгофен.",
    "timestamp": "2015-12-07T10:18:23Z"
  },
  {
    "id": 2073577,
    "title": "Фобург",
    "text": "Фобург (Template:lang-de) — місто в Німеччині, розташоване в землі Баварія. Підпорядковується адміністративному округу Верхня Баварія. Входить до складу району Пфаффенгофен.",
    "timestamp": "2015-12-07T10:19:51Z"
  },
  {
    "id": 2073579,
    "title": "Кусака Дзін'їті",
    "text": "Дзін'їті Кусака (草鹿 任 一 Kusaka Jin'ichi, 7 грудня 1888 — 24 серпня 1972) — адмірал у Японському імператорському флоті під час Другої світової війни, двоюрідний брат адмірала Рюносуке Кусаки.",
    "timestamp": "2018-10-12T00:42:49Z"
  },
  {
    "id": 2073581,
    "title": "Гагарка (Республіка Алтай)",
    "text": "Гагарка (Template:lang-ru) — село Усть-Коксинського району, Республіка Алтай Росії. Входить до складу Верх-Уймонського сільського поселення.",
    "timestamp": "2016-05-05T15:48:05Z"
  },
  {
    "id": 2073582,
    "title": "Шеєрн",
    "text": "Шеєрн (Template:lang-de) — громада в Німеччині, розташована в землі Баварія. Підпорядковується адміністративному округу Верхня Баварія. Входить до складу району Пфаффенгофен.",
    "timestamp": "2018-02-04T17:41:49Z"
  },
  {
    "id": 2073585,
    "title": "Швайтенкірхен",
    "text": "Швайтенкірхен (Template:lang-de) — громада в Німеччині, розташована в землі Баварія. Підпорядковується адміністративному округу Верхня Баварія. Входить до складу району Пфаффенгофен.",
    "timestamp": "2015-12-07T10:21:17Z"
  },
  {
    "id": 2073587,
    "title": "Церква Святого Духа (Таллінн)",
    "text": "Церква Святого Духа (Template:Lang-et)  — це середньовічна лютеранська церква у Старому місті Таллінна, Естонія. Вона розташована за Ратушною площею, на вулиці Пюхавайму, навпроти Великої гільдії та «Maiasmokk», найстарішого кафе міста.",
    "timestamp": "2015-12-10T20:25:02Z"
  },
  {
    "id": 2073590,
    "title": "Іль де Сандр",
    "text": "Іль де Сандр, Острів Попелу (Template:lang-vi, Template:lang-fr) — група підводних вулканів, що знаходяться на південь від острова Фукуй, в 130 км на південний схід від в'єтнамського міста Фантх'єт.",
    "timestamp": "2016-05-12T11:03:22Z"
  },
  {
    "id": 2073592,
    "title": "Тихенька",
    "text": "Тихенька (Template:lang-ru) — село Усть-Коксинського району, Республіка Алтай Росії. Входить до складу Верх-Уймонського сільського поселення.",
    "timestamp": "2015-12-07T10:26:28Z"
  },
  {
    "id": 2073596,
    "title": "Розенгайм (район)",
    "text": "Розенгайм (Template:lang-de) — район у Німеччині, у складі округу Верхня Баварія федеральної землі Баварія. Центр району — місто Розенгайм, яке адміністративно до його складу не входить.",
    "timestamp": "2015-12-07T10:40:39Z"
  },
  {
    "id": 2073607,
    "title": "Анос (село)",
    "text": "Анос (Template:lang-ru) — село Чемальського району, Республіка Алтай Росії. Входить до складу Аносинського сільського поселення.",
    "timestamp": "2016-01-13T07:53:23Z"
  },
  {
    "id": 2073608,
    "title": "Аюла (село)",
    "text": "Аюла (Template:lang-ru) — село Чемальського району, Республіка Алтай Росії. Входить до складу Аносинського сільського поселення.",
    "timestamp": "2015-12-07T10:56:21Z"
  },
  {
    "id": 2073609,
    "title": "Верх-Анос",
    "text": "Верх-Анос (Template:lang-ru) — село Чемальського району, Республіка Алтай Росії. Входить до складу Аносинського сільського поселення.",
    "timestamp": "2016-01-13T08:01:50Z"
  },
  {
    "id": 2073611,
    "title": "Бешпельтир",
    "text": "Бешпельтир (Template:lang-ru) — село Чемальського району, Республіка Алтай Росії. Входить до складу Бешпельтирського сільського поселення.",
    "timestamp": "2015-12-07T11:19:56Z"
  },
  {
    "id": 2073613,
    "title": "Куюс",
    "text": "Куюс (Template:lang-ru) — село Чемальського району, Республіка Алтай Росії. Входить до складу Куюського сільського поселення.",
    "timestamp": "2016-01-14T06:41:23Z"
  },
  {
    "id": 2073614,
    "title": "Ороктой",
    "text": "Ороктой (Template:lang-ru) — село Чемальського району, Республіка Алтай Росії. Входить до складу Куюського сільського поселення.",
    "timestamp": "2015-12-07T11:25:13Z"
  },
  {
    "id": 2073615,
    "title": "Едиган (село)",
    "text": "Едиган (Template:lang-ru) — село Чемальського району, Республіка Алтай Росії. Входить до складу Куюського сільського поселення.",
    "timestamp": "2015-12-07T11:34:19Z"
  },
  {
    "id": 2073616,
    "title": "Аскат",
    "text": "Аскат (Template:lang-ru)  — село Чемальського району, Республіка Алтай Росії. Входить до складу Узнезисинського сільського поселення.",
    "timestamp": "2017-05-17T14:57:18Z"
  },
  {
    "id": 2073617,
    "title": "Нижній Куюм",
    "text": "Нижній Куюм (Template:lang-ru) — село Чемальського району, Республіка Алтай Росії. Входить до складу Узнезисинського сільського поселення.",
    "timestamp": "2016-01-14T14:42:39Z"
  },
  {
    "id": 2073618,
    "title": "Турбаза «Катунь»",
    "text": "Турбаза «Катунь» (Template:lang-ru) — село Чемальського району, Республіка Алтай Росії. Входить до складу Узнезисинського сільського поселення.",
    "timestamp": "2015-12-07T11:26:34Z"
  },
  {
    "id": 2073620,
    "title": "Узнезя",
    "text": "Узнезя (Template:lang-ru) — село Чемальського району, Республіка Алтай Росії. Входить до складу Узнезисинського сільського поселення.",
    "timestamp": "2016-01-20T13:29:49Z"
  },
  {
    "id": 2073621,
    "title": "Кімзе (громада)",
    "text": "Кімзе (Template:lang-de) — громада в Німеччині, розташована в землі Баварія на островах посеред однойменного озера. Підпорядковується адміністративному округу Верхня Баварія. Входить до складу району Розенгайм. Складова частина об'єднання громад Брайтбрунн-ам-Кімзе.",
    "timestamp": "2015-12-07T10:48:58Z"
  },
  {
    "id": 2073623,
    "title": "Єланда (Республіка Алтай)",
    "text": "Єланда (Template:lang-ru) — село Чемальського району, Республіка Алтай Росії. Входить до складу Чемальського сільського поселення.",
    "timestamp": "2015-12-07T11:22:08Z"
  },
  {
    "id": 2073624,
    "title": "Толгоєк",
    "text": "Толгоєк (Template:lang-ru) — село Чемальського району, Республіка Алтай Росії. Входить до складу Чемальського сільського поселення.",
    "timestamp": "2015-12-07T11:25:52Z"
  },
  {
    "id": 2073625,
    "title": "Уожан",
    "text": "Уожан (Template:lang-ru) — село Чемальського району, Республіка Алтай Росії. Входить до складу Чемальського сільського поселення.",
    "timestamp": "2015-12-07T11:28:37Z"
  },
  {
    "id": 2073626,
    "title": "Чемал (село)",
    "text": "Чемал (Template:lang-ru) — село Чемальського району, Республіка Алтай Росії. Входить до складу Чемальського сільського поселення.",
    "timestamp": "2015-12-07T11:31:29Z"
  },
  {
    "id": 2073627,
    "title": "Усть-Сема",
    "text": "Усть-Сема (Template:lang-ru) — село Чемальського району, Республіка Алтай Росії. Входить до складу Чепоського сільського поселення.",
    "timestamp": "2015-12-07T11:29:42Z"
  },
  {
    "id": 2073628,
    "title": "Табинське",
    "text": "Таби́нське (Template:lang-ru, Template:lang-ba) — село у складі Гафурійського району Башкортостану, Росія. Адміністративний центр Табинської сільської ради.",
    "timestamp": "2015-12-07T10:48:00Z"
  },
  {
    "id": 2073629,
    "title": "Чепош (село)",
    "text": "Чепош (Template:lang-ru) — село Чемальського району, Республіка Алтай Росії. Входить до складу Чепоського сільського поселення.",
    "timestamp": "2016-02-01T15:16:11Z"
  },
  {
    "id": 2073630,
    "title": "Каракол (Чемальський район)",
    "text": "Каракол (Template:lang-ru) — село Чемальського району, Республіка Алтай Росії. Входить до складу Елекмонарського сільського поселення.",
    "timestamp": "2016-01-14T10:10:27Z"
  },
  {
    "id": 2073632,
    "title": "Родина (Гафурійський район)",
    "text": "Ро́дина (Template:lang-ru, Template:lang-ba) — село у складі Гафурійського району Башкортостану, Росія. Входить до складу Табинської сільської ради.",
    "timestamp": "2015-12-07T10:54:16Z"
  },
  {
    "id": 2073636,
    "title": "Архангельське (Гафурійський район)",
    "text": "Арха́нгельське (Template:lang-ru, Template:lang-ba) — село у складі Гафурійського району Башкортостану, Росія. Входить до складу Табинської сільської ради.",
    "timestamp": "2015-12-07T11:02:53Z"
  },
  {
    "id": 2073641,
    "title": "Ахметка",
    "text": "Ахме́тка (Template:lang-ru, Template:lang-ba) — присілок у складі Гафурійського району Башкортостану, Росія. Входить до складу Табинської сільської ради.",
    "timestamp": "2015-12-07T11:27:05Z"
  },
  {
    "id": 2073643,
    "title": "Кавачі (вулкан)",
    "text": "Кавачі — один із найактивніших підводних вулканів південного заходу Тихого океану. Розташований в акваторії Соломонових Островів південніше острова Вангуну. Названий на честь морського бога аборигенів архіпелагу Нью-Джорджія. Місцеві жителі називають його також «Rejo te Kavachi» («Піч Кавачі»). Вперше його виверження було зафіксоване 1939 рокуGlobal Volcanism Program | Kavachi | Eruptive History. Відтоді вулкан піднімався і опускався над рівнем моря 8 разів.",
    "timestamp": "2018-02-01T17:02:34Z"
  },
  {
    "id": 2073645,
    "title": "Павловка (Гафурійський район)",
    "text": "Па́вловка (Template:lang-ru, Template:lang-ba) — присілок у складі Гафурійського району Башкортостану, Росія. Входить до складу Табинської сільської ради.",
    "timestamp": "2015-12-07T11:29:52Z"
  },
  {
    "id": 2073650,
    "title": "Ускуч (село)",
    "text": "Ускуч (Template:lang-ru) — село Чойського району, Республіка Алтай Росії. Входить до складу Верх-П'янковського сільського поселення.",
    "timestamp": "2015-12-07T12:29:09Z"
  },
  {
    "id": 2073651,
    "title": "Велика Кузя (Республіка Алтай)",
    "text": "Велика Кузя (Template:lang-ru) — село Чойського району, Республіка Алтай Росії. Входить до складу Каракокшинського сільського поселення.",
    "timestamp": "2015-12-07T12:31:03Z"
  },
  {
    "id": 2073652,
    "title": "Каракокша (село)",
    "text": "Каракокша (Template:lang-ru) — село Чойського району, Республіка Алтай Росії. Входить до складу Каракокшинського сільського поселення.",
    "timestamp": "2016-01-14T10:05:36Z"
  },
  {
    "id": 2073653,
    "title": "Побєда (Гафурійський район)",
    "text": "Побє́да (Template:lang-ru, Template:lang-ba) — присілок у складі Гафурійського району Башкортостану, Росія. Входить до складу Табинської сільської ради.",
    "timestamp": "2016-08-19T17:12:33Z"
  },
  {
    "id": 2073654,
    "title": "Кузя (Республіка Алтай)",
    "text": "Кузя (Template:lang-ru) — село Чойського району, Республіка Алтай Росії. Входить до складу Каракокшинського сільського поселення.",
    "timestamp": "2018-05-31T18:54:08Z"
  },
  {
    "id": 2073655,
    "title": "Нікольське (Республіка Алтай)",
    "text": "Нікольське (Template:lang-ru) — село Чойського району, Республіка Алтай Росії. Входить до складу Каракокшинського сільського поселення.",
    "timestamp": "2015-12-07T12:13:08Z"
  },
  {
    "id": 2073657,
    "title": "Кара-Торбок",
    "text": "Кара-Торбок (Template:lang-ru) — село Чойського району, Республіка Алтай Росії. Входить до складу Паспаульського сільського поселення.",
    "timestamp": "2015-12-07T12:36:22Z"
  },
  {
    "id": 2073658,
    "title": "Левинка (Республіка Алтай)",
    "text": "Левинка (Template:lang-ru) — село Чойського району, Республіка Алтай Росії. Входить до складу Паспаульського сільського поселення.",
    "timestamp": "2015-12-07T12:10:53Z"
  },
  {
    "id": 2073659,
    "title": "Паспаул (село)",
    "text": "Паспаул (Template:lang-ru) — село Чойського району, Республіка Алтай Росії. Входить до складу Паспаульського сільського поселення.",
    "timestamp": "2015-12-07T12:14:26Z"
  },
  {
    "id": 2073660,
    "title": "Карбід (роман)",
    "text": "Карбід - пригодницький роман Андрія Любки, що був виданий літературною корпорацією Meridian Czernowitz у 2015 році.",
    "timestamp": "2017-05-16T15:51:24Z"
  },
  {
    "id": 2073661,
    "title": "Салганда",
    "text": "Салганда (Template:lang-ru) — село Чойського району, Республіка Алтай Росії. Входить до складу Паспаульського сільського поселення.",
    "timestamp": "2015-12-07T12:15:19Z"
  },
  {
    "id": 2073662,
    "title": "Сугул",
    "text": "Сугул (Template:lang-ru) — село Чойського району, Республіка Алтай Росії. Входить до складу Паспаульського сільського поселення.",
    "timestamp": "2015-12-07T12:26:00Z"
  },
  {
    "id": 2073663,
    "title": "Сухий Карасук",
    "text": "Сухий Карасук (Template:lang-ru) — село Чойського району, Республіка Алтай Росії. Входить до складу Паспаульського сільського поселення.",
    "timestamp": "2015-12-07T12:26:54Z"
  },
  {
    "id": 2073664,
    "title": "Туньжа",
    "text": "Туньжа (Template:lang-ru) — село Чойського району, Республіка Алтай Росії. Входить до складу Паспаульського сільського поселення.",
    "timestamp": "2015-12-07T12:27:40Z"
  },
  {
    "id": 2073665,
    "title": "Березовка (Гафурійський район)",
    "text": "Бере́зовка (Template:lang-ru, Template:lang-ba) — присілок у складі Гафурійського району Башкортостану, Росія. Входить до складу Табинської сільської ради.",
    "timestamp": "2015-12-07T11:47:51Z"
  },
  {
    "id": 2073667,
    "title": "Уймень (село)",
    "text": "Уймень (Template:lang-ru) — село Чойського району, Республіка Алтай Росії. Входить до складу Уйменського сільського поселення.",
    "timestamp": "2016-01-20T13:30:52Z"
  }
]