[
  {
    "id": 2052836,
    "title": "Інститут транспорту нафти",
    "text": "ПАТ «Інститут транспорту нафти» (ІТН) — одна з найбільших компаній в Україні та на території СНД з проектування, консультативного та інжинірингового супроводження об'єктів транспорту, перевалки, зберігання, розподілу нафти і продуктів її переробки.",
    "timestamp": "2018-03-28T16:40:01Z"
  },
  {
    "id": 2052848,
    "title": "Денискінська сільська рада",
    "text": "Дени́скінська сільська рада (Template:lang-ru) — муніципальне утворення у складі Федоровського району Башкортостану, Росія. Адміністративний центр — село Денискіно.",
    "timestamp": "2015-11-13T19:46:45Z"
  },
  {
    "id": 2052850,
    "title": "Somebody to Love (пісня Queen)",
    "text": "«Somebody to Love» (Template:lang-uk) — пісня британського рок-гурту «Queen» з альбому «A Day at the Races» 1976 року, , а також була представлена на їхньомув альбомі-збірці «Greatest Hits». Пісню написав фронтмен гурту Фредді Мерк'юрі.",
    "timestamp": "2018-10-18T07:09:33Z"
  },
  {
    "id": 2052852,
    "title": "Маржанівка",
    "text": "Маржанівка — роз'їзд 5 класу Знам'янської дирекції Одеської залізниці на лінії Знам'янка—Долинська між станціями Долинська та Куцівка в 2 км від села Никифорівка Кіровоградської області.",
    "timestamp": "2018-01-09T16:20:28Z"
  },
  {
    "id": 2052856,
    "title": "Каралачицька сільська рада",
    "text": "Карала́чицька сільська рада (Template:lang-ru) — муніципальне утворення у складі Федоровського району Башкортостану, Росія. Адміністративний центр — село Каралачик.",
    "timestamp": "2015-11-14T04:09:20Z"
  },
  {
    "id": 2052864,
    "title": "Портал:Метеорологія та кліматологія/Обраний життєпис метеорології та кліматології. Синоптики",
    "text": "Микола Іванович Кульбіда (Template:н Template:дн в селі Северинівка Таращанського району Київської області} — географ-метеоролог, директор Українського гідрометеорологічного центру МНС України.",
    "timestamp": "2015-11-09T15:49:47Z"
  },
  {
    "id": 2052866,
    "title": "Верхові сади",
    "text": "Верхові сади також Висячі сади (Template:lang-en) — різновид садів, переважно у аристократичній культурі, що створюють на штучних терасах, колонадах тощо. Прихід у будівництво та у конструкції бетона та стандартизації навернув і сучасних архітекторів до створення верхових садів і садів на дахах (як засіб відходу від стандартної монотонності і підтримки екологічних вимог). Водночас це відхід і від аристократичного характеру верхових садів, бо сучасні верхові сади і сади на дахах втратили винятковість і розкоші і можуть бути створені тільки з культурних чи диких трав і каменів.",
    "timestamp": "2017-08-06T21:15:52Z"
  },
  {
    "id": 2052883,
    "title": "Mass Effect: Andromeda",
    "text": "Mass Effect: Andromeda —  відеогра жанру екшн/RPG, створена студією BioWare і видана 21 березня 2017 року для ПК, PlayStation 4 і Xbox One. Є четвертою грою в серії Mass Effect, не пов'язаною безпосередньо з попередніми, але події якої розгортаються в тому ж всесвіті, в галактиці Андромеди.",
    "timestamp": "2018-06-15T19:32:45Z"
  },
  {
    "id": 2052886,
    "title": "Проба Селіванова",
    "text": "Про́ба Селіва́нова — якісна реакція, що використовується для визначення у речовині вуглеводів-кетоз (зокрема, фруктози). Реакція була відкрита у 1887 році російським хіміком Федором Селівановим.",
    "timestamp": "2016-06-18T15:44:00Z"
  },
  {
    "id": 2052894,
    "title": "C/2015 V1 (PANSTARRS)",
    "text": "C/2015 V1 (PANSTARRS) — одна з довгоперіодичних параболічних комет. Ця комета була відкрита 2 листопада 2015 року; блиск на час відкриття: 20.2m. Комета відкрита за допомогою 1.8 м телескопа системи Річі-Кретьєна + ПЗЗ, спостерігачі: B. Gibson, T. Goggia, N. Primak, A. Schultz, M. Willman.",
    "timestamp": "2016-05-12T10:36:30Z"
  },
  {
    "id": 2052897,
    "title": "Молодіжна збірна СРСР з футболу",
    "text": "Молодіжна збі́рна СРСР з футбо́лу (Template:lang-ru) — національна команда СРСР з футболу гравців віком до 21 року, якою керувала Федерація футболу СРСР. Після розпаду Союзу Радянських Соціалістичних Республік правонаступницею не стала російська збірна, як у «дорослому» футболі.",
    "timestamp": "2015-11-09T16:31:39Z"
  },
  {
    "id": 2052898,
    "title": "C/2015 V3 (PANSTARRS)",
    "text": "C/2015 V3 (PANSTARRS) — одна з довгоперіодичних параболічних комет. Ця комета була відкрита 2 листопада 2015 року; блиск на час відкриття: 21.8m. Комета відкрита за допомогою 1.8 м телескопа системи Річі-Кретьєна + ПЗЗ, спостерігачі: B. Gibson, T. Goggia, N. Primak, A. Schultz, M. Willman.",
    "timestamp": "2016-05-12T10:36:31Z"
  },
  {
    "id": 2052902,
    "title": "Ришард Петру",
    "text": "Ришард Єжи Петру (Template:lang-pl; *6 липня 1972, Вроцлав, Польща) — польський економіст і політик, президент Асоціації польських економістів, засновник і голова партії Сучасна (Template:lang-pl), депутат Сейму VIII скликання.",
    "timestamp": "2017-05-20T16:08:05Z"
  },
  {
    "id": 2052903,
    "title": "Амберг (Швабія)",
    "text": "Амберг (Template:lang-de) — громада в Німеччині, знаходиться в землі Баварія. Підпорядковується адміністративному округу Швабія. Входить до складу району Унтеральгой. Складова частина об'єднання громад Тюркгайм.",
    "timestamp": "2018-01-22T18:33:28Z"
  },
  {
    "id": 2052907,
    "title": "Апфельтрах",
    "text": "Апфельтрах (Template:lang-de) — громада в Німеччині, знаходиться в землі Баварія. Підпорядковується адміністративному округу Швабія. Входить до складу району Унтеральгой. Складова частина об'єднання громад Дірлеванг.",
    "timestamp": "2015-11-09T16:44:19Z"
  },
  {
    "id": 2052910,
    "title": "Бабенгаузен (Баварія)",
    "text": "Бабенгаузен (Template:lang-de) — громада в Німеччині, знаходиться в землі Баварія. Підпорядковується адміністративному округу Швабія. Входить до складу району Унтеральгой. Центр об'єднання громад Бабенгаузен.",
    "timestamp": "2015-11-09T16:45:25Z"
  },
  {
    "id": 2052912,
    "title": "Бад-Верісгофен",
    "text": "Бад-Верісгофен (Template:lang-de) — місто в Німеччині, знаходиться в землі Баварія. Підпорядковується адміністративному округу Швабія. Входить до складу району Унтеральгой.",
    "timestamp": "2018-09-28T11:09:32Z"
  },
  {
    "id": 2052914,
    "title": "Бад-Грененбах",
    "text": "Бад-Грененбах (Template:lang-de) — громада в Німеччині, знаходиться в землі Баварія. Підпорядковується адміністративному округу Швабія. Входить до складу району Унтеральгой. Центр об'єднання громад Бад-Грененбах.",
    "timestamp": "2015-11-09T16:47:47Z"
  },
  {
    "id": 2052917,
    "title": "Беген",
    "text": "Беген (Template:lang-de) — громада в Німеччині, знаходиться в землі Баварія. Підпорядковується адміністративному округу Швабія. Входить до складу району Унтеральгой. Складова частина об'єднання громад Оттобойрен.",
    "timestamp": "2015-11-09T16:49:25Z"
  },
  {
    "id": 2052920,
    "title": "Беннінген",
    "text": "Беннінген (Template:lang-de) — громада в Німеччині, знаходиться в землі Баварія. Підпорядковується адміністративному округу Швабія. Входить до складу району Унтеральгой. Складова частина об'єднання громад Меммінгерберг.",
    "timestamp": "2015-11-09T16:50:14Z"
  },
  {
    "id": 2052922,
    "title": "Бос (Баварія)",
    "text": "Бос (Template:lang-de) — громада в Німеччині, знаходиться в землі Баварія. Підпорядковується адміністративному округу Швабія. Входить до складу району Унтеральгой. Центр об'єднання громад Бос.",
    "timestamp": "2015-11-09T16:51:27Z"
  },
  {
    "id": 2052924,
    "title": "Брайтенбрунн (Швабія)",
    "text": "Брайтенбрунн (Template:lang-de) — громада в Німеччині, знаходиться в землі Баварія. Підпорядковується адміністративному округу Швабія. Входить до складу району Унтеральгой. Складова частина об'єднання громад Пфаффенгаузен.",
    "timestamp": "2015-11-09T16:53:20Z"
  },
  {
    "id": 2052926,
    "title": "Буксгайм (Швабія)",
    "text": "Буксгайм (Template:lang-de) — громада в Німеччині, знаходиться в землі Баварія. Підпорядковується адміністративному округу Швабія. Входить до складу району Унтеральгой.",
    "timestamp": "2015-11-09T16:54:04Z"
  },
  {
    "id": 2052928,
    "title": "Вестергайм (Баварія)",
    "text": "Вестергайм (Template:lang-de) — громада в Німеччині, знаходиться в землі Баварія. Підпорядковується адміністративному округу Швабія. Входить до складу району Унтеральгой. Складова частина об'єднання громад Еркгайм.",
    "timestamp": "2017-11-01T18:48:04Z"
  },
  {
    "id": 2052930,
    "title": "Відергельтінген",
    "text": "Відергельтінген (Template:lang-de) — громада в Німеччині, знаходиться в землі Баварія. Підпорядковується адміністративному округу Швабія. Входить до складу району Унтеральгой. Складова частина об'єднання громад Тюркгайм.",
    "timestamp": "2016-05-18T15:27:45Z"
  },
  {
    "id": 2052932,
    "title": "Вінтерріден",
    "text": "Вінтерріден (Template:lang-de) — громада в Німеччині, знаходиться в землі Баварія. Підпорядковується адміністративному округу Швабія. Входить до складу району Унтеральгой. Складова частина об'єднання громад Бабенгаузен.",
    "timestamp": "2015-11-09T16:56:43Z"
  },
  {
    "id": 2052934,
    "title": "Вольферчвенден",
    "text": "Вольферчвенден (Template:lang-de) — громада в Німеччині, знаходиться в землі Баварія. Підпорядковується адміністративному округу Швабія. Входить до складу району Унтеральгой. Складова частина об'єднання громад Бад-Грененбах.",
    "timestamp": "2017-11-04T19:20:28Z"
  },
  {
    "id": 2052937,
    "title": "Ворінген",
    "text": "Ворінген (Template:lang-de) — громада в Німеччині, знаходиться в землі Баварія. Підпорядковується адміністративному округу Швабія. Входить до складу району Унтеральгой. Складова частина об'єднання громад Бад-Грененбах.",
    "timestamp": "2017-11-08T15:36:07Z"
  },
  {
    "id": 2052941,
    "title": "Гаймертінген",
    "text": "Гаймертінген (Template:lang-de) — громада в Німеччині, знаходиться в землі Баварія. Підпорядковується адміністративному округу Швабія. Входить до складу району Унтеральгой. Складова частина об'єднання громад Бос.",
    "timestamp": "2015-11-09T16:59:38Z"
  },
  {
    "id": 2052944,
    "title": "Гольцгюнц",
    "text": "Гольцгюнц (Template:lang-de) — громада в Німеччині, знаходиться в землі Баварія. Підпорядковується адміністративному округу Швабія. Входить до складу району Унтеральгой. Складова частина об'єднання громад Меммінгерберг.",
    "timestamp": "2015-11-09T17:00:16Z"
  },
  {
    "id": 2052947,
    "title": "Дірлеванг",
    "text": "Дірлеванг (Template:lang-de) — громада в Німеччині, знаходиться в землі Баварія. Підпорядковується адміністративному округу Швабія. Входить до складу району Унтеральгой. Центр об'єднання громад Дірлеванг.",
    "timestamp": "2015-11-09T17:01:26Z"
  },
  {
    "id": 2052949,
    "title": "Егг-ан-дер-Гюнц",
    "text": "Егг-ан-дер-Гюнц (Template:lang-de) — громада в Німеччині, знаходиться в землі Баварія. Підпорядковується адміністративному округу Швабія. Входить до складу району Унтеральгой. Складова частина об'єднання громад Бабенгаузен.",
    "timestamp": "2015-11-09T17:04:39Z"
  },
  {
    "id": 2052952,
    "title": "Еппісгаузен",
    "text": "Еппісгаузен (Template:lang-de) — громада в Німеччині, знаходиться в землі Баварія. Підпорядковується адміністративному округу Швабія. Входить до складу району Унтеральгой. Складова частина об'єднання громад Кірхгайм-ін-Швабен.",
    "timestamp": "2015-11-09T17:05:40Z"
  },
  {
    "id": 2052959,
    "title": "Молодіжна збірна НДР з футболу",
    "text": "Молодіжна збірна НДР з футболу (Template:lang-de) — представляла Німецьку Демократичну Республіку на міжнародних футбольних турнірах і в товариських матчах з 1967 по 1990 роки.",
    "timestamp": "2015-11-09T17:08:24Z"
  },
  {
    "id": 2052961,
    "title": "Івковитиця",
    "text": "Івковитиця — річка в Україні, протікає територією Кагарлицького та Обухівського районів Київської області, права притока Бобриці.",
    "timestamp": "2017-08-06T17:34:48Z"
  },
  {
    "id": 2052971,
    "title": "Арт Економі",
    "text": "«Арт Економі» — українське видавництво, засноване у Києві 29 грудня 1991 року. Діяльність зосереджена на виданні посібників, підручників, навчальної, науково-популярної та художньої літератури, зокрема коштом авторів. Особливу увагу видавництво зосереджує на авторській книзі, мемуарах, спогадах, художній прозі та ліриці, що у майбутньому увійдуть до родинної бібліотеки.",
    "timestamp": "2017-05-18T19:43:27Z"
  },
  {
    "id": 2052977,
    "title": "Лалітпур (Непал)",
    "text": "Лалітпур (लालितपुर) або Патан (पातन) — друге за чисельністю населення місто в Непалі.",
    "timestamp": "2016-09-23T08:41:56Z"
  },
  {
    "id": 2052979,
    "title": "Linaria amethystea",
    "text": "Linaria amethystea — вид рослин родини Подорожникові (Plantaginaceae).",
    "timestamp": "2016-06-06T06:23:02Z"
  },
  {
    "id": 2052981,
    "title": "Молодіжна збірна Чехословаччини з футболу",
    "text": "Молодіжна збірна Чехословаччини з футболу — національна молодіжна футбольна команда колишньої Чехословаччини, якою керував Чехословацький футбольний союз з 1967 до 1994 року.",
    "timestamp": "2015-11-09T17:32:16Z"
  },
  {
    "id": 2052990,
    "title": "Ключ 63",
    "text": "Ключ 63 — ієрогліфічний ключ, що означає двері або будинок і є одним із 34 (загалом існує 214) ключів Кансі, що складаються з чотирьох рисок.",
    "timestamp": "2017-11-18T22:40:31Z"
  },
  {
    "id": 2052998,
    "title": "Linaria tristis",
    "text": "Linaria tristis – вид рослин родини Подорожникові (Plantaginaceae).",
    "timestamp": "2016-06-06T06:23:04Z"
  },
  {
    "id": 2053003,
    "title": "Тварина самка (фільм, 1958)",
    "text": "«Тварина самка» (Template:lang-en) — американський художній фільм, драма 1958 року, режисера Гарі Келлера. Це останній фільм Геді Ламар у її майже 30-ти літній голлівудській кар'єрі.",
    "timestamp": "2018-02-04T22:23:35Z"
  },
  {
    "id": 2053007,
    "title": "Ключ 64",
    "text": "Ключ 64 — ієрогліфічний ключ, що означає рука і є одним із 34 (загалом існує 214) ключів Кансі, що складаються з чотирьох рисок.",
    "timestamp": "2017-11-18T22:40:32Z"
  },
  {
    "id": 2053016,
    "title": "Дональд Бартелмі",
    "text": "До́нальд Ба́ртелмі (англ. Donald Barthelme; Дональд Бартельмі; 7 квітня 1931, Філадельфія — 23 липень 1989 року, Х'юстон) — американський письменник-постмодерніст, відомий своїми короткими оповіданнями. Також працював репортером в газеті Х'юстон. Був головним редактором журналу Location, директором Музею сучасного мистецтва в Х'юстоні (1961–1962), співзасновником журналу Fiction.",
    "timestamp": "2018-05-28T19:43:31Z"
  },
  {
    "id": 2053021,
    "title": "Ключ 65",
    "text": "Ключ 65 — ієрогліфічний ключ, що означає гілка і є одним із 34 (загалом існує 214) ключів Кансі, що складаються з чотирьох рисок.",
    "timestamp": "2017-11-18T22:40:32Z"
  },
  {
    "id": 2053024,
    "title": "Plantago afra",
    "text": "Plantago afra – вид рослин родини Подорожникові (Plantaginaceae).",
    "timestamp": "2016-06-06T06:23:07Z"
  },
  {
    "id": 2053032,
    "title": "МТВ-82",
    "text": "МТВ-82 — радянський високопідлоговий чотиривісний односторонній моторний трамвайний вагон ризького заводу.",
    "timestamp": "2018-07-05T20:25:13Z"
  },
  {
    "id": 2053036,
    "title": "Aichi S1A",
    "text": "Aichi S1A «Denko» (Template:lang-ja, Морський експериментальний нічний винищувач «Денко» («Блискавка»)) — проект нічного винищувача Імперського флоту Японії періоду Другої світової війни.",
    "timestamp": "2017-05-24T10:53:25Z"
  },
  {
    "id": 2053039,
    "title": "ТП Мазембе",
    "text": "«Ту Пюїссан Мазембе» (Template:lang-fr), або скорочено «ТП Мазембе» (Template:lang-fr) (колишня назва «Енглеберт» (Template:lang-fr)) — футбольний клуб з Демократичної Республіки Конго з міста Лубумбаші. Домашні матчі команда проводить на стадіоні «Стад ТП Мазембе» місткістю 18 500.",
    "timestamp": "2017-07-26T21:52:49Z"
  },
  {
    "id": 2053044,
    "title": "Ключ 66",
    "text": "Ключ 66 — ієрогліфічний ключ, що означає складний стілець і є одним із 34 (загалом існує 214) ключів Кансі, що складаються з чотирьох рисок.",
    "timestamp": "2017-11-18T22:40:33Z"
  },
  {
    "id": 2053050,
    "title": "Молодіжна збірна Аргентини з футболу",
    "text": "Молодіжна збірна Аргентини з футболу представляє Аргентину на молодіжних змаганнях з футболу. На відміну від європейських збірних, максимальний вік гравців в цій команді не повинен перевищувати 20 років.",
    "timestamp": "2017-06-11T12:27:35Z"
  },
  {
    "id": 2053054,
    "title": "Кубок Азії з футболу 1992",
    "text": "Кубок Азії 1992 — футбольний турнір серед азійських збірних. Дев'ятий за ліком Кубок Азії. Фінальний етап проходив у Префектурф Хіросіма в Японії з 29 жовтня по 8 листопада 1992 року на трьох стадіонах у містах Хіросіма та Ономіті. Трофей завоювали господарі, збірна Японії, для якої це став перший виграний Кубок Азії.",
    "timestamp": "2017-05-02T07:43:14Z"
  },
  {
    "id": 2053055,
    "title": "Ключ 67",
    "text": "Ключ 67 — ієрогліфічний ключ, що означає література і є одним із 34 (загалом існує 214) ключів Кансі, що складаються з чотирьох рисок.",
    "timestamp": "2017-11-18T22:40:34Z"
  },
  {
    "id": 2053056,
    "title": "Подорожник перистий",
    "text": "Подорожник перистий,Template:КобівTemplate:ДНРУ подорожник пірчастий (Plantago coronopus L.) – вид рослин родини Подорожникові (Plantaginaceae).",
    "timestamp": "2016-12-28T21:24:29Z"
  },
  {
    "id": 2053065,
    "title": "Родді Самбрано",
    "text": "Родді Самбрано (Template:lang-es; Template:н 3 лютого 1978, Манабі) — еквадорський футбольний арбітр. Арбітр ФІФА з 2012 року. Судить матчі Кубка Лібертадорес, еквадорської Серії А.",
    "timestamp": "2017-07-22T17:44:07Z"
  },
  {
    "id": 2053066,
    "title": "Ключ 68",
    "text": "Ключ 68 — ієрогліфічний ключ, що означає черпак і є одним із 34 (загалом існує 214) ключів Кансі, що складаються з чотирьох рисок.",
    "timestamp": "2017-11-18T22:40:35Z"
  },
  {
    "id": 2053072,
    "title": "Plantago lagopus",
    "text": "Plantago lagopus – вид рослин родини Подорожникові (Plantaginaceae).",
    "timestamp": "2016-06-06T06:23:11Z"
  },
  {
    "id": 2053090,
    "title": "Ернандо Буїтраго",
    "text": "Ернандо Буїтраго (Template:lang-es; 5 листопада 1970, Лібано) — колумбійський футбольний арбітр. Арбітр ФІФА з 2006 року. Має прізвисько Містер Бін. Володіє англійською та іспанськими мовами.",
    "timestamp": "2015-11-19T18:44:01Z"
  },
  {
    "id": 2053099,
    "title": "Ключ 69",
    "text": "Ключ 69 — ієрогліфічний ключ, що означає сокира і є одним із 34 (загалом існує 214) ключів Кансі, що складаються з чотирьох рисок.",
    "timestamp": "2017-11-18T22:40:35Z"
  },
  {
    "id": 2053106,
    "title": "Гребенецький Микола Зиновійович",
    "text": "Гребене́цький Мико́ла Зино́війович (* 1871, с. Михайлівка на Київщині — † 1938?, Биківня?) — випускник Київської духовної академії, священик Покровського кафедрального собору в Києві, жертва сталінських репресій. Був репресований 1938 року.",
    "timestamp": "2016-07-08T09:08:58Z"
  },
  {
    "id": 2053114,
    "title": "Магічні числа",
    "text": "Магічні числа (Template:lang-ru, Template:lang-en) — в ядерній хімії — числа 2, 8, 20, 50, 82, 126. Значення їх полягає в тому, що коли число протонів або нейтронів (особливо обох) рівне цим числам, ядра звичайно бувають особливо стійкими.",
    "timestamp": "2018-04-24T09:45:52Z"
  },
  {
    "id": 2053121,
    "title": "Ель-Вакра (муніципалітет)",
    "text": "Баладіят Ель-Вакра  (Template:lang-ar, Template:lang-en) — адміністративна одиниця у складі Катару. Адміністративний центр — місто Ель-Вакра. На території в 2518 км² проживає 141,2 тис. катарців.",
    "timestamp": "2017-03-30T13:14:47Z"
  },
  {
    "id": 2053125,
    "title": "Магнетоелектрохімія",
    "text": "Магне́тоелектрохі́мія (Template:lang-ru, Template:lang-en) — розділ електрохімії, де вивчаються явища та процеси, що відбуваються під впливом магнітного поля.",
    "timestamp": "2017-11-09T14:29:20Z"
  },
  {
    "id": 2053128,
    "title": "Нижньогородський трамвай",
    "text": "Нижньогородський трамвай - діюча трамвайна мережа у місті Нижній Новгород, Росія, що діє з 8 травня 1896 року. Мережа має станом на 2017 рік три депо.",
    "timestamp": "2017-05-21T14:19:05Z"
  },
  {
    "id": 2053129,
    "title": "Джон Літтлджон",
    "text": "Джон (Джо́нні) Лі́ттлджон (або Літтл Джон) (Template:lang-en), повне ім'я Джон Ве́слі Фа́нчесс (Template:lang-en; 16 квітня 1931, Лейк, Міссісіпі — 1 лютого 1994, Чикаго, Іллінойс) — американський блюзовий гітарист і співак, представник чиказького блюзу. Грав з Хауліном Вульфом, Джиммі Рідом, з 1965 року виступав сольно.",
    "timestamp": "2018-06-19T11:52:20Z"
  },
  {
    "id": 2053138,
    "title": "Замок Страконіце",
    "text": "За́мок Стракониці (Template:lang-cs) — середньовічний замок XIII століття в місті Стракониці Південночеського краю, один з найстаріших у Чехії. Замок розташований на пагорбі біля злиття річок Отава і Волінька. Приклад поєднання архітектурних типів феодального замку і духовно-орденської резиденції. Тривалий час замок служив штаб-квартирою Великого пріора Ордена іоаннітів у Чехії. Замок з моменту свого заснування неодноразово перебудовувався, внаслідок чого зберіг в собі риси різних архітектурних стилів, починаючи з романського. У 1995 році включений до списку національних пам'яток культури Чеської Республіки.",
    "timestamp": "2018-05-10T14:26:33Z"
  },
  {
    "id": 2053143,
    "title": "Кубок Азії з футболу 1996",
    "text": "Кубок Азії 1996 — футбольний турнір серед азійських збірних. Десятий за ліком Кубок Азії. Фінальний етап проходив в ОАЕ з 4 по 21 грудня 1996 року на трьох стадіонах у містах Абу-Дабі, Дубай та Аль-Айн. Трофей втретє в своїй історії завоювала збірна Саудівської Аравії, яка у фіналі в серії пенальті здолала господарів змагання збірну ОАЕ.",
    "timestamp": "2017-05-02T07:56:07Z"
  },
  {
    "id": 2053144,
    "title": "Ребасте (Канепі)",
    "text": "Ребасте (Template:lang-et) — село в Естонії, входить до складу волості Канепі, повіту Пилвамаа.",
    "timestamp": "2018-02-21T07:06:01Z"
  },
  {
    "id": 2053152,
    "title": "Соодома",
    "text": "Соодома (Template:lang-et) — село в Естонії, входить до складу волості Канепі, повіту Пилвамаа.",
    "timestamp": "2018-02-21T07:06:03Z"
  },
  {
    "id": 2053153,
    "title": "Сиресте",
    "text": "Сиресте (Template:lang-et) — село в Естонії, входить до складу волості Канепі, повіту Пилвамаа.",
    "timestamp": "2018-02-21T07:06:05Z"
  },
  {
    "id": 2053154,
    "title": "Ключ 70",
    "text": "Ключ 70 — ієрогліфічний ключ, що означає квадрат і є одним із 34 (загалом існує 214) ключів Кансі, що складаються з чотирьох рисок.",
    "timestamp": "2017-11-18T22:40:36Z"
  },
  {
    "id": 2053155,
    "title": "Варбусе",
    "text": "Варбусе (Template:lang-et) — село в Естонії, входить до складу волості Канепі, повіту Пилвамаа.",
    "timestamp": "2018-02-21T07:06:07Z"
  },
  {
    "id": 2053160,
    "title": "Замалек (футбольний клуб)",
    "text": "Спортивний клуб «Замалек» (Template:lang-ar) — єгипетський футбольний клуб з Гізи. Домашні ігри команда проводить на Міжнародному стадіоні Каїра місткістю 74 100 чоловік.",
    "timestamp": "2016-10-30T15:00:34Z"
  },
  {
    "id": 2053163,
    "title": "Катав-Івановський район",
    "text": "Катав-Івановський район - муніципальне утворення в Челябінській області Росії.",
    "timestamp": "2017-04-19T23:37:21Z"
  },
  {
    "id": 2053166,
    "title": "Катав-Івановськ",
    "text": "Катав-Івановськ - місто (з 1939) в Росії, адміністративний центр Катав-Івановського району Челябінської області.",
    "timestamp": "2018-09-02T08:09:24Z"
  },
  {
    "id": 2053167,
    "title": "Магнітна еквівалентність",
    "text": "Магні́тна еквівале́нтність (Template:lang-ru, Template:lang-en) — випадок, коли ядра атомів мають однакову резонансну частоту в ядерному магнітному резонансі та ідентичні спін-спінові взаємодії з оточуючими групами.",
    "timestamp": "2016-05-12T14:47:12Z"
  },
  {
    "id": 2053168,
    "title": "Ель-Хаур (муніципалітет)",
    "text": "Баладіят Ель-Хаур  (Template:lang-ar, Template:lang-en) — адміністративна одиниця у складі Катару. Адміністративний центр — місто Ель-Хаур. На території в 1638  км² проживає  — 213,6 тис. катарців.",
    "timestamp": "2017-07-08T18:52:27Z"
  },
  {
    "id": 2053171,
    "title": "Сім (Челябінська область)",
    "text": "Сім (Template:lang-ru) — місто (з 1942) в Росії, міське поселення у складі Ашинського муніципального району Челябінської області. До 1928 року селище носив назву Сімський Завод.",
    "timestamp": "2017-07-24T18:42:35Z"
  },
  {
    "id": 2053177,
    "title": "Кизильський район",
    "text": "Кизильський район — муніципальне утворення в Челябінській області Російської Федерації.",
    "timestamp": "2017-04-19T23:38:33Z"
  },
  {
    "id": 2053184,
    "title": "Кизильське",
    "text": "Кизильське (Template:lang-ru) — село, адміністративний центр Кизильського району Челябінської області Росії. Розташоване на півдні області, за 328 км на північний захід від Челябінська (по автодорозі — 348 км), при впадінні річки Великий Кизил в річку Урал, за 18 км від залізничної станції Сібай.",
    "timestamp": "2017-12-14T13:15:12Z"
  },
  {
    "id": 2053185,
    "title": "Еркгайм",
    "text": "Еркгайм (Template:lang-de) — громада в Німеччині, знаходиться в землі Баварія. Підпорядковується адміністративному округу Швабія. Входить до складу району Унтеральгой. Центр об'єднання громад Еркгайм.",
    "timestamp": "2015-11-09T21:57:49Z"
  },
  {
    "id": 2053188,
    "title": "Еттрінген (Баварія)",
    "text": "Еттрінген (Template:lang-de) — громада в Німеччині, знаходиться в землі Баварія. Підпорядковується адміністративному округу Швабія. Входить до складу району Унтеральгой.",
    "timestamp": "2015-11-09T21:59:51Z"
  },
  {
    "id": 2053190,
    "title": "Кубок Азії з футболу 2004",
    "text": "Кубок Азії 2004 — футбольний турнір серед азійських збірних. Тринадцятий за ліком Кубок Азії. Фінальний етап проходив в чотирьох містах Китаю з 17 липня по 7 серпня 2004 року. Трофей втретє в своїй історії і вдруге поспіль завоювала збірна Японії, яка у фіналі з рахунком 3:1 здолала господарів змагання збірну Китаю.",
    "timestamp": "2018-04-30T16:40:50Z"
  },
  {
    "id": 2053193,
    "title": "Зальген",
    "text": "Зальген (Template:lang-de) — громада в Німеччині, знаходиться в землі Баварія. Підпорядковується адміністративному округу Швабія. Входить до складу району Унтеральгой. Складова частина об'єднання громад Пфаффенгаузен.",
    "timestamp": "2015-11-09T22:01:23Z"
  },
  {
    "id": 2053195,
    "title": "Зонтгайм (Баварія)",
    "text": "Зонтгайм (Template:lang-de) — громада в Німеччині, знаходиться в землі Баварія. Підпорядковується адміністративному округу Швабія. Входить до складу району Унтеральгой.",
    "timestamp": "2015-11-09T22:02:14Z"
  },
  {
    "id": 2053198,
    "title": "Каммлах",
    "text": "Каммлах (Template:lang-de) — громада в Німеччині, знаходиться в землі Баварія. Підпорядковується адміністративному округу Швабія. Входить до складу району Унтеральгой. Складова частина об'єднання громад Еркгайм.",
    "timestamp": "2015-11-09T22:03:58Z"
  },
  {
    "id": 2053200,
    "title": "Коркінський район",
    "text": "Коркінський район — муніципальне утворення в Челябінської області РФ.",
    "timestamp": "2017-04-19T23:37:54Z"
  },
  {
    "id": 2053202,
    "title": "Кеттерсгаузен",
    "text": "Кеттерсгаузен (Template:lang-de) — громада в Німеччині, знаходиться в землі Баварія. Підпорядковується адміністративному округу Швабія. Входить до складу району Унтеральгой. Складова частина об'єднання громад Бабенгаузен.",
    "timestamp": "2015-11-09T22:04:37Z"
  },
  {
    "id": 2053205,
    "title": "Кірхгайм-ін-Швабен",
    "text": "Кірхгайм-ін-Швабен (Template:lang-de) — громада в Німеччині, знаходиться в землі Баварія. Підпорядковується адміністративному округу Швабія. Входить до складу району Унтеральгой. Центр об'єднання громад Кірхгайм-ін-Швабен.",
    "timestamp": "2015-11-09T22:07:15Z"
  },
  {
    "id": 2053208,
    "title": "Кірхгаслах",
    "text": "Кірхгаслах (Template:lang-de) — громада в Німеччині, знаходиться в землі Баварія. Підпорядковується адміністративному округу Швабія. Входить до складу району Унтеральгой. Складова частина об'єднання громад Бабенгаузен.",
    "timestamp": "2015-11-09T22:07:57Z"
  },
  {
    "id": 2053210,
    "title": "Кронбург",
    "text": "Кронбург (Template:lang-de) — громада в Німеччині, знаходиться в землі Баварія. Підпорядковується адміністративному округу Швабія. Входить до складу району Унтеральгой. Складова частина об'єднання громад Іллервінкель.",
    "timestamp": "2015-11-09T22:05:45Z"
  },
  {
    "id": 2053212,
    "title": "Лаутрах",
    "text": "Лаутрах (Template:lang-de) — громада в Німеччині, знаходиться в землі Баварія. Підпорядковується адміністративному округу Швабія. Входить до складу району Унтеральгой. Складова частина об'єднання громад Іллервінкель.",
    "timestamp": "2015-11-09T22:09:24Z"
  },
  {
    "id": 2053214,
    "title": "Реакція Троммера",
    "text": "Реа́кція Тро́ммера — якісна реакція для визначення наявності моносахаридів-альдоз, що ґрунтується на окисненні альдоз гідроксидом міді(II) із випадінням червоного осаду оксиду міді Cu2O.",
    "timestamp": "2015-11-15T07:54:41Z"
  },
  {
    "id": 2053215,
    "title": "Лахен (Баварія)",
    "text": "Лахен (Template:lang-de) — громада в Німеччині, знаходиться в землі Баварія. Підпорядковується адміністративному округу Швабія. Входить до складу району Унтеральгой. Складова частина об'єднання громад Меммінгерберг.",
    "timestamp": "2015-11-09T22:10:06Z"
  },
  {
    "id": 2053217,
    "title": "Легау",
    "text": "Легау (Template:lang-de) — громада в Німеччині, знаходиться в землі Баварія. Підпорядковується адміністративному округу Швабія. Входить до складу району Унтеральгой. Складова частина об'єднання громад Іллервінкель.",
    "timestamp": "2015-11-09T22:11:03Z"
  },
  {
    "id": 2053219,
    "title": "Маркт-Вальд",
    "text": "Маркт-Вальд (Template:lang-de) — громада в Німеччині, знаходиться в землі Баварія. Підпорядковується адміністративному округу Швабія. Входить до складу району Унтеральгой.",
    "timestamp": "2015-11-09T22:12:01Z"
  },
  {
    "id": 2053222,
    "title": "Маркт-Реттенбах",
    "text": "Маркт-Реттенбах (Template:lang-de) — громада в Німеччині, знаходиться в землі Баварія. Підпорядковується адміністративному округу Швабія. Входить до складу району Унтеральгой.",
    "timestamp": "2015-11-09T22:11:14Z"
  },
  {
    "id": 2053224,
    "title": "Меммінгерберг",
    "text": "Меммінгерберг (Template:lang-de) — громада в Німеччині, знаходиться в землі Баварія. Підпорядковується адміністративному округу Швабія. Входить до складу району Унтеральгой. Центр об'єднання громад Меммінгерберг.",
    "timestamp": "2015-11-09T22:14:06Z"
  },
  {
    "id": 2053226,
    "title": "Міндельгайм",
    "text": "Міндельгайм (Template:lang-de) — місто в Німеччині, знаходиться в землі Баварія. Підпорядковується адміністративному округу Швабія. Входить до складу району Унтеральгой.",
    "timestamp": "2015-11-09T22:15:12Z"
  },
  {
    "id": 2053228,
    "title": "Нідерріден",
    "text": "Нідерріден (Template:lang-de) — громада в Німеччині, знаходиться в землі Баварія. Підпорядковується адміністративному округу Швабія. Входить до складу району Унтеральгой. Складова частина об'єднання громад Бос.",
    "timestamp": "2015-11-09T22:16:28Z"
  },
  {
    "id": 2053230,
    "title": "Оберріден (Баварія)",
    "text": "Оберріден (Template:lang-de) — громада в Німеччині, знаходиться в землі Баварія. Підпорядковується адміністративному округу Швабія. Входить до складу району Унтеральгой. Складова частина об'єднання громад Пфаффенгаузен.",
    "timestamp": "2015-11-09T22:17:49Z"
  },
  {
    "id": 2053234,
    "title": "Обершенегг",
    "text": "Обершенегг (Template:lang-de) — громада в Німеччині, знаходиться в землі Баварія. Підпорядковується адміністративному округу Швабія. Входить до складу району Унтеральгой. Складова частина об'єднання громад Бабенгаузен.",
    "timestamp": "2015-11-09T22:18:47Z"
  },
  {
    "id": 2053236,
    "title": "Оттобойрен",
    "text": "Оттобойрен (Template:lang-de) — громада в Німеччині, знаходиться в землі Баварія. Підпорядковується адміністративному округу Швабія. Входить до складу району Унтеральгой. Центр об'єднання громад Оттобойрен.",
    "timestamp": "2015-11-09T22:19:49Z"
  },
  {
    "id": 2053238,
    "title": "Бакал",
    "text": "Бака́л — місто в Саткинському районі Челябінської області. Населення - 20153 чол. (2015).",
    "timestamp": "2018-05-19T11:19:15Z"
  },
  {
    "id": 2053239,
    "title": "Пфаффенгаузен",
    "text": "Пфаффенгаузен (Template:lang-de) — громада в Німеччині, знаходиться в землі Баварія. Підпорядковується адміністративному округу Швабія. Входить до складу району Унтеральгой. Центр об'єднання громад Пфаффенгаузен.",
    "timestamp": "2015-11-09T22:20:53Z"
  },
  {
    "id": 2053241,
    "title": "Раммінген (Баварія)",
    "text": "Раммінген (Template:lang-de) — громада в Німеччині, знаходиться в землі Баварія. Підпорядковується адміністративному округу Швабія. Входить до складу району Унтеральгой. Складова частина об'єднання громад Тюркгайм.",
    "timestamp": "2015-11-09T22:22:26Z"
  },
  {
    "id": 2053244,
    "title": "Трункельсберг",
    "text": "Трункельсберг (Template:lang-de) — громада в Німеччині, знаходиться в землі Баварія. Підпорядковується адміністративному округу Швабія. Входить до складу району Унтеральгой. Складова частина об'єднання громад Меммінгерберг.",
    "timestamp": "2015-11-09T22:23:48Z"
  },
  {
    "id": 2053246,
    "title": "Туссенгаузен",
    "text": "Туссенгаузен (Template:lang-de) — громада в Німеччині, знаходиться в землі Баварія. Підпорядковується адміністративному округу Швабія. Входить до складу району Унтеральгой.",
    "timestamp": "2015-11-09T22:24:31Z"
  },
  {
    "id": 2053248,
    "title": "Тюркгайм",
    "text": "Тюркгайм (Template:lang-de) — громада в Німеччині, знаходиться в землі Баварія. Підпорядковується адміністративному округу Швабія. Входить до складу району Унтеральгой. Центр об'єднання громад Тюркгайм.",
    "timestamp": "2015-11-09T22:25:16Z"
  },
  {
    "id": 2053250,
    "title": "Унгергаузен",
    "text": "Унгергаузен (Template:lang-de) — громада в Німеччині, знаходиться в землі Баварія. Підпорядковується адміністративному округу Швабія. Входить до складу району Унтеральгой. Складова частина об'єднання громад Меммінгерберг.",
    "timestamp": "2015-11-09T22:25:58Z"
  },
  {
    "id": 2053252,
    "title": "Ключ 71",
    "text": "Ключ 70 — ієрогліфічний ключ, що означає заперечення і є одним із 34 (загалом існує 214) ключів Кансі, що складаються з чотирьох рисок.",
    "timestamp": "2017-11-18T22:40:37Z"
  },
  {
    "id": 2053253,
    "title": "Унтерегг",
    "text": "Унтерегг (Template:lang-de) — громада в Німеччині, знаходиться в землі Баварія. Підпорядковується адміністративному округу Швабія. Входить до складу району Унтеральгой. Складова частина об'єднання громад Дірлеванг.",
    "timestamp": "2015-11-09T22:26:43Z"
  },
  {
    "id": 2053255,
    "title": "Фельгайм",
    "text": "Фельгайм (Template:lang-de) — громада в Німеччині, знаходиться в землі Баварія. Підпорядковується адміністративному округу Швабія. Входить до складу району Унтеральгой. Складова частина об'єднання громад Бос.",
    "timestamp": "2015-11-09T22:27:21Z"
  },
  {
    "id": 2053257,
    "title": "Штеттен (Баварія)",
    "text": "Штеттен (Template:lang-de) — громада в Німеччині, знаходиться в землі Баварія. Підпорядковується адміністративному округу Швабія. Входить до складу району Унтеральгой. Складова частина об'єднання громад Дірлеванг.",
    "timestamp": "2015-11-09T22:29:13Z"
  },
  {
    "id": 2053261,
    "title": "Верхній Уфалей",
    "text": "Верхній Уфалей — місто (з 1940) обласного підпорядкування (з 1944) Челябінської області Росії, центр Верхньоуфалейского міського округу.",
    "timestamp": "2016-02-11T11:25:39Z"
  },
  {
    "id": 2053280,
    "title": "Юргис Шауліс",
    "text": "Ю́ргис Шауліс (Template:lang-lt Jurgis Šaulys; 5 травня 1879, Balsėnai — 18 жовтня 1948, Луґано) — литовський політик і дипломат, сиґнатор Акта про незалежність Литви від 1918 року, перший посол Литви у Польщі. Політемігрант.",
    "timestamp": "2017-06-25T18:14:40Z"
  },
  {
    "id": 2053282,
    "title": "Генрі Шеффер",
    "text": "Генрі Моріс Шеффер  (Template:lang-en, 1882 — 1964) — американський логік.",
    "timestamp": "2016-11-12T16:03:52Z"
  },
  {
    "id": 2053286,
    "title": "Сейдісфіордюр",
    "text": "Сейдісфіордюр (Template:lang-is) — місто та муніципалітет Ісландії, що знаходиться на східному узбережжі країни в регіоні Аустурланд.",
    "timestamp": "2017-11-15T11:18:18Z"
  },
  {
    "id": 2053342,
    "title": "Зоопарк Таронга Western Plains",
    "text": "Зоопарк Таронга Western Plains, раніше відомий як Western Plains Zoo великий зоопарк у Даббо, Австралія. Відкритій у лютому 1977 року. Зоопарк був призначенний для того щоб забезпечити більше місця для розмноження великих тварин, таких як слонів та антилоп так як ділянка зоопарка Таронга у Сіднеї була обмежена площею.",
    "timestamp": "2018-02-28T11:14:51Z"
  },
  {
    "id": 2053351,
    "title": "Нижньотагільський трамвай",
    "text": "Нижньотагільський трамвай - діюча трамвайна мережа міста Нижній Тагіл, Росія. Відкрита у 1937. Відкриття відбулося у два етапи: у 1937 році була запущена лінія міського трамваю, а у 1940 році вагонобудівний завод побудував власну трамвайну лінію для перевезення робітників. Пізніше системи були об'єднані в одну, але до 1 вересня 2008 року трамвай обслуговувався двома відомствами: міським та заводом УВЗ. У рамках минулого акціювання ФГУП «ПО Уралвагонзавод» і створення ВАТ «Науково-виробнича корпорація \"Уралвагонзавод\"» трамвайне управління УВЗ було передано на баланс міста. До передачі управління було цехом № 920 УВЗ.",
    "timestamp": "2017-10-08T19:43:45Z"
  },
  {
    "id": 2053363,
    "title": "Оніщук Юрій Віталійович",
    "text": "Ю́рій Віта́лійович Оніщу́к (Template:dts-Template:dts) — солдат Збройних сил України.",
    "timestamp": "2018-06-16T20:00:58Z"
  },
  {
    "id": 2053364,
    "title": "Тоба Іван Іванович",
    "text": "Тоба Іва́н Іва́нович — майор Збройних сил України.",
    "timestamp": "2018-02-06T19:25:06Z"
  },
  {
    "id": 2053365,
    "title": "Усанов Андрій Юрійович",
    "text": "Уса́нов Андрі́й Ю́рійович — капітан Збройних сил України.",
    "timestamp": "2018-02-12T19:41:43Z"
  },
  {
    "id": 2053366,
    "title": "Фомін Олександр Олександрович",
    "text": "Олекса́ндр Олекса́ндрович Фомі́н — майор медичної служби Збройних сил України.",
    "timestamp": "2018-02-12T10:43:34Z"
  },
  {
    "id": 2053367,
    "title": "Процько Ігор Мирославович",
    "text": "І́гор Миросла́вович Процько — старший солдат резерву МВС України.",
    "timestamp": "2018-02-06T19:17:57Z"
  },
  {
    "id": 2053368,
    "title": "Хула Віктор Олегович",
    "text": "Хула Ві́ктор Оле́гович — солдат резерву МВС України.",
    "timestamp": "2018-02-11T20:02:56Z"
  },
  {
    "id": 2053369,
    "title": "Джордж Брайтон",
    "text": "Джо́рдж Бра́йтон (Template:lang-en, 3 жовтня 1830, Род-Айленд, США — 17 грудня 1892 Бостон, США) — американський інженер-механік. Винахідник одного з перших варіантів конструкцій поршневого двигуна внутрішнього згоряння, термодинамічний цикл роботи якого згодом отримав назву «цикл Брайтона». Цей цикл у подальшому був використаний для опису робочих процесів деяких типів теплових двигунів безперервної дії — газотурбінних та повітряно-реактивних.",
    "timestamp": "2016-03-03T18:38:11Z"
  },
  {
    "id": 2053371,
    "title": "Хадза (мова)",
    "text": "Хадза — ізольована мова, поширена на південному березі озера Еясі в Танзанії, число мовців є невеликим, однак використовується активно, більшість дітей її вивчає.",
    "timestamp": "2017-03-01T11:44:02Z"
  },
  {
    "id": 2053424,
    "title": "1-й полк драгунів (Австро-Угорщина)",
    "text": "1-ий полк драгунів — полк цісарсько-королівської кавалерії Австро-Угорщини.",
    "timestamp": "2018-05-03T12:50:01Z"
  },
  {
    "id": 2053469,
    "title": "Дубович Іван",
    "text": "Дубович Іван (р.н. невід., Вільно — Template:† 1646, Дермань) — греко-католицький письменник-полеміст, чернець ордену василіян. Брат Олексія Дубовича.",
    "timestamp": "2018-09-03T13:29:06Z"
  },
  {
    "id": 2053485,
    "title": "Криштопович Тимофій Іванович",
    "text": "Криштопович Тимофій Іванович (*початок 1710-х рр. — †між 1772 і 1798) — державний діяч доби Гетьманщини, сотник Сенчанської сотні Лубенського полку. Вихованець Києво-Могилянської академії.",
    "timestamp": "2015-11-14T10:35:19Z"
  },
  {
    "id": 2053498,
    "title": "Cymbalaria muralis",
    "text": "Цимбаларія муроваTemplate:книга Template:ref-ruTemplate:ref-uk (Cymbalaria muralis) – вид рослин родини Подорожникові (Plantaginaceae).",
    "timestamp": "2018-05-28T07:46:53Z"
  },
  {
    "id": 2053503,
    "title": "Криштопович Пилип Іванович",
    "text": "Пилип Криштопович (* близько 1750 — † до 1811) — український державний діяч доби Гетьманщини, останній сотник Першої Сенчанської сотні Лубенського полку (1772–1782). Вихованець Києво-Могилянської академії.",
    "timestamp": "2018-05-18T12:08:44Z"
  },
  {
    "id": 2053505,
    "title": "Ральф Джонсон",
    "text": "Ральф Джонсон (Template:lang-en; * 7 жовтня 1955) — науковий співробітник, професор кафедри комп'ютерних наук в Університеті штату Іллінойс в Урбана-Шампейн, один з чотирьох авторів класичної книги «Design Patterns» про шаблони проектування програмного забезпечення. Колектив авторів також відомий як «Банда чотирьох» (Template:lang-en).",
    "timestamp": "2016-01-06T08:27:03Z"
  },
  {
    "id": 2053509,
    "title": "Ключ 73",
    "text": "Ключ 73 — ієрогліфічний ключ, що означає казати і є одним із 34 (загалом існує 214) ключів Кансі, що складаються з чотирьох рисок.",
    "timestamp": "2017-11-18T22:40:37Z"
  },
  {
    "id": 2053513,
    "title": "Ключ 74",
    "text": "Ключ 74 — ієрогліфічний ключ, що означає Місяць як супутник а також місяць як одиницю часу і є одним із 34 (загалом існує 214) ключів Кансі, що складаються з чотирьох рисок.",
    "timestamp": "2017-11-18T22:40:38Z"
  },
  {
    "id": 2053514,
    "title": "Вероніка цимбалярієва",
    "text": "Вероніка цимбалярієваС. С. Фодор Доповнення до флори Закарпаття, що підлягає охороні (Veronica cymbalaria Bodard) – вид рослин родини Подорожникові (Plantaginaceae).",
    "timestamp": "2016-06-06T06:23:15Z"
  },
  {
    "id": 2053518,
    "title": "Джерело м'яких повторюваних гамма-сплесків",
    "text": "Джерело м'яких повторюваних гамма-сплесків (Template:lang-en, SGR) — це астрономічний об'єкт, який випускає великі сплески гамма- та рентгенівського випромінення через нерегулярні інтервали. Висунуто гіпотези, що такі об'єкти є або видом магнітарів або видом нейтронних зір з реліктовими дисками довкола них.",
    "timestamp": "2017-11-09T11:49:34Z"
  },
  {
    "id": 2053520,
    "title": "Johnny Young and his Chicago Blues Band",
    "text": "Johnny Young and his Chicago Blues Band — дебютний студійний альбом американського блюзового музиканта Джонні Янга, випущений у 1966 році лейблом Arhoolie Records. У записі взяли участь учасники гурту Мадді Вотерса, зокрема Отіс Спенн і Джеймс Коттон.",
    "timestamp": "2017-11-23T10:18:29Z"
  },
  {
    "id": 2053522,
    "title": "Джон Вліссідес",
    "text": "Джон Метью Вліссідес (Template:lang-en; 2 серпня 1961 — 24 листопада 2005) — американський вчений в галузі комп'ютерної інженерії та розробки програмного забезпечення, один з чотирьох авторів класичної книги «Design Patterns» про шаблони проектування програмного забезпечення. Колектив авторів також відомий як «Банда чотирьох» (Template:lang-en).",
    "timestamp": "2016-11-12T16:04:51Z"
  },
  {
    "id": 2053529,
    "title": "Польові ротики звичайні",
    "text": "Польові ротики звичайні,Template:Кобів паротка польова, ротики гірські, ротики дикі, ротики польові (Misopates orontium (L.) Raf.) – вид рослин родини Подорожникові (Plantaginaceae).",
    "timestamp": "2016-12-28T21:25:19Z"
  },
  {
    "id": 2053535,
    "title": "Дубович Олексій",
    "text": "Дубович Олексій (Template:lang-pl; бл. 1605, Вільно — 20 вересня 1652, Вільно) — руський священик-василіянин, проповідник, архимандрит Віленський і Супрасльський.",
    "timestamp": "2018-04-07T15:41:31Z"
  },
  {
    "id": 2053536,
    "title": "Смоленська духовна семінарія",
    "text": "Смоленська духовна семінарія — середній духовний навчальний заклад Відомства православного сповідання Російської імперії, що готував православних священнослужителів. Розташовувалася в місті Смоленськ.",
    "timestamp": "2018-01-18T15:55:35Z"
  },
  {
    "id": 2053539,
    "title": "Мудуму (національний парк)",
    "text": "Мудуму (національний парк) (Template:lang-en) — національний парк розташований в регіоні Замбезі в Намібії. Західним кордоном Національного парку Мудуму є річка Квандо (Template:lang-en). Створено в 1990 році на площі 1009,59 km² савани, лісів mopane i болотистих ділянок на східному березі річки Cuando.",
    "timestamp": "2016-02-13T03:01:55Z"
  },
  {
    "id": 2053545,
    "title": "Пам'ятки промислу перлів біля Мухаррака",
    "text": "Пам'ятки промислу перлів біля Мухаррака або Бахрейнський перловий шлях — об'єкт світової спадщини ЮНЕСКО у Бахрейні.",
    "timestamp": "2018-05-02T16:53:11Z"
  },
  {
    "id": 2053547,
    "title": "Михайловська сільська рада (Федоровський район)",
    "text": "Миха́йловська сільська рада (Template:lang-ru) — муніципальне утворення у складі Федоровського району Башкортостану, Росія. Адміністративний центр — село Михайловка.",
    "timestamp": "2015-11-13T19:28:08Z"
  },
  {
    "id": 2053549,
    "title": "Покровська сільська рада (Федоровський район)",
    "text": "Покро́вська сільська рада (Template:lang-ru) — муніципальне утворення у складі Федоровського району Башкортостану, Росія. Адміністративний центр — присілок Покровка.",
    "timestamp": "2015-11-13T19:27:06Z"
  },
  {
    "id": 2053551,
    "title": "Дубенська центральна районна бібліотека",
    "text": "Дубенська центральна районна бібліотека — громадська бібліотека в м. Дубно Рівненської області.",
    "timestamp": "2018-08-31T05:14:41Z"
  },
  {
    "id": 2053555,
    "title": "Пугачовська сільська рада (Федоровський район)",
    "text": "Пугачо́вська сільська рада (Template:lang-ru) — муніципальне утворення у складі Федоровського району Башкортостану, Росія. Адміністративний центр — село Юрмати.",
    "timestamp": "2015-11-14T04:07:26Z"
  },
  {
    "id": 2053557,
    "title": "Ключ 75",
    "text": "Ключ 75 — ієрогліфічний ключ, що означає дерево і є одним із 34 (загалом існує 214) ключів Кансі, що складаються з чотирьох рисок.",
    "timestamp": "2017-11-18T22:40:39Z"
  },
  {
    "id": 2053560,
    "title": "Разінська сільська рада",
    "text": "Ра́зінська сільська рада (Template:lang-ru) — муніципальне утворення у складі Федоровського району Башкортостану, Росія. Адміністративний центр — присілок Ключевка.",
    "timestamp": "2015-11-14T04:09:55Z"
  }
]