[
  {
    "id": 2288595,
    "title": "Маленький хор Василія Великого",
    "text": "Малéнький хор Васи́лія Вели́кого — камерний акапельний ансамбль при київському храмі святого Василія Великого.",
    "timestamp": "2018-04-07T16:07:17Z"
  },
  {
    "id": 2288598,
    "title": "Пухова (Дрогичинський район)",
    "text": "Пухова́ (біл. Пухавая, трансліт.: Puchavaja) — село у Дрогичинському районі Брестської області Білорусі. Входить у склад Осівецької сільради.",
    "timestamp": "2018-09-02T07:27:27Z"
  },
  {
    "id": 2288599,
    "title": "Suntech Power",
    "text": "Suntech Power Holdings Co, Ltd. (Template:zh) — китайське підприємство, найбільший у світі виробник фотоелектричних панелей найвищого класу Tier 1.",
    "timestamp": "2016-11-19T18:25:22Z"
  },
  {
    "id": 2288604,
    "title": "Пуховичі (Житковицький район)",
    "text": "Пу́ховичі (Template:lang-be, трансліт.: Puchavičy) — село у Житковицькому районі Гомельської області Білорусі. Входить до складу Червоненської сільради.",
    "timestamp": "2018-10-22T09:36:26Z"
  },
  {
    "id": 2288610,
    "title": "Моленар",
    "text": "Моленар (Template:lang-nl) — нідерландське прізвище.",
    "timestamp": "2016-11-15T09:33:34Z"
  },
  {
    "id": 2288613,
    "title": "Перемиське братство",
    "text": "Перемиське братство — національно-релігійна громадська організація православних руських (українських) шляхтичів та міщан Перемишля з кінця XVI до початку XVIII ст. Таких існувало декілька — Св. Іоанна (або Іоанна Хрестителя) та Св. Трійці.",
    "timestamp": "2017-11-19T07:18:15Z"
  },
  {
    "id": 2288617,
    "title": "Аль-Мугальгіль",
    "text": "Аль-Мугальгі́ль (Template:lang-ar) — один із найдавніших арабських поетів.Encyclopedia of Arabic literature. Vol. 2. Справжня ім'я — Адій ібн Рабіа. Також відомий під прізвиськом Зір ан-ніса (Template:lang-ar). Брат таглібського вождя Кулейба та дядько  Імрууль-Кайса, відомого давньоарабського поета.",
    "timestamp": "2017-05-23T08:42:05Z"
  },
  {
    "id": 2288625,
    "title": "Диховична Наталія Олександрівна",
    "text": "Диховична Наталія Олександрівна — архітектор-реставратор, головний архітектор проектів інституту «УКРНДІПРОЕКТРЕСТАВРАЦІЯ».",
    "timestamp": "2018-07-30T12:59:39Z"
  },
  {
    "id": 2288628,
    "title": "Іноуе Такесі",
    "text": "Такесі Іноуе (Template:lang-ja, Template:нар 30 вересня 1928 — Template:пом 5 квітня 1992) — японський футболіст, що грав на позиції півзахисника.",
    "timestamp": "2018-04-24T08:54:21Z"
  },
  {
    "id": 2288637,
    "title": "Бенджанун Срідуангкаєв",
    "text": "Бенджанун Срідуангкаєв (Template:lang-en) — тайська«Thai author Benjanun Sriduangkaew» — http://www.apex-magazine.com/courtship-in-the-country-of-machine-gods/ письменниця, автор наукової фантастики і фентезі, а також відомий мережевий троль.",
    "timestamp": "2018-08-24T07:25:12Z"
  },
  {
    "id": 2288652,
    "title": "Оверчук Дмитро Русланович",
    "text": "Дмитро́́ Русла́нович Оверчу́́к (Template:нар Template:ДН — Template:пом Template:ДС) — солдат Збройних сил України.",
    "timestamp": "2017-08-27T08:51:29Z"
  },
  {
    "id": 2288653,
    "title": "Шестак Василь Васильович",
    "text": "Васи́ль Васи́льович Шестак (Template:нар Template:ДН — Template:пом Template:ДС) — солдат Збройних сил України.",
    "timestamp": "2017-07-29T08:04:41Z"
  },
  {
    "id": 2288654,
    "title": "Гришин Сергій Миколайович",
    "text": "Сергі́й Микола́йович Гри́шин (Template:н Template:ДН, м. Кропивницький, Кіровоградська область, Українська РСР — Template:пом Template:ДС, с. Латишеве, Шахтарський район, Донецька область, Україна) — український військовослужбовець, спецпризначенець, старший солдат Збройних сил України. До війни — юрист, працівник пенітенціарної системи.",
    "timestamp": "2017-09-23T12:40:49Z"
  },
  {
    "id": 2288658,
    "title": "Сениця (Словаччина)",
    "text": "Сениця (Сеніца, Template:lang-sk, Template:lang-hu) — село, громада, адмінцентр округу Сениця, Трнавський край, західна Словаччина. Кадастрова площа громади — 50,29 км². Населення — 20 342 особи (за оцінкою на 31 грудня 2017 р.).",
    "timestamp": "2018-09-21T14:33:10Z"
  },
  {
    "id": 2288660,
    "title": "Carex microglochin",
    "text": "Carex microglochin — вид багаторічних трав'янистих рослин родини Осокові (Cyperaceae).",
    "timestamp": "2017-05-31T20:40:28Z"
  },
  {
    "id": 2288672,
    "title": "Буське Миколаївське братство",
    "text": "Буське Миколаївське братство — національно-релігійна громадська організація православних руських (українських) шляхтичів та міщан Буську з середини XVI до початку XVII ст.",
    "timestamp": "2018-05-13T07:04:49Z"
  },
  {
    "id": 2288673,
    "title": "Бейб Дай",
    "text": "Бейб Дай (Template:lang-en, Template:н 13 травня 1898, Гамільтон — Template:† 3 січня 1962, Чикаго) — канадський хокеїст, що грав на позиції крайнього нападника.",
    "timestamp": "2018-05-28T11:46:47Z"
  },
  {
    "id": 2288677,
    "title": "Кубок Освалдо Круза",
    "text": "Кубок Освалдо Круза (Template:Lang-pt) — футбольний турнір, що нерегулярно проводився з 1950 по 1976 рік. Учасниками змагання були збірні Бразилії та Парагваю. Всього було проведено 8 розіграшів. У всіх турнірах перемогу здобула Бразилія.",
    "timestamp": "2017-05-12T22:16:35Z"
  },
  {
    "id": 2288678,
    "title": "Фесуненко Ігор Сергійович",
    "text": "Ігор Сергійович Фесуненко (28 січня 1933, Оренбург, РРФСР, СРСР — 28 квітня 2016, Москва, Росія) — радянський і російський пропагандист, журналіст-міжнародник, письменник, теле — і радіоведучий. Викладач МДІМВ.",
    "timestamp": "2017-07-27T22:16:06Z"
  },
  {
    "id": 2288684,
    "title": "Кубок Атлантики з футболу",
    "text": "Кубок Атлантики (Template:Lang-pt-br або Template:Lang-es) — футбольний турнір, що нерегулярно проводився з 1956 по 1976 рік. Учасниками змагання були національні збірні команд Південної Америки. Всього було проведено 3 розіграші. У всіх перемогу здобула збірна Бразилії.",
    "timestamp": "2017-05-12T22:16:29Z"
  },
  {
    "id": 2288689,
    "title": "Немирівське Воскресінське братство",
    "text": "Немирівське Воскресінське братство — національно-релігійна громадська організація православних руських (українських) шляхтичів та міщан Немирову у 1626-1650-х роках.",
    "timestamp": "2018-08-27T12:37:53Z"
  },
  {
    "id": 2288690,
    "title": "Південно-Західний військовий округ",
    "text": "Південно-Західний військовий округ — військово-адміністративне об'єднання частин, з'єднань, військово-навчальних закладів і місцевих військових установ на терені УСРР. Створений за наказом РВР Республіки від 21 квітня 1922 шляхом перейменування Збройних сил України і Криму. Включав території Київської губернії, Волинської губернії, Катеринославської губернії, Миколаївської губернії, Одеської губернії, Полтавської губернії, Донецької губернії, Подільської губернії, Таврійської губернії, Кременчуцької губернії, Чернігівської губернії, Харківської губернії і Херсонської губернії. Управління перебувало в Харкові.",
    "timestamp": "2016-11-04T15:09:57Z"
  },
  {
    "id": 2288692,
    "title": "Шейн Гнідий",
    "text": "Шейн Гнідий (Template:lang-en, Template:н 8 листопада 1975, Нипава) — колишній канадський хокеїст, що грав на позиції захисника.",
    "timestamp": "2016-11-03T18:30:43Z"
  },
  {
    "id": 2288697,
    "title": "Одзі Іглс",
    "text": "«Одзі Іглс» (王子 イーグルス) — японський професіональний хокейний клуб з міста Томакомай.",
    "timestamp": "2016-11-13T08:56:18Z"
  },
  {
    "id": 2288700,
    "title": "Вінницьке братство",
    "text": "Вінницьке братство (Братство Козьми та Дем’яна) — національно-релігійна громадська організація православних руських (українських) шляхтичів та міщан Вінниці з кінця XVI до початку XVIII ст.",
    "timestamp": "2017-11-29T14:50:57Z"
  },
  {
    "id": 2288703,
    "title": "Гаджикабул",
    "text": "Гаджикабул (Template:lang-az) — озеро в східній частині Азербайджану, що розкинулось на території Аджикабульського району, на Кура-Аракській низині. Належить до басейну річки Кура. Площа озера становить 16,68 км²; довжина з півдня на північ — 6 м, найбільша ширина — 3 м. Середня глибина — 5 м, а найбільша — 96 м..",
    "timestamp": "2016-12-02T18:40:37Z"
  },
  {
    "id": 2288704,
    "title": "Вулиця Мар'їнська (Харків)",
    "text": "Мар'їнська вулиця — вулиця міста Харкова. Спочатку вулиця проходить по межі двох адміністративних районів Харкова — Новобаварського і Основ'янського, потім по території Новобаварського. Починається від Нетіченської набережної і йде на південний захід до Райрадівського провулку. З непарної сторони до Мар'їнської вулиці долучаються Москалівська вулиця, Столярний пров. і пров. Джерело.",
    "timestamp": "2016-11-04T19:26:07Z"
  },
  {
    "id": 2288707,
    "title": "Гаррогейт",
    "text": "Гаррогейт (Template:lang-en) — курортне місто, що знаходиться у Північному Йоркширі, Англія. Традиційно місто є туристичним центром. Місто відомо своїми лікувальними водами та RHS Harlow Carr gardens. Неподалік від міста знаходиться національні парк Yorkshire Dales та Nidderdale AONB. В 17 сторіччі два поселення Нижній ти Верхній Гарроґейт об'єдналися в одне місто. В 2013 році місто було визнано «найщасливішим місцем для життя» у Великій Британії.",
    "timestamp": "2017-12-18T20:10:12Z"
  },
  {
    "id": 2288711,
    "title": "Кубок Бангладеш з футболу",
    "text": "Кубок Бангладеш з футболу (Кубок Федерації футболу Бангладеш) — футбольний клубний турнір в Бангладеш, який проводиться під егідою Федерації футболу Бангладеш.",
    "timestamp": "2018-01-18T06:42:10Z"
  },
  {
    "id": 2288713,
    "title": "Керрі Гаффмен",
    "text": "Керрі Гаффмен (Template:lang-en, Template:н 3 січня 1968, Пітерборо) — колишній канадський хокеїст, що грав на позиції захисника. Грав за збірну команду Канади.",
    "timestamp": "2016-11-03T19:21:25Z"
  },
  {
    "id": 2288716,
    "title": "Берар",
    "text": "Берар — історичний регіон у центральній Індії. Нині є частиною штату Махараштра.",
    "timestamp": "2018-09-29T16:40:02Z"
  },
  {
    "id": 2288724,
    "title": "Вірченко Юрій Петрович",
    "text": "Ю́рій Петро́вич Ві́рченко (23 липня 1949, Харків) — український вчений-фізик, доктор фізико-математичних наук (2000), професор, відомий альпініст.",
    "timestamp": "2016-12-22T21:02:09Z"
  },
  {
    "id": 2288725,
    "title": "Свято-Троїцький храм (Гориньград Перший)",
    "text": "Свято-Троїцький храм — православний храм с. Гориньград Перший Рівненського району Рівненській області. Будувався в період з 1812 по 1816 рр. на кошти князя Гаврила Олександровича Святополк-ЧетвертинськогоTemplate:cite web. Храм капітальне реконструйований і відреставрований на кошти Василя і Віталія Грицаків в 2009–2016 р.Template:cite web Відноситься до Рівненської та Острозької єпархії УПЦ Московського патріархату (Онуфрій).",
    "timestamp": "2018-08-10T18:51:37Z"
  },
  {
    "id": 2288729,
    "title": "Ларрі Орі",
    "text": "Ларрі Орі (Template:lang-en, Template:н 8 лютого 1905, Садбері — Template:† 11 грудня 1952, Детройт) — канадський хокеїст, що грав на позиції правого нападника.",
    "timestamp": "2016-11-04T06:58:45Z"
  },
  {
    "id": 2288739,
    "title": "Фрейман",
    "text": "Фрейман — російське прізвище німецького походження, яке походить від двох німецьких слів: frei — «незалежний, вільний, вільний, відвертий, відкритий» і Mann — «людина».",
    "timestamp": "2018-02-26T18:13:45Z"
  },
  {
    "id": 2288746,
    "title": "Станлі (Айдахо)",
    "text": "Станлі (Template:lang-en) — місто в окрузі Кастер, штат Айдахо, США. Згідно з переписом 2010 року населення становило 63 особи, що на 37 осіб менше, ніж 2000 року.",
    "timestamp": "2018-10-22T07:19:40Z"
  },
  {
    "id": 2288747,
    "title": "Енді Блер",
    "text": "Енді Блер (Template:lang-en, Template:н 27 лютого 1908, Вінніпег — Template:† 27 грудня 1977) — канадський хокеїст, що грав на позиції центрального нападника.",
    "timestamp": "2018-06-13T11:47:14Z"
  },
  {
    "id": 2288759,
    "title": "Lion Air",
    "text": "PT Lion Mentari Airlines, що діє як Lion Air, — найбільша приватна авіакомпанія ІндонезіїOur Fleet Lion Air. зі штаб-квартирою в столиці країни Джакарті, що працює у сфері регулярних пасажирських перевезень по 126 пунктах призначення в Індонезії, Сінгапурі, В'єтнамі, Малайзії і Саудівськії Аравії. Портом приписки авіакомпанії і її головним транзитним вузлом (хабом) є міжнародний аеропорт Сукарно Хатта в Джакарті, як іще один хаб використовується міжнародний аеропорт Джуанда в СурабаїTemplate:Cite news.",
    "timestamp": "2018-05-18T08:51:48Z"
  },
  {
    "id": 2288764,
    "title": "Мухін Володимир Миколайович",
    "text": "Мухін Володимир Миколайович (26.04.1936, Харків) — професор, завідувач кафедри фізичного виховання (1970-79).",
    "timestamp": "2018-04-30T13:13:36Z"
  },
  {
    "id": 2288771,
    "title": "ProGuard (додаток)",
    "text": "ProGuard — утиліта командного рядка із відкритим програмним кодом, призначена для оптимізації та обфускації Java коду. Вона може здійснити оптимізацію байт-коду, а також виявлення та видалення невикористовуваних інструкцій.Template:cite web. ProGuard — це вільне програмне забезпечення, яке розповсюджується під ліцензією GNU General Public License, версія 2Template:cite web.",
    "timestamp": "2017-03-13T05:36:27Z"
  },
  {
    "id": 2288774,
    "title": "Кубок Бангладеш з футболу 2016",
    "text": "Кубок Бангладеш з футболу 2016 — 28-й розіграш кубкового футбольного турніру у Бангладеш. Титул володаря кубка здобув Абахані Лімітед.",
    "timestamp": "2017-02-27T11:41:22Z"
  },
  {
    "id": 2288777,
    "title": "Каїнди (озеро)",
    "text": "Каїнди (Template:lang-kk) — озеро в Казахстані, популярне місце для туризму в одній з ущелин Кунгей Алатау. Незважаючи на низьку температуру води, озеро Каїнди користується успіхом у любителів дайвінгу.",
    "timestamp": "2017-11-01T11:02:02Z"
  },
  {
    "id": 2288782,
    "title": "Марта Станя",
    "text": "Марта Станя (Template:lang-lv; 4 січня 1913 — 17 січня 1972) — латвійська архітекторка, дизайнерка меблів та інтер'єру.",
    "timestamp": "2017-01-28T19:46:38Z"
  },
  {
    "id": 2288807,
    "title": "Джебель бу Корнін",
    "text": "Джебель бу Корнін (Template:lang-ar, Template:lang-fr), також пишеться Джебель-бу-Корнін або Гора-Бу Корнін, це 576-метрова гора на півночі Тунісу, з видом на Туніську затоку і місто Хаммам-Ліф.",
    "timestamp": "2016-11-05T18:31:54Z"
  },
  {
    "id": 2288808,
    "title": "Насу Дайсуке",
    "text": "Дайсуке Насу (Template:lang-ja, Template:нар 10 жовтня 1981, Макурадзакі) — японський футболіст, захисник клубу «Урава Ред Даймондс».",
    "timestamp": "2018-04-24T10:21:25Z"
  },
  {
    "id": 2288813,
    "title": "Маджід Абдулла",
    "text": "Маджід Абдулла (Template:lang-ar, Template:нар 1 листопада 1958, Джидда) — саудівський футболіст, що грав на позиції нападника.",
    "timestamp": "2017-03-31T09:23:07Z"
  },
  {
    "id": 2288820,
    "title": "Марія-Антуанетта (фільм, 2006)",
    "text": "Марія-Антуанетта — біографічний фільм про життя королеви Франції Марії-Антуанетти, знятий режисером Софією Копполою у 2006 році. Екранізація книги Антонії Фрейзер «Марія-Антуанетта: Подорож».",
    "timestamp": "2017-12-15T19:38:10Z"
  },
  {
    "id": 2288836,
    "title": "Морісакі Кодзі",
    "text": "Кодзі Морісакі (Template:lang-ja, Template:нар 9 травня 1981, Хіросіма) — японський футболіст, півзахисник клубу «Санфречче Хіросіма».",
    "timestamp": "2018-01-24T09:37:20Z"
  },
  {
    "id": 2288840,
    "title": "Златко Краньчар",
    "text": "Златко Краньчар (Template:Lang-hr; 15 листопада 1956, Загреб, СФРЮ) — югославський і хорватський футболіст, хорватський футбольний тренер.",
    "timestamp": "2018-08-27T08:28:28Z"
  },
  {
    "id": 2288848,
    "title": "Наїф Аль-Каді",
    "text": "Наїф Аль-Каді (Template:lang-ar, Template:нар 3 квітня 1979, Саудівська Аравія) — саудівський футболіст, що грав на позиції захисника.",
    "timestamp": "2018-04-23T18:38:58Z"
  },
  {
    "id": 2288857,
    "title": "Мирослав Блажевич",
    "text": "Мирослав «Чіро» Блажевич (Template:Lang-hr; 10 лютого 1935, Травник) — хорватський футбольний тренер. Найбільшого успіху у тренерській кар'єрі досяг зі збірною Хорватії, яка зуміла посісти третє місце на чемпіонаті світу 1998 року. З 2008 року по 2010 рік був головним тренером збірної Боснії і Герцеговини.",
    "timestamp": "2018-08-27T08:26:40Z"
  },
  {
    "id": 2288858,
    "title": "Кураре",
    "text": "Кураре Template:IPAc-encurare in the American Heritage Dictionary або Template:IPAc-encurare in the Oxford Online Dictionaries — загальна названа рослиного екстрату алколоїдної отрут, що походять з Центральної та Південної Америки. Виготовляється з кори рослини Template:bt-ukrlat.",
    "timestamp": "2017-02-27T13:45:58Z"
  },
  {
    "id": 2288867,
    "title": "Хорольська сотня",
    "text": "Хорольська сотня (1648—1782 рр.) — військово-територіальна одиниця Миргородського полку Війська Запорозького з центром у м. Хорол. Створена влітку 1648 як складова Миргородського полку. У 1649 за «Реєстром» мала 165 козаків. Ліквідована 1782. Територію сотні розподілили між трьома повітами Київського намісництва: Голтв'янським, Городиським, Хорольським.",
    "timestamp": "2018-07-24T13:43:53Z"
  },
  {
    "id": 2288905,
    "title": "Писемність бодо",
    "text": "Писемність бодо (або боро) — писемність мови бодо (боро). Спочатку ця мова записувалася ассамським письмом і латиницею; зараз же використовує, в основному, письмо деванагарі.",
    "timestamp": "2017-04-29T23:03:18Z"
  },
  {
    "id": 2288912,
    "title": "Семенюк Сергій Володимирович",
    "text": "Сергі́й Володи́мирович Семеню́к (Заї́ка) (27 січня 1991, Ізяслав, СРСР) — український футболіст, захисник/півзахисник київського «Арсенала». Відомий також завдяки виступам у складі «Шахтаря-3», «Динамо-Берестя» та низки інших українських і закордонних клубів. Екс-гравець юнацьких збірних України різних віків.",
    "timestamp": "2018-08-16T00:04:45Z"
  },
  {
    "id": 2288916,
    "title": "Messerschmitt-Bölkow-Blohm",
    "text": "Messerschmitt-Bölkow-Blohm (MBB) — була німецькою компанією у аерокосмічній галузі яка була утворена злиттям кількох фірм наприкінці 1960-х. Серед найвідоміших продуктів був легкий спарений вертоліт MBB Bo 105. Компанію придбала DASA (Deutsche Aerospace AG) у 1989, тепер вона частина Airbus Group.",
    "timestamp": "2016-11-04T15:33:07Z"
  },
  {
    "id": 2288921,
    "title": "Адольфо Педернера",
    "text": "Адольфо Альфредо Педернера (Template:lang-es, Template:н 15 листопада 1918, Буенос-Айрес, Аргентина — Template:† 12 травня 1995, там же) — аргентинський футболіст, що грав на позиції нападника. По завершенні ігрової кар'єри — тренер.",
    "timestamp": "2018-07-08T06:11:19Z"
  },
  {
    "id": 2288925,
    "title": "Deutsche Aerospace AG",
    "text": "DASA (офіційна назва Deutsche Aerospace AG, пізніше Daimler-Benz Aerospace AG, потім DaimlerChrysler Aerospace AG), колишня дочірня компанія Daimler-Benz AG (пізніше DaimlerChrysler) з 1989. У липні 2000, DASA об'єдналася з Aérospatiale-Matra і CASA і утворила EADS.",
    "timestamp": "2018-09-07T06:55:00Z"
  },
  {
    "id": 2288943,
    "title": "Дені Папен",
    "text": "Дені Папен (Template:lang-fr; Template:Дата народження, Блуа — 1712) — французький математик, фізик та винахідник.",
    "timestamp": "2018-10-22T05:03:47Z"
  },
  {
    "id": 2288950,
    "title": "Варконі",
    "text": "Варконі (Template:lang-hu) — угорське прізвище.",
    "timestamp": "2017-11-01T19:00:27Z"
  },
  {
    "id": 2288952,
    "title": "Пуховичі (Вітебський район)",
    "text": "Пу́ховичі (біл. Пухавічы, трансліт.: Puchavičy) — село у Вітебському районі Вітебської області Білорусі. Входить до складу Запільської сільради.",
    "timestamp": "2018-09-02T07:27:37Z"
  },
  {
    "id": 2288960,
    "title": "Премія «Ігнотус»",
    "text": "Премія «Ігнотус» (Template:lang-es) — щорічна літературна нагорода, заснована 1991 року Іспанською асоціацією фантастики, наукової-фантастики та жахів (Template:lang-es). Прагне бути рівноцінною іспанською версією американської премії «Г'юго». Отримала свою назву від псевдоніма, яким підписував свої твори на початку двадцятого століття Хосе де Алола (Template:lang-es). За присудження нагороди голосують члени ГіспаКону (Template:lang-es), національного конвенту (з'їзду) наукової-фантастики Іспанії.",
    "timestamp": "2018-09-07T12:20:13Z"
  },
  {
    "id": 2288961,
    "title": "Ліки від щастя",
    "text": "«Ліки від щастя» (Template:lang-en) — американсько-німецький містичний трилер режисера Гора Вербінскі, що вийшов 2017 року. Стрічка розказує про молодого працівника фірми, який поїхав у швейцарський спа-салон щоб врятувати свого начальника. У головних ролях Дейн ДеГаан, Mia Гот, Джейсон Айзекс.",
    "timestamp": "2018-06-25T17:26:44Z"
  },
  {
    "id": 2288962,
    "title": "Церква Санто Домінго (Сорія)",
    "text": "Церква Санто Домінго (Сорія) ( Template:lang-es ) — храм романської доби у місті Сорія, один з найкращих зразків романської храмової архітектури у Іспанії.",
    "timestamp": "2017-12-26T11:43:00Z"
  },
  {
    "id": 2288966,
    "title": "Джон Вуд Кемпбелл",
    "text": "Джон Вуд Кемпбелл-молодший (англ. John Wood Campbell, Jr.; 8 червня 1910 року, Ньюарк, Нью-Джерсі, США — 11 липня 1971 року, Маунтинсайд, Нью-Джерсі, США) — американський письменник і редактор, багато в чому сприяв становленню «Золотого віку наукової фантастики».",
    "timestamp": "2018-07-06T16:20:51Z"
  },
  {
    "id": 2288974,
    "title": "Carex nardina",
    "text": "Carex nardina — вид багаторічних трав'янистих рослин родини Осокові (Cyperaceae).",
    "timestamp": "2017-05-31T20:41:28Z"
  },
  {
    "id": 2288975,
    "title": "Юліян Антонович",
    "text": "Юлія́н Антоно́вич (Template:lang-pl; бл. 1750, Пінськ — 1824, Горохів) — руський греко-католицький церковний діяч польського походження, священик-василіянин, педагог, поет, перекладач, проповідник і композитор. Один із перших на землях Речі Посполитої, хто започаткував викладання англійської мови в школах. Перейшов до РКЦ і став Луцьким каноніком.",
    "timestamp": "2018-08-23T09:35:54Z"
  },
  {
    "id": 2288978,
    "title": "Роберт Грейсміт",
    "text": "Роберт Грейсміт (Template:lang-en, нар. 17 вересня 1942) — американський кримінальний письменник і колишній карикатурист. Ім'я при народженні Robert Gray SmithTemplate:Cite web.",
    "timestamp": "2016-12-19T17:23:17Z"
  },
  {
    "id": 2288980,
    "title": "Півень Олександр Юхимович",
    "text": "Півень Олександр Юхимович (16.06.1872—07.04.1962) — збирач і видавець українського фольклору на Кубані, етнограф, поет, прозаїк, драматург. Народився в станиці Павлівська (нині станиця Краснодарського краю, РФ) в сім'ї псаломника. Навчався в станичній школі, а згодом — у Єкатеринодарському духовному училищі.",
    "timestamp": "2017-09-25T15:42:15Z"
  },
  {
    "id": 2288981,
    "title": "STI",
    "text": "STI — акронім латинкою, що може означати наступне.",
    "timestamp": "2017-06-12T21:10:17Z"
  },
  {
    "id": 2288985,
    "title": "Мольцгайн",
    "text": "Мольцгайн (Template:lang-de) — громада в Німеччині, розташована в землі Рейнланд-Пфальц. Входить до складу району Альтенкірхен. Складова частина об'єднання громад Гебгардсгайн.",
    "timestamp": "2016-11-04T09:46:53Z"
  },
  {
    "id": 2288987,
    "title": "Мудерсбах",
    "text": "Мудерсбах (Template:lang-de) — громада в Німеччині, розташована в землі Рейнланд-Пфальц. Входить до складу району Альтенкірхен. Складова частина об'єднання громад Кірхен (Зіг).",
    "timestamp": "2016-11-04T09:47:51Z"
  },
  {
    "id": 2288989,
    "title": "Найтерзен",
    "text": "Найтерзен (Template:lang-de) — громада в Німеччині, розташована в землі Рейнланд-Пфальц. Входить до складу району Альтенкірхен. Складова частина об'єднання громад Альтенкірхен.",
    "timestamp": "2016-11-04T09:49:02Z"
  },
  {
    "id": 2288991,
    "title": "Наурот",
    "text": "Наурот (Template:lang-de) — громада в Німеччині, розташована в землі Рейнланд-Пфальц. Входить до складу району Альтенкірхен. Складова частина об'єднання громад Гебгардсгайн.",
    "timestamp": "2016-11-04T09:49:53Z"
  },
  {
    "id": 2288993,
    "title": "Нідердрайсбах",
    "text": "Нідердрайсбах (Template:lang-de) — громада в Німеччині, розташована в землі Рейнланд-Пфальц. Входить до складу району Альтенкірхен. Складова частина об'єднання громад Гердорф-Дааден.",
    "timestamp": "2016-11-04T09:50:54Z"
  },
  {
    "id": 2288995,
    "title": "Нідерірзен",
    "text": "Нідерірзен (Template:lang-de) — громада в Німеччині, розташована в землі Рейнланд-Пфальц. Входить до складу району Альтенкірхен. Складова частина об'єднання громад Гамм (Зіг).",
    "timestamp": "2016-11-04T09:52:03Z"
  },
  {
    "id": 2288997,
    "title": "Нідерфішбах",
    "text": "Нідерфішбах (Template:lang-de) — громада в Німеччині, розташована в землі Рейнланд-Пфальц. Входить до складу району Альтенкірхен. Складова частина об'єднання громад Кірхен (Зіг).",
    "timestamp": "2016-11-04T09:53:02Z"
  },
  {
    "id": 2289001,
    "title": "Нідерштайнебах",
    "text": "Нідерштайнебах (Template:lang-de) — громада в Німеччині, розташована в землі Рейнланд-Пфальц. Входить до складу району Альтенкірхен. Складова частина об'єднання громад Фламмерсфельд.",
    "timestamp": "2016-11-04T09:54:39Z"
  },
  {
    "id": 2289003,
    "title": "Кілер Фрост",
    "text": "Кілер Фрост - це ім'я, що використовується кількома вигаданими суперзлодійками, що з'являються в американських коміксах , опублікованих DC Comics. Персонаж з'являвся в різних втіленнях, в кількох різних осіб з Всесвіту DC враховуючи, що Кілер Фрост - персона. Кілер Фрост з'являється, головним чином, як противник супергероя Вогняного Шторму у деяких варіаціях.",
    "timestamp": "2018-04-18T11:47:49Z"
  },
  {
    "id": 2289004,
    "title": "Ністерберг",
    "text": "Ністерберг (Template:lang-de) — громада в Німеччині, розташована в землі Рейнланд-Пфальц. Входить до складу району Альтенкірхен. Складова частина об'єднання громад Гердорф-Дааден.",
    "timestamp": "2016-11-04T09:55:32Z"
  },
  {
    "id": 2289007,
    "title": "Обервамбах",
    "text": "Обервамбах (Template:lang-de) — громада в Німеччині, розташована в землі Рейнланд-Пфальц. Входить до складу району Альтенкірхен. Складова частина об'єднання громад Альтенкірхен.",
    "timestamp": "2016-11-04T09:56:31Z"
  },
  {
    "id": 2289011,
    "title": "Оберербах (Альтенкірхен)",
    "text": "Оберербах (Template:lang-de) — громада в Німеччині, розташована в землі Рейнланд-Пфальц. Входить до складу району Альтенкірхен. Складова частина об'єднання громад Альтенкірхен.",
    "timestamp": "2016-11-05T10:49:47Z"
  },
  {
    "id": 2289013,
    "title": "Оберірзен",
    "text": "Оберірзен (Template:lang-de) — громада в Німеччині, розташована в землі Рейнланд-Пфальц. Входить до складу району Альтенкірхен. Складова частина об'єднання громад Альтенкірхен.",
    "timestamp": "2016-11-04T09:58:01Z"
  },
  {
    "id": 2289015,
    "title": "Оберлар",
    "text": "Оберлар (Template:lang-de) — громада в Німеччині, розташована в землі Рейнланд-Пфальц. Входить до складу району Альтенкірхен. Складова частина об'єднання громад Фламмерсфельд.",
    "timestamp": "2016-11-04T09:59:11Z"
  },
  {
    "id": 2289017,
    "title": "Обернау",
    "text": "Обернау (Template:lang-de) — громада в Німеччині, розташована в землі Рейнланд-Пфальц. Входить до складу району Альтенкірхен. Складова частина об'єднання громад Фламмерсфельд.",
    "timestamp": "2016-11-04T10:00:07Z"
  },
  {
    "id": 2289019,
    "title": "Оберштайнебах",
    "text": "Оберштайнебах (Template:lang-de) — громада в Німеччині, розташована в землі Рейнланд-Пфальц. Входить до складу району Альтенкірхен. Складова частина об'єднання громад Фламмерсфельд.",
    "timestamp": "2016-11-04T10:00:42Z"
  },
  {
    "id": 2289021,
    "title": "Ойленберг",
    "text": "Ойленберг (Template:lang-de) — громада в Німеччині, розташована в землі Рейнланд-Пфальц. Входить до складу району Альтенкірхен. Складова частина об'єднання громад Фламмерсфельд.",
    "timestamp": "2016-11-04T10:01:57Z"
  },
  {
    "id": 2289024,
    "title": "Орфген",
    "text": "Орфген (Template:lang-de) — громада в Німеччині, розташована в землі Рейнланд-Пфальц. Входить до складу району Альтенкірхен. Складова частина об'єднання громад Фламмерсфельд.",
    "timestamp": "2016-11-04T10:02:53Z"
  },
  {
    "id": 2289026,
    "title": "Петерслар",
    "text": "Петерслар (Template:lang-de) — громада в Німеччині, розташована в землі Рейнланд-Пфальц. Входить до складу району Альтенкірхен. Складова частина об'єднання громад Фламмерсфельд.",
    "timestamp": "2016-11-04T10:03:51Z"
  },
  {
    "id": 2289028,
    "title": "Плекгаузен",
    "text": "Плекгаузен (Template:lang-de) — громада в Німеччині, розташована в землі Рейнланд-Пфальц. Входить до складу району Альтенкірхен. Складова частина об'єднання громад Фламмерсфельд.",
    "timestamp": "2017-06-15T05:37:11Z"
  },
  {
    "id": 2289030,
    "title": "Прахт",
    "text": "Прахт (Template:lang-de) — громада в Німеччині, розташована в землі Рейнланд-Пфальц. Входить до складу району Альтенкірхен. Складова частина об'єднання громад Гамм (Зіг).",
    "timestamp": "2016-11-04T10:05:06Z"
  },
  {
    "id": 2289033,
    "title": "Carex norvegica",
    "text": "Carex norvegica — вид багаторічних трав'янистих рослин родини Осокові (Cyperaceae).",
    "timestamp": "2017-05-31T20:42:17Z"
  },
  {
    "id": 2289036,
    "title": "Півкопок",
    "text": "Півкопок — срібна монета талерного типу, карбування якої велося за часів правління короля польського і великого князівства литовського Сигізмунда II Августа 1564—65 на монетному дворі в м. Вільно (нині м. Вільнюс). Вартість монети — 30 литовських грошів (1/2 копи литовських грошів; 37 1/2 польських грошів). На аверсі — зображення увінчаної короною королівської монограми «SA» (Template:lang-la), під якою позначення вартості — цифра ХХХ. На реверсі — увінчаний великокнязівською шапкою гербовий щит із гербами Польщі, Литви, роду Сфорца, Жемайтії, Київської та Волинської земель. Карбувалися також монети вартістю 1/4 копи — 15 литовських грошів. Маса литовського півкопка — 27,86 г (20,03 г чистого срібла).",
    "timestamp": "2017-01-31T16:40:46Z"
  },
  {
    "id": 2289045,
    "title": "Ян Тарчалович",
    "text": "Ян Тарчалович (Template:lang-pl; 1869—1923) — польський педагог, інженер, архітектор, історик архітектури.",
    "timestamp": "2018-10-15T01:09:46Z"
  },
  {
    "id": 2289047,
    "title": "Томас Діш",
    "text": "Томас Майкл Діш (2 лютого 1940 — 4 липня 2008 року) — американський та британський письменник-фантаст і поет.",
    "timestamp": "2017-09-07T09:17:31Z"
  },
  {
    "id": 2289048,
    "title": "Пурі Банай",
    "text": "Пурі Банай (народилася 11 жовтня 1940 року, в місті Ерак, Іран) — відома іранська акторка. Вона знімалась у більш ніж 85-тьох художніх фільмах, в період між 1965 і 1979 років. За роки її акторської діяльності ще до іранської революції, вона співпрацювала з такими режисерами, як Мехді Райфірус, Семюел Хачикян, Масуд Кіме, Фарох Гаффаров і Ферейдун Голех. Її найбільш відомі перформанси спостерігаються у «новій хвилі» іранських фільмів, таких як «Цезар» (продюсер — Масуд Кіме) в 1969 році, «Мандагора»(продюсер — Фередун Голі).",
    "timestamp": "2016-11-19T18:27:36Z"
  },
  {
    "id": 2289049,
    "title": "Folks (музичний гурт)",
    "text": "Folks (Японською: フォークス Hepburn: Fōkusu?, стилізовано як FOLKS) це японський гурт, який було створено в 2012-му році в місті Еніва, префектура Хоккайдо. Його було створено після того, як Фуміто Іваі і Казумаса Ногучі покинули гурт Galileo Galilei.  Гурт самостійно випустив свій перший міні-альбом Take Off в березні 2013-го року та дебютував під лейблом Ki/oon Music в 2014-му з міні-альбомом Newtown.",
    "timestamp": "2017-06-13T21:08:45Z"
  },
  {
    "id": 2289050,
    "title": "Банановий пудинг",
    "text": "Банановий пудинг — це десерт, який, як правило, складається з шарів печива (зазвичай Ванільних вафель або бісквіту) з солодким ванільним ароматним заварним кремом і нарізаним свіжим бананом, який додають до страви. У кінці десерт покривають збитими вершками або безе.",
    "timestamp": "2018-05-10T18:39:55Z"
  },
  {
    "id": 2289054,
    "title": "Едвард Пейл",
    "text": "Едвард Пейл старший (Template:lang-en; 18 січня 1883 — 29 грудня 1958) — американський актор кіно. З 1913 по 1951 знявся більш ніж в 370 фільмах. Народився в Расіні, штат Вісконсин, помер в Голлівуді, штат Каліфорнія.",
    "timestamp": "2018-04-13T07:21:39Z"
  },
  {
    "id": 2289059,
    "title": "Пітер Медак",
    "text": "Пітер Медак (Template:lang-en; народ. 23 грудня 1937, Будапешт) — англійський актор, продюсер і режисер угорського походження.",
    "timestamp": "2018-04-17T07:16:49Z"
  },
  {
    "id": 2289067,
    "title": "Pygidianops",
    "text": "Pygidianops (Пигідіанопс) — рід риб з підродини Glanapteryginae родини Trichomycteridae ряду Сомоподібні. Має 4 види. Наукова назва походить від грецьких слів pyge, тобто «криж», та ops — «зовнішній вигляд».",
    "timestamp": "2016-11-04T11:26:56Z"
  },
  {
    "id": 2289073,
    "title": "3D ручка",
    "text": "3D-ручка або 3Doodler — це інструмент, здатний малювати в повітрі. 3D-ручка, розроблена Пітером Ділворт і Деніел Коуен з WobbleWorks, Inc. (раніше WobbleWorks LLC). Вона працює шляхом видавлювання нагрітого АБС-пла́стика, який майже миттєво охолоджується у тверду, стійку структуру, дозволяючи створювати тривимірні об'єкти. Він використовує пластикову нитку, що виготовляється або з акрилонитрил-бутадієн-стиролу («ABS»), полімолочної кислоти («PLA»), або «флексі», термічного поліуретану («ТПУ»), який плавиться і пізніше охолоджується за допомогою запатентованого процесу при переміщенні через перо, яке потім може бути використане для створення 3D-об'єктів вручну. 3Doodler був описаний як клей пістолет для 3D-друку.",
    "timestamp": "2018-07-12T12:43:10Z"
  },
  {
    "id": 2289082,
    "title": "Райфершайд",
    "text": "Райфершайд (Template:lang-de) — громада в Німеччині, розташована в землі Рейнланд-Пфальц. Входить до складу району Альтенкірхен. Складова частина об'єднання громад Фламмерсфельд.",
    "timestamp": "2016-11-04T11:40:43Z"
  },
  {
    "id": 2289084,
    "title": "Rhizosomichthys totae",
    "text": "Rhizosomichthys totae — єдиний вид роду Rhizosomichthys з підродини Trichomycterinae родини Trichomycteridae ряду Сомоподібні. Наукова назва походить від грецьких слів rhiza, тобто «корінь», soma — «тіло», ichthys — «риба». Інша назва «риба-мастило». Відомо лише 10 зразків цього сома.",
    "timestamp": "2018-06-27T09:06:57Z"
  },
  {
    "id": 2289086,
    "title": "Ракзен",
    "text": "Ракзен (Template:lang-de) — громада в Німеччині, розташована в землі Рейнланд-Пфальц. Входить до складу району Альтенкірхен. Складова частина об'єднання громад Альтенкірхен.",
    "timestamp": "2016-11-04T11:41:42Z"
  },
  {
    "id": 2289088,
    "title": "Реттерзен",
    "text": "Реттерзен (Template:lang-de) — громада в Німеччині, розташована в землі Рейнланд-Пфальц. Входить до складу району Альтенкірхен. Складова частина об'єднання громад Альтенкірхен.",
    "timestamp": "2016-11-04T11:38:48Z"
  },
  {
    "id": 2289091,
    "title": "Розенгайм (Рейнланд-Пфальц)",
    "text": "Розенгайм (Template:lang-de) — громада в Німеччині, розташована в землі Рейнланд-Пфальц. Входить до складу району Альтенкірхен. Складова частина об'єднання громад Гебгардсгайн.",
    "timestamp": "2016-11-04T11:42:52Z"
  },
  {
    "id": 2289095,
    "title": "Рот (Альтенкірхен)",
    "text": "Рот (Template:lang-de) — громада в Німеччині, розташована в землі Рейнланд-Пфальц. Входить до складу району Альтенкірхен. Складова частина об'єднання громад Гамм (Зіг).",
    "timestamp": "2016-11-04T11:44:47Z"
  },
  {
    "id": 2289097,
    "title": "Лікарня Милосердя (Нампа, Айдахо)",
    "text": "Лікарня милосердя — це двоповерхова будівля у місті Нампа, штат Айдахо. Збудована в 1919 році, лікарня знаходилася під керівництвом сестер милосердя, однак будівлю покинули в 1967 році, коли лікарня переїхала до недавно побудованого Центру Медичного милосердя. Після цього будівля використовувалася декількома різними організаціями, останньою з яких був Будинок для людей похилого віку Вейлі Плаза, який був зачинений у 2004 році.",
    "timestamp": "2017-01-16T17:24:39Z"
  },
  {
    "id": 2289098,
    "title": "Ротт (Рейнланд-Пфальц)",
    "text": "Ротт (Template:lang-de) — громада в Німеччині, розташована в землі Рейнланд-Пфальц. Входить до складу району Альтенкірхен. Складова частина об'єднання громад Фламмерсфельд.",
    "timestamp": "2016-11-04T11:45:14Z"
  },
  {
    "id": 2289100,
    "title": "Пташині острови",
    "text": "Пташині острови — ботанічний заказник місцевого значення в Золотоніському районі Черкаської області.",
    "timestamp": "2017-01-20T07:08:47Z"
  },
  {
    "id": 2289101,
    "title": "Фенсдорф",
    "text": "Фенсдорф (Template:lang-de) — громада в Німеччині, розташована в землі Рейнланд-Пфальц. Входить до складу району Альтенкірхен. Складова частина об'єднання громад Гебгардсгайн.",
    "timestamp": "2016-11-04T11:45:50Z"
  },
  {
    "id": 2289103,
    "title": "Maryland Route 6",
    "text": "Maryland Route 6 - державне шосе в американському штаті Меріленд. Траса американського штату починається поблизу річки Потомак в Ріверсайді на схід до MD 235 в Оравілі. MD 6 з'єднує кілька невеликих містечок південного округу Чарльз і північного округу Сейнт-Мері  з американським маршрутом 301  в Ла - Платі,головному місті округу Чарльз,  і MD 5 в Шарлотт Хол. Шосе штату також надає доступ до кількох історичних місць навколо Порт-Тобакко, першопочатковому головному місті округу Чарльз. MD 6 було одним з перших автомобільних доріг, пронумерованих Дорожною комісією штату Меріленд в 1927 році. Шосе штату було прокладено з Ла-Плати до Ріверсайду в кінці 1910-х - на початку 1920-х років. Відрізок шосе Ла-Плата - Шарлотт Холл був побудований в середині 1920-х років. Відрізок MD 6 на схід від Шарлот Хол був в основному побудований в кінці 1920-х - початку 1930-х років. Заключна частина  шосе була завершена в Оравілі в 1940 році.",
    "timestamp": "2017-01-12T11:47:11Z"
  },
  {
    "id": 2289104,
    "title": "Фірсбах",
    "text": "Фірсбах (Template:lang-de) — громада в Німеччині, розташована в землі Рейнланд-Пфальц. Входить до складу району Альтенкірхен. Складова частина об'єднання громад Альтенкірхен.",
    "timestamp": "2016-11-04T11:46:28Z"
  },
  {
    "id": 2289107,
    "title": "Френдзона",
    "text": "Френдзона (від Template:en-lang — друг) — ситуація, в якій один закоханий в іншого, але той сприймає закоханого лише як другаTemplate:Cite newsTemplate:Cite webTemplate:Cite web. Зазвичай це психологічно кризова ситуація для людини, яка страждає від неподіленого коханняTemplate:Cite webTemplate:Cite newsTemplate:Cite web. Якщо об'єкт обожнювання не відповідає взаємністю на загравання чи симпатію з боку закоханого, але при цьому всіляко утримує його біля себе, це називають відкиданням до «френдзони»Template:Cite news. Безпосередньо термін «френдзона» визначає різновид дружніх стосунків між хлопцем і дівчиною, але в яких один розраховує на те, що дружба рано чи пізно переросте в любовні стосунки, а інший — ні.",
    "timestamp": "2018-08-26T19:45:31Z"
  },
  {
    "id": 2289108,
    "title": "Фламмерсфельд",
    "text": "Фламмерсфельд (Template:lang-de) — громада в Німеччині, розташована в землі Рейнланд-Пфальц. Входить до складу району Альтенкірхен. Центр об'єднання громад Фламмерсфельд.",
    "timestamp": "2016-11-04T11:47:00Z"
  },
  {
    "id": 2289114,
    "title": "Флутершен",
    "text": "Флутершен (Template:lang-de) — громада в Німеччині, розташована в землі Рейнланд-Пфальц. Входить до складу району Альтенкірхен. Складова частина об'єднання громад Альтенкірхен.",
    "timestamp": "2016-11-04T11:47:50Z"
  },
  {
    "id": 2289118,
    "title": "Фолькерцен",
    "text": "Фолькерцен (Template:lang-de) — громада в Німеччині, розташована в землі Рейнланд-Пфальц. Входить до складу району Альтенкірхен. Складова частина об'єднання громад Альтенкірхен.",
    "timestamp": "2016-11-04T11:48:41Z"
  },
  {
    "id": 2289119,
    "title": "Хуан Мігель Агілера",
    "text": "Хуан Мігель Агілера (Template:lang-es, Template:н у Валенсії 1960 року) — іспанський письменник-фантаст.",
    "timestamp": "2016-11-04T14:44:14Z"
  },
  {
    "id": 2289123,
    "title": "Форст (Альтенкірхен)",
    "text": "Форст (Template:lang-de) — громада в Німеччині, розташована в землі Рейнланд-Пфальц. Входить до складу району Альтенкірхен. Складова частина об'єднання громад Гамм (Зіг).",
    "timestamp": "2016-11-04T11:49:31Z"
  },
  {
    "id": 2289126,
    "title": "Форстмерен",
    "text": "Форстмерен (Template:lang-de) — громада в Німеччині, розташована в землі Рейнланд-Пфальц. Входить до складу району Альтенкірхен. Складова частина об'єднання громад Альтенкірхен.",
    "timestamp": "2016-11-04T11:50:14Z"
  },
  {
    "id": 2289129,
    "title": "Фрідевальд",
    "text": "Фрідевальд (Template:lang-de) — громада в Німеччині, розташована в землі Рейнланд-Пфальц. Входить до складу району Альтенкірхен. Складова частина об'єднання громад Гердорф-Дааден.",
    "timestamp": "2016-11-04T11:51:02Z"
  },
  {
    "id": 2289132,
    "title": "Фрізенгаген",
    "text": "Фрізенгаген (Template:lang-de) — громада в Німеччині, розташована в землі Рейнланд-Пфальц. Входить до складу району Альтенкірхен. Складова частина об'єднання громад Кірхен.",
    "timestamp": "2016-11-04T11:51:56Z"
  },
  {
    "id": 2289134,
    "title": "Фюртен",
    "text": "Фюртен (Template:lang-de) — громада в Німеччині, розташована в землі Рейнланд-Пфальц. Входить до складу району Альтенкірхен. Складова частина об'єднання громад Гамм (Зіг).",
    "timestamp": "2016-11-04T11:53:01Z"
  },
  {
    "id": 2289136,
    "title": "Цигенгайн",
    "text": "Цигенгайн (Template:lang-de) — громада в Німеччині, розташована в землі Рейнланд-Пфальц. Входить до складу району Альтенкірхен. Складова частина об'єднання громад Фламмерсфельд.",
    "timestamp": "2016-11-04T11:53:49Z"
  },
  {
    "id": 2289139,
    "title": "Шенеберг (Альтенкірхен)",
    "text": "Шенеберг (Template:lang-de) — громада в Німеччині, розташована в землі Рейнланд-Пфальц. Входить до складу району Альтенкірхен. Складова частина об'єднання громад Альтенкірхен.",
    "timestamp": "2017-12-27T12:51:50Z"
  },
  {
    "id": 2289141,
    "title": "Шоєрфельд",
    "text": "Шоєрфельд (Template:lang-de) — громада в Німеччині, розташована в землі Рейнланд-Пфальц. Входить до складу району Альтенкірхен. Складова частина об'єднання громад Бецдорф.",
    "timestamp": "2016-11-04T11:52:14Z"
  },
  {
    "id": 2289143,
    "title": "Штайнебах (Зіг)",
    "text": "Штайнебах/Зіг (Template:lang-de) — громада в Німеччині, розташована в землі Рейнланд-Пфальц. Входить до складу району Альтенкірхен. Складова частина об'єднання громад Гебгардсгайн.",
    "timestamp": "2016-11-04T11:57:07Z"
  },
  {
    "id": 2289145,
    "title": "Штайнерот",
    "text": "Штайнерот (Template:lang-de) — громада в Німеччині, розташована в землі Рейнланд-Пфальц. Входить до складу району Альтенкірхен. Складова частина об'єднання громад Гебгардсгайн.",
    "timestamp": "2016-11-04T11:57:46Z"
  },
  {
    "id": 2289147,
    "title": "Штюрцельбах",
    "text": "Штюрцельбах (Template:lang-de) — громада в Німеччині, розташована в землі Рейнланд-Пфальц. Входить до складу району Альтенкірхен. Складова частина об'єднання громад Альтенкірхен.",
    "timestamp": "2016-11-04T11:58:25Z"
  },
  {
    "id": 2289149,
    "title": "Шуцбах",
    "text": "Шуцбах (Template:lang-de) — громада в Німеччині, розташована в землі Рейнланд-Пфальц. Входить до складу району Альтенкірхен. Складова частина об'єднання громад Гердорф-Дааден.",
    "timestamp": "2016-11-04T11:59:09Z"
  },
  {
    "id": 2289151,
    "title": "Шюрдт",
    "text": "Шюрдт (Template:lang-de) — громада в Німеччині, розташована в землі Рейнланд-Пфальц. Входить до складу району Альтенкірхен. Складова частина об'єднання громад Фламмерсфельд.",
    "timestamp": "2016-11-04T12:00:01Z"
  },
  {
    "id": 2289158,
    "title": "Крупа Петро Іванович",
    "text": "Петро Іванович Кру́па (Template:нар 8 грудня 1952, Бучач) — український архітектор-містобудівник.",
    "timestamp": "2017-07-14T17:04:15Z"
  },
  {
    "id": 2289161,
    "title": "Мерен (Вестервальд)",
    "text": "Мерен (Template:lang-de) — громада в Німеччині, розташована в землі Рейнланд-Пфальц. Входить до складу району Вестервальд. Складова частина об'єднання громад Вальмерод.",
    "timestamp": "2016-11-05T11:07:54Z"
  },
  {
    "id": 2289163,
    "title": "Оберербах (Вестервальд)",
    "text": "Оберербах (Template:lang-de) — громада в Німеччині, розташована в землі Рейнланд-Пфальц. Входить до складу району Вестервальд. Складова частина об'єднання громад Вальмерод.",
    "timestamp": "2016-11-05T11:15:52Z"
  },
  {
    "id": 2289166,
    "title": "Бецдорф",
    "text": "Бецдорф (Template:lang-de) — топонім.",
    "timestamp": "2017-07-02T10:42:05Z"
  },
  {
    "id": 2289172,
    "title": "П'єрос Сотіріу",
    "text": "П'єрос Сотіріу (Template:lang-el, Template:нар 13 січня 1993, Нікосія) — кіпрський футболіст, нападник, фланговий півзахисник клубу АПОЕЛ.",
    "timestamp": "2017-05-25T15:33:39Z"
  },
  {
    "id": 2289194,
    "title": "Підгайний Олег Семенович",
    "text": "Підгайний Олег Семенович (Template:нар 1 січня 1933, Харків) — український історик і бібліограф. Син Семена Підгайного.",
    "timestamp": "2016-11-04T15:31:11Z"
  },
  {
    "id": 2289200,
    "title": "Sarcoglanis simplex",
    "text": "Sarcoglanis simplex — єдиний вид роду Sarcoglanis з підродини Sarcoglanidinae родини Trichomycteridae ряду Сомоподібні. Наукова назва роду походить від грецького слова sarkos, тобто «м'ясиво», «плоть», та латинського слова glanis — сом.",
    "timestamp": "2016-11-04T15:54:50Z"
  },
  {
    "id": 2289203,
    "title": "Ват Махатхат",
    "text": "Ват Махатхат (Тай.Template:lang) — відомий буддійський храм в Аютаї, Таїланд.",
    "timestamp": "2018-07-04T13:08:51Z"
  },
  {
    "id": 2289213,
    "title": "Schultzichthys",
    "text": "Schultzichthys (Шульціхтис) — рід риб з підродини Stegophilinae родини Trichomycteridae ряду Сомоподібні. Має 2 види. Наукова назва походить від імені немецького біологіа Вольфрата Шульца.",
    "timestamp": "2016-11-04T14:06:28Z"
  },
  {
    "id": 2289216,
    "title": "Велько Подує",
    "text": "Векослав (Велько) Подує (Template:lang-hr, Template:н 24 лютого 1907, Шибеник  — Template:† 2 березня 1993, Рієка) — югославський футболіст, що грав на позиції півзахисника. Відомий виступами за клуб «Хайдук», а також національну збірну Югославії. Дворазовий чемпіон Югославії. Молодший брат футболіста Шиме Подує.",
    "timestamp": "2018-09-09T07:56:25Z"
  },
  {
    "id": 2289219,
    "title": "Дюбуа (Айдахо)",
    "text": "Дюбуа (Template:lang-en) — окружний центр округу Кларк, штат Айдахо, США. Згідно з переписом 2010 року населення становило 677 осіб, що на 30 осіб більше, ніж 2000 рокуTemplate:cite web.",
    "timestamp": "2018-10-22T07:03:45Z"
  },
  {
    "id": 2289220,
    "title": "Касайський ящір",
    "text": "Касаї Рекс - iстота-криптид, який нібито проживає у долині річки Касаї, яка знаходиться у джунглях Конго. Майже всі криптозоологи заперечують його існування. По опису схожий на ящера тиранозавра. Касаї Рекс досягає довжини 12 м (як тиранозавр Північної Америки). Це тварина з довгими і гострими зубами, великими щелепами, товстим і довгим хвостом ,міцними задніми лапами і слабкими передніми. У хижака темно-червона шкіра з майже чорними смужками на шиї, спині і хвості. Всі свідки бачили Касаї Рекса на полюванні або за поїданням носорога.",
    "timestamp": "2018-05-25T09:54:17Z"
  },
  {
    "id": 2289221,
    "title": "Беженар Олег Валерійович",
    "text": "Оле́г Вале́рійович Бежена́р (Template:Lang-ro; 17 вересня 1971) — молдавський футболіст, тренер.",
    "timestamp": "2017-08-25T07:11:06Z"
  },
  {
    "id": 2289225,
    "title": "Підканцлер коронний",
    "text": "Підканцлер коронний — вищий урядовець Королівства Польського і Речі Посполитої, один із керівників державної канцелярії; заступник канцлера коронного. Історичним попередником уряду П.к. був уряд протонотаріуса, який у 13 ст. очолював канцелярію монарха. З часом фактичний керівник апарату королівської канцелярії набув значення загальнодержавного урядовця. Після 1320 він титулувався підканцлером двору або короля, пізніше — підканцлером Польського королівства; П.к., на відміну від коронного канцлера, завіряв акти не великою, а малою печаткою (обидві печатки мали однакову юридичну силу). Водночас межі компетенції П.к. і коронного канцлера не були чітко розмежованими. П.к. вів дипломатичну кореспонденцію, готував королівські привілеї, пожалування та ін. документи. Він входив до сенату (див. Сенат у Речі Посполитій). Із початком 16 ст. його обов'язком стала перевірка на відповідність актів, що виходили з канцелярії. П.к. наглядав за веденням коронною канцелярією підканцлерських книг, які входили до т. зв. Коронної метрики. Мав також певну судову компетенцію (міг головувати на асесорському суді).",
    "timestamp": "2016-11-04T13:33:43Z"
  },
  {
    "id": 2289235,
    "title": "Девабхуті",
    "text": "Девабхуті — індійський правитель з династії Шунга. Був убитий своїм міністром Васудевою. Після його смерті до влади прийшла династія Канва.",
    "timestamp": "2017-02-17T14:28:14Z"
  },
  {
    "id": 2289237,
    "title": "Карас Йон Степанович",
    "text": "Йон (Іван) Степанович Карас (Template:lang-ro, нар. 11 вересня 1950 року) — радянський футболіст і молдовський футбольний тренер. Більшу частину ігрової кар'єри провів у «Ністру» (нині «Зімбру»).",
    "timestamp": "2018-06-30T09:55:21Z"
  },
  {
    "id": 2289242,
    "title": "European Film Promotion",
    "text": "European Film Promotion (EFP, Template:lang-uk) — міжнародна мережа організацій, діяльність якої зосереджена на просуванні і маркетингу європейського кіно по всьому світовіTemplate:cite web.",
    "timestamp": "2017-03-24T03:02:12Z"
  },
  {
    "id": 2289248,
    "title": "Васудева Канва",
    "text": "Васудева Канва — індійський правитель, засновник династії Канва. Первинно був міністром останнього представника династії Шунга, Девабхуті.",
    "timestamp": "2017-02-17T14:28:15Z"
  },
  {
    "id": 2289254,
    "title": "Церква Покрови Пресвятої Богородиці (Базар)",
    "text": "Церква Покрови Пресвятої Богородиці — храм греко-католицької громади Бучацької єпархії Української греко-католицької церкви в селі Базар Чортківського району Тернопільської області.",
    "timestamp": "2018-08-25T07:23:39Z"
  }
]