[
  {
    "id": 2708644,
    "title": "Каміль Драгун",
    "text": "Каміль Драгун (Template:lang-pl; Template:н 25 червня 1995, Ґожув-Велькопольський) – польський шахіст, гросмейстер від 2013 року.",
    "timestamp": "2018-05-03T05:49:46Z"
  },
  {
    "id": 2708648,
    "title": "Ян-Кшиштоф Дуда",
    "text": "Ян-Кшиштоф Дуда (Template:н 26 квітня 1998, Краків) — польський шахіст, гросмейстер від 2013 року.",
    "timestamp": "2018-10-08T04:23:11Z"
  },
  {
    "id": 2708649,
    "title": "Марцін Дзюба",
    "text": "Марцін Дзюба (Template:lang-pl; Template:н 17 липня 1983, Замостя) – польський шахіст, гросмейстер від 2007 року.",
    "timestamp": "2018-05-03T06:10:36Z"
  },
  {
    "id": 2708650,
    "title": "Бедрі Рахмі Еюбоглу",
    "text": "Бедрі Рахмі Еюбоглу  (1913, Гереле — 1975, Стамбул) — турецький художник і поет.",
    "timestamp": "2018-05-10T14:28:48Z"
  },
  {
    "id": 2708651,
    "title": "Гжегож Гаєвський",
    "text": "Гжегож Гаєвський (Template:lang-pl; Template:н 19 липня 1985, Скерневіце) – польський шахіст, гросмейстер від 2006 року.",
    "timestamp": "2018-05-03T06:17:34Z"
  },
  {
    "id": 2708653,
    "title": "Мечеть Ала ад-Діна (Конья)",
    "text": "Меч́еть Ала ад-Діна (Template:Lang-tr) — найстаріша архітектурна пам'ятка в турецькому місті Конья. Мечеть розташована на центральному (історичному) міському пагорбі, також носить ім'я Ала ад-Діна. Вона є усипальницею сельджуцьких султанів.",
    "timestamp": "2018-08-29T08:23:07Z"
  },
  {
    "id": 2708654,
    "title": "П'ята Алія",
    "text": "П'ята алія — переселення євреїв, яке тривало в період 1929—1939 рр, коли в Палестину переселилися близько 250 тисяч євреїв з усіх куточків Європи.",
    "timestamp": "2018-08-24T07:16:35Z"
  },
  {
    "id": 2708655,
    "title": "Яцек Гданьський",
    "text": "Яцек Гданьський (Template:lang-pl; Template:н 30 листопада 1970, Щецинек) – польський шахіст, гросмейстер від 1997 року.",
    "timestamp": "2018-05-03T06:22:51Z"
  },
  {
    "id": 2708658,
    "title": "Норовава",
    "text": "Норовава — або Паксява (м., Е. Норов, пакся «поле», ава «жінка»), божество, покровителька поля.",
    "timestamp": "2018-05-30T01:33:13Z"
  },
  {
    "id": 2708660,
    "title": "Мирослав Грабарчик",
    "text": "Мирослав Грабарчик (Template:lang-pl; Template:н 3 січня 1971, Плоцьк) – польський шахіст, гросмейстер від 2002 року.",
    "timestamp": "2018-05-03T06:32:31Z"
  },
  {
    "id": 2708662,
    "title": "Подорожник Корнута",
    "text": "Подорожник КорнутаTemplate:КобівTemplate:книга Template:ref-ruTemplate:ref-ukTemplate:книга (Plantago cornutii) — вид трав'янистих рослин родини Подорожникові (Plantaginaceae), поширений у центральній Азії, досягаючи Чорного моря та деяких розкиданих районів північного Середземномор'я.",
    "timestamp": "2018-04-28T14:15:27Z"
  },
  {
    "id": 2708664,
    "title": "Халіль Паша",
    "text": "Халіль Паша(Template:lang-tr,1857—1939) — турецький художник-пейзажист.",
    "timestamp": "2018-05-29T20:04:07Z"
  },
  {
    "id": 2708666,
    "title": "Бартоломей Геберла",
    "text": "Бартоломей Геберла (Template:lang-pl; Template:н 19 червня 1985, Рибник) – польський шахіст і шаховий тренер (Тренер ФІДЕ від 2012 року) , гросмейстер від 2006 року.",
    "timestamp": "2018-05-03T08:51:27Z"
  },
  {
    "id": 2708669,
    "title": "Гюльсюн Сагламер",
    "text": "Гюльсюн Сагламер (Template:lang-tr; Template:нар 1945) — турецький академік.",
    "timestamp": "2018-05-13T15:20:38Z"
  },
  {
    "id": 2708670,
    "title": "Ференц Хегер",
    "text": "Ференц Хегер (Template:lang-hu, Template:н 1902 — Template:† 1970) — угорський футболіст, що грав на позиції правого крайнього нападника. Виступав за клуб «Ференцварош», у складі якого був чемпіоном Угорщини.",
    "timestamp": "2018-04-28T14:23:21Z"
  },
  {
    "id": 2708671,
    "title": "Артур Якубець",
    "text": "Артур Якубець (Template:lang-pl; Template:н 3 грудня 1973, Вадовиці) — польський шахіст і шаховий тренер (Developmental Instructor 2014), гросмейстер від 2002 року.",
    "timestamp": "2018-07-30T12:39:15Z"
  },
  {
    "id": 2708673,
    "title": "Кшиштоф Якубовський",
    "text": "Кшиштоф Якубовський (Template:lang-pl; Template:н 23 вересня 1983, Ломжа) – польський шахіст, гросмейстер від 2009 року.",
    "timestamp": "2018-05-03T15:14:13Z"
  },
  {
    "id": 2708675,
    "title": "Павел Ярач",
    "text": "Павел Ярач (Template:lang-pl; Template:н 22 липня 1975, Кожухув) – польський шахіст, гросмейстер від 2000 року.",
    "timestamp": "2018-05-03T09:58:02Z"
  },
  {
    "id": 2708677,
    "title": "Радослав Єдинак",
    "text": "Радослав Єдинак (Template:lang-pl; Template:н 9 червня 1982, Варшава) – польський шахіст, гросмейстер від 2006 року.",
    "timestamp": "2018-05-03T10:29:16Z"
  },
  {
    "id": 2708679,
    "title": "Марцін Каміньський",
    "text": "Марцін Каміньський (Template:lang-pl; Template:н 10 березня 1977, Вроцлав) – польський шахіст, гросмейстер.",
    "timestamp": "2018-05-03T10:35:27Z"
  },
  {
    "id": 2708682,
    "title": "Марцель Канарек",
    "text": "Марцель Канарек (Template:lang-pl; Template:н 5 лютого 1993, Кошалін) – польський шахіст, гросмейстер від 2016 року.",
    "timestamp": "2018-05-03T10:47:19Z"
  },
  {
    "id": 2708683,
    "title": "Адам Куліговський",
    "text": "Адам Куліговський (Template:lang-pl; Template:н 24 грудня 1955, Варшава) – польський шахіст, гросмейстер від 1980 року.",
    "timestamp": "2018-05-03T10:57:35Z"
  },
  {
    "id": 2708684,
    "title": "Бібліотека імені Івана Вазова",
    "text": "Бібліотека імені Іва́на Ва́зова при новій читальні імені Христо Ботева 1884 року (болг. Бібліотека «Іван Вазов» при НЧ «Христо Ботев 1884»)— болгарська бібліотека і сучасний загальноосвітній інститут, розташований в місті Ботевград, у центрі однойменної громади. Займається збором, зберіганням і обробкою різних бібліотечних фондів, обслуговуванням читачів, здійснює довідково-бібліографічну та інформаційну діяльність, виконує організаційно-методичні функції на території Ботевграда і надає вільне користування бібліотечно-інформаційними ресурсами. Сприяє підвищенню освітнього рівня, продовження здобуття освіти, інформованості, якості життя, соціальної інтеграції та розширення електронного доступу до інформації.",
    "timestamp": "2018-10-06T19:24:21Z"
  },
  {
    "id": 2708685,
    "title": "Александер Місьта",
    "text": "Александер Місьта (Template:lang-pl; Template:н 7 січня 1983, Мишкув) – польський шахіст і шаховий тренер (Тренер ФІДЕ від 2012 року), гросмейстер від 2004 року.",
    "timestamp": "2018-05-03T11:04:40Z"
  },
  {
    "id": 2708686,
    "title": "Каміль Мітонь",
    "text": "Каміль Мітонь (Template:lang-pl; Template:н 12 квітня 1984, Краків) – польський шахіст, гросмейстер від 2002 року.",
    "timestamp": "2018-05-03T13:16:20Z"
  },
  {
    "id": 2708687,
    "title": "Войцех Моранда",
    "text": "Войцех Моранда (Template:lang-pl; Template:н 17 серпня 1988, Кельце) – польський шахіст, гросмейстер від 2009 року.",
    "timestamp": "2018-05-03T13:22:13Z"
  },
  {
    "id": 2708688,
    "title": "Ян Ковалевський",
    "text": "Ян Ковалевський, Template:Lang-pl (23 жовтня 1892, Лодзь — 31 жовтня 1965, Лондон) — польський шифрувальник, математик і лінгвіст, зумів зламати радянські й білогвардійські шифри під час радянсько-польської війни 1919-1921 років. Тривалий час служив у 2-му відділі Генерального штабу Війська польського, дослужився до чину підполковника.",
    "timestamp": "2018-10-16T09:08:37Z"
  },
  {
    "id": 2708689,
    "title": "Міхал Ольшевський (шахіст)",
    "text": "Міхал Ольшевський (Template:lang-pl; Template:н 23 вересня 1989, Варшава) – польський шахіст, гросмейстер від 2009 року.",
    "timestamp": "2018-05-03T15:14:16Z"
  },
  {
    "id": 2708691,
    "title": "Дерматин",
    "text": "Дерматин (від Template:lang-grc), гранітоль — сорт штучної шкіри, бавовняна тканина з нітроцелюлозним покриттям, нанесеним на одну або обидві сторони тканини. Широко застосовувався в СРСР з 1930-х років (згідно Великої радянської енциклопедії, промислове виробництво налагоджено з 1930 року) як шкірзамінник, дешевий оздоблювальний матеріал.",
    "timestamp": "2018-04-28T16:09:34Z"
  },
  {
    "id": 2708692,
    "title": "Кешкек",
    "text": "Кешке́к — традиційна турецька обрядова страва з тушкованого м'яса, пшениці або ячменю.",
    "timestamp": "2018-10-19T15:31:07Z"
  },
  {
    "id": 2708694,
    "title": "Зв'язок в Албанії",
    "text": "Зв'язок в Албанії почав свій активний розвиток тільки в 1990-і роки. До його складу включають радіо, телебачення, телефонію і Інтернет. Розвиток зв'язку гальмується через розруху, викликану заворушеннями в 1997 році і Косівською війною.",
    "timestamp": "2018-05-10T14:31:11Z"
  },
  {
    "id": 2708695,
    "title": "Збігнєв Паклеза",
    "text": "Збігнєв Паклеза (Template:lang-pl; Template:н 5 грудня 1986 Глівіце) – польський шахіст, гросмейстер від 2014 року.",
    "timestamp": "2018-05-03T14:22:31Z"
  },
  {
    "id": 2708697,
    "title": "Кацпер Пьорун",
    "text": "Кацпер Пьорун (Template:lang-pl; Template:н 24 листопада 1991, Лович)Template:cytuj stronę – польський шахіст, гросмейстер від 2012 року, гросмейстер з розв'язування шахових задач від 2011 року.",
    "timestamp": "2018-05-03T14:35:53Z"
  },
  {
    "id": 2708706,
    "title": "Даніель Садзіковський",
    "text": "Даніель Садзіковський (Template:lang-pl; Template:н 20 січня 1994, Хшанув) – польський шахіст, гросмейстер від 2017 року.",
    "timestamp": "2018-05-03T15:13:45Z"
  },
  {
    "id": 2708708,
    "title": "Яцек Стопа",
    "text": "Яцек Стопа (Template:lang-pl; Template:н 3 січня 1987, Вроцлав) – польський шахіст, міжнародний гросмейстер від 2015 року.",
    "timestamp": "2018-05-03T15:39:37Z"
  },
  {
    "id": 2708712,
    "title": "Марцін Тазбір",
    "text": "Марцін Тазбір (Template:lang-pl; Template:н 22 серпня 1988, Пьотркув-Трибунальський) – польський шахіст, гросмейстер від 2013 року.",
    "timestamp": "2018-05-03T15:55:54Z"
  },
  {
    "id": 2708717,
    "title": "Яцек Томчак (шахіст)",
    "text": "Яцек Томчак (Template:lang-pl; Template:н 5 березня 1990, Сьрем) – польський шахіст, гросмейстер від 2012 року.",
    "timestamp": "2018-05-03T16:22:25Z"
  },
  {
    "id": 2708720,
    "title": "Томаш Варакомський",
    "text": "Томаш Варакомський (Template:lang-pl; Template:н 22 червня 1989, Сувалки) – польський шахіст, гросмейстер від 2017 року.",
    "timestamp": "2018-05-03T16:40:25Z"
  },
  {
    "id": 2708724,
    "title": "Юрій Зезюлькін",
    "text": "Юрій Зезюлькін (Template:н 16 серпня 1971, Мінськ) – білоруський шахіст, представник Польщі від 2010 рокуFIDE Transfers in 2010, гросмейстер від 1999 року.",
    "timestamp": "2018-08-08T12:30:03Z"
  },
  {
    "id": 2708732,
    "title": "Юрій Михайлович Заславський",
    "text": "Юрій Заславській (*д/н —бл. 1450) — політичний та військовий діяч Великого князівства Литовського.",
    "timestamp": "2018-05-12T05:37:13Z"
  },
  {
    "id": 2708736,
    "title": "Кара ДіоГуарді",
    "text": "Кара Елізабет ДіоГуарді (Template:lang-en; 9 грудня 1970, Оссінінг, Нью-Йорк, США) — американська автор-виконавець, пісняр, музичний продюсер, персона телебачення. Пише пісні в основному в жанрі поп-рок DioGuardi has worked with many popular artists;Kara DioGuardi - Related Artists. ДіоГуарді працювала із великою кількістю популярних співаків; продажі альбомів, в які входять її пісні становлять більше 160 мільйонів по всьому світіHarperCollins Author Bio Template:webarchive. Була номінована на Греммі та Еммі. Переможниця 2011 NAMM Music For Life Award, 2009 NMPA Songwriter Icon Award, 2007 BMI Pop Songwriter of the Year. Має 20 нагород BMI Awards за створення успішних пісень.",
    "timestamp": "2018-05-29T14:02:16Z"
  },
  {
    "id": 2708737,
    "title": "Фарід Аббасов",
    "text": "Фарід Аббасов (Template:lang-az; Template:н 31 січня 1979, Баку) – азербайджанський шахіст, гросмейстер від 2007 року.",
    "timestamp": "2018-05-03T16:56:28Z"
  },
  {
    "id": 2708739,
    "title": "Ульві Баджарані",
    "text": "Ульві Баджарані (Template:lang-az; Template:н 27 січня 1995, Баку) – азербайджанський шахіст, гросмейстер від 2013 року.",
    "timestamp": "2018-05-10T14:31:12Z"
  },
  {
    "id": 2708740,
    "title": "Рауф Мамедов (шахіст)",
    "text": "Рауф Мамедов (Template:lang-az; Template:н 26 квітня 1988, Баку) – азербайджанський шахіст, гросмейстер від 2004 року.",
    "timestamp": "2018-06-25T21:14:40Z"
  },
  {
    "id": 2708743,
    "title": "Ельтадж Сафарлі",
    "text": "Ельтадж Сафарлі (Template:lang-az; Template:н 18 травня 1992, Баку) – азербайджанський шахіст, гросмейстер від 2008 року.",
    "timestamp": "2018-05-03T17:55:15Z"
  },
  {
    "id": 2708745,
    "title": "Уллє Чельгрен",
    "text": "Уллє Чельгрен (Template:lang-sv, 7 вересня 1907 — 13 квітня 1983) — шведський футболіст, що грав на позиції захисника.",
    "timestamp": "2018-04-28T18:44:58Z"
  },
  {
    "id": 2708747,
    "title": "Івар Ерікссон",
    "text": "Івар Ерікссон (Template:lang-sv, 25 грудня 1909 — 12 квітня 1997) — шведський футболіст, що грав на позиції захисника.",
    "timestamp": "2018-07-24T08:56:08Z"
  },
  {
    "id": 2708749,
    "title": "Адріена (герцогиня Блекінге)",
    "text": "Її Королівська Високість Адріена Жозефіна Аліса, Принцеса Швеції, Герцогиня Блекінге (Template:lang-sv, Template:lang-en, Template:нар 9 березня 2018 р., Дандерід, Швеція) — третя дитина шведської принцеси Мадлен, герцогині Гельсінгландської й Гестрікландської, та її чоловіка Крістофера О'Ніла; онука правлячого короля Швеції Карла XVI Густава та його дружини королеви Сільвії.",
    "timestamp": "2018-07-04T18:11:33Z"
  },
  {
    "id": 2708751,
    "title": "Бела Бадя",
    "text": "Бела Бадя (Template:lang-ro; Template:н 21 лютого 1969) – румунський шахіст, гросмейстер від 1999 року. До 1989 року виступав під ім'ям Такач.",
    "timestamp": "2018-05-03T18:04:20Z"
  },
  {
    "id": 2708754,
    "title": "Йон Беленел",
    "text": "Йон Беленел (Template:lang-ro; Template:н 7 червня 1926, Бухарест) – румунський шахіст, міжнародний майстер від 1954 року.",
    "timestamp": "2018-05-16T10:29:28Z"
  },
  {
    "id": 2708756,
    "title": "Алін Береску",
    "text": "Алін Береску (Template:lang-ro; Template:н 14 квітня 1980, Тімішоара) – румунський шахіст, гросмейстер від 2007 року.",
    "timestamp": "2018-05-03T18:48:01Z"
  },
  {
    "id": 2708757,
    "title": "Іван Заславський",
    "text": "Іван Заславський (*д/н — бл. 1499) — державний діяч, урядник Великого князівства Литовського. Не слід плутати з Іваном Заславським, представник гілки Рюриковичів-Заславських. Став першим, хто досяг значних посад у державі.",
    "timestamp": "2018-06-15T18:55:04Z"
  },
  {
    "id": 2708758,
    "title": "Йоан-Крістьян Кіріле",
    "text": "Йоан-Крістьян Кіріле (Template:lang-ro; Template:н 6 січня 1991, Бухарест) – румунський шахіст, гросмейстер від 2009 року.",
    "timestamp": "2018-05-03T18:56:43Z"
  },
  {
    "id": 2708763,
    "title": "Розовський Григорій Єфремович",
    "text": "Григорій Єфремович Розовський (Template:ДН, місто Фастів, тепер Київської області — Template:ДС, місто Дрогобич Львівської області) — радянський журналіст та партійний діяч, редактор дрогобицької міської газети «Радянське слово». Кандидат філософських наук (1969), доцент (1972).",
    "timestamp": "2018-04-28T16:31:41Z"
  },
  {
    "id": 2708765,
    "title": "Крекінг-установка в Бівер-Каунті",
    "text": "Крекінг-установка в Бівер-Каунті – підприємство нафтохімічної промисловості, яке споруджується англо-голландською нафтогазовою компанією Royal Dutch Shell  в Бівер-Каунті  (Beaver County) штат Пенсильванія, США.",
    "timestamp": "2018-05-10T14:28:48Z"
  },
  {
    "id": 2708771,
    "title": "Русіна Ольга",
    "text": "Ольга Русіна — журналістка, перекладачка, авторка книг для дітей та підлітків.",
    "timestamp": "2018-06-26T09:40:15Z"
  },
  {
    "id": 2708773,
    "title": "Адріана (значення)",
    "text": "Адріана / Адріанна / Адріенна / Едріенна — жіноче ім'я, що походить від латинського Адріан. Найчастіше використовується в румунській, іспанській, португальській та італійській мовах.",
    "timestamp": "2018-09-24T20:37:12Z"
  },
  {
    "id": 2708774,
    "title": "Джонні Сінс",
    "text": "Джонні Сінс (Template:lang-en, ім'я при народженні Стів Вульф (Template:lang-en); Template:н 31 грудня 1978) — американський порноактор та фітнес-тренер.",
    "timestamp": "2018-07-05T09:26:14Z"
  },
  {
    "id": 2708777,
    "title": "Вериківська Олена Михайлівна",
    "text": "Оле́на Миха́йлівна Верикі́вська (Template:ДН, Харків — Template:ДС, Київ) — українська піаністка, педагог. Донька композитора Михайла Вериківського, сестра Ірини Вериківської, дружина Еуарда Митницького. Заслужений працівник культури України (1993).",
    "timestamp": "2018-04-28T18:13:16Z"
  },
  {
    "id": 2708779,
    "title": "Девід Бентлі Харт",
    "text": "Девід Бентлі Гарт (Template:lang-en; Template:н Template:Дата народження) — американський православний християнинський філософ і богослов, культуролог і полеміст. Займається серйозно з класичними, середньовічними і континентальними філософськими системи, а також з Дгармічними, біблійними і святоотцівськими текстами. Має праці про онтологію і порівняльну міфологію, духовну естетику та екзистенціалізм, патристику.",
    "timestamp": "2018-05-13T17:11:55Z"
  },
  {
    "id": 2708781,
    "title": "Happy Star",
    "text": "Happy Star – судно для перевезення великовагових вантажів (heavy load vessel). Відноситься до типу Lo-Lo (Lift on/lift out), тобто провадить завантаження та розвантаження за допомогою власного кранового обладнання. Є другим у серії з кількох суден, куди також відносяться Happy Sky та Happy Sun.",
    "timestamp": "2018-05-15T18:04:27Z"
  },
  {
    "id": 2708789,
    "title": "Аллан Сен-Максімен",
    "text": "Аллан Сен-Максімен (Template:lang-fr, Template:нар 12 березня 1997, Шатне-Малабрі) — французький футболіст, нападник, фланговий півзахисник клубу «Ніцца».",
    "timestamp": "2018-05-28T09:52:20Z"
  },
  {
    "id": 2708790,
    "title": "Королі Айлеху",
    "text": "Королі Айлеху — правителі невеликого королівства, що існувало на території сучасної Ірландії у V-XII століттях. Монархи належали до династії Північних Уї Нейллів та називались від назви фортеці Гріанан Айліг, городища на вершині гори Грейнен, що на заході Ольстеру. Нині відновлена фортеця розташована на півострові Інішоуен з видом на озеро Лох-Суїллі на заході й затоку Лох-Фойл на сході.",
    "timestamp": "2018-04-28T17:49:24Z"
  },
  {
    "id": 2708798,
    "title": "Корбан Олег Борисович",
    "text": "Корбан Олег Борисович (Template:нар 9 жовтня 1964, Київ) — громадсько-політичний діяч, заступник голови Аграрної партії, голова Київської обласної організації Аграрної партії, президент громадської організації «Всеукраїнська федерація гольфу», голова Голосіївської районної у місті Києві ради у 2005-2006 роках.",
    "timestamp": "2018-10-16T14:13:27Z"
  },
  {
    "id": 2708806,
    "title": "Васильєв Тимофій Васильович",
    "text": "Васильєв Тимофій Васильович (19 лютого 1897, с. Тавла Template:нп Томської губернії — 31 липня 1939, Москва) — мордовський (ерзянський) правник, засновник сучасної системи судочинства Мордовії, юрист-міжнародник, громадсько-політичний діяч. Учасник Жовтневої революції 1917 року.",
    "timestamp": "2018-05-04T20:47:27Z"
  },
  {
    "id": 2708809,
    "title": "Курко Василь Миколайович",
    "text": "Василь Миколайович Курко (Template:н 25 квітня 1995, Іллічівськ) — український футболіст, півзахисник клубу «Волинь».",
    "timestamp": "2018-04-28T19:47:18Z"
  },
  {
    "id": 2708812,
    "title": "Янкевич-Янкелевич Арнольд Анатолійович",
    "text": "Арно́льд Анато́лійович Янке́вич-Янкеле́вич (Template:ДН, Київ — Template:ДС, Київ) — український музичний педагог, професор. Один з фундаторів української фортепіанної школи. Підготував плеяду відомих піаністів і музичних педагогів.",
    "timestamp": "2018-08-21T19:09:36Z"
  },
  {
    "id": 2708815,
    "title": "Далія Равикович",
    "text": "Далія Равикович (17 листопада 1936, Template:Місце народження, Template:Місце народження — 21 серпня 2005, Тель-Авів, Ізраїль — ізраїльська поетеса, громадський діяч.",
    "timestamp": "2018-04-28T19:06:22Z"
  },
  {
    "id": 2708824,
    "title": "Єне Вінер",
    "text": "Єне Вінер (Template:lang-hu, Template:н 3 березня 1899 — Template:† 1968) — угорський футболіст, що грав на позиції лівого крайнього нападника. Виступав за клуб «Ференцварош», а також національну збірну Угорщини.",
    "timestamp": "2018-04-29T08:05:12Z"
  },
  {
    "id": 2708825,
    "title": "Ґрегіт",
    "text": "Ґрегіт, рідше ґрехіт — тип ландшафту, кам'янисте поле, стрімка гора[[Ярослав Рудницький]. Етимологічний словник українськоїх мови. Том 1 А-Ґ. — Вінніпеґ: Українська вільна академія наук — УВАН, 1962—1972. — С. 870.].",
    "timestamp": "2018-05-31T12:32:03Z"
  },
  {
    "id": 2708827,
    "title": "Равикович",
    "text": "Равикович (Равікович) — слов'янське українське та білоруське прізвище або єврейське, яке походить від слова равлик.",
    "timestamp": "2018-05-06T11:52:53Z"
  },
  {
    "id": 2708828,
    "title": "Клеман Жугляр",
    "text": "Клема́н Жюгля́р (Template:lang-fr, (15 жовтня 1819, Париж, Франція — 28 лютого 1905, Париж, Франція) — французький лікар і статистик, перший виділив цикли Жюгляра Clément Juglar — стаття з Encyclopaedia Britannica.",
    "timestamp": "2018-05-25T20:24:03Z"
  },
  {
    "id": 2708831,
    "title": "Google Fuchsia",
    "text": "Fuchsia — це операційна система реального часу (ОСРЧ), що розробляється компанією Google.",
    "timestamp": "2018-10-17T13:24:41Z"
  },
  {
    "id": 2708836,
    "title": "Жувінтас (озеро)",
    "text": "Жуві́нтас (Template:lang-lt) — озеро на півдні Литви. Відоме як місце гніздування найбільшої в країні популяції лебедів-шипунів, також важливе як кормове угіддя перелітних птахів інших видів. Входить до складу біосферного заповідника Жувінтас, належить до водно-болотних угідь Рамсарської конвенціїTemplate:cite web.",
    "timestamp": "2018-05-01T16:45:20Z"
  },
  {
    "id": 2708843,
    "title": "Борисав Станкович",
    "text": "Борисав «Бора» Станкович (Template:Lang-sr, Template:lang-en; 31 березня 1876, Вранє — 22 жовтня 1927, Белград) — сербський письменник і драматург, один з найбільш помітних реалістів в літературі Сербії кінця XIX — початку XX століття.",
    "timestamp": "2018-04-28T23:50:32Z"
  },
  {
    "id": 2708848,
    "title": "Швецова Ольга Петрівна",
    "text": "Ольга Петрівна Швецова (Template:ДН, село Нижні Торгаї, тепер Нижньосірогозького району Херсонської області — ?) — українська радянська діячка, вчителька, директор Нижньоторгаївської неповної середньої школи Нижньосірогозького району Херсонської області. Депутат Верховної Ради УРСР 2-го скликання.",
    "timestamp": "2018-04-28T19:31:56Z"
  },
  {
    "id": 2708850,
    "title": "Борис Скосирев",
    "text": "Борис Скосирев (Template:lang-be, Template:lang-ru, Template:lang-en) — білоруський авантюрист, який 1934 року на короткий час став королем Андорри. 1984 року каталонський письменник Антоні Морель-і-Мора написав роман «Борис I, король Андорри», який детально описує андоррський період життя авантюриста.",
    "timestamp": "2018-05-01T08:10:55Z"
  },
  {
    "id": 2708852,
    "title": "Проценко В'ячеслав Олександрович (футболіст)",
    "text": "В'ячеслав Олександрович Проценко (Template:lang-ro; Template:н 31 серпня 1963, Кишинів, Молдавська РСР) — радянський та молдовський футболіст, нападник.",
    "timestamp": "2018-05-03T15:14:22Z"
  },
  {
    "id": 2708857,
    "title": "Курко",
    "text": "Курко — українське прізвище.",
    "timestamp": "2018-04-28T19:56:58Z"
  },
  {
    "id": 2708858,
    "title": "Олефіренко Олексій Гнатович",
    "text": "Олексій Гнатович Олефіренко (Template:ДН, село Одрадівка, тепер Новотроїцького району Херсонської області — ?) — український радянський діяч, бригадир тракторної бригади Новотроїцької МТС Новотроїцького району Херсонської області. Депутат Верховної Ради УРСР 2-го скликання.",
    "timestamp": "2018-04-28T20:33:09Z"
  },
  {
    "id": 2708863,
    "title": "Спарта (дочка Еврота)",
    "text": "Спарта (Template:lang-grc) — персонаж давньогрецької міфології, дочка царя Лаконії Еврота та його дружини Клети. Одружилася з Лакедемоном, який за деякими джерелами був її дядьком. Через те, що Еврот не мав сина, він заповів Лакедемону трон. Той започаткував нову царську династію Лакемедонідів. Він збудував місто і назвав його на честь своєї дружини Спартою. Вони мали двох дітей: Амікла та Еврідіку.",
    "timestamp": "2018-06-24T21:42:14Z"
  },
  {
    "id": 2708864,
    "title": "Липовий В'ячеслав Леонтійович",
    "text": "В'ячеслав Леонтійович Липовий (Template:ДН, місто Луганськ, тепер Луганської області — Template:ДС, місто Харків) — український радянський діяч, голова президії Спілки споживчих товариств Української РСР (Укоопспілки). Депутат Верховної Ради УРСР 2-го скликання.",
    "timestamp": "2018-05-16T12:36:29Z"
  },
  {
    "id": 2708865,
    "title": "Молодіжний чемпіонат світу з хокею із шайбою 2018",
    "text": "Молодіжний чемпіонат світу з хокею із шайбою 2018 (Template:lang-en) — 42-ий чемпіонат світу з хокею серед молодіжних команд, який пройшов у США (господар молодіжного чемпіонату вже вшосте) з 26 грудня 2017 року по 5 січня 2018 року. Свій сімнадцятий титул здобула збірна Канади.",
    "timestamp": "2018-04-29T11:33:00Z"
  },
  {
    "id": 2708868,
    "title": "Іван Мазаракі",
    "text": "Іван (Ян) Мазаракі (Template:lang-pl) — львівський міщанин XVII ст.",
    "timestamp": "2018-05-27T21:50:18Z"
  },
  {
    "id": 2708890,
    "title": "Северіна Поліна Федорівна",
    "text": "Поліна Федорівна Северіна (Template:ДН, село Новомиколаївка, тепер Дніпропетровська область — ?) — українська радянська діячка, машиніст електрокрану Дніпровської гідроелектростанції імені Леніна Запорізької області. Депутат Верховної Ради УРСР 3-го скликання.",
    "timestamp": "2018-04-28T23:22:32Z"
  },
  {
    "id": 2708891,
    "title": "Колґаська сільська рада",
    "text": "Ко́лґаська сільська рада (Template:lang-et, Template:lang-ru) — сільська рада в Естонській РСР, адміністративно-територіальна одиниця в складі повіту Гар'юмаа (1945—1950), Локсаського району (1950—1957) та Гар'юського району (1957—1963).",
    "timestamp": "2018-04-28T22:01:10Z"
  },
  {
    "id": 2708895,
    "title": "Ґардабад",
    "text": "Ґардабад (Template:lang-fa, Template:lang-hy) — давнє вірменське село в Ірані, що зараз входить до складу дехестану Південний Назлуй у Центральному бахші шахрестану Урмія провінції Західний Азербайджан.",
    "timestamp": "2018-04-29T08:34:07Z"
  },
  {
    "id": 2708898,
    "title": "Шмалько Марія Гаврилівна",
    "text": "Марія Гаврилівна Шмалько (Template:ДН, село Бабаківка, тепер у складі міста Токмак Запорізької області — ?) — українська радянська діячка, ланкова колгоспу імені Сталіна Велико-Токмацького району Запорізької області. Депутат Верховної Ради УРСР 3-го скликання.",
    "timestamp": "2018-07-05T16:31:30Z"
  },
  {
    "id": 2708900,
    "title": "Дуброва Марія Андріївна",
    "text": "Марія Андріївна Дуброва (Template:ДН, тепер Запорізька область — ?) — українська радянська діячка, ланкова радгоспу імені Горького Мелітопольського району Запорізької області. Герой Соціалістичної Праці (20.08.1949). Депутат Верховної Ради УРСР 3-го скликання.",
    "timestamp": "2018-04-28T22:41:07Z"
  },
  {
    "id": 2708901,
    "title": "Мартинюк Ольга Володимирівна",
    "text": "Ольга Мартинюк (Template:нар 8 березня 1986, Львів) — український історик, кандидат історичних наук, старший викладач кафедри історії Національного технічного університету України «КПІ ім. Ігоря Сікорського», громадська активістка.",
    "timestamp": "2018-06-04T10:37:05Z"
  },
  {
    "id": 2708902,
    "title": "Ховенко Валентин Михайлович",
    "text": "Ховенко Валентин Михайлович (Template:lang-ru; Template:нар 7 грудня 1940, Харків, УРСР — Template:пом 30 серпня 2003, Москва, Росія) — радянський і російський кінорежисер, сценарист і письменник.",
    "timestamp": "2018-04-28T22:42:53Z"
  },
  {
    "id": 2708909,
    "title": "Любарська Юлія Дмитрівна",
    "text": "Юлія Дмитрівна Любарська (? — ?) — українська радянська діячка, заслужена вчителька УРСР, завідувач Малотокмачанської початкової школи Оріхівського району Запорізької області. Депутат Верховної Ради УРСР 3—4-го скликань.",
    "timestamp": "2018-04-29T10:18:19Z"
  },
  {
    "id": 2708919,
    "title": "Caenorhabditis monodelphis",
    "text": "Caenorhabditis monodelphis — вид нематод родини Rhabditidae. Описаний у 2017 році. Перший зразок виду виявлений у 2001 році у Берліні (Німеччина). Згодом Caenorhabditis monodelphis знайдений у НорвегіїLIST OF AVAILABLE CAENORHABDITIS SPECIES and the state of their genome projects at evolution.wormbase.org. Живе у грибі Ganoderma applanatum (родина Polyporaceae)Karin Kiontke and Walter Sudhaus, Ecology of Caenorhabditis species, wormbook.org.. Переноситься жуком Cis castaneus.",
    "timestamp": "2018-05-03T15:14:26Z"
  },
  {
    "id": 2708924,
    "title": "Haberma tingkok",
    "text": "Haberma tingkok — вид крабів родини Sesarmidae. Описаний у 2017 році професором Гонконзького університету Стефано Канначчі та професором Сінгапурського університету Пітером ЕнгомTemplate:Cite news.",
    "timestamp": "2018-05-03T15:14:27Z"
  },
  {
    "id": 2708925,
    "title": "Воїслав Станкович",
    "text": "Воїслав Станкович (Template:Lang-sr, Template:lang-en; Template:н* 22 вересня 1987, Вранє, СФРЮ) — сербський футболіст, захисник азербайджанського футбольного клубу «Габала». Виступав за Сербську збірну.",
    "timestamp": "2018-05-30T09:03:40Z"
  },
  {
    "id": 2708929,
    "title": "Risen 3: Titan Lords",
    "text": "Risen 3: Titan Lords — відеогра у жанрі action RPG розроблена компанією Piranha Bytes та видана Deep Silver. Сиквел до Risen 2: Dark Waters та третя і фінальна гра у серії Risen. 21 серпня 2015 вийшло Посилене видання для PS4. На відмінно від попередніх ігор серії, головним героєм Risen 3: Titan Lords є інший персонаж — брат Патті Стальноїбороди та син померлого горезвісного пірата Грегоріуса Емануеля Стальноїбороди.",
    "timestamp": "2018-04-29T14:49:21Z"
  },
  {
    "id": 2708945,
    "title": "Ненсі Дрю (фільм)",
    "text": "«Ненсі Дрю» (Template:lang-en) — американський фільм 2007 року за мотивами популярної серії детективів Керолайн Кін про Ненсі Дрю. У головній ролі знялася Емма Робертс. Фільм був знятий в Лос-Анджелесі режисером Ендрю Флемінгом і вийшов в прокат 15 червня 2007 року.",
    "timestamp": "2018-04-29T05:20:45Z"
  },
  {
    "id": 2708951,
    "title": "Качановський Віталій Миколайович",
    "text": "Віталій Миколайович Качановський (11 грудня 1959) — український радянський боксер-любитель. Чемпіон Європи (1983), СРСР (1986) та УРСР (1985), володар Кубка світу з боксу (1983). Заслужений майстер спорту СРСР (1991).",
    "timestamp": "2018-07-22T11:45:55Z"
  },
  {
    "id": 2708967,
    "title": "Форнуш",
    "text": "Фо́рнуш (Template:lang-pt, Template:IPA2, «печі») — власна назва.",
    "timestamp": "2018-05-01T10:05:29Z"
  },
  {
    "id": 2708971,
    "title": "Параїзу",
    "text": "Параї́зу (Template:lang-pt, Template:IPA2, «рай») — власна назва.",
    "timestamp": "2018-04-29T05:40:28Z"
  },
  {
    "id": 2708978,
    "title": "Детонаційна стійкість",
    "text": "Детонаці́йна стійкі́сть пального — параметр, що характеризує здатність вуглеводневого пального протистояти самозайманню при стисненні. Є однією з найважливіших кількісних характеристик якості пального, на основі якої визначається його сортність і придатність до використання у двигунах тієї чи іншої конструкції.",
    "timestamp": "2018-04-30T04:27:43Z"
  },
  {
    "id": 2708983,
    "title": "Райва",
    "text": "Ра́йва — власна назва.",
    "timestamp": "2018-04-29T05:44:01Z"
  },
  {
    "id": 2708987,
    "title": "Avicennia germinans",
    "text": "Чорний мангр (Avicennia germinans) — вид рослин родини Акантові.",
    "timestamp": "2018-06-24T21:54:32Z"
  },
  {
    "id": 2708996,
    "title": "Багаліка Юрій Васильович",
    "text": "Багаліка Юрій Васильович київський скульптор. Член Національної спілки художників України з 1989 р.",
    "timestamp": "2018-05-05T13:18:03Z"
  },
  {
    "id": 2708999,
    "title": "Сан-Мартіню",
    "text": "Сан-Марті́ню (Template:lang-pt, Template:IPA2, «святий Мартин») — власна назва.",
    "timestamp": "2018-04-29T06:44:41Z"
  },
  {
    "id": 2709001,
    "title": "Собраду",
    "text": "Собра́ду (Template:lang-pt, Template:IPA2) — власна назва. Старопортугальською й іспанською — Собрадо.",
    "timestamp": "2018-04-29T09:16:00Z"
  },
  {
    "id": 2709002,
    "title": "Собрадо",
    "text": "Собра́до (Template:lang-es) — власна назва. Португальський аналог — Собраду.",
    "timestamp": "2018-04-29T06:49:32Z"
  },
  {
    "id": 2709007,
    "title": "Багдасарян Григорій Гайкович",
    "text": "Багдасарян Григорій Гайкович — живописець. Член Національної спілки художників починаючи з 1988 р.",
    "timestamp": "2018-05-13T16:25:11Z"
  },
  {
    "id": 2709010,
    "title": "Айш Ерзан",
    "text": "Айш Ерзан, (Template:н 1949, Анкара) — фізик-теоретик з Туреччини.",
    "timestamp": "2018-06-24T21:41:22Z"
  },
  {
    "id": 2709012,
    "title": "Чарлі Грейпвін",
    "text": "Чарлі Еллсворт Грейпвін (Template:lang-en, 20 грудня 1869 — 2 лютого 1956) — американський актор.",
    "timestamp": "2018-04-29T08:12:14Z"
  },
  {
    "id": 2709013,
    "title": "Ріпс Ілля Аронович",
    "text": "Ілля Аронович Ріпс (Template:lang-he; Template:lang-en; Template:нар 1948, Рига) — ізраїльський математик, відомий своїми роботами з геометричній теорії груп. Став відомий широкій публіці як співавтор статті про закодовану інформацію в Біблії.",
    "timestamp": "2018-08-07T14:42:38Z"
  },
  {
    "id": 2709015,
    "title": "Ріхард Келемен",
    "text": "Ріхард Келемен (Template:lang-hu) — угорський футболіст, що грав на позиції нападника. Виступав за клуб «Ференцварош».",
    "timestamp": "2018-04-29T07:28:04Z"
  },
  {
    "id": 2709016,
    "title": "Покровський Володимир Валерійович",
    "text": "Володимир Валерійович Покровський (Template:lang-ru, 18 листопада 1948, Одеса) — радянський та російський письменник-фантаст та журналіст.",
    "timestamp": "2018-05-01T15:58:46Z"
  },
  {
    "id": 2709019,
    "title": "Пагорб Ала ад-Діна",
    "text": "П́агорб Ала ад-Діна (Template:Lang-tr) — невелика височина в центрі турецького міста Ќонья. Пагорб має висоту 20 м над навколишнім ландшафтом (1041 м над рівнем моря).",
    "timestamp": "2018-05-11T09:08:24Z"
  },
  {
    "id": 2709023,
    "title": "Аллен (Ірландія)",
    "text": "Аллен — село в Ірландії, у графстві Кілдер (провінція Ленстер) біля траси R415 між Кілмігом і Мілтауном.",
    "timestamp": "2018-09-02T09:13:37Z"
  },
  {
    "id": 2709024,
    "title": "Йожеф Маткович",
    "text": "Йожеф Маткович (Template:lang-hu) — угорський футболіст, що грав на позиції нападника. Виступав за клуб «Ференцварош».",
    "timestamp": "2018-04-29T07:57:51Z"
  },
  {
    "id": 2709029,
    "title": "Дрозд Володимир Миколайович",
    "text": "Володи́мир Микола́йович Дро́зд (Template:ДН — Template:ДС) — старший солдат Збройних сил України, учасник російсько-української війни.",
    "timestamp": "2018-06-17T06:05:36Z"
  },
  {
    "id": 2709037,
    "title": "Список шедеврів усної та нематеріальної культурної спадщини людства",
    "text": "Список шедеврів усної та нематеріальної культурної спадщини людстваЕлектронна версія БРЭ (2017). (Template:Lang-en) ЮНЕСКО — список, складений в рамках програми ЮНЕСКО « Шедеври  усної та нематеріальної культурної спадщини людства», створений , щоб звернути увагу  на Нематеріальну культурну спадщину.",
    "timestamp": "2018-05-25T14:35:43Z"
  },
  {
    "id": 2709038,
    "title": "Ґафар-Бехі",
    "text": "Ґафар-Бехі (Template:lang-fa) — село в Ірані, входить до складу дехестану Південний Назлуй у Центральному бахші шахрестану Урмія провінції Західний Азербайджан.",
    "timestamp": "2018-04-29T08:37:40Z"
  },
  {
    "id": 2709043,
    "title": "Кербедз Станіслав Валеріанович",
    "text": "Станіслав Валеріанович Кербедз (Template:Lang-pl; 1810—1899) — російський інженер. Інженер-генерал-лейтенант (з 1868), дійсний таємний радник (з 1881).",
    "timestamp": "2018-04-29T09:49:51Z"
  },
  {
    "id": 2709048,
    "title": "Ірванлу",
    "text": "Ірванлу (Template:lang-fa) — село в Ірані, входить до складу дехестану Південний Назлуй у Центральному бахші шахрестану Урмія провінції Західний Азербайджан.",
    "timestamp": "2018-04-29T08:55:02Z"
  },
  {
    "id": 2709050,
    "title": "Кубок Чилі з футболу 2018",
    "text": "Кубок Чилі з футболу 2018 — 41-й розіграш кубкового футбольного турніру у Чилі. Титул володаря кубка захищає Сантьяго Вондерерз.",
    "timestamp": "2018-10-13T20:37:00Z"
  },
  {
    "id": 2709054,
    "title": "Бен Лавджой",
    "text": "Бенджамін Н. «Преподобний» Лавджой (Template:lang-en, Template:н 20 лютого 1984, Конкорд) — американський хокеїст, захисник клубу НХЛ «Нью-Джерсі Девілс».",
    "timestamp": "2018-04-29T09:03:44Z"
  },
  {
    "id": 2709062,
    "title": "Дзендзелюк Микола Йосипович",
    "text": "Мико́ла Йо́сипович Дзендзелю́к (? — 2008) — український педагог, заслужений учитель України.",
    "timestamp": "2018-07-30T14:15:50Z"
  },
  {
    "id": 2709063,
    "title": "Визначення кордонів Албанії",
    "text": "Визначення кордонів Албанії, в албанській історіографії Розділ Албанії (Template:Lang-sq) — визначення меж території майбутньої албанської держави після того, як присутні у Вльорі албанські делегати проголосили незалежність країни 28 листопада 1912 року. У чому межі Албанії на півдні й півночі були визначені двома битвами Першої Балканської війни: битвою при Бізані й облогою Шкодера, в яких з однієї сторони билися грецькі й чорногорські війська, з іншого — османці (значну частину військ Османської імперії в тих боях становили албанці). Також на визначення меж вплинули кілька міжнародних зустрічей за участю Великих держав.",
    "timestamp": "2018-06-14T14:33:07Z"
  },
  {
    "id": 2709067,
    "title": "Кевін Портер",
    "text": "Кевін Портер (Template:lang-en, Template:н 12 березня 1986, Нортвіль, Мічиган) — американський хокеїст, центральний нападник клубу НХЛ «Баффало Сейбрс».",
    "timestamp": "2018-04-29T09:41:10Z"
  },
  {
    "id": 2709071,
    "title": "Філіпп (син Філіппа V)",
    "text": "Філіпп (Template:Lang-grc; 182-164 до н.е.) — син македонського басилевса Філіппа V, один з останніх представників династії Антигонідів.",
    "timestamp": "2018-05-05T12:21:44Z"
  },
  {
    "id": 2709075,
    "title": "Айла Ердуран",
    "text": "Айла Ердуран (тур. Ayla Erduran; народилась 22 вересня 1934, Стамбул) — турецька скрипалька.",
    "timestamp": "2018-09-18T13:18:18Z"
  },
  {
    "id": 2709096,
    "title": "Seesaw (альбом)",
    "text": "Seesaw — альбом каверів записаний американською співачкою Бет Харт і блюз-роковим гітаристом Джо Бонамассою. Це другий їхній спільний альбом, після Don't Explain записаного у 2011 році.",
    "timestamp": "2018-10-02T18:30:10Z"
  },
  {
    "id": 2709098,
    "title": "ГЕС Кодасаллі",
    "text": "ГЕС Кодасаллі – гідроелектростанція на півдні Індії у штаті Карнатака. Знаходячись між ГЕС Nagjhari (вище по течії) та ГЕС Кадра, входить до складу каскаду на річці Калінаді (Калі), яка дренує західний схил Західних Гатів та впадає у Аравійське море біля Карвару.",
    "timestamp": "2018-05-05T20:04:22Z"
  },
  {
    "id": 2709106,
    "title": "Янош Вінер",
    "text": "Янош Вінер (Template:lang-hu, Template:н 3 березня 1899 — Template:† 1968) — угорський футболіст, що грав на позиції захисника. Виступав за клуб «Ференцварош», а також національну збірну Угорщини.",
    "timestamp": "2018-04-29T10:21:04Z"
  },
  {
    "id": 2709107,
    "title": "Рікардо Рохас",
    "text": "Рікардо Рохас Фріас (Template:lang-es; 15 червня 1955) — кубинський боксер, призер літніх Олімпійських ігор 1980 року.",
    "timestamp": "2018-04-29T16:56:59Z"
  },
  {
    "id": 2709110,
    "title": "Суперкомп'ютер Ломоносов-2",
    "text": "Суперкомп'ютер «Ломоносов-2» — найпотужніший суперкомп'ютер Росії і Східної Європи пікова продуктивність якого на даному етапі становить 2,57 петафлопс, побудований компанією «Т-Платформи» для МДУ ім. М. В. Ломоносова«Ломоносов-2»%20стал%20новым%20лидером%20в%20рейтинге%20отечественных%20суперкомпьютеров https://www.osp.ru/news/2015/0402/13028114/. Встановлений в Московському державному університеті імені М. В. Ломоносова і створений з метою збільшення продуктивності суперкомп'ютерного комплексу МДУ для підтримки досліджень на провідному світовому рівні в частині проведення великих і ресурсномістких розрахунків, які використовують понад тисячі процесорів одночасно. При створенні суперкомп'ютера в 2014 році використовувалися сверхінтегрірованние рішення A-Сlass компанії Т-Платформи. З червня 2014 Ломоносов-2 проходить фазу тестування і сертифікації. У листопаді 2014 система, що складалася з 1280 вузлів (5 стійок) на базі процесорів Xeon E5 v3 і прискорювачів Nvidia K40M, «Т-Платформы»%20A-Class https://www.itweek.ru/infrastructure/news-company/detail.php?ID=164557.",
    "timestamp": "2018-09-10T14:11:59Z"
  },
  {
    "id": 2709113,
    "title": "Османська Аравія",
    "text": "Османська Аравія — історичний період в історії Аравії з 1517 року до 1918 року, протягом якого регіон перебував у залежності від Османської імперії. Ступінь османського контролю над регіоном змінювалася протягом чотирьох століть в залежності від сили або слабкості центральної владиTemplate:Cite bookTemplate:Cite book.",
    "timestamp": "2018-05-05T19:34:13Z"
  },
  {
    "id": 2709114,
    "title": "Борис Гагелін",
    "text": "Борис Цезар Вільгельм Гагелін (Boris Caesar Wilhelm Hagelin; 2 липня 1892, АджикентTemplate:статья, Елизаветпольская губернія, нині Азербайджан — 7 вересня 1983, ЦугTemplate:статья) — шведський підприємець, винахідник пристроїв шифрування. Розробник електромеханічних шифрувальних пристроїв, які продовжують роботи одного з перших винахідників роторних машин — Арвіда Дамма, й механічних шифрувальних машин, які широко використовувалися у Другій світовій війні. Засновник швейцарської компанії Crypto AG, що спеціалізується на інформаційній і телекомунікаційній безпеки. Девід Кан називає Гагеліна першим і єдиним мільйонером від криптології.",
    "timestamp": "2018-05-12T05:32:04Z"
  },
  {
    "id": 2709121,
    "title": "Проценко Ірина Миколаївна",
    "text": "Ірина Миколаївна Проценко (7 грудня 1959, місто Пограничний Приморський край) – українська художниця, член Національної спілки художників України.",
    "timestamp": "2018-07-06T09:48:54Z"
  },
  {
    "id": 2709125,
    "title": "Єлагін Семен Дмитрович",
    "text": "Семен Дмитрович Єлагін (Template:ДН, село Нововасилівка Таврійської губернії, тепер Бердянської міської ради Запорізької  області — Template:ДС, Москва) — радянський партійний і державний діяч. Депутат Верховної Ради УРСР 3-го скликання. Депутат Верховної Ради Казахської РСР 5-го, 8—9-го скликань.",
    "timestamp": "2018-07-04T12:35:23Z"
  },
  {
    "id": 2709128,
    "title": "ГЕС Кадра",
    "text": "ГЕС Кадра – гідроелектростанція на півдні Індії у штаті Карнатака. Знаходячись після ГЕС Кодасаллі, становить нижній ступінь каскаду на річці Калінаді (Калі), яка дренує західний схил Західних Гатів та впадає у Аравійське море біля Карвару.",
    "timestamp": "2018-05-05T20:04:13Z"
  },
  {
    "id": 2709130,
    "title": "Ана/Весна",
    "text": "Ана/Весна – малі офшорні газові родовища у хорватському секторі Адріатичного моря, розробка яких ведеться шляхом підключення до інфраструктури родовища Івана.",
    "timestamp": "2018-05-25T05:55:07Z"
  },
  {
    "id": 2709134,
    "title": "Мстиславль (Владимирська область)",
    "text": "Мстиславль — давньоруське городище, що розташоване на території Владимирській області поблизу села Городище. В період існування на його місці поселення, воно відносилася до території проживання мерянських племен та Владимиро-Суздальського князівства. Мстиславль згадується у «Списку руських міст далеких та ближніх»Русина О. В. Список руських міст далеких і близьких // Template:ЕІУ.",
    "timestamp": "2018-04-29T16:11:24Z"
  },
  {
    "id": 2709139,
    "title": "Нідерланди на зимових Паралімпійських іграх 2018",
    "text": "Нідерланди на зимових Паралімпійських іграх 2018 року були представлені дев'ятьма спортсменами у двох видах спорту. З результатом в сім медалей виступ паралімпійської команди Нідерландів став найуспішнішим з моменту першої участі у 1984 році. Паралімпійський комітет Нідерландів відзначив той факт, що незважаючи на відсутність в країні природних гір — спортсмени змогли нав'язати боротьбу суперникам та завоювати медалі. Надалі комітет має намір залучити більше інвестицій та спонсорів для команди, що б спортсмени мали змогу підготуватися як найкраще до наступних ігорTemplate:Cite news. В загальнокомандному заліку Нідерланди зайняли десяте місцеTemplate:Cite web.",
    "timestamp": "2018-09-24T11:31:35Z"
  },
  {
    "id": 2709146,
    "title": "Вацлав Лебеда",
    "text": "Вацлав Лебеда (Václav Lebeda, * 22. липня 1992 Копрживніцеhttp://aut.nkp.cz/ola2014833798), виступає під псевдонімом Voxel, чеський співак і автор пісень. Навчався за спеціальністю «популяризація музичної культури» в Західночеському університеті у місті Пльзень. З дружиною Марією виховує двох синів. Перший, Вацлав, народився 4.11.2014 і другий Йожуа — 4.1.2018.",
    "timestamp": "2018-05-03T15:14:34Z"
  },
  {
    "id": 2709149,
    "title": "Potentilla taurica",
    "text": "Potentilla taurica (перстач кримськийTemplate:cite web Template:ref-en) — вид трав'янистих рослин родини Розові (Rosaceae), ендемік Криму.",
    "timestamp": "2018-05-01T09:17:54Z"
  },
  {
    "id": 2709154,
    "title": "Крісто-де-ла-Конкордія",
    "text": "Крісто-де-ла-Конкордія (Template:lang-es) — одна з найбільших у світі статуй Ісуса Христа, встановлена 1994 року в місті Кочабамба, Болівія.",
    "timestamp": "2018-07-22T11:20:11Z"
  },
  {
    "id": 2709156,
    "title": "Список університетів Ізраїлю",
    "text": "Список університетів Ізраїлю — перелік університетів, що функціонують в державі Ізраїль. Їх загалом 9, що академічно контролюються Радою з вищої освіти при Міністерстві освіти Ізраїлю. Крім того, Ізраїль заснував університет в Аріелі на Західному березі річки Йордан, який визнаний та академічно контролюється Радою з вищої освіти в Юдеї та Самарії. Відмінність університету від коледжу (їх нараховується близько 70) в Ізраїлі полягає в тому, що лише університет може надати докторські ступені.",
    "timestamp": "2018-05-03T15:14:34Z"
  },
  {
    "id": 2709157,
    "title": "Джек Говард (хокеїст)",
    "text": "Джон Френсіс «Джек» Говард (Template:lang-en, 15 жовтня 1909, Лондон — 14 вересня 1983, Кембридж) — канадський хокеїст, що грав на позиції захисника.",
    "timestamp": "2018-06-05T10:34:16Z"
  },
  {
    "id": 2709159,
    "title": "Визуська сільська рада",
    "text": "Ви́зуська сільська рада (Template:lang-et, Template:lang-ru) — сільська рада в Естонській РСР, адміністративно-територіальна одиниця в складі повіту Вірумаа (1945—1950), Локсаського району (1950—1957) та Раквереського району (1957—1971).",
    "timestamp": "2018-04-29T15:54:53Z"
  },
  {
    "id": 2709160,
    "title": "Ларрі Гопкінс (хокеїст)",
    "text": "Ларрі Гопкінс (Template:lang-en, Template:н 17 березня 1954, Ошава) — канадський хокеїст, що грав на позиції крайнього нападника.",
    "timestamp": "2018-04-29T16:39:55Z"
  },
  {
    "id": 2709165,
    "title": "Реформа охорони здоров'я в Україні з 2016 року",
    "text": "Реформа системи охорони здоров'я в Україні з 2016 року — заходи Міністерства охорони здоров'я 2016, 2017 та 2018 років під керівництвом Уляни Супрун для забезпечення всім громадянам України рівного доступу до якісних медичних послуг та перебудови систему охорони здоров'я так, щоб у її центрі був пацієнт.",
    "timestamp": "2018-09-30T13:23:20Z"
  },
  {
    "id": 2709174,
    "title": "Живий!",
    "text": "«Живий!» (албан. Gjallë!) — французько-албансько-австрійський драматичний фільм 2009 року режисера Артана Мінароллі. Фільм розповідає про студента університету Колі, який відправляється в рідне село, де його намагаються вбити за злочин діда.",
    "timestamp": "2018-08-18T10:00:01Z"
  },
  {
    "id": 2709182,
    "title": "DBeaver",
    "text": "DBeaver — це SQL клієнт та інструмент управління базами даних. Для реляційних баз даних DBeaver використовує програмний інтерфейс JDBC API, котрий взаємодіє з базами даних через драйвер JDBC. Для інших баз даних (не SQL) він використовує власні драйвери баз даних. DBeaver має функції завершення коду та підсвічування синтаксису, що забезпечує краще сприйняття. Він забезпечує архітектуру плагінів (засновану на архітектурі плагінів (платформі) Eclipse), яка дозволяє змінювати більшу частину роботи програми, для підтримки специфічних для баз даних функцій, незалежних від бази даних.",
    "timestamp": "2018-05-06T21:40:12Z"
  }
]